<?xml version="1.0" encoding="UTF-8"?>
<gpx
  version="1.0"
  creator="GPSBabel - http://www.gpsbabel.org"
  xmlns:xsi="http://www.w3.org/2001/XMLSchema-instance"
  xmlns="http://www.topografix.com/GPX/1/0"
  xsi:schemaLocation="http://www.topografix.com/GPX/1/0 http://www.topografix.com/GPX/1/0/gpx.xsd">
<time>2008-12-22T06:00:21Z</time>
<bounds minlat="24.082539000" minlon="120.580795000" maxlat="24.113409000" maxlon="120.618675000"/>
<trk>
<trkseg>
<trkpt lat="24.083580000" lon="120.580795000">
  <ele>111.170000</ele>
  <time>2008-12-20T08:13:04Z</time>
  <name>Point 0</name>
  <cmt>Point 0</cmt>
  <desc>Point 0</desc>
</trkpt>
<trkpt lat="24.083256000" lon="120.581123000">
  <ele>11.090000</ele>
  <time>2008-12-20T08:13:09Z</time>
  <name>Point 1</name>
  <cmt>Point 1</cmt>
  <desc>Point 1</desc>
</trkpt>
<trkpt lat="24.083040000" lon="120.581146000">
  <ele>7.220000</ele>
  <time>2008-12-20T08:13:15Z</time>
  <name>Point 2</name>
  <cmt>Point 2</cmt>
  <desc>Point 2</desc>
</trkpt>
<trkpt lat="24.083038000" lon="120.581116000">
  <ele>27.520000</ele>
  <time>2008-12-20T08:13:20Z</time>
  <name>Point 3</name>
  <cmt>Point 3</cmt>
  <desc>Point 3</desc>
</trkpt>
<trkpt lat="24.083178000" lon="120.581154000">
  <ele>24.340000</ele>
  <time>2008-12-20T08:13:25Z</time>
  <name>Point 4</name>
  <cmt>Point 4</cmt>
  <desc>Point 4</desc>
</trkpt>
<trkpt lat="24.083399000" lon="120.581070000">
  <ele>26.600000</ele>
  <time>2008-12-20T08:13:30Z</time>
  <name>Point 5</name>
  <cmt>Point 5</cmt>
  <desc>Point 5</desc>
</trkpt>
<trkpt lat="24.083443000" lon="120.581062000">
  <ele>27.760000</ele>
  <time>2008-12-20T08:13:35Z</time>
  <name>Point 6</name>
  <cmt>Point 6</cmt>
  <desc>Point 6</desc>
</trkpt>
<trkpt lat="24.083584000" lon="120.581100000">
  <ele>29.370000</ele>
  <time>2008-12-20T08:13:40Z</time>
  <name>Point 7</name>
  <cmt>Point 7</cmt>
  <desc>Point 7</desc>
</trkpt>
<trkpt lat="24.083572000" lon="120.581169000">
  <ele>30.820000</ele>
  <time>2008-12-20T08:13:45Z</time>
  <name>Point 8</name>
  <cmt>Point 8</cmt>
  <desc>Point 8</desc>
</trkpt>
<trkpt lat="24.083549000" lon="120.581253000">
  <ele>31.450000</ele>
  <time>2008-12-20T08:13:50Z</time>
  <name>Point 9</name>
  <cmt>Point 9</cmt>
  <desc>Point 9</desc>
</trkpt>
<trkpt lat="24.083536000" lon="120.581337000">
  <ele>32.860000</ele>
  <time>2008-12-20T08:13:55Z</time>
  <name>Point 10</name>
  <cmt>Point 10</cmt>
  <desc>Point 10</desc>
</trkpt>
<trkpt lat="24.083523000" lon="120.581444000">
  <ele>34.530000</ele>
  <time>2008-12-20T08:14:00Z</time>
  <name>Point 11</name>
  <cmt>Point 11</cmt>
  <desc>Point 11</desc>
</trkpt>
<trkpt lat="24.083639000" lon="120.581520000">
  <ele>36.020000</ele>
  <time>2008-12-20T08:14:05Z</time>
  <name>Point 12</name>
  <cmt>Point 12</cmt>
  <desc>Point 12</desc>
</trkpt>
<trkpt lat="24.083803000" lon="120.581573000">
  <ele>37.000000</ele>
  <time>2008-12-20T08:14:10Z</time>
  <name>Point 13</name>
  <cmt>Point 13</cmt>
  <desc>Point 13</desc>
</trkpt>
<trkpt lat="24.083948000" lon="120.581642000">
  <ele>37.980000</ele>
  <time>2008-12-20T08:14:15Z</time>
  <name>Point 14</name>
  <cmt>Point 14</cmt>
  <desc>Point 14</desc>
</trkpt>
<trkpt lat="24.084097000" lon="120.581749000">
  <ele>38.650000</ele>
  <time>2008-12-20T08:14:20Z</time>
  <name>Point 15</name>
  <cmt>Point 15</cmt>
  <desc>Point 15</desc>
</trkpt>
<trkpt lat="24.084183000" lon="120.582008000">
  <ele>40.910000</ele>
  <time>2008-12-20T08:14:25Z</time>
  <name>Point 16</name>
  <cmt>Point 16</cmt>
  <desc>Point 16</desc>
</trkpt>
<trkpt lat="24.084375000" lon="120.582130000">
  <ele>42.840000</ele>
  <time>2008-12-20T08:14:30Z</time>
  <name>Point 17</name>
  <cmt>Point 17</cmt>
  <desc>Point 17</desc>
</trkpt>
<trkpt lat="24.084333000" lon="120.582344000">
  <ele>44.470000</ele>
  <time>2008-12-20T08:14:35Z</time>
  <name>Point 18</name>
  <cmt>Point 18</cmt>
  <desc>Point 18</desc>
</trkpt>
<trkpt lat="24.084301000" lon="120.582558000">
  <ele>49.460000</ele>
  <time>2008-12-20T08:14:40Z</time>
  <name>Point 19</name>
  <cmt>Point 19</cmt>
  <desc>Point 19</desc>
</trkpt>
<trkpt lat="24.084261000" lon="120.582779000">
  <ele>50.890000</ele>
  <time>2008-12-20T08:14:45Z</time>
  <name>Point 20</name>
  <cmt>Point 20</cmt>
  <desc>Point 20</desc>
</trkpt>
<trkpt lat="24.084192000" lon="120.583031000">
  <ele>54.460000</ele>
  <time>2008-12-20T08:14:50Z</time>
  <name>Point 21</name>
  <cmt>Point 21</cmt>
  <desc>Point 21</desc>
</trkpt>
<trkpt lat="24.084133000" lon="120.583252000">
  <ele>54.100000</ele>
  <time>2008-12-20T08:14:55Z</time>
  <name>Point 22</name>
  <cmt>Point 22</cmt>
  <desc>Point 22</desc>
</trkpt>
<trkpt lat="24.084059000" lon="120.583488000">
  <ele>50.850000</ele>
  <time>2008-12-20T08:15:00Z</time>
  <name>Point 23</name>
  <cmt>Point 23</cmt>
  <desc>Point 23</desc>
</trkpt>
<trkpt lat="24.083906000" lon="120.583717000">
  <ele>50.250000</ele>
  <time>2008-12-20T08:15:05Z</time>
  <name>Point 24</name>
  <cmt>Point 24</cmt>
  <desc>Point 24</desc>
</trkpt>
<trkpt lat="24.083614000" lon="120.583977000">
  <ele>42.710000</ele>
  <time>2008-12-20T08:15:10Z</time>
  <name>Point 25</name>
  <cmt>Point 25</cmt>
  <desc>Point 25</desc>
</trkpt>
<trkpt lat="24.083418000" lon="120.584229000">
  <ele>40.950000</ele>
  <time>2008-12-20T08:15:15Z</time>
  <name>Point 26</name>
  <cmt>Point 26</cmt>
  <desc>Point 26</desc>
</trkpt>
<trkpt lat="24.083303000" lon="120.584526000">
  <ele>40.340000</ele>
  <time>2008-12-20T08:15:20Z</time>
  <name>Point 27</name>
  <cmt>Point 27</cmt>
  <desc>Point 27</desc>
</trkpt>
<trkpt lat="24.083187000" lon="120.584839000">
  <ele>38.670000</ele>
  <time>2008-12-20T08:15:25Z</time>
  <name>Point 28</name>
  <cmt>Point 28</cmt>
  <desc>Point 28</desc>
</trkpt>
<trkpt lat="24.083050000" lon="120.585152000">
  <ele>37.000000</ele>
  <time>2008-12-20T08:15:30Z</time>
  <name>Point 29</name>
  <cmt>Point 29</cmt>
  <desc>Point 29</desc>
</trkpt>
<trkpt lat="24.082966000" lon="120.585434000">
  <ele>37.760000</ele>
  <time>2008-12-20T08:15:35Z</time>
  <name>Point 30</name>
  <cmt>Point 30</cmt>
  <desc>Point 30</desc>
</trkpt>
<trkpt lat="24.082954000" lon="120.585640000">
  <ele>30.670000</ele>
  <time>2008-12-20T08:15:40Z</time>
  <name>Point 31</name>
  <cmt>Point 31</cmt>
  <desc>Point 31</desc>
</trkpt>
<trkpt lat="24.082949000" lon="120.585777000">
  <ele>27.760000</ele>
  <time>2008-12-20T08:15:45Z</time>
  <name>Point 32</name>
  <cmt>Point 32</cmt>
  <desc>Point 32</desc>
</trkpt>
<trkpt lat="24.082956000" lon="120.585846000">
  <ele>30.280000</ele>
  <time>2008-12-20T08:15:50Z</time>
  <name>Point 33</name>
  <cmt>Point 33</cmt>
  <desc>Point 33</desc>
</trkpt>
<trkpt lat="24.082954000" lon="120.585854000">
  <ele>29.670000</ele>
  <time>2008-12-20T08:15:55Z</time>
  <name>Point 34</name>
  <cmt>Point 34</cmt>
  <desc>Point 34</desc>
</trkpt>
<trkpt lat="24.082954000" lon="120.585854000">
  <ele>29.540000</ele>
  <time>2008-12-20T08:16:00Z</time>
  <name>Point 35</name>
  <cmt>Point 35</cmt>
  <desc>Point 35</desc>
</trkpt>
<trkpt lat="24.082952000" lon="120.585854000">
  <ele>29.500000</ele>
  <time>2008-12-20T08:16:05Z</time>
  <name>Point 36</name>
  <cmt>Point 36</cmt>
  <desc>Point 36</desc>
</trkpt>
<trkpt lat="24.082977000" lon="120.585907000">
  <ele>29.470000</ele>
  <time>2008-12-20T08:16:10Z</time>
  <name>Point 37</name>
  <cmt>Point 37</cmt>
  <desc>Point 37</desc>
</trkpt>
<trkpt lat="24.082966000" lon="120.586037000">
  <ele>29.930000</ele>
  <time>2008-12-20T08:16:15Z</time>
  <name>Point 38</name>
  <cmt>Point 38</cmt>
  <desc>Point 38</desc>
</trkpt>
<trkpt lat="24.082973000" lon="120.586227000">
  <ele>30.820000</ele>
  <time>2008-12-20T08:16:20Z</time>
  <name>Point 39</name>
  <cmt>Point 39</cmt>
  <desc>Point 39</desc>
</trkpt>
<trkpt lat="24.082975000" lon="120.586449000">
  <ele>33.820000</ele>
  <time>2008-12-20T08:16:25Z</time>
  <name>Point 40</name>
  <cmt>Point 40</cmt>
  <desc>Point 40</desc>
</trkpt>
<trkpt lat="24.083046000" lon="120.586670000">
  <ele>36.370000</ele>
  <time>2008-12-20T08:16:30Z</time>
  <name>Point 41</name>
  <cmt>Point 41</cmt>
  <desc>Point 41</desc>
</trkpt>
<trkpt lat="24.083067000" lon="120.586906000">
  <ele>38.610000</ele>
  <time>2008-12-20T08:16:35Z</time>
  <name>Point 42</name>
  <cmt>Point 42</cmt>
  <desc>Point 42</desc>
</trkpt>
<trkpt lat="24.083080000" lon="120.587143000">
  <ele>38.600000</ele>
  <time>2008-12-20T08:16:40Z</time>
  <name>Point 43</name>
  <cmt>Point 43</cmt>
  <desc>Point 43</desc>
</trkpt>
<trkpt lat="24.083073000" lon="120.587379000">
  <ele>39.320000</ele>
  <time>2008-12-20T08:16:45Z</time>
  <name>Point 44</name>
  <cmt>Point 44</cmt>
  <desc>Point 44</desc>
</trkpt>
<trkpt lat="24.083080000" lon="120.587631000">
  <ele>41.330000</ele>
  <time>2008-12-20T08:16:50Z</time>
  <name>Point 45</name>
  <cmt>Point 45</cmt>
  <desc>Point 45</desc>
</trkpt>
<trkpt lat="24.082933000" lon="120.587914000">
  <ele>45.400000</ele>
  <time>2008-12-20T08:16:55Z</time>
  <name>Point 46</name>
  <cmt>Point 46</cmt>
  <desc>Point 46</desc>
</trkpt>
<trkpt lat="24.082909000" lon="120.588181000">
  <ele>45.820000</ele>
  <time>2008-12-20T08:17:00Z</time>
  <name>Point 47</name>
  <cmt>Point 47</cmt>
  <desc>Point 47</desc>
</trkpt>
<trkpt lat="24.082909000" lon="120.588409000">
  <ele>47.620000</ele>
  <time>2008-12-20T08:17:05Z</time>
  <name>Point 48</name>
  <cmt>Point 48</cmt>
  <desc>Point 48</desc>
</trkpt>
<trkpt lat="24.082909000" lon="120.588646000">
  <ele>49.140000</ele>
  <time>2008-12-20T08:17:10Z</time>
  <name>Point 49</name>
  <cmt>Point 49</cmt>
  <desc>Point 49</desc>
</trkpt>
<trkpt lat="24.082901000" lon="120.588913000">
  <ele>47.650000</ele>
  <time>2008-12-20T08:17:15Z</time>
  <name>Point 50</name>
  <cmt>Point 50</cmt>
  <desc>Point 50</desc>
</trkpt>
<trkpt lat="24.082897000" lon="120.589188000">
  <ele>44.300000</ele>
  <time>2008-12-20T08:17:20Z</time>
  <name>Point 51</name>
  <cmt>Point 51</cmt>
  <desc>Point 51</desc>
</trkpt>
<trkpt lat="24.082880000" lon="120.589478000">
  <ele>43.430000</ele>
  <time>2008-12-20T08:17:25Z</time>
  <name>Point 52</name>
  <cmt>Point 52</cmt>
  <desc>Point 52</desc>
</trkpt>
<trkpt lat="24.082842000" lon="120.589737000">
  <ele>48.550000</ele>
  <time>2008-12-20T08:17:30Z</time>
  <name>Point 53</name>
  <cmt>Point 53</cmt>
  <desc>Point 53</desc>
</trkpt>
<trkpt lat="24.082876000" lon="120.590004000">
  <ele>45.410000</ele>
  <time>2008-12-20T08:17:35Z</time>
  <name>Point 54</name>
  <cmt>Point 54</cmt>
  <desc>Point 54</desc>
</trkpt>
<trkpt lat="24.082890000" lon="120.590256000">
  <ele>46.240000</ele>
  <time>2008-12-20T08:17:40Z</time>
  <name>Point 55</name>
  <cmt>Point 55</cmt>
  <desc>Point 55</desc>
</trkpt>
<trkpt lat="24.082912000" lon="120.590508000">
  <ele>48.530000</ele>
  <time>2008-12-20T08:17:45Z</time>
  <name>Point 56</name>
  <cmt>Point 56</cmt>
  <desc>Point 56</desc>
</trkpt>
<trkpt lat="24.082960000" lon="120.590736000">
  <ele>48.080000</ele>
  <time>2008-12-20T08:17:50Z</time>
  <name>Point 57</name>
  <cmt>Point 57</cmt>
  <desc>Point 57</desc>
</trkpt>
<trkpt lat="24.082933000" lon="120.591003000">
  <ele>49.540000</ele>
  <time>2008-12-20T08:17:55Z</time>
  <name>Point 58</name>
  <cmt>Point 58</cmt>
  <desc>Point 58</desc>
</trkpt>
<trkpt lat="24.082933000" lon="120.591255000">
  <ele>49.880000</ele>
  <time>2008-12-20T08:18:00Z</time>
  <name>Point 59</name>
  <cmt>Point 59</cmt>
  <desc>Point 59</desc>
</trkpt>
<trkpt lat="24.082960000" lon="120.591484000">
  <ele>50.420000</ele>
  <time>2008-12-20T08:18:05Z</time>
  <name>Point 60</name>
  <cmt>Point 60</cmt>
  <desc>Point 60</desc>
</trkpt>
<trkpt lat="24.082993000" lon="120.591736000">
  <ele>44.560000</ele>
  <time>2008-12-20T08:18:10Z</time>
  <name>Point 61</name>
  <cmt>Point 61</cmt>
  <desc>Point 61</desc>
</trkpt>
<trkpt lat="24.082989000" lon="120.591972000">
  <ele>43.750000</ele>
  <time>2008-12-20T08:18:15Z</time>
  <name>Point 62</name>
  <cmt>Point 62</cmt>
  <desc>Point 62</desc>
</trkpt>
<trkpt lat="24.082998000" lon="120.592178000">
  <ele>42.450000</ele>
  <time>2008-12-20T08:18:20Z</time>
  <name>Point 63</name>
  <cmt>Point 63</cmt>
  <desc>Point 63</desc>
</trkpt>
<trkpt lat="24.082937000" lon="120.592438000">
  <ele>42.230000</ele>
  <time>2008-12-20T08:18:25Z</time>
  <name>Point 64</name>
  <cmt>Point 64</cmt>
  <desc>Point 64</desc>
</trkpt>
<trkpt lat="24.082930000" lon="120.592690000">
  <ele>41.570000</ele>
  <time>2008-12-20T08:18:30Z</time>
  <name>Point 65</name>
  <cmt>Point 65</cmt>
  <desc>Point 65</desc>
</trkpt>
<trkpt lat="24.082806000" lon="120.593002000">
  <ele>42.190000</ele>
  <time>2008-12-20T08:18:35Z</time>
  <name>Point 66</name>
  <cmt>Point 66</cmt>
  <desc>Point 66</desc>
</trkpt>
<trkpt lat="24.082760000" lon="120.593300000">
  <ele>39.530000</ele>
  <time>2008-12-20T08:18:40Z</time>
  <name>Point 67</name>
  <cmt>Point 67</cmt>
  <desc>Point 67</desc>
</trkpt>
<trkpt lat="24.082745000" lon="120.593582000">
  <ele>37.310000</ele>
  <time>2008-12-20T08:18:45Z</time>
  <name>Point 68</name>
  <cmt>Point 68</cmt>
  <desc>Point 68</desc>
</trkpt>
<trkpt lat="24.082741000" lon="120.593887000">
  <ele>38.360000</ele>
  <time>2008-12-20T08:18:50Z</time>
  <name>Point 69</name>
  <cmt>Point 69</cmt>
  <desc>Point 69</desc>
</trkpt>
<trkpt lat="24.082685000" lon="120.594193000">
  <ele>38.240000</ele>
  <time>2008-12-20T08:18:55Z</time>
  <name>Point 70</name>
  <cmt>Point 70</cmt>
  <desc>Point 70</desc>
</trkpt>
<trkpt lat="24.082552000" lon="120.594505000">
  <ele>39.910000</ele>
  <time>2008-12-20T08:19:00Z</time>
  <name>Point 71</name>
  <cmt>Point 71</cmt>
  <desc>Point 71</desc>
</trkpt>
<trkpt lat="24.082539000" lon="120.594582000">
  <ele>38.780000</ele>
  <time>2008-12-20T08:19:05Z</time>
  <name>Point 72</name>
  <cmt>Point 72</cmt>
  <desc>Point 72</desc>
</trkpt>
<trkpt lat="24.082542000" lon="120.594582000">
  <ele>38.430000</ele>
  <time>2008-12-20T08:19:10Z</time>
  <name>Point 73</name>
  <cmt>Point 73</cmt>
  <desc>Point 73</desc>
</trkpt>
<trkpt lat="24.082544000" lon="120.594582000">
  <ele>38.500000</ele>
  <time>2008-12-20T08:19:15Z</time>
  <name>Point 74</name>
  <cmt>Point 74</cmt>
  <desc>Point 74</desc>
</trkpt>
<trkpt lat="24.082542000" lon="120.594582000">
  <ele>38.620000</ele>
  <time>2008-12-20T08:19:20Z</time>
  <name>Point 75</name>
  <cmt>Point 75</cmt>
  <desc>Point 75</desc>
</trkpt>
<trkpt lat="24.082544000" lon="120.594582000">
  <ele>38.660000</ele>
  <time>2008-12-20T08:19:25Z</time>
  <name>Point 76</name>
  <cmt>Point 76</cmt>
  <desc>Point 76</desc>
</trkpt>
<trkpt lat="24.082544000" lon="120.594582000">
  <ele>38.680000</ele>
  <time>2008-12-20T08:19:30Z</time>
  <name>Point 77</name>
  <cmt>Point 77</cmt>
  <desc>Point 77</desc>
</trkpt>
<trkpt lat="24.082544000" lon="120.594582000">
  <ele>38.680000</ele>
  <time>2008-12-20T08:19:35Z</time>
  <name>Point 78</name>
  <cmt>Point 78</cmt>
  <desc>Point 78</desc>
</trkpt>
<trkpt lat="24.082546000" lon="120.594582000">
  <ele>38.660000</ele>
  <time>2008-12-20T08:19:40Z</time>
  <name>Point 79</name>
  <cmt>Point 79</cmt>
  <desc>Point 79</desc>
</trkpt>
<trkpt lat="24.082546000" lon="120.594582000">
  <ele>38.660000</ele>
  <time>2008-12-20T08:19:45Z</time>
  <name>Point 80</name>
  <cmt>Point 80</cmt>
  <desc>Point 80</desc>
</trkpt>
<trkpt lat="24.082548000" lon="120.594582000">
  <ele>38.660000</ele>
  <time>2008-12-20T08:19:50Z</time>
  <name>Point 81</name>
  <cmt>Point 81</cmt>
  <desc>Point 81</desc>
</trkpt>
<trkpt lat="24.082548000" lon="120.594582000">
  <ele>38.650000</ele>
  <time>2008-12-20T08:19:55Z</time>
  <name>Point 82</name>
  <cmt>Point 82</cmt>
  <desc>Point 82</desc>
</trkpt>
<trkpt lat="24.082550000" lon="120.594582000">
  <ele>38.630000</ele>
  <time>2008-12-20T08:20:00Z</time>
  <name>Point 83</name>
  <cmt>Point 83</cmt>
  <desc>Point 83</desc>
</trkpt>
<trkpt lat="24.082552000" lon="120.594582000">
  <ele>38.650000</ele>
  <time>2008-12-20T08:20:05Z</time>
  <name>Point 84</name>
  <cmt>Point 84</cmt>
  <desc>Point 84</desc>
</trkpt>
<trkpt lat="24.082550000" lon="120.594582000">
  <ele>38.720000</ele>
  <time>2008-12-20T08:20:10Z</time>
  <name>Point 85</name>
  <cmt>Point 85</cmt>
  <desc>Point 85</desc>
</trkpt>
<trkpt lat="24.082552000" lon="120.594574000">
  <ele>38.740000</ele>
  <time>2008-12-20T08:20:15Z</time>
  <name>Point 86</name>
  <cmt>Point 86</cmt>
  <desc>Point 86</desc>
</trkpt>
<trkpt lat="24.082552000" lon="120.594574000">
  <ele>38.780000</ele>
  <time>2008-12-20T08:20:20Z</time>
  <name>Point 87</name>
  <cmt>Point 87</cmt>
  <desc>Point 87</desc>
</trkpt>
<trkpt lat="24.082552000" lon="120.594574000">
  <ele>38.830000</ele>
  <time>2008-12-20T08:20:25Z</time>
  <name>Point 88</name>
  <cmt>Point 88</cmt>
  <desc>Point 88</desc>
</trkpt>
<trkpt lat="24.082552000" lon="120.594574000">
  <ele>38.910000</ele>
  <time>2008-12-20T08:20:30Z</time>
  <name>Point 89</name>
  <cmt>Point 89</cmt>
  <desc>Point 89</desc>
</trkpt>
<trkpt lat="24.082552000" lon="120.594574000">
  <ele>38.950000</ele>
  <time>2008-12-20T08:20:35Z</time>
  <name>Point 90</name>
  <cmt>Point 90</cmt>
  <desc>Point 90</desc>
</trkpt>
<trkpt lat="24.082554000" lon="120.594574000">
  <ele>38.960000</ele>
  <time>2008-12-20T08:20:40Z</time>
  <name>Point 91</name>
  <cmt>Point 91</cmt>
  <desc>Point 91</desc>
</trkpt>
<trkpt lat="24.082554000" lon="120.594574000">
  <ele>38.960000</ele>
  <time>2008-12-20T08:20:45Z</time>
  <name>Point 92</name>
  <cmt>Point 92</cmt>
  <desc>Point 92</desc>
</trkpt>
<trkpt lat="24.082554000" lon="120.594574000">
  <ele>38.960000</ele>
  <time>2008-12-20T08:20:50Z</time>
  <name>Point 93</name>
  <cmt>Point 93</cmt>
  <desc>Point 93</desc>
</trkpt>
<trkpt lat="24.082556000" lon="120.594574000">
  <ele>39.050000</ele>
  <time>2008-12-20T08:20:55Z</time>
  <name>Point 94</name>
  <cmt>Point 94</cmt>
  <desc>Point 94</desc>
</trkpt>
<trkpt lat="24.082556000" lon="120.594582000">
  <ele>39.130000</ele>
  <time>2008-12-20T08:21:00Z</time>
  <name>Point 95</name>
  <cmt>Point 95</cmt>
  <desc>Point 95</desc>
</trkpt>
<trkpt lat="24.082556000" lon="120.594582000">
  <ele>39.170000</ele>
  <time>2008-12-20T08:21:05Z</time>
  <name>Point 96</name>
  <cmt>Point 96</cmt>
  <desc>Point 96</desc>
</trkpt>
<trkpt lat="24.082556000" lon="120.594582000">
  <ele>39.200000</ele>
  <time>2008-12-20T08:21:10Z</time>
  <name>Point 97</name>
  <cmt>Point 97</cmt>
  <desc>Point 97</desc>
</trkpt>
<trkpt lat="24.082558000" lon="120.594582000">
  <ele>39.170000</ele>
  <time>2008-12-20T08:21:15Z</time>
  <name>Point 98</name>
  <cmt>Point 98</cmt>
  <desc>Point 98</desc>
</trkpt>
<trkpt lat="24.082560000" lon="120.594582000">
  <ele>39.100000</ele>
  <time>2008-12-20T08:21:20Z</time>
  <name>Point 99</name>
  <cmt>Point 99</cmt>
  <desc>Point 99</desc>
</trkpt>
<trkpt lat="24.082560000" lon="120.594582000">
  <ele>39.050000</ele>
  <time>2008-12-20T08:21:25Z</time>
  <name>Point 100</name>
  <cmt>Point 100</cmt>
  <desc>Point 100</desc>
</trkpt>
<trkpt lat="24.082613000" lon="120.594604000">
  <ele>39.130000</ele>
  <time>2008-12-20T08:21:30Z</time>
  <name>Point 101</name>
  <cmt>Point 101</cmt>
  <desc>Point 101</desc>
</trkpt>
<trkpt lat="24.082804000" lon="120.594727000">
  <ele>38.270000</ele>
  <time>2008-12-20T08:21:35Z</time>
  <name>Point 102</name>
  <cmt>Point 102</cmt>
  <desc>Point 102</desc>
</trkpt>
<trkpt lat="24.083021000" lon="120.594933000">
  <ele>38.220000</ele>
  <time>2008-12-20T08:21:40Z</time>
  <name>Point 103</name>
  <cmt>Point 103</cmt>
  <desc>Point 103</desc>
</trkpt>
<trkpt lat="24.083273000" lon="120.595154000">
  <ele>38.180000</ele>
  <time>2008-12-20T08:21:45Z</time>
  <name>Point 104</name>
  <cmt>Point 104</cmt>
  <desc>Point 104</desc>
</trkpt>
<trkpt lat="24.083548000" lon="120.595421000">
  <ele>35.650000</ele>
  <time>2008-12-20T08:21:50Z</time>
  <name>Point 105</name>
  <cmt>Point 105</cmt>
  <desc>Point 105</desc>
</trkpt>
<trkpt lat="24.083887000" lon="120.595734000">
  <ele>34.220000</ele>
  <time>2008-12-20T08:21:55Z</time>
  <name>Point 106</name>
  <cmt>Point 106</cmt>
  <desc>Point 106</desc>
</trkpt>
<trkpt lat="24.084244000" lon="120.596031000">
  <ele>33.150000</ele>
  <time>2008-12-20T08:22:00Z</time>
  <name>Point 107</name>
  <cmt>Point 107</cmt>
  <desc>Point 107</desc>
</trkpt>
<trkpt lat="24.084526000" lon="120.596298000">
  <ele>28.210000</ele>
  <time>2008-12-20T08:22:05Z</time>
  <name>Point 108</name>
  <cmt>Point 108</cmt>
  <desc>Point 108</desc>
</trkpt>
<trkpt lat="24.084829000" lon="120.596573000">
  <ele>27.610000</ele>
  <time>2008-12-20T08:22:10Z</time>
  <name>Point 109</name>
  <cmt>Point 109</cmt>
  <desc>Point 109</desc>
</trkpt>
<trkpt lat="24.085119000" lon="120.596840000">
  <ele>26.420000</ele>
  <time>2008-12-20T08:22:15Z</time>
  <name>Point 110</name>
  <cmt>Point 110</cmt>
  <desc>Point 110</desc>
</trkpt>
<trkpt lat="24.085354000" lon="120.597092000">
  <ele>28.480000</ele>
  <time>2008-12-20T08:22:20Z</time>
  <name>Point 111</name>
  <cmt>Point 111</cmt>
  <desc>Point 111</desc>
</trkpt>
<trkpt lat="24.085585000" lon="120.597298000">
  <ele>30.280000</ele>
  <time>2008-12-20T08:22:25Z</time>
  <name>Point 112</name>
  <cmt>Point 112</cmt>
  <desc>Point 112</desc>
</trkpt>
<trkpt lat="24.085705000" lon="120.597427000">
  <ele>30.320000</ele>
  <time>2008-12-20T08:22:30Z</time>
  <name>Point 113</name>
  <cmt>Point 113</cmt>
  <desc>Point 113</desc>
</trkpt>
<trkpt lat="24.085754000" lon="120.597504000">
  <ele>29.980000</ele>
  <time>2008-12-20T08:22:35Z</time>
  <name>Point 114</name>
  <cmt>Point 114</cmt>
  <desc>Point 114</desc>
</trkpt>
<trkpt lat="24.085781000" lon="120.597549000">
  <ele>28.450000</ele>
  <time>2008-12-20T08:22:40Z</time>
  <name>Point 115</name>
  <cmt>Point 115</cmt>
  <desc>Point 115</desc>
</trkpt>
<trkpt lat="24.085789000" lon="120.597557000">
  <ele>27.740000</ele>
  <time>2008-12-20T08:22:45Z</time>
  <name>Point 116</name>
  <cmt>Point 116</cmt>
  <desc>Point 116</desc>
</trkpt>
<trkpt lat="24.085785000" lon="120.597557000">
  <ele>27.410000</ele>
  <time>2008-12-20T08:22:50Z</time>
  <name>Point 117</name>
  <cmt>Point 117</cmt>
  <desc>Point 117</desc>
</trkpt>
<trkpt lat="24.085783000" lon="120.597557000">
  <ele>27.190000</ele>
  <time>2008-12-20T08:22:55Z</time>
  <name>Point 118</name>
  <cmt>Point 118</cmt>
  <desc>Point 118</desc>
</trkpt>
<trkpt lat="24.085781000" lon="120.597549000">
  <ele>27.020000</ele>
  <time>2008-12-20T08:23:00Z</time>
  <name>Point 119</name>
  <cmt>Point 119</cmt>
  <desc>Point 119</desc>
</trkpt>
<trkpt lat="24.085789000" lon="120.597557000">
  <ele>26.960000</ele>
  <time>2008-12-20T08:23:05Z</time>
  <name>Point 120</name>
  <cmt>Point 120</cmt>
  <desc>Point 120</desc>
</trkpt>
<trkpt lat="24.085917000" lon="120.597664000">
  <ele>25.180000</ele>
  <time>2008-12-20T08:23:10Z</time>
  <name>Point 121</name>
  <cmt>Point 121</cmt>
  <desc>Point 121</desc>
</trkpt>
<trkpt lat="24.086094000" lon="120.597832000">
  <ele>23.910000</ele>
  <time>2008-12-20T08:23:15Z</time>
  <name>Point 122</name>
  <cmt>Point 122</cmt>
  <desc>Point 122</desc>
</trkpt>
<trkpt lat="24.086342000" lon="120.598053000">
  <ele>20.340000</ele>
  <time>2008-12-20T08:23:20Z</time>
  <name>Point 123</name>
  <cmt>Point 123</cmt>
  <desc>Point 123</desc>
</trkpt>
<trkpt lat="24.086584000" lon="120.598221000">
  <ele>20.270000</ele>
  <time>2008-12-20T08:23:25Z</time>
  <name>Point 124</name>
  <cmt>Point 124</cmt>
  <desc>Point 124</desc>
</trkpt>
<trkpt lat="24.086815000" lon="120.598412000">
  <ele>22.200000</ele>
  <time>2008-12-20T08:23:30Z</time>
  <name>Point 125</name>
  <cmt>Point 125</cmt>
  <desc>Point 125</desc>
</trkpt>
<trkpt lat="24.087021000" lon="120.598663000">
  <ele>22.720000</ele>
  <time>2008-12-20T08:23:35Z</time>
  <name>Point 126</name>
  <cmt>Point 126</cmt>
  <desc>Point 126</desc>
</trkpt>
<trkpt lat="24.087250000" lon="120.598923000">
  <ele>24.880000</ele>
  <time>2008-12-20T08:23:40Z</time>
  <name>Point 127</name>
  <cmt>Point 127</cmt>
  <desc>Point 127</desc>
</trkpt>
<trkpt lat="24.087488000" lon="120.599167000">
  <ele>23.240000</ele>
  <time>2008-12-20T08:23:45Z</time>
  <name>Point 128</name>
  <cmt>Point 128</cmt>
  <desc>Point 128</desc>
</trkpt>
<trkpt lat="24.087751000" lon="120.599464000">
  <ele>24.600000</ele>
  <time>2008-12-20T08:23:50Z</time>
  <name>Point 129</name>
  <cmt>Point 129</cmt>
  <desc>Point 129</desc>
</trkpt>
<trkpt lat="24.087992000" lon="120.599716000">
  <ele>23.530000</ele>
  <time>2008-12-20T08:23:55Z</time>
  <name>Point 130</name>
  <cmt>Point 130</cmt>
  <desc>Point 130</desc>
</trkpt>
<trkpt lat="24.088202000" lon="120.599983000">
  <ele>23.250000</ele>
  <time>2008-12-20T08:24:00Z</time>
  <name>Point 131</name>
  <cmt>Point 131</cmt>
  <desc>Point 131</desc>
</trkpt>
<trkpt lat="24.088408000" lon="120.600235000">
  <ele>26.930000</ele>
  <time>2008-12-20T08:24:05Z</time>
  <name>Point 132</name>
  <cmt>Point 132</cmt>
  <desc>Point 132</desc>
</trkpt>
<trkpt lat="24.088615000" lon="120.600471000">
  <ele>26.860000</ele>
  <time>2008-12-20T08:24:10Z</time>
  <name>Point 133</name>
  <cmt>Point 133</cmt>
  <desc>Point 133</desc>
</trkpt>
<trkpt lat="24.088816000" lon="120.600739000">
  <ele>27.120000</ele>
  <time>2008-12-20T08:24:15Z</time>
  <name>Point 134</name>
  <cmt>Point 134</cmt>
  <desc>Point 134</desc>
</trkpt>
<trkpt lat="24.089010000" lon="120.601006000">
  <ele>29.090000</ele>
  <time>2008-12-20T08:24:20Z</time>
  <name>Point 135</name>
  <cmt>Point 135</cmt>
  <desc>Point 135</desc>
</trkpt>
<trkpt lat="24.089201000" lon="120.601257000">
  <ele>28.410000</ele>
  <time>2008-12-20T08:24:25Z</time>
  <name>Point 136</name>
  <cmt>Point 136</cmt>
  <desc>Point 136</desc>
</trkpt>
<trkpt lat="24.089378000" lon="120.601517000">
  <ele>29.620000</ele>
  <time>2008-12-20T08:24:30Z</time>
  <name>Point 137</name>
  <cmt>Point 137</cmt>
  <desc>Point 137</desc>
</trkpt>
<trkpt lat="24.089561000" lon="120.601768000">
  <ele>30.480000</ele>
  <time>2008-12-20T08:24:35Z</time>
  <name>Point 138</name>
  <cmt>Point 138</cmt>
  <desc>Point 138</desc>
</trkpt>
<trkpt lat="24.089735000" lon="120.602051000">
  <ele>29.080000</ele>
  <time>2008-12-20T08:24:40Z</time>
  <name>Point 139</name>
  <cmt>Point 139</cmt>
  <desc>Point 139</desc>
</trkpt>
<trkpt lat="24.089872000" lon="120.602356000">
  <ele>29.770000</ele>
  <time>2008-12-20T08:24:45Z</time>
  <name>Point 140</name>
  <cmt>Point 140</cmt>
  <desc>Point 140</desc>
</trkpt>
<trkpt lat="24.089970000" lon="120.602669000">
  <ele>29.450000</ele>
  <time>2008-12-20T08:24:50Z</time>
  <name>Point 141</name>
  <cmt>Point 141</cmt>
  <desc>Point 141</desc>
</trkpt>
<trkpt lat="24.090006000" lon="120.602997000">
  <ele>27.680000</ele>
  <time>2008-12-20T08:24:55Z</time>
  <name>Point 142</name>
  <cmt>Point 142</cmt>
  <desc>Point 142</desc>
</trkpt>
<trkpt lat="24.089991000" lon="120.603325000">
  <ele>28.660000</ele>
  <time>2008-12-20T08:25:00Z</time>
  <name>Point 143</name>
  <cmt>Point 143</cmt>
  <desc>Point 143</desc>
</trkpt>
<trkpt lat="24.089956000" lon="120.603653000">
  <ele>29.360000</ele>
  <time>2008-12-20T08:25:05Z</time>
  <name>Point 144</name>
  <cmt>Point 144</cmt>
  <desc>Point 144</desc>
</trkpt>
<trkpt lat="24.089911000" lon="120.603981000">
  <ele>30.250000</ele>
  <time>2008-12-20T08:25:10Z</time>
  <name>Point 145</name>
  <cmt>Point 145</cmt>
  <desc>Point 145</desc>
</trkpt>
<trkpt lat="24.089884000" lon="120.604294000">
  <ele>29.550000</ele>
  <time>2008-12-20T08:25:15Z</time>
  <name>Point 146</name>
  <cmt>Point 146</cmt>
  <desc>Point 146</desc>
</trkpt>
<trkpt lat="24.089842000" lon="120.604607000">
  <ele>30.550000</ele>
  <time>2008-12-20T08:25:20Z</time>
  <name>Point 147</name>
  <cmt>Point 147</cmt>
  <desc>Point 147</desc>
</trkpt>
<trkpt lat="24.089794000" lon="120.604942000">
  <ele>29.770000</ele>
  <time>2008-12-20T08:25:25Z</time>
  <name>Point 148</name>
  <cmt>Point 148</cmt>
  <desc>Point 148</desc>
</trkpt>
<trkpt lat="24.089762000" lon="120.605309000">
  <ele>29.140000</ele>
  <time>2008-12-20T08:25:30Z</time>
  <name>Point 149</name>
  <cmt>Point 149</cmt>
  <desc>Point 149</desc>
</trkpt>
<trkpt lat="24.089724000" lon="120.605682000">
  <ele>29.450000</ele>
  <time>2008-12-20T08:25:35Z</time>
  <name>Point 150</name>
  <cmt>Point 150</cmt>
  <desc>Point 150</desc>
</trkpt>
<trkpt lat="24.089695000" lon="120.606064000">
  <ele>29.760000</ele>
  <time>2008-12-20T08:25:40Z</time>
  <name>Point 151</name>
  <cmt>Point 151</cmt>
  <desc>Point 151</desc>
</trkpt>
<trkpt lat="24.089813000" lon="120.606407000">
  <ele>29.700000</ele>
  <time>2008-12-20T08:25:45Z</time>
  <name>Point 152</name>
  <cmt>Point 152</cmt>
  <desc>Point 152</desc>
</trkpt>
<trkpt lat="24.090052000" lon="120.606659000">
  <ele>31.910000</ele>
  <time>2008-12-20T08:25:50Z</time>
  <name>Point 153</name>
  <cmt>Point 153</cmt>
  <desc>Point 153</desc>
</trkpt>
<trkpt lat="24.090340000" lon="120.606789000">
  <ele>29.710000</ele>
  <time>2008-12-20T08:25:55Z</time>
  <name>Point 154</name>
  <cmt>Point 154</cmt>
  <desc>Point 154</desc>
</trkpt>
<trkpt lat="24.090672000" lon="120.606796000">
  <ele>28.330000</ele>
  <time>2008-12-20T08:26:00Z</time>
  <name>Point 155</name>
  <cmt>Point 155</cmt>
  <desc>Point 155</desc>
</trkpt>
<trkpt lat="24.090969000" lon="120.606705000">
  <ele>26.950000</ele>
  <time>2008-12-20T08:26:05Z</time>
  <name>Point 156</name>
  <cmt>Point 156</cmt>
  <desc>Point 156</desc>
</trkpt>
<trkpt lat="24.091267000" lon="120.606606000">
  <ele>27.670000</ele>
  <time>2008-12-20T08:26:10Z</time>
  <name>Point 157</name>
  <cmt>Point 157</cmt>
  <desc>Point 157</desc>
</trkpt>
<trkpt lat="24.091574000" lon="120.606514000">
  <ele>29.150000</ele>
  <time>2008-12-20T08:26:15Z</time>
  <name>Point 158</name>
  <cmt>Point 158</cmt>
  <desc>Point 158</desc>
</trkpt>
<trkpt lat="24.091904000" lon="120.606468000">
  <ele>30.720000</ele>
  <time>2008-12-20T08:26:20Z</time>
  <name>Point 159</name>
  <cmt>Point 159</cmt>
  <desc>Point 159</desc>
</trkpt>
<trkpt lat="24.092213000" lon="120.606430000">
  <ele>33.470000</ele>
  <time>2008-12-20T08:26:25Z</time>
  <name>Point 160</name>
  <cmt>Point 160</cmt>
  <desc>Point 160</desc>
</trkpt>
<trkpt lat="24.092474000" lon="120.606422000">
  <ele>36.150000</ele>
  <time>2008-12-20T08:26:30Z</time>
  <name>Point 161</name>
  <cmt>Point 161</cmt>
  <desc>Point 161</desc>
</trkpt>
<trkpt lat="24.092712000" lon="120.606445000">
  <ele>33.390000</ele>
  <time>2008-12-20T08:26:35Z</time>
  <name>Point 162</name>
  <cmt>Point 162</cmt>
  <desc>Point 162</desc>
</trkpt>
<trkpt lat="24.092930000" lon="120.606476000">
  <ele>36.550000</ele>
  <time>2008-12-20T08:26:40Z</time>
  <name>Point 163</name>
  <cmt>Point 163</cmt>
  <desc>Point 163</desc>
</trkpt>
<trkpt lat="24.093138000" lon="120.606522000">
  <ele>38.340000</ele>
  <time>2008-12-20T08:26:45Z</time>
  <name>Point 164</name>
  <cmt>Point 164</cmt>
  <desc>Point 164</desc>
</trkpt>
<trkpt lat="24.093386000" lon="120.606529000">
  <ele>38.620000</ele>
  <time>2008-12-20T08:26:50Z</time>
  <name>Point 165</name>
  <cmt>Point 165</cmt>
  <desc>Point 165</desc>
</trkpt>
<trkpt lat="24.093609000" lon="120.606575000">
  <ele>35.280000</ele>
  <time>2008-12-20T08:26:55Z</time>
  <name>Point 166</name>
  <cmt>Point 166</cmt>
  <desc>Point 166</desc>
</trkpt>
<trkpt lat="24.093849000" lon="120.606659000">
  <ele>32.290000</ele>
  <time>2008-12-20T08:27:00Z</time>
  <name>Point 167</name>
  <cmt>Point 167</cmt>
  <desc>Point 167</desc>
</trkpt>
<trkpt lat="24.094093000" lon="120.606766000">
  <ele>29.160000</ele>
  <time>2008-12-20T08:27:05Z</time>
  <name>Point 168</name>
  <cmt>Point 168</cmt>
  <desc>Point 168</desc>
</trkpt>
<trkpt lat="24.094336000" lon="120.606895000">
  <ele>28.460000</ele>
  <time>2008-12-20T08:27:10Z</time>
  <name>Point 169</name>
  <cmt>Point 169</cmt>
  <desc>Point 169</desc>
</trkpt>
<trkpt lat="24.094585000" lon="120.607063000">
  <ele>27.610000</ele>
  <time>2008-12-20T08:27:15Z</time>
  <name>Point 170</name>
  <cmt>Point 170</cmt>
  <desc>Point 170</desc>
</trkpt>
<trkpt lat="24.094849000" lon="120.607239000">
  <ele>27.340000</ele>
  <time>2008-12-20T08:27:20Z</time>
  <name>Point 171</name>
  <cmt>Point 171</cmt>
  <desc>Point 171</desc>
</trkpt>
<trkpt lat="24.095112000" lon="120.607430000">
  <ele>29.380000</ele>
  <time>2008-12-20T08:27:25Z</time>
  <name>Point 172</name>
  <cmt>Point 172</cmt>
  <desc>Point 172</desc>
</trkpt>
<trkpt lat="24.095360000" lon="120.607635000">
  <ele>28.490000</ele>
  <time>2008-12-20T08:27:30Z</time>
  <name>Point 173</name>
  <cmt>Point 173</cmt>
  <desc>Point 173</desc>
</trkpt>
<trkpt lat="24.095596000" lon="120.607826000">
  <ele>29.040000</ele>
  <time>2008-12-20T08:27:35Z</time>
  <name>Point 174</name>
  <cmt>Point 174</cmt>
  <desc>Point 174</desc>
</trkpt>
<trkpt lat="24.095823000" lon="120.608009000">
  <ele>28.510000</ele>
  <time>2008-12-20T08:27:40Z</time>
  <name>Point 175</name>
  <cmt>Point 175</cmt>
  <desc>Point 175</desc>
</trkpt>
<trkpt lat="24.096060000" lon="120.608185000">
  <ele>29.470000</ele>
  <time>2008-12-20T08:27:45Z</time>
  <name>Point 176</name>
  <cmt>Point 176</cmt>
  <desc>Point 176</desc>
</trkpt>
<trkpt lat="24.096302000" lon="120.608360000">
  <ele>28.920000</ele>
  <time>2008-12-20T08:27:50Z</time>
  <name>Point 177</name>
  <cmt>Point 177</cmt>
  <desc>Point 177</desc>
</trkpt>
<trkpt lat="24.096544000" lon="120.608543000">
  <ele>29.390000</ele>
  <time>2008-12-20T08:27:55Z</time>
  <name>Point 178</name>
  <cmt>Point 178</cmt>
  <desc>Point 178</desc>
</trkpt>
<trkpt lat="24.096779000" lon="120.608719000">
  <ele>28.720000</ele>
  <time>2008-12-20T08:28:00Z</time>
  <name>Point 179</name>
  <cmt>Point 179</cmt>
  <desc>Point 179</desc>
</trkpt>
<trkpt lat="24.097004000" lon="120.608917000">
  <ele>29.260000</ele>
  <time>2008-12-20T08:28:05Z</time>
  <name>Point 180</name>
  <cmt>Point 180</cmt>
  <desc>Point 180</desc>
</trkpt>
<trkpt lat="24.097219000" lon="120.609108000">
  <ele>29.700000</ele>
  <time>2008-12-20T08:28:10Z</time>
  <name>Point 181</name>
  <cmt>Point 181</cmt>
  <desc>Point 181</desc>
</trkpt>
<trkpt lat="24.097441000" lon="120.609291000">
  <ele>30.270000</ele>
  <time>2008-12-20T08:28:15Z</time>
  <name>Point 182</name>
  <cmt>Point 182</cmt>
  <desc>Point 182</desc>
</trkpt>
<trkpt lat="24.097679000" lon="120.609482000">
  <ele>29.710000</ele>
  <time>2008-12-20T08:28:20Z</time>
  <name>Point 183</name>
  <cmt>Point 183</cmt>
  <desc>Point 183</desc>
</trkpt>
<trkpt lat="24.097914000" lon="120.609673000">
  <ele>29.320000</ele>
  <time>2008-12-20T08:28:25Z</time>
  <name>Point 184</name>
  <cmt>Point 184</cmt>
  <desc>Point 184</desc>
</trkpt>
<trkpt lat="24.098143000" lon="120.609863000">
  <ele>29.300000</ele>
  <time>2008-12-20T08:28:30Z</time>
  <name>Point 185</name>
  <cmt>Point 185</cmt>
  <desc>Point 185</desc>
</trkpt>
<trkpt lat="24.098379000" lon="120.610039000">
  <ele>30.620000</ele>
  <time>2008-12-20T08:28:35Z</time>
  <name>Point 186</name>
  <cmt>Point 186</cmt>
  <desc>Point 186</desc>
</trkpt>
<trkpt lat="24.098621000" lon="120.610229000">
  <ele>32.150000</ele>
  <time>2008-12-20T08:28:40Z</time>
  <name>Point 187</name>
  <cmt>Point 187</cmt>
  <desc>Point 187</desc>
</trkpt>
<trkpt lat="24.098843000" lon="120.610413000">
  <ele>32.430000</ele>
  <time>2008-12-20T08:28:45Z</time>
  <name>Point 188</name>
  <cmt>Point 188</cmt>
  <desc>Point 188</desc>
</trkpt>
<trkpt lat="24.099073000" lon="120.610588000">
  <ele>31.320000</ele>
  <time>2008-12-20T08:28:50Z</time>
  <name>Point 189</name>
  <cmt>Point 189</cmt>
  <desc>Point 189</desc>
</trkpt>
<trkpt lat="24.099312000" lon="120.610756000">
  <ele>33.530000</ele>
  <time>2008-12-20T08:28:55Z</time>
  <name>Point 190</name>
  <cmt>Point 190</cmt>
  <desc>Point 190</desc>
</trkpt>
<trkpt lat="24.099552000" lon="120.610924000">
  <ele>34.110000</ele>
  <time>2008-12-20T08:29:00Z</time>
  <name>Point 191</name>
  <cmt>Point 191</cmt>
  <desc>Point 191</desc>
</trkpt>
<trkpt lat="24.099804000" lon="120.611092000">
  <ele>32.920000</ele>
  <time>2008-12-20T08:29:05Z</time>
  <name>Point 192</name>
  <cmt>Point 192</cmt>
  <desc>Point 192</desc>
</trkpt>
<trkpt lat="24.100031000" lon="120.611275000">
  <ele>33.270000</ele>
  <time>2008-12-20T08:29:10Z</time>
  <name>Point 193</name>
  <cmt>Point 193</cmt>
  <desc>Point 193</desc>
</trkpt>
<trkpt lat="24.100254000" lon="120.611458000">
  <ele>32.760000</ele>
  <time>2008-12-20T08:29:15Z</time>
  <name>Point 194</name>
  <cmt>Point 194</cmt>
  <desc>Point 194</desc>
</trkpt>
<trkpt lat="24.100483000" lon="120.611641000">
  <ele>31.310000</ele>
  <time>2008-12-20T08:29:20Z</time>
  <name>Point 195</name>
  <cmt>Point 195</cmt>
  <desc>Point 195</desc>
</trkpt>
<trkpt lat="24.100723000" lon="120.611794000">
  <ele>33.730000</ele>
  <time>2008-12-20T08:29:25Z</time>
  <name>Point 196</name>
  <cmt>Point 196</cmt>
  <desc>Point 196</desc>
</trkpt>
<trkpt lat="24.100967000" lon="120.611954000">
  <ele>34.280000</ele>
  <time>2008-12-20T08:29:30Z</time>
  <name>Point 197</name>
  <cmt>Point 197</cmt>
  <desc>Point 197</desc>
</trkpt>
<trkpt lat="24.101204000" lon="120.612114000">
  <ele>36.670000</ele>
  <time>2008-12-20T08:29:35Z</time>
  <name>Point 198</name>
  <cmt>Point 198</cmt>
  <desc>Point 198</desc>
</trkpt>
<trkpt lat="24.101454000" lon="120.612274000">
  <ele>36.010000</ele>
  <time>2008-12-20T08:29:40Z</time>
  <name>Point 199</name>
  <cmt>Point 199</cmt>
  <desc>Point 199</desc>
</trkpt>
<trkpt lat="24.101685000" lon="120.612427000">
  <ele>35.850000</ele>
  <time>2008-12-20T08:29:45Z</time>
  <name>Point 200</name>
  <cmt>Point 200</cmt>
  <desc>Point 200</desc>
</trkpt>
<trkpt lat="24.101931000" lon="120.612587000">
  <ele>35.660000</ele>
  <time>2008-12-20T08:29:50Z</time>
  <name>Point 201</name>
  <cmt>Point 201</cmt>
  <desc>Point 201</desc>
</trkpt>
<trkpt lat="24.102222000" lon="120.612778000">
  <ele>35.100000</ele>
  <time>2008-12-20T08:29:55Z</time>
  <name>Point 202</name>
  <cmt>Point 202</cmt>
  <desc>Point 202</desc>
</trkpt>
<trkpt lat="24.102554000" lon="120.612999000">
  <ele>34.390000</ele>
  <time>2008-12-20T08:30:00Z</time>
  <name>Point 203</name>
  <cmt>Point 203</cmt>
  <desc>Point 203</desc>
</trkpt>
<trkpt lat="24.102816000" lon="120.613167000">
  <ele>33.380000</ele>
  <time>2008-12-20T08:30:05Z</time>
  <name>Point 204</name>
  <cmt>Point 204</cmt>
  <desc>Point 204</desc>
</trkpt>
<trkpt lat="24.102919000" lon="120.613365000">
  <ele>32.490000</ele>
  <time>2008-12-20T08:30:10Z</time>
  <name>Point 205</name>
  <cmt>Point 205</cmt>
  <desc>Point 205</desc>
</trkpt>
<trkpt lat="24.102892000" lon="120.613609000">
  <ele>31.300000</ele>
  <time>2008-12-20T08:30:15Z</time>
  <name>Point 206</name>
  <cmt>Point 206</cmt>
  <desc>Point 206</desc>
</trkpt>
<trkpt lat="24.102875000" lon="120.613922000">
  <ele>30.480000</ele>
  <time>2008-12-20T08:30:20Z</time>
  <name>Point 207</name>
  <cmt>Point 207</cmt>
  <desc>Point 207</desc>
</trkpt>
<trkpt lat="24.102852000" lon="120.614288000">
  <ele>29.170000</ele>
  <time>2008-12-20T08:30:25Z</time>
  <name>Point 208</name>
  <cmt>Point 208</cmt>
  <desc>Point 208</desc>
</trkpt>
<trkpt lat="24.102848000" lon="120.614662000">
  <ele>29.830000</ele>
  <time>2008-12-20T08:30:30Z</time>
  <name>Point 209</name>
  <cmt>Point 209</cmt>
  <desc>Point 209</desc>
</trkpt>
<trkpt lat="24.102833000" lon="120.615005000">
  <ele>30.350000</ele>
  <time>2008-12-20T08:30:35Z</time>
  <name>Point 210</name>
  <cmt>Point 210</cmt>
  <desc>Point 210</desc>
</trkpt>
<trkpt lat="24.102840000" lon="120.615387000">
  <ele>28.750000</ele>
  <time>2008-12-20T08:30:40Z</time>
  <name>Point 211</name>
  <cmt>Point 211</cmt>
  <desc>Point 211</desc>
</trkpt>
<trkpt lat="24.102823000" lon="120.615715000">
  <ele>29.500000</ele>
  <time>2008-12-20T08:30:45Z</time>
  <name>Point 212</name>
  <cmt>Point 212</cmt>
  <desc>Point 212</desc>
</trkpt>
<trkpt lat="24.102819000" lon="120.616089000">
  <ele>27.130000</ele>
  <time>2008-12-20T08:30:50Z</time>
  <name>Point 213</name>
  <cmt>Point 213</cmt>
  <desc>Point 213</desc>
</trkpt>
<trkpt lat="24.102798000" lon="120.616486000">
  <ele>27.730000</ele>
  <time>2008-12-20T08:30:55Z</time>
  <name>Point 214</name>
  <cmt>Point 214</cmt>
  <desc>Point 214</desc>
</trkpt>
<trkpt lat="24.102764000" lon="120.616867000">
  <ele>28.340000</ele>
  <time>2008-12-20T08:31:00Z</time>
  <name>Point 215</name>
  <cmt>Point 215</cmt>
  <desc>Point 215</desc>
</trkpt>
<trkpt lat="24.102736000" lon="120.617226000">
  <ele>27.100000</ele>
  <time>2008-12-20T08:31:05Z</time>
  <name>Point 216</name>
  <cmt>Point 216</cmt>
  <desc>Point 216</desc>
</trkpt>
<trkpt lat="24.102715000" lon="120.617577000">
  <ele>26.130000</ele>
  <time>2008-12-20T08:31:10Z</time>
  <name>Point 217</name>
  <cmt>Point 217</cmt>
  <desc>Point 217</desc>
</trkpt>
<trkpt lat="24.102682000" lon="120.617912000">
  <ele>26.400000</ele>
  <time>2008-12-20T08:31:15Z</time>
  <name>Point 218</name>
  <cmt>Point 218</cmt>
  <desc>Point 218</desc>
</trkpt>
<trkpt lat="24.102650000" lon="120.618217000">
  <ele>25.340000</ele>
  <time>2008-12-20T08:31:20Z</time>
  <name>Point 219</name>
  <cmt>Point 219</cmt>
  <desc>Point 219</desc>
</trkpt>
<trkpt lat="24.102608000" lon="120.618469000">
  <ele>24.420000</ele>
  <time>2008-12-20T08:31:25Z</time>
  <name>Point 220</name>
  <cmt>Point 220</cmt>
  <desc>Point 220</desc>
</trkpt>
<trkpt lat="24.102715000" lon="120.618561000">
  <ele>25.920000</ele>
  <time>2008-12-20T08:31:30Z</time>
  <name>Point 221</name>
  <cmt>Point 221</cmt>
  <desc>Point 221</desc>
</trkpt>
<trkpt lat="24.102905000" lon="120.618675000">
  <ele>27.670000</ele>
  <time>2008-12-20T08:31:35Z</time>
  <name>Point 222</name>
  <cmt>Point 222</cmt>
  <desc>Point 222</desc>
</trkpt>
<trkpt lat="24.103186000" lon="120.618668000">
  <ele>25.240000</ele>
  <time>2008-12-20T08:31:40Z</time>
  <name>Point 223</name>
  <cmt>Point 223</cmt>
  <desc>Point 223</desc>
</trkpt>
<trkpt lat="24.103466000" lon="120.618614000">
  <ele>22.110000</ele>
  <time>2008-12-20T08:31:45Z</time>
  <name>Point 224</name>
  <cmt>Point 224</cmt>
  <desc>Point 224</desc>
</trkpt>
<trkpt lat="24.103735000" lon="120.618553000">
  <ele>23.770000</ele>
  <time>2008-12-20T08:31:50Z</time>
  <name>Point 225</name>
  <cmt>Point 225</cmt>
  <desc>Point 225</desc>
</trkpt>
<trkpt lat="24.104010000" lon="120.618492000">
  <ele>25.480000</ele>
  <time>2008-12-20T08:31:55Z</time>
  <name>Point 226</name>
  <cmt>Point 226</cmt>
  <desc>Point 226</desc>
</trkpt>
<trkpt lat="24.104246000" lon="120.618393000">
  <ele>32.490000</ele>
  <time>2008-12-20T08:32:00Z</time>
  <name>Point 227</name>
  <cmt>Point 227</cmt>
  <desc>Point 227</desc>
</trkpt>
<trkpt lat="24.104504000" lon="120.618317000">
  <ele>34.100000</ele>
  <time>2008-12-20T08:32:05Z</time>
  <name>Point 228</name>
  <cmt>Point 228</cmt>
  <desc>Point 228</desc>
</trkpt>
<trkpt lat="24.104761000" lon="120.618263000">
  <ele>34.610000</ele>
  <time>2008-12-20T08:32:10Z</time>
  <name>Point 229</name>
  <cmt>Point 229</cmt>
  <desc>Point 229</desc>
</trkpt>
<trkpt lat="24.104969000" lon="120.618225000">
  <ele>35.070000</ele>
  <time>2008-12-20T08:32:15Z</time>
  <name>Point 230</name>
  <cmt>Point 230</cmt>
  <desc>Point 230</desc>
</trkpt>
<trkpt lat="24.105278000" lon="120.618179000">
  <ele>36.480000</ele>
  <time>2008-12-20T08:32:20Z</time>
  <name>Point 231</name>
  <cmt>Point 231</cmt>
  <desc>Point 231</desc>
</trkpt>
<trkpt lat="24.105490000" lon="120.618172000">
  <ele>36.880000</ele>
  <time>2008-12-20T08:32:25Z</time>
  <name>Point 232</name>
  <cmt>Point 232</cmt>
  <desc>Point 232</desc>
</trkpt>
<trkpt lat="24.105631000" lon="120.618095000">
  <ele>46.050000</ele>
  <time>2008-12-20T08:32:30Z</time>
  <name>Point 233</name>
  <cmt>Point 233</cmt>
  <desc>Point 233</desc>
</trkpt>
<trkpt lat="24.105673000" lon="120.618050000">
  <ele>50.420000</ele>
  <time>2008-12-20T08:32:35Z</time>
  <name>Point 234</name>
  <cmt>Point 234</cmt>
  <desc>Point 234</desc>
</trkpt>
<trkpt lat="24.105684000" lon="120.617935000">
  <ele>50.200000</ele>
  <time>2008-12-20T08:32:40Z</time>
  <name>Point 235</name>
  <cmt>Point 235</cmt>
  <desc>Point 235</desc>
</trkpt>
<trkpt lat="24.105757000" lon="120.617714000">
  <ele>47.260000</ele>
  <time>2008-12-20T08:32:45Z</time>
  <name>Point 236</name>
  <cmt>Point 236</cmt>
  <desc>Point 236</desc>
</trkpt>
<trkpt lat="24.105743000" lon="120.617447000">
  <ele>45.160000</ele>
  <time>2008-12-20T08:32:50Z</time>
  <name>Point 237</name>
  <cmt>Point 237</cmt>
  <desc>Point 237</desc>
</trkpt>
<trkpt lat="24.105709000" lon="120.617134000">
  <ele>43.140000</ele>
  <time>2008-12-20T08:32:55Z</time>
  <name>Point 238</name>
  <cmt>Point 238</cmt>
  <desc>Point 238</desc>
</trkpt>
<trkpt lat="24.105717000" lon="120.616806000">
  <ele>42.190000</ele>
  <time>2008-12-20T08:33:00Z</time>
  <name>Point 239</name>
  <cmt>Point 239</cmt>
  <desc>Point 239</desc>
</trkpt>
<trkpt lat="24.105734000" lon="120.616478000">
  <ele>43.370000</ele>
  <time>2008-12-20T08:33:05Z</time>
  <name>Point 240</name>
  <cmt>Point 240</cmt>
  <desc>Point 240</desc>
</trkpt>
<trkpt lat="24.105818000" lon="120.616188000">
  <ele>42.820000</ele>
  <time>2008-12-20T08:33:10Z</time>
  <name>Point 241</name>
  <cmt>Point 241</cmt>
  <desc>Point 241</desc>
</trkpt>
<trkpt lat="24.105938000" lon="120.615875000">
  <ele>44.560000</ele>
  <time>2008-12-20T08:33:15Z</time>
  <name>Point 242</name>
  <cmt>Point 242</cmt>
  <desc>Point 242</desc>
</trkpt>
<trkpt lat="24.106064000" lon="120.615585000">
  <ele>41.800000</ele>
  <time>2008-12-20T08:33:20Z</time>
  <name>Point 243</name>
  <cmt>Point 243</cmt>
  <desc>Point 243</desc>
</trkpt>
<trkpt lat="24.106131000" lon="120.615303000">
  <ele>40.690000</ele>
  <time>2008-12-20T08:33:25Z</time>
  <name>Point 244</name>
  <cmt>Point 244</cmt>
  <desc>Point 244</desc>
</trkpt>
<trkpt lat="24.106329000" lon="120.615036000">
  <ele>39.330000</ele>
  <time>2008-12-20T08:33:30Z</time>
  <name>Point 245</name>
  <cmt>Point 245</cmt>
  <desc>Point 245</desc>
</trkpt>
<trkpt lat="24.106462000" lon="120.614777000">
  <ele>39.260000</ele>
  <time>2008-12-20T08:33:35Z</time>
  <name>Point 246</name>
  <cmt>Point 246</cmt>
  <desc>Point 246</desc>
</trkpt>
<trkpt lat="24.106606000" lon="120.614532000">
  <ele>38.550000</ele>
  <time>2008-12-20T08:33:40Z</time>
  <name>Point 247</name>
  <cmt>Point 247</cmt>
  <desc>Point 247</desc>
</trkpt>
<trkpt lat="24.106720000" lon="120.614342000">
  <ele>37.780000</ele>
  <time>2008-12-20T08:33:45Z</time>
  <name>Point 248</name>
  <cmt>Point 248</cmt>
  <desc>Point 248</desc>
</trkpt>
<trkpt lat="24.106865000" lon="120.614403000">
  <ele>35.450000</ele>
  <time>2008-12-20T08:33:50Z</time>
  <name>Point 249</name>
  <cmt>Point 249</cmt>
  <desc>Point 249</desc>
</trkpt>
<trkpt lat="24.107006000" lon="120.614517000">
  <ele>35.490000</ele>
  <time>2008-12-20T08:33:55Z</time>
  <name>Point 250</name>
  <cmt>Point 250</cmt>
  <desc>Point 250</desc>
</trkpt>
<trkpt lat="24.107191000" lon="120.614632000">
  <ele>35.690000</ele>
  <time>2008-12-20T08:34:00Z</time>
  <name>Point 251</name>
  <cmt>Point 251</cmt>
  <desc>Point 251</desc>
</trkpt>
<trkpt lat="24.107420000" lon="120.614830000">
  <ele>35.970000</ele>
  <time>2008-12-20T08:34:05Z</time>
  <name>Point 252</name>
  <cmt>Point 252</cmt>
  <desc>Point 252</desc>
</trkpt>
<trkpt lat="24.107668000" lon="120.615089000">
  <ele>34.380000</ele>
  <time>2008-12-20T08:34:10Z</time>
  <name>Point 253</name>
  <cmt>Point 253</cmt>
  <desc>Point 253</desc>
</trkpt>
<trkpt lat="24.107883000" lon="120.615433000">
  <ele>32.230000</ele>
  <time>2008-12-20T08:34:15Z</time>
  <name>Point 254</name>
  <cmt>Point 254</cmt>
  <desc>Point 254</desc>
</trkpt>
<trkpt lat="24.108152000" lon="120.615807000">
  <ele>30.900000</ele>
  <time>2008-12-20T08:34:20Z</time>
  <name>Point 255</name>
  <cmt>Point 255</cmt>
  <desc>Point 255</desc>
</trkpt>
<trkpt lat="24.108578000" lon="120.616142000">
  <ele>29.880000</ele>
  <time>2008-12-20T08:34:25Z</time>
  <name>Point 256</name>
  <cmt>Point 256</cmt>
  <desc>Point 256</desc>
</trkpt>
<trkpt lat="24.109058000" lon="120.616470000">
  <ele>28.820000</ele>
  <time>2008-12-20T08:34:30Z</time>
  <name>Point 257</name>
  <cmt>Point 257</cmt>
  <desc>Point 257</desc>
</trkpt>
<trkpt lat="24.111151000" lon="120.617493000">
  <ele>15.280000</ele>
  <time>2008-12-20T08:34:52Z</time>
  <name>Point 258</name>
  <cmt>Point 258</cmt>
  <desc>Point 258</desc>
</trkpt>
<trkpt lat="24.111231000" lon="120.617744000">
  <ele>18.540000</ele>
  <time>2008-12-20T08:34:57Z</time>
  <name>Point 259</name>
  <cmt>Point 259</cmt>
  <desc>Point 259</desc>
</trkpt>
<trkpt lat="24.111265000" lon="120.618011000">
  <ele>22.610000</ele>
  <time>2008-12-20T08:35:02Z</time>
  <name>Point 260</name>
  <cmt>Point 260</cmt>
  <desc>Point 260</desc>
</trkpt>
<trkpt lat="24.111328000" lon="120.618187000">
  <ele>27.290000</ele>
  <time>2008-12-20T08:35:07Z</time>
  <name>Point 261</name>
  <cmt>Point 261</cmt>
  <desc>Point 261</desc>
</trkpt>
<trkpt lat="24.111362000" lon="120.618347000">
  <ele>30.550000</ele>
  <time>2008-12-20T08:35:12Z</time>
  <name>Point 262</name>
  <cmt>Point 262</cmt>
  <desc>Point 262</desc>
</trkpt>
<trkpt lat="24.111511000" lon="120.618401000">
  <ele>30.380000</ele>
  <time>2008-12-20T08:35:17Z</time>
  <name>Point 263</name>
  <cmt>Point 263</cmt>
  <desc>Point 263</desc>
</trkpt>
<trkpt lat="24.111553000" lon="120.618439000">
  <ele>31.610000</ele>
  <time>2008-12-20T08:35:22Z</time>
  <name>Point 264</name>
  <cmt>Point 264</cmt>
  <desc>Point 264</desc>
</trkpt>
<trkpt lat="24.111559000" lon="120.618439000">
  <ele>31.870000</ele>
  <time>2008-12-20T08:35:27Z</time>
  <name>Point 265</name>
  <cmt>Point 265</cmt>
  <desc>Point 265</desc>
</trkpt>
<trkpt lat="24.111559000" lon="120.618439000">
  <ele>32.080000</ele>
  <time>2008-12-20T08:35:32Z</time>
  <name>Point 266</name>
  <cmt>Point 266</cmt>
  <desc>Point 266</desc>
</trkpt>
<trkpt lat="24.111561000" lon="120.618439000">
  <ele>32.160000</ele>
  <time>2008-12-20T08:35:37Z</time>
  <name>Point 267</name>
  <cmt>Point 267</cmt>
  <desc>Point 267</desc>
</trkpt>
<trkpt lat="24.111639000" lon="120.618385000">
  <ele>31.000000</ele>
  <time>2008-12-20T08:35:42Z</time>
  <name>Point 268</name>
  <cmt>Point 268</cmt>
  <desc>Point 268</desc>
</trkpt>
<trkpt lat="24.111717000" lon="120.618248000">
  <ele>30.930000</ele>
  <time>2008-12-20T08:35:47Z</time>
  <name>Point 269</name>
  <cmt>Point 269</cmt>
  <desc>Point 269</desc>
</trkpt>
<trkpt lat="24.111752000" lon="120.618027000">
  <ele>31.880000</ele>
  <time>2008-12-20T08:35:52Z</time>
  <name>Point 270</name>
  <cmt>Point 270</cmt>
  <desc>Point 270</desc>
</trkpt>
<trkpt lat="24.111776000" lon="120.617790000">
  <ele>33.910000</ele>
  <time>2008-12-20T08:35:57Z</time>
  <name>Point 271</name>
  <cmt>Point 271</cmt>
  <desc>Point 271</desc>
</trkpt>
<trkpt lat="24.111797000" lon="120.617508000">
  <ele>35.620000</ele>
  <time>2008-12-20T08:36:02Z</time>
  <name>Point 272</name>
  <cmt>Point 272</cmt>
  <desc>Point 272</desc>
</trkpt>
<trkpt lat="24.111832000" lon="120.617172000">
  <ele>37.200000</ele>
  <time>2008-12-20T08:36:07Z</time>
  <name>Point 273</name>
  <cmt>Point 273</cmt>
  <desc>Point 273</desc>
</trkpt>
<trkpt lat="24.111847000" lon="120.616882000">
  <ele>39.580000</ele>
  <time>2008-12-20T08:36:12Z</time>
  <name>Point 274</name>
  <cmt>Point 274</cmt>
  <desc>Point 274</desc>
</trkpt>
<trkpt lat="24.111893000" lon="120.616623000">
  <ele>41.450000</ele>
  <time>2008-12-20T08:36:17Z</time>
  <name>Point 275</name>
  <cmt>Point 275</cmt>
  <desc>Point 275</desc>
</trkpt>
<trkpt lat="24.112125000" lon="120.616577000">
  <ele>46.860000</ele>
  <time>2008-12-20T08:36:22Z</time>
  <name>Point 276</name>
  <cmt>Point 276</cmt>
  <desc>Point 276</desc>
</trkpt>
<trkpt lat="24.112389000" lon="120.616638000">
  <ele>50.660000</ele>
  <time>2008-12-20T08:36:27Z</time>
  <name>Point 277</name>
  <cmt>Point 277</cmt>
  <desc>Point 277</desc>
</trkpt>
<trkpt lat="24.112667000" lon="120.616653000">
  <ele>52.650000</ele>
  <time>2008-12-20T08:36:32Z</time>
  <name>Point 278</name>
  <cmt>Point 278</cmt>
  <desc>Point 278</desc>
</trkpt>
<trkpt lat="24.112965000" lon="120.616669000">
  <ele>51.550000</ele>
  <time>2008-12-20T08:36:37Z</time>
  <name>Point 279</name>
  <cmt>Point 279</cmt>
  <desc>Point 279</desc>
</trkpt>
<trkpt lat="24.113258000" lon="120.616638000">
  <ele>45.750000</ele>
  <time>2008-12-20T08:36:42Z</time>
  <name>Point 280</name>
  <cmt>Point 280</cmt>
  <desc>Point 280</desc>
</trkpt>
<trkpt lat="24.113409000" lon="120.616493000">
  <ele>42.940000</ele>
  <time>2008-12-20T08:36:47Z</time>
  <name>Point 281</name>
  <cmt>Point 281</cmt>
  <desc>Point 281</desc>
</trkpt>
<trkpt lat="24.113325000" lon="120.616463000">
  <ele>32.370000</ele>
  <time>2008-12-20T08:36:52Z</time>
  <name>Point 282</name>
  <cmt>Point 282</cmt>
  <desc>Point 282</desc>
</trkpt>
<trkpt lat="24.113098000" lon="120.616501000">
  <ele>31.220000</ele>
  <time>2008-12-20T08:36:57Z</time>
  <name>Point 283</name>
  <cmt>Point 283</cmt>
  <desc>Point 283</desc>
</trkpt>
<trkpt lat="24.112862000" lon="120.616501000">
  <ele>31.160000</ele>
  <time>2008-12-20T08:37:02Z</time>
  <name>Point 284</name>
  <cmt>Point 284</cmt>
  <desc>Point 284</desc>
</trkpt>
<trkpt lat="24.112631000" lon="120.616531000">
  <ele>31.870000</ele>
  <time>2008-12-20T08:37:07Z</time>
  <name>Point 285</name>
  <cmt>Point 285</cmt>
  <desc>Point 285</desc>
</trkpt>
<trkpt lat="24.112394000" lon="120.616577000">
  <ele>32.740000</ele>
  <time>2008-12-20T08:37:12Z</time>
  <name>Point 286</name>
  <cmt>Point 286</cmt>
  <desc>Point 286</desc>
</trkpt>
<trkpt lat="24.112307000" lon="120.616608000">
  <ele>32.680000</ele>
  <time>2008-12-20T08:37:17Z</time>
  <name>Point 287</name>
  <cmt>Point 287</cmt>
  <desc>Point 287</desc>
</trkpt>
<trkpt lat="24.112293000" lon="120.616653000">
  <ele>32.020000</ele>
  <time>2008-12-20T08:37:22Z</time>
  <name>Point 288</name>
  <cmt>Point 288</cmt>
  <desc>Point 288</desc>
</trkpt>
<trkpt lat="24.112284000" lon="120.616684000">
  <ele>31.840000</ele>
  <time>2008-12-20T08:37:27Z</time>
  <name>Point 289</name>
  <cmt>Point 289</cmt>
  <desc>Point 289</desc>
</trkpt>
<trkpt lat="24.112282000" lon="120.616753000">
  <ele>31.800000</ele>
  <time>2008-12-20T08:37:32Z</time>
  <name>Point 290</name>
  <cmt>Point 290</cmt>
  <desc>Point 290</desc>
</trkpt>
<trkpt lat="24.112257000" lon="120.616798000">
  <ele>31.510000</ele>
  <time>2008-12-20T08:37:37Z</time>
  <name>Point 291</name>
  <cmt>Point 291</cmt>
  <desc>Point 291</desc>
</trkpt>
<trkpt lat="24.112274000" lon="120.616791000">
  <ele>31.190000</ele>
  <time>2008-12-20T08:37:42Z</time>
  <name>Point 292</name>
  <cmt>Point 292</cmt>
  <desc>Point 292</desc>
</trkpt>
<trkpt lat="24.112274000" lon="120.616814000">
  <ele>31.350000</ele>
  <time>2008-12-20T08:37:47Z</time>
  <name>Point 293</name>
  <cmt>Point 293</cmt>
  <desc>Point 293</desc>
</trkpt>
<trkpt lat="24.112263000" lon="120.616905000">
  <ele>31.600000</ele>
  <time>2008-12-20T08:37:52Z</time>
  <name>Point 294</name>
  <cmt>Point 294</cmt>
  <desc>Point 294</desc>
</trkpt>
<trkpt lat="24.112226000" lon="120.616974000">
  <ele>31.910000</ele>
  <time>2008-12-20T08:37:57Z</time>
  <name>Point 295</name>
  <cmt>Point 295</cmt>
  <desc>Point 295</desc>
</trkpt>
<trkpt lat="24.112202000" lon="120.617012000">
  <ele>31.940000</ele>
  <time>2008-12-20T08:38:02Z</time>
  <name>Point 296</name>
  <cmt>Point 296</cmt>
  <desc>Point 296</desc>
</trkpt>
<trkpt lat="24.112209000" lon="120.617020000">
  <ele>31.160000</ele>
  <time>2008-12-20T08:38:07Z</time>
  <name>Point 297</name>
  <cmt>Point 297</cmt>
  <desc>Point 297</desc>
</trkpt>
<trkpt lat="24.112211000" lon="120.617027000">
  <ele>31.160000</ele>
  <time>2008-12-20T08:38:12Z</time>
  <name>Point 298</name>
  <cmt>Point 298</cmt>
  <desc>Point 298</desc>
</trkpt>
<trkpt lat="24.112209000" lon="120.617027000">
  <ele>31.180000</ele>
  <time>2008-12-20T08:38:17Z</time>
  <name>Point 299</name>
  <cmt>Point 299</cmt>
  <desc>Point 299</desc>
</trkpt>
<trkpt lat="24.112211000" lon="120.617027000">
  <ele>31.190000</ele>
  <time>2008-12-20T08:38:22Z</time>
  <name>Point 300</name>
  <cmt>Point 300</cmt>
  <desc>Point 300</desc>
</trkpt>
<trkpt lat="24.112238000" lon="120.616951000">
  <ele>30.980000</ele>
  <time>2008-12-20T08:38:27Z</time>
  <name>Point 301</name>
  <cmt>Point 301</cmt>
  <desc>Point 301</desc>
</trkpt>
<trkpt lat="24.112272000" lon="120.616867000">
  <ele>30.970000</ele>
  <time>2008-12-20T08:38:32Z</time>
  <name>Point 302</name>
  <cmt>Point 302</cmt>
  <desc>Point 302</desc>
</trkpt>
<trkpt lat="24.112301000" lon="120.616776000">
  <ele>31.850000</ele>
  <time>2008-12-20T08:38:37Z</time>
  <name>Point 303</name>
  <cmt>Point 303</cmt>
  <desc>Point 303</desc>
</trkpt>
<trkpt lat="24.112322000" lon="120.616730000">
  <ele>31.820000</ele>
  <time>2008-12-20T08:38:42Z</time>
  <name>Point 304</name>
  <cmt>Point 304</cmt>
  <desc>Point 304</desc>
</trkpt>
<trkpt lat="24.112394000" lon="120.616692000">
  <ele>30.930000</ele>
  <time>2008-12-20T08:38:47Z</time>
  <name>Point 305</name>
  <cmt>Point 305</cmt>
  <desc>Point 305</desc>
</trkpt>
<trkpt lat="24.112417000" lon="120.616745000">
  <ele>31.300000</ele>
  <time>2008-12-20T08:38:52Z</time>
  <name>Point 306</name>
  <cmt>Point 306</cmt>
  <desc>Point 306</desc>
</trkpt>
<trkpt lat="24.112413000" lon="120.616753000">
  <ele>31.760000</ele>
  <time>2008-12-20T08:38:57Z</time>
  <name>Point 307</name>
  <cmt>Point 307</cmt>
  <desc>Point 307</desc>
</trkpt>
<trkpt lat="24.112410000" lon="120.616760000">
  <ele>31.750000</ele>
  <time>2008-12-20T08:39:02Z</time>
  <name>Point 308</name>
  <cmt>Point 308</cmt>
  <desc>Point 308</desc>
</trkpt>
<trkpt lat="24.112392000" lon="120.616814000">
  <ele>32.110000</ele>
  <time>2008-12-20T08:39:07Z</time>
  <name>Point 309</name>
  <cmt>Point 309</cmt>
  <desc>Point 309</desc>
</trkpt>
<trkpt lat="24.112404000" lon="120.616890000">
  <ele>32.510000</ele>
  <time>2008-12-20T08:39:12Z</time>
  <name>Point 310</name>
  <cmt>Point 310</cmt>
  <desc>Point 310</desc>
</trkpt>
<trkpt lat="24.112396000" lon="120.616928000">
  <ele>33.070000</ele>
  <time>2008-12-20T08:39:17Z</time>
  <name>Point 311</name>
  <cmt>Point 311</cmt>
  <desc>Point 311</desc>
</trkpt>
<trkpt lat="24.112213000" lon="120.616974000">
  <ele>34.610000</ele>
  <time>2008-12-20T08:39:22Z</time>
  <name>Point 312</name>
  <cmt>Point 312</cmt>
  <desc>Point 312</desc>
</trkpt>
</trkseg>
</trk>
</gpx>
