<?xml version="1.0" encoding="UTF-8"?>
<gpx
  version="1.0"
  creator="GPSBabel - http://www.gpsbabel.org"
  xmlns:xsi="http://www.w3.org/2001/XMLSchema-instance"
  xmlns="http://www.topografix.com/GPX/1/0"
  xsi:schemaLocation="http://www.topografix.com/GPX/1/0 http://www.topografix.com/GPX/1/0/gpx.xsd">
<time>2009-10-21T03:22:12Z</time>
<bounds minlat="24.594360000" minlon="121.295197000" maxlat="24.612976000" maxlon="121.303680000"/>
<trk>
<trkseg>
<trkpt lat="24.612379000" lon="121.297646000">
  <ele>1442.690000</ele>
  <time>2009-10-19T03:31:06Z</time>
  <name>Point 0</name>
  <cmt>Point 0</cmt>
  <desc>Point 0</desc>
</trkpt>
<trkpt lat="24.612494000" lon="121.297539000">
  <ele>1438.380000</ele>
  <time>2009-10-19T03:31:11Z</time>
  <name>Point 1</name>
  <cmt>Point 1</cmt>
  <desc>Point 1</desc>
</trkpt>
<trkpt lat="24.612513000" lon="121.297432000">
  <ele>1442.720000</ele>
  <time>2009-10-19T03:31:16Z</time>
  <name>Point 2</name>
  <cmt>Point 2</cmt>
  <desc>Point 2</desc>
</trkpt>
<trkpt lat="24.612549000" lon="121.297348000">
  <ele>1440.690000</ele>
  <time>2009-10-19T03:31:21Z</time>
  <name>Point 3</name>
  <cmt>Point 3</cmt>
  <desc>Point 3</desc>
</trkpt>
<trkpt lat="24.612682000" lon="121.297386000">
  <ele>1416.130000</ele>
  <time>2009-10-19T03:31:26Z</time>
  <name>Point 4</name>
  <cmt>Point 4</cmt>
  <desc>Point 4</desc>
</trkpt>
<trkpt lat="24.612732000" lon="121.297287000">
  <ele>1416.500000</ele>
  <time>2009-10-19T03:31:31Z</time>
  <name>Point 5</name>
  <cmt>Point 5</cmt>
  <desc>Point 5</desc>
</trkpt>
<trkpt lat="24.612799000" lon="121.297157000">
  <ele>1417.090000</ele>
  <time>2009-10-19T03:31:36Z</time>
  <name>Point 6</name>
  <cmt>Point 6</cmt>
  <desc>Point 6</desc>
</trkpt>
<trkpt lat="24.612844000" lon="121.297020000">
  <ele>1419.410000</ele>
  <time>2009-10-19T03:31:41Z</time>
  <name>Point 7</name>
  <cmt>Point 7</cmt>
  <desc>Point 7</desc>
</trkpt>
<trkpt lat="24.612879000" lon="121.296875000">
  <ele>1420.130000</ele>
  <time>2009-10-19T03:31:46Z</time>
  <name>Point 8</name>
  <cmt>Point 8</cmt>
  <desc>Point 8</desc>
</trkpt>
<trkpt lat="24.612909000" lon="121.296738000">
  <ele>1421.530000</ele>
  <time>2009-10-19T03:31:51Z</time>
  <name>Point 9</name>
  <cmt>Point 9</cmt>
  <desc>Point 9</desc>
</trkpt>
<trkpt lat="24.612953000" lon="121.296623000">
  <ele>1421.810000</ele>
  <time>2009-10-19T03:31:56Z</time>
  <name>Point 10</name>
  <cmt>Point 10</cmt>
  <desc>Point 10</desc>
</trkpt>
<trkpt lat="24.612976000" lon="121.296516000">
  <ele>1422.720000</ele>
  <time>2009-10-19T03:32:01Z</time>
  <name>Point 11</name>
  <cmt>Point 11</cmt>
  <desc>Point 11</desc>
</trkpt>
<trkpt lat="24.612965000" lon="121.296432000">
  <ele>1423.500000</ele>
  <time>2009-10-19T03:32:06Z</time>
  <name>Point 12</name>
  <cmt>Point 12</cmt>
  <desc>Point 12</desc>
</trkpt>
<trkpt lat="24.612923000" lon="121.296349000">
  <ele>1424.220000</ele>
  <time>2009-10-19T03:32:11Z</time>
  <name>Point 13</name>
  <cmt>Point 13</cmt>
  <desc>Point 13</desc>
</trkpt>
<trkpt lat="24.612877000" lon="121.296295000">
  <ele>1425.060000</ele>
  <time>2009-10-19T03:32:16Z</time>
  <name>Point 14</name>
  <cmt>Point 14</cmt>
  <desc>Point 14</desc>
</trkpt>
<trkpt lat="24.612827000" lon="121.296219000">
  <ele>1425.720000</ele>
  <time>2009-10-19T03:32:21Z</time>
  <name>Point 15</name>
  <cmt>Point 15</cmt>
  <desc>Point 15</desc>
</trkpt>
<trkpt lat="24.612772000" lon="121.296165000">
  <ele>1426.910000</ele>
  <time>2009-10-19T03:32:26Z</time>
  <name>Point 16</name>
  <cmt>Point 16</cmt>
  <desc>Point 16</desc>
</trkpt>
<trkpt lat="24.612713000" lon="121.296112000">
  <ele>1428.030000</ele>
  <time>2009-10-19T03:32:31Z</time>
  <name>Point 17</name>
  <cmt>Point 17</cmt>
  <desc>Point 17</desc>
</trkpt>
<trkpt lat="24.612656000" lon="121.296043000">
  <ele>1426.720000</ele>
  <time>2009-10-19T03:32:36Z</time>
  <name>Point 18</name>
  <cmt>Point 18</cmt>
  <desc>Point 18</desc>
</trkpt>
<trkpt lat="24.612595000" lon="121.296005000">
  <ele>1426.220000</ele>
  <time>2009-10-19T03:32:41Z</time>
  <name>Point 19</name>
  <cmt>Point 19</cmt>
  <desc>Point 19</desc>
</trkpt>
<trkpt lat="24.612556000" lon="121.295929000">
  <ele>1425.340000</ele>
  <time>2009-10-19T03:32:46Z</time>
  <name>Point 20</name>
  <cmt>Point 20</cmt>
  <desc>Point 20</desc>
</trkpt>
<trkpt lat="24.612488000" lon="121.295876000">
  <ele>1424.280000</ele>
  <time>2009-10-19T03:32:51Z</time>
  <name>Point 21</name>
  <cmt>Point 21</cmt>
  <desc>Point 21</desc>
</trkpt>
<trkpt lat="24.612423000" lon="121.295845000">
  <ele>1424.380000</ele>
  <time>2009-10-19T03:32:56Z</time>
  <name>Point 22</name>
  <cmt>Point 22</cmt>
  <desc>Point 22</desc>
</trkpt>
<trkpt lat="24.612371000" lon="121.295799000">
  <ele>1423.720000</ele>
  <time>2009-10-19T03:33:01Z</time>
  <name>Point 23</name>
  <cmt>Point 23</cmt>
  <desc>Point 23</desc>
</trkpt>
<trkpt lat="24.612309000" lon="121.295723000">
  <ele>1424.220000</ele>
  <time>2009-10-19T03:33:06Z</time>
  <name>Point 24</name>
  <cmt>Point 24</cmt>
  <desc>Point 24</desc>
</trkpt>
<trkpt lat="24.612236000" lon="121.295639000">
  <ele>1423.910000</ele>
  <time>2009-10-19T03:33:11Z</time>
  <name>Point 25</name>
  <cmt>Point 25</cmt>
  <desc>Point 25</desc>
</trkpt>
<trkpt lat="24.612167000" lon="121.295570000">
  <ele>1422.000000</ele>
  <time>2009-10-19T03:33:16Z</time>
  <name>Point 26</name>
  <cmt>Point 26</cmt>
  <desc>Point 26</desc>
</trkpt>
<trkpt lat="24.612106000" lon="121.295494000">
  <ele>1422.470000</ele>
  <time>2009-10-19T03:33:21Z</time>
  <name>Point 27</name>
  <cmt>Point 27</cmt>
  <desc>Point 27</desc>
</trkpt>
<trkpt lat="24.612078000" lon="121.295479000">
  <ele>1422.220000</ele>
  <time>2009-10-19T03:33:26Z</time>
  <name>Point 28</name>
  <cmt>Point 28</cmt>
  <desc>Point 28</desc>
</trkpt>
<trkpt lat="24.612072000" lon="121.295448000">
  <ele>1425.440000</ele>
  <time>2009-10-19T03:33:31Z</time>
  <name>Point 29</name>
  <cmt>Point 29</cmt>
  <desc>Point 29</desc>
</trkpt>
<trkpt lat="24.612013000" lon="121.295410000">
  <ele>1427.440000</ele>
  <time>2009-10-19T03:33:36Z</time>
  <name>Point 30</name>
  <cmt>Point 30</cmt>
  <desc>Point 30</desc>
</trkpt>
<trkpt lat="24.611929000" lon="121.295357000">
  <ele>1427.630000</ele>
  <time>2009-10-19T03:33:41Z</time>
  <name>Point 31</name>
  <cmt>Point 31</cmt>
  <desc>Point 31</desc>
</trkpt>
<trkpt lat="24.611855000" lon="121.295303000">
  <ele>1427.810000</ele>
  <time>2009-10-19T03:33:46Z</time>
  <name>Point 32</name>
  <cmt>Point 32</cmt>
  <desc>Point 32</desc>
</trkpt>
<trkpt lat="24.611765000" lon="121.295250000">
  <ele>1428.160000</ele>
  <time>2009-10-19T03:33:51Z</time>
  <name>Point 33</name>
  <cmt>Point 33</cmt>
  <desc>Point 33</desc>
</trkpt>
<trkpt lat="24.611673000" lon="121.295242000">
  <ele>1426.090000</ele>
  <time>2009-10-19T03:33:56Z</time>
  <name>Point 34</name>
  <cmt>Point 34</cmt>
  <desc>Point 34</desc>
</trkpt>
<trkpt lat="24.611601000" lon="121.295197000">
  <ele>1425.500000</ele>
  <time>2009-10-19T03:34:01Z</time>
  <name>Point 35</name>
  <cmt>Point 35</cmt>
  <desc>Point 35</desc>
</trkpt>
<trkpt lat="24.611506000" lon="121.295204000">
  <ele>1424.780000</ele>
  <time>2009-10-19T03:34:06Z</time>
  <name>Point 36</name>
  <cmt>Point 36</cmt>
  <desc>Point 36</desc>
</trkpt>
<trkpt lat="24.611420000" lon="121.295204000">
  <ele>1422.030000</ele>
  <time>2009-10-19T03:34:11Z</time>
  <name>Point 37</name>
  <cmt>Point 37</cmt>
  <desc>Point 37</desc>
</trkpt>
<trkpt lat="24.611374000" lon="121.295212000">
  <ele>1419.220000</ele>
  <time>2009-10-19T03:34:16Z</time>
  <name>Point 38</name>
  <cmt>Point 38</cmt>
  <desc>Point 38</desc>
</trkpt>
<trkpt lat="24.611317000" lon="121.295242000">
  <ele>1422.910000</ele>
  <time>2009-10-19T03:34:21Z</time>
  <name>Point 39</name>
  <cmt>Point 39</cmt>
  <desc>Point 39</desc>
</trkpt>
<trkpt lat="24.611366000" lon="121.295326000">
  <ele>1421.810000</ele>
  <time>2009-10-19T03:34:26Z</time>
  <name>Point 40</name>
  <cmt>Point 40</cmt>
  <desc>Point 40</desc>
</trkpt>
<trkpt lat="24.611410000" lon="121.295395000">
  <ele>1422.720000</ele>
  <time>2009-10-19T03:34:31Z</time>
  <name>Point 41</name>
  <cmt>Point 41</cmt>
  <desc>Point 41</desc>
</trkpt>
<trkpt lat="24.611448000" lon="121.295486000">
  <ele>1422.310000</ele>
  <time>2009-10-19T03:34:36Z</time>
  <name>Point 42</name>
  <cmt>Point 42</cmt>
  <desc>Point 42</desc>
</trkpt>
<trkpt lat="24.611450000" lon="121.295586000">
  <ele>1424.410000</ele>
  <time>2009-10-19T03:34:41Z</time>
  <name>Point 43</name>
  <cmt>Point 43</cmt>
  <desc>Point 43</desc>
</trkpt>
<trkpt lat="24.611444000" lon="121.295677000">
  <ele>1426.590000</ele>
  <time>2009-10-19T03:34:46Z</time>
  <name>Point 44</name>
  <cmt>Point 44</cmt>
  <desc>Point 44</desc>
</trkpt>
<trkpt lat="24.611465000" lon="121.295753000">
  <ele>1429.160000</ele>
  <time>2009-10-19T03:34:51Z</time>
  <name>Point 45</name>
  <cmt>Point 45</cmt>
  <desc>Point 45</desc>
</trkpt>
<trkpt lat="24.611492000" lon="121.295784000">
  <ele>1431.630000</ele>
  <time>2009-10-19T03:34:56Z</time>
  <name>Point 46</name>
  <cmt>Point 46</cmt>
  <desc>Point 46</desc>
</trkpt>
<trkpt lat="24.611530000" lon="121.295845000">
  <ele>1433.910000</ele>
  <time>2009-10-19T03:35:01Z</time>
  <name>Point 47</name>
  <cmt>Point 47</cmt>
  <desc>Point 47</desc>
</trkpt>
<trkpt lat="24.611570000" lon="121.295944000">
  <ele>1435.560000</ele>
  <time>2009-10-19T03:35:06Z</time>
  <name>Point 48</name>
  <cmt>Point 48</cmt>
  <desc>Point 48</desc>
</trkpt>
<trkpt lat="24.611624000" lon="121.296036000">
  <ele>1436.840000</ele>
  <time>2009-10-19T03:35:11Z</time>
  <name>Point 49</name>
  <cmt>Point 49</cmt>
  <desc>Point 49</desc>
</trkpt>
<trkpt lat="24.611670000" lon="121.296135000">
  <ele>1437.090000</ele>
  <time>2009-10-19T03:35:16Z</time>
  <name>Point 50</name>
  <cmt>Point 50</cmt>
  <desc>Point 50</desc>
</trkpt>
<trkpt lat="24.611721000" lon="121.296211000">
  <ele>1436.780000</ele>
  <time>2009-10-19T03:35:21Z</time>
  <name>Point 51</name>
  <cmt>Point 51</cmt>
  <desc>Point 51</desc>
</trkpt>
<trkpt lat="24.611729000" lon="121.296402000">
  <ele>1438.750000</ele>
  <time>2009-10-19T03:35:26Z</time>
  <name>Point 52</name>
  <cmt>Point 52</cmt>
  <desc>Point 52</desc>
</trkpt>
<trkpt lat="24.611731000" lon="121.296509000">
  <ele>1438.690000</ele>
  <time>2009-10-19T03:35:31Z</time>
  <name>Point 53</name>
  <cmt>Point 53</cmt>
  <desc>Point 53</desc>
</trkpt>
<trkpt lat="24.611732000" lon="121.296555000">
  <ele>1438.910000</ele>
  <time>2009-10-19T03:35:36Z</time>
  <name>Point 54</name>
  <cmt>Point 54</cmt>
  <desc>Point 54</desc>
</trkpt>
<trkpt lat="24.611778000" lon="121.296570000">
  <ele>1438.380000</ele>
  <time>2009-10-19T03:35:41Z</time>
  <name>Point 55</name>
  <cmt>Point 55</cmt>
  <desc>Point 55</desc>
</trkpt>
<trkpt lat="24.611794000" lon="121.296654000">
  <ele>1435.720000</ele>
  <time>2009-10-19T03:35:46Z</time>
  <name>Point 56</name>
  <cmt>Point 56</cmt>
  <desc>Point 56</desc>
</trkpt>
<trkpt lat="24.611822000" lon="121.296783000">
  <ele>1434.560000</ele>
  <time>2009-10-19T03:35:51Z</time>
  <name>Point 57</name>
  <cmt>Point 57</cmt>
  <desc>Point 57</desc>
</trkpt>
<trkpt lat="24.611832000" lon="121.296867000">
  <ele>1434.340000</ele>
  <time>2009-10-19T03:35:56Z</time>
  <name>Point 58</name>
  <cmt>Point 58</cmt>
  <desc>Point 58</desc>
</trkpt>
<trkpt lat="24.611826000" lon="121.296944000">
  <ele>1433.630000</ele>
  <time>2009-10-19T03:36:01Z</time>
  <name>Point 59</name>
  <cmt>Point 59</cmt>
  <desc>Point 59</desc>
</trkpt>
<trkpt lat="24.611752000" lon="121.297134000">
  <ele>1435.000000</ele>
  <time>2009-10-19T03:36:06Z</time>
  <name>Point 60</name>
  <cmt>Point 60</cmt>
  <desc>Point 60</desc>
</trkpt>
<trkpt lat="24.611692000" lon="121.297302000">
  <ele>1436.630000</ele>
  <time>2009-10-19T03:36:11Z</time>
  <name>Point 61</name>
  <cmt>Point 61</cmt>
  <desc>Point 61</desc>
</trkpt>
<trkpt lat="24.611687000" lon="121.297424000">
  <ele>1436.840000</ele>
  <time>2009-10-19T03:36:16Z</time>
  <name>Point 62</name>
  <cmt>Point 62</cmt>
  <desc>Point 62</desc>
</trkpt>
<trkpt lat="24.611790000" lon="121.297646000">
  <ele>1434.690000</ele>
  <time>2009-10-19T03:36:21Z</time>
  <name>Point 63</name>
  <cmt>Point 63</cmt>
  <desc>Point 63</desc>
</trkpt>
<trkpt lat="24.611879000" lon="121.297997000">
  <ele>1431.090000</ele>
  <time>2009-10-19T03:36:26Z</time>
  <name>Point 64</name>
  <cmt>Point 64</cmt>
  <desc>Point 64</desc>
</trkpt>
<trkpt lat="24.611889000" lon="121.298203000">
  <ele>1430.220000</ele>
  <time>2009-10-19T03:36:31Z</time>
  <name>Point 65</name>
  <cmt>Point 65</cmt>
  <desc>Point 65</desc>
</trkpt>
<trkpt lat="24.611843000" lon="121.298409000">
  <ele>1429.130000</ele>
  <time>2009-10-19T03:36:36Z</time>
  <name>Point 66</name>
  <cmt>Point 66</cmt>
  <desc>Point 66</desc>
</trkpt>
<trkpt lat="24.611889000" lon="121.298645000">
  <ele>1427.590000</ele>
  <time>2009-10-19T03:36:41Z</time>
  <name>Point 67</name>
  <cmt>Point 67</cmt>
  <desc>Point 67</desc>
</trkpt>
<trkpt lat="24.612022000" lon="121.298912000">
  <ele>1427.340000</ele>
  <time>2009-10-19T03:36:46Z</time>
  <name>Point 68</name>
  <cmt>Point 68</cmt>
  <desc>Point 68</desc>
</trkpt>
<trkpt lat="24.612026000" lon="121.299232000">
  <ele>1427.750000</ele>
  <time>2009-10-19T03:36:51Z</time>
  <name>Point 69</name>
  <cmt>Point 69</cmt>
  <desc>Point 69</desc>
</trkpt>
<trkpt lat="24.612045000" lon="121.299507000">
  <ele>1427.660000</ele>
  <time>2009-10-19T03:36:56Z</time>
  <name>Point 70</name>
  <cmt>Point 70</cmt>
  <desc>Point 70</desc>
</trkpt>
<trkpt lat="24.612234000" lon="121.299721000">
  <ele>1425.970000</ele>
  <time>2009-10-19T03:37:01Z</time>
  <name>Point 71</name>
  <cmt>Point 71</cmt>
  <desc>Point 71</desc>
</trkpt>
<trkpt lat="24.612432000" lon="121.299965000">
  <ele>1424.000000</ele>
  <time>2009-10-19T03:37:06Z</time>
  <name>Point 72</name>
  <cmt>Point 72</cmt>
  <desc>Point 72</desc>
</trkpt>
<trkpt lat="24.612522000" lon="121.300270000">
  <ele>1424.250000</ele>
  <time>2009-10-19T03:37:11Z</time>
  <name>Point 73</name>
  <cmt>Point 73</cmt>
  <desc>Point 73</desc>
</trkpt>
<trkpt lat="24.612316000" lon="121.300354000">
  <ele>1424.810000</ele>
  <time>2009-10-19T03:37:16Z</time>
  <name>Point 74</name>
  <cmt>Point 74</cmt>
  <desc>Point 74</desc>
</trkpt>
<trkpt lat="24.612045000" lon="121.300179000">
  <ele>1423.940000</ele>
  <time>2009-10-19T03:37:21Z</time>
  <name>Point 75</name>
  <cmt>Point 75</cmt>
  <desc>Point 75</desc>
</trkpt>
<trkpt lat="24.611788000" lon="121.299950000">
  <ele>1423.970000</ele>
  <time>2009-10-19T03:37:26Z</time>
  <name>Point 76</name>
  <cmt>Point 76</cmt>
  <desc>Point 76</desc>
</trkpt>
<trkpt lat="24.611471000" lon="121.299713000">
  <ele>1422.530000</ele>
  <time>2009-10-19T03:37:31Z</time>
  <name>Point 77</name>
  <cmt>Point 77</cmt>
  <desc>Point 77</desc>
</trkpt>
<trkpt lat="24.611158000" lon="121.299454000">
  <ele>1420.090000</ele>
  <time>2009-10-19T03:37:36Z</time>
  <name>Point 78</name>
  <cmt>Point 78</cmt>
  <desc>Point 78</desc>
</trkpt>
<trkpt lat="24.610878000" lon="121.299377000">
  <ele>1419.030000</ele>
  <time>2009-10-19T03:37:41Z</time>
  <name>Point 79</name>
  <cmt>Point 79</cmt>
  <desc>Point 79</desc>
</trkpt>
<trkpt lat="24.610594000" lon="121.299355000">
  <ele>1418.060000</ele>
  <time>2009-10-19T03:37:46Z</time>
  <name>Point 80</name>
  <cmt>Point 80</cmt>
  <desc>Point 80</desc>
</trkpt>
<trkpt lat="24.610447000" lon="121.299194000">
  <ele>1418.030000</ele>
  <time>2009-10-19T03:37:51Z</time>
  <name>Point 81</name>
  <cmt>Point 81</cmt>
  <desc>Point 81</desc>
</trkpt>
<trkpt lat="24.610270000" lon="121.298965000">
  <ele>1417.220000</ele>
  <time>2009-10-19T03:37:56Z</time>
  <name>Point 82</name>
  <cmt>Point 82</cmt>
  <desc>Point 82</desc>
</trkpt>
<trkpt lat="24.610067000" lon="121.298790000">
  <ele>1416.720000</ele>
  <time>2009-10-19T03:38:01Z</time>
  <name>Point 83</name>
  <cmt>Point 83</cmt>
  <desc>Point 83</desc>
</trkpt>
<trkpt lat="24.609873000" lon="121.298576000">
  <ele>1416.160000</ele>
  <time>2009-10-19T03:38:06Z</time>
  <name>Point 84</name>
  <cmt>Point 84</cmt>
  <desc>Point 84</desc>
</trkpt>
<trkpt lat="24.609697000" lon="121.298340000">
  <ele>1415.560000</ele>
  <time>2009-10-19T03:38:11Z</time>
  <name>Point 85</name>
  <cmt>Point 85</cmt>
  <desc>Point 85</desc>
</trkpt>
<trkpt lat="24.609518000" lon="121.298241000">
  <ele>1415.470000</ele>
  <time>2009-10-19T03:38:16Z</time>
  <name>Point 86</name>
  <cmt>Point 86</cmt>
  <desc>Point 86</desc>
</trkpt>
<trkpt lat="24.609344000" lon="121.298218000">
  <ele>1415.340000</ele>
  <time>2009-10-19T03:38:21Z</time>
  <name>Point 87</name>
  <cmt>Point 87</cmt>
  <desc>Point 87</desc>
</trkpt>
<trkpt lat="24.609112000" lon="121.298149000">
  <ele>1416.160000</ele>
  <time>2009-10-19T03:38:26Z</time>
  <name>Point 88</name>
  <cmt>Point 88</cmt>
  <desc>Point 88</desc>
</trkpt>
<trkpt lat="24.608885000" lon="121.297928000">
  <ele>1418.720000</ele>
  <time>2009-10-19T03:38:31Z</time>
  <name>Point 89</name>
  <cmt>Point 89</cmt>
  <desc>Point 89</desc>
</trkpt>
<trkpt lat="24.608692000" lon="121.297691000">
  <ele>1420.000000</ele>
  <time>2009-10-19T03:38:36Z</time>
  <name>Point 90</name>
  <cmt>Point 90</cmt>
  <desc>Point 90</desc>
</trkpt>
<trkpt lat="24.608461000" lon="121.297523000">
  <ele>1420.940000</ele>
  <time>2009-10-19T03:38:41Z</time>
  <name>Point 91</name>
  <cmt>Point 91</cmt>
  <desc>Point 91</desc>
</trkpt>
<trkpt lat="24.608185000" lon="121.297455000">
  <ele>1421.880000</ele>
  <time>2009-10-19T03:38:46Z</time>
  <name>Point 92</name>
  <cmt>Point 92</cmt>
  <desc>Point 92</desc>
</trkpt>
<trkpt lat="24.608021000" lon="121.297272000">
  <ele>1422.530000</ele>
  <time>2009-10-19T03:38:51Z</time>
  <name>Point 93</name>
  <cmt>Point 93</cmt>
  <desc>Point 93</desc>
</trkpt>
<trkpt lat="24.607872000" lon="121.297157000">
  <ele>1423.720000</ele>
  <time>2009-10-19T03:38:56Z</time>
  <name>Point 94</name>
  <cmt>Point 94</cmt>
  <desc>Point 94</desc>
</trkpt>
<trkpt lat="24.607660000" lon="121.297157000">
  <ele>1424.470000</ele>
  <time>2009-10-19T03:39:01Z</time>
  <name>Point 95</name>
  <cmt>Point 95</cmt>
  <desc>Point 95</desc>
</trkpt>
<trkpt lat="24.607420000" lon="121.297279000">
  <ele>1425.470000</ele>
  <time>2009-10-19T03:39:06Z</time>
  <name>Point 96</name>
  <cmt>Point 96</cmt>
  <desc>Point 96</desc>
</trkpt>
<trkpt lat="24.607197000" lon="121.297318000">
  <ele>1425.500000</ele>
  <time>2009-10-19T03:39:11Z</time>
  <name>Point 97</name>
  <cmt>Point 97</cmt>
  <desc>Point 97</desc>
</trkpt>
<trkpt lat="24.606998000" lon="121.297310000">
  <ele>1426.250000</ele>
  <time>2009-10-19T03:39:16Z</time>
  <name>Point 98</name>
  <cmt>Point 98</cmt>
  <desc>Point 98</desc>
</trkpt>
<trkpt lat="24.606791000" lon="121.297386000">
  <ele>1426.660000</ele>
  <time>2009-10-19T03:39:21Z</time>
  <name>Point 99</name>
  <cmt>Point 99</cmt>
  <desc>Point 99</desc>
</trkpt>
<trkpt lat="24.606579000" lon="121.297501000">
  <ele>1427.000000</ele>
  <time>2009-10-19T03:39:26Z</time>
  <name>Point 100</name>
  <cmt>Point 100</cmt>
  <desc>Point 100</desc>
</trkpt>
<trkpt lat="24.606331000" lon="121.297668000">
  <ele>1427.970000</ele>
  <time>2009-10-19T03:39:31Z</time>
  <name>Point 101</name>
  <cmt>Point 101</cmt>
  <desc>Point 101</desc>
</trkpt>
<trkpt lat="24.606094000" lon="121.297600000">
  <ele>1428.160000</ele>
  <time>2009-10-19T03:39:36Z</time>
  <name>Point 102</name>
  <cmt>Point 102</cmt>
  <desc>Point 102</desc>
</trkpt>
<trkpt lat="24.605892000" lon="121.297440000">
  <ele>1428.470000</ele>
  <time>2009-10-19T03:39:41Z</time>
  <name>Point 103</name>
  <cmt>Point 103</cmt>
  <desc>Point 103</desc>
</trkpt>
<trkpt lat="24.605684000" lon="121.297340000">
  <ele>1428.880000</ele>
  <time>2009-10-19T03:39:46Z</time>
  <name>Point 104</name>
  <cmt>Point 104</cmt>
  <desc>Point 104</desc>
</trkpt>
<trkpt lat="24.605473000" lon="121.297218000">
  <ele>1429.780000</ele>
  <time>2009-10-19T03:39:51Z</time>
  <name>Point 105</name>
  <cmt>Point 105</cmt>
  <desc>Point 105</desc>
</trkpt>
<trkpt lat="24.605240000" lon="121.297295000">
  <ele>1430.160000</ele>
  <time>2009-10-19T03:39:56Z</time>
  <name>Point 106</name>
  <cmt>Point 106</cmt>
  <desc>Point 106</desc>
</trkpt>
<trkpt lat="24.605158000" lon="121.297585000">
  <ele>1431.280000</ele>
  <time>2009-10-19T03:40:01Z</time>
  <name>Point 107</name>
  <cmt>Point 107</cmt>
  <desc>Point 107</desc>
</trkpt>
<trkpt lat="24.605082000" lon="121.297859000">
  <ele>1430.880000</ele>
  <time>2009-10-19T03:40:06Z</time>
  <name>Point 108</name>
  <cmt>Point 108</cmt>
  <desc>Point 108</desc>
</trkpt>
<trkpt lat="24.605038000" lon="121.298126000">
  <ele>1429.000000</ele>
  <time>2009-10-19T03:40:11Z</time>
  <name>Point 109</name>
  <cmt>Point 109</cmt>
  <desc>Point 109</desc>
</trkpt>
<trkpt lat="24.605076000" lon="121.298401000">
  <ele>1426.220000</ele>
  <time>2009-10-19T03:40:16Z</time>
  <name>Point 110</name>
  <cmt>Point 110</cmt>
  <desc>Point 110</desc>
</trkpt>
<trkpt lat="24.605064000" lon="121.298653000">
  <ele>1423.090000</ele>
  <time>2009-10-19T03:40:21Z</time>
  <name>Point 111</name>
  <cmt>Point 111</cmt>
  <desc>Point 111</desc>
</trkpt>
<trkpt lat="24.604971000" lon="121.298820000">
  <ele>1421.750000</ele>
  <time>2009-10-19T03:40:26Z</time>
  <name>Point 112</name>
  <cmt>Point 112</cmt>
  <desc>Point 112</desc>
</trkpt>
<trkpt lat="24.604872000" lon="121.299126000">
  <ele>1419.690000</ele>
  <time>2009-10-19T03:40:31Z</time>
  <name>Point 113</name>
  <cmt>Point 113</cmt>
  <desc>Point 113</desc>
</trkpt>
<trkpt lat="24.604671000" lon="121.299248000">
  <ele>1417.560000</ele>
  <time>2009-10-19T03:40:36Z</time>
  <name>Point 114</name>
  <cmt>Point 114</cmt>
  <desc>Point 114</desc>
</trkpt>
<trkpt lat="24.604452000" lon="121.299110000">
  <ele>1421.690000</ele>
  <time>2009-10-19T03:40:41Z</time>
  <name>Point 115</name>
  <cmt>Point 115</cmt>
  <desc>Point 115</desc>
</trkpt>
<trkpt lat="24.604193000" lon="121.299057000">
  <ele>1417.810000</ele>
  <time>2009-10-19T03:40:46Z</time>
  <name>Point 116</name>
  <cmt>Point 116</cmt>
  <desc>Point 116</desc>
</trkpt>
<trkpt lat="24.603949000" lon="121.299057000">
  <ele>1418.160000</ele>
  <time>2009-10-19T03:40:51Z</time>
  <name>Point 117</name>
  <cmt>Point 117</cmt>
  <desc>Point 117</desc>
</trkpt>
<trkpt lat="24.603727000" lon="121.299049000">
  <ele>1418.130000</ele>
  <time>2009-10-19T03:40:56Z</time>
  <name>Point 118</name>
  <cmt>Point 118</cmt>
  <desc>Point 118</desc>
</trkpt>
<trkpt lat="24.603512000" lon="121.299042000">
  <ele>1418.250000</ele>
  <time>2009-10-19T03:41:01Z</time>
  <name>Point 119</name>
  <cmt>Point 119</cmt>
  <desc>Point 119</desc>
</trkpt>
<trkpt lat="24.603355000" lon="121.299103000">
  <ele>1418.000000</ele>
  <time>2009-10-19T03:41:06Z</time>
  <name>Point 120</name>
  <cmt>Point 120</cmt>
  <desc>Point 120</desc>
</trkpt>
<trkpt lat="24.603277000" lon="121.299225000">
  <ele>1416.840000</ele>
  <time>2009-10-19T03:41:11Z</time>
  <name>Point 121</name>
  <cmt>Point 121</cmt>
  <desc>Point 121</desc>
</trkpt>
<trkpt lat="24.603252000" lon="121.299286000">
  <ele>1416.590000</ele>
  <time>2009-10-19T03:41:16Z</time>
  <name>Point 122</name>
  <cmt>Point 122</cmt>
  <desc>Point 122</desc>
</trkpt>
<trkpt lat="24.603216000" lon="121.299324000">
  <ele>1415.630000</ele>
  <time>2009-10-19T03:41:21Z</time>
  <name>Point 123</name>
  <cmt>Point 123</cmt>
  <desc>Point 123</desc>
</trkpt>
<trkpt lat="24.603207000" lon="121.299324000">
  <ele>1415.340000</ele>
  <time>2009-10-19T03:41:26Z</time>
  <name>Point 124</name>
  <cmt>Point 124</cmt>
  <desc>Point 124</desc>
</trkpt>
<trkpt lat="24.603203000" lon="121.299324000">
  <ele>1415.190000</ele>
  <time>2009-10-19T03:41:31Z</time>
  <name>Point 125</name>
  <cmt>Point 125</cmt>
  <desc>Point 125</desc>
</trkpt>
<trkpt lat="24.603201000" lon="121.299324000">
  <ele>1415.060000</ele>
  <time>2009-10-19T03:41:36Z</time>
  <name>Point 126</name>
  <cmt>Point 126</cmt>
  <desc>Point 126</desc>
</trkpt>
<trkpt lat="24.603201000" lon="121.299324000">
  <ele>1414.970000</ele>
  <time>2009-10-19T03:41:41Z</time>
  <name>Point 127</name>
  <cmt>Point 127</cmt>
  <desc>Point 127</desc>
</trkpt>
<trkpt lat="24.603197000" lon="121.299324000">
  <ele>1414.840000</ele>
  <time>2009-10-19T03:41:46Z</time>
  <name>Point 128</name>
  <cmt>Point 128</cmt>
  <desc>Point 128</desc>
</trkpt>
<trkpt lat="24.603197000" lon="121.299324000">
  <ele>1414.810000</ele>
  <time>2009-10-19T03:41:51Z</time>
  <name>Point 129</name>
  <cmt>Point 129</cmt>
  <desc>Point 129</desc>
</trkpt>
<trkpt lat="24.603195000" lon="121.299324000">
  <ele>1414.780000</ele>
  <time>2009-10-19T03:41:56Z</time>
  <name>Point 130</name>
  <cmt>Point 130</cmt>
  <desc>Point 130</desc>
</trkpt>
<trkpt lat="24.603191000" lon="121.299324000">
  <ele>1414.780000</ele>
  <time>2009-10-19T03:42:01Z</time>
  <name>Point 131</name>
  <cmt>Point 131</cmt>
  <desc>Point 131</desc>
</trkpt>
<trkpt lat="24.603188000" lon="121.299324000">
  <ele>1414.810000</ele>
  <time>2009-10-19T03:42:06Z</time>
  <name>Point 132</name>
  <cmt>Point 132</cmt>
  <desc>Point 132</desc>
</trkpt>
<trkpt lat="24.603191000" lon="121.299324000">
  <ele>1414.840000</ele>
  <time>2009-10-19T03:42:11Z</time>
  <name>Point 133</name>
  <cmt>Point 133</cmt>
  <desc>Point 133</desc>
</trkpt>
<trkpt lat="24.603191000" lon="121.299324000">
  <ele>1414.880000</ele>
  <time>2009-10-19T03:42:16Z</time>
  <name>Point 134</name>
  <cmt>Point 134</cmt>
  <desc>Point 134</desc>
</trkpt>
<trkpt lat="24.603184000" lon="121.299324000">
  <ele>1414.880000</ele>
  <time>2009-10-19T03:42:21Z</time>
  <name>Point 135</name>
  <cmt>Point 135</cmt>
  <desc>Point 135</desc>
</trkpt>
<trkpt lat="24.603180000" lon="121.299324000">
  <ele>1414.840000</ele>
  <time>2009-10-19T03:42:26Z</time>
  <name>Point 136</name>
  <cmt>Point 136</cmt>
  <desc>Point 136</desc>
</trkpt>
<trkpt lat="24.603176000" lon="121.299324000">
  <ele>1414.810000</ele>
  <time>2009-10-19T03:42:31Z</time>
  <name>Point 137</name>
  <cmt>Point 137</cmt>
  <desc>Point 137</desc>
</trkpt>
<trkpt lat="24.603172000" lon="121.299324000">
  <ele>1414.780000</ele>
  <time>2009-10-19T03:42:36Z</time>
  <name>Point 138</name>
  <cmt>Point 138</cmt>
  <desc>Point 138</desc>
</trkpt>
<trkpt lat="24.603172000" lon="121.299324000">
  <ele>1414.750000</ele>
  <time>2009-10-19T03:42:41Z</time>
  <name>Point 139</name>
  <cmt>Point 139</cmt>
  <desc>Point 139</desc>
</trkpt>
<trkpt lat="24.603172000" lon="121.299324000">
  <ele>1414.720000</ele>
  <time>2009-10-19T03:42:46Z</time>
  <name>Point 140</name>
  <cmt>Point 140</cmt>
  <desc>Point 140</desc>
</trkpt>
<trkpt lat="24.603172000" lon="121.299332000">
  <ele>1414.690000</ele>
  <time>2009-10-19T03:42:51Z</time>
  <name>Point 141</name>
  <cmt>Point 141</cmt>
  <desc>Point 141</desc>
</trkpt>
<trkpt lat="24.603165000" lon="121.299332000">
  <ele>1414.660000</ele>
  <time>2009-10-19T03:42:56Z</time>
  <name>Point 142</name>
  <cmt>Point 142</cmt>
  <desc>Point 142</desc>
</trkpt>
<trkpt lat="24.603163000" lon="121.299324000">
  <ele>1414.630000</ele>
  <time>2009-10-19T03:43:01Z</time>
  <name>Point 143</name>
  <cmt>Point 143</cmt>
  <desc>Point 143</desc>
</trkpt>
<trkpt lat="24.603165000" lon="121.299332000">
  <ele>1414.590000</ele>
  <time>2009-10-19T03:43:06Z</time>
  <name>Point 144</name>
  <cmt>Point 144</cmt>
  <desc>Point 144</desc>
</trkpt>
<trkpt lat="24.603157000" lon="121.299332000">
  <ele>1414.590000</ele>
  <time>2009-10-19T03:43:11Z</time>
  <name>Point 145</name>
  <cmt>Point 145</cmt>
  <desc>Point 145</desc>
</trkpt>
<trkpt lat="24.603151000" lon="121.299332000">
  <ele>1414.500000</ele>
  <time>2009-10-19T03:43:16Z</time>
  <name>Point 146</name>
  <cmt>Point 146</cmt>
  <desc>Point 146</desc>
</trkpt>
<trkpt lat="24.603148000" lon="121.299332000">
  <ele>1414.440000</ele>
  <time>2009-10-19T03:43:21Z</time>
  <name>Point 147</name>
  <cmt>Point 147</cmt>
  <desc>Point 147</desc>
</trkpt>
<trkpt lat="24.603149000" lon="121.299332000">
  <ele>1414.310000</ele>
  <time>2009-10-19T03:43:31Z</time>
  <name>Point 148</name>
  <cmt>Point 148</cmt>
  <desc>Point 148</desc>
</trkpt>
<trkpt lat="24.603153000" lon="121.299332000">
  <ele>1414.310000</ele>
  <time>2009-10-19T03:43:36Z</time>
  <name>Point 149</name>
  <cmt>Point 149</cmt>
  <desc>Point 149</desc>
</trkpt>
<trkpt lat="24.603155000" lon="121.299332000">
  <ele>1414.250000</ele>
  <time>2009-10-19T03:43:41Z</time>
  <name>Point 150</name>
  <cmt>Point 150</cmt>
  <desc>Point 150</desc>
</trkpt>
<trkpt lat="24.603159000" lon="121.299332000">
  <ele>1414.190000</ele>
  <time>2009-10-19T03:43:46Z</time>
  <name>Point 151</name>
  <cmt>Point 151</cmt>
  <desc>Point 151</desc>
</trkpt>
<trkpt lat="24.603165000" lon="121.299332000">
  <ele>1414.090000</ele>
  <time>2009-10-19T03:43:51Z</time>
  <name>Point 152</name>
  <cmt>Point 152</cmt>
  <desc>Point 152</desc>
</trkpt>
<trkpt lat="24.603168000" lon="121.299332000">
  <ele>1414.130000</ele>
  <time>2009-10-19T03:43:56Z</time>
  <name>Point 153</name>
  <cmt>Point 153</cmt>
  <desc>Point 153</desc>
</trkpt>
<trkpt lat="24.603172000" lon="121.299332000">
  <ele>1414.310000</ele>
  <time>2009-10-19T03:44:01Z</time>
  <name>Point 154</name>
  <cmt>Point 154</cmt>
  <desc>Point 154</desc>
</trkpt>
<trkpt lat="24.603174000" lon="121.299332000">
  <ele>1414.500000</ele>
  <time>2009-10-19T03:44:06Z</time>
  <name>Point 155</name>
  <cmt>Point 155</cmt>
  <desc>Point 155</desc>
</trkpt>
<trkpt lat="24.603178000" lon="121.299332000">
  <ele>1414.660000</ele>
  <time>2009-10-19T03:44:11Z</time>
  <name>Point 156</name>
  <cmt>Point 156</cmt>
  <desc>Point 156</desc>
</trkpt>
<trkpt lat="24.603182000" lon="121.299332000">
  <ele>1414.840000</ele>
  <time>2009-10-19T03:44:16Z</time>
  <name>Point 157</name>
  <cmt>Point 157</cmt>
  <desc>Point 157</desc>
</trkpt>
<trkpt lat="24.603188000" lon="121.299339000">
  <ele>1415.060000</ele>
  <time>2009-10-19T03:44:21Z</time>
  <name>Point 158</name>
  <cmt>Point 158</cmt>
  <desc>Point 158</desc>
</trkpt>
<trkpt lat="24.603189000" lon="121.299339000">
  <ele>1415.090000</ele>
  <time>2009-10-19T03:44:26Z</time>
  <name>Point 159</name>
  <cmt>Point 159</cmt>
  <desc>Point 159</desc>
</trkpt>
<trkpt lat="24.603186000" lon="121.299339000">
  <ele>1415.060000</ele>
  <time>2009-10-19T03:44:31Z</time>
  <name>Point 160</name>
  <cmt>Point 160</cmt>
  <desc>Point 160</desc>
</trkpt>
<trkpt lat="24.603182000" lon="121.299339000">
  <ele>1415.000000</ele>
  <time>2009-10-19T03:44:36Z</time>
  <name>Point 161</name>
  <cmt>Point 161</cmt>
  <desc>Point 161</desc>
</trkpt>
<trkpt lat="24.603188000" lon="121.299332000">
  <ele>1416.340000</ele>
  <time>2009-10-19T03:44:41Z</time>
  <name>Point 162</name>
  <cmt>Point 162</cmt>
  <desc>Point 162</desc>
</trkpt>
<trkpt lat="24.603188000" lon="121.299339000">
  <ele>1416.340000</ele>
  <time>2009-10-19T03:44:46Z</time>
  <name>Point 163</name>
  <cmt>Point 163</cmt>
  <desc>Point 163</desc>
</trkpt>
<trkpt lat="24.603186000" lon="121.299339000">
  <ele>1416.310000</ele>
  <time>2009-10-19T03:44:51Z</time>
  <name>Point 164</name>
  <cmt>Point 164</cmt>
  <desc>Point 164</desc>
</trkpt>
<trkpt lat="24.603189000" lon="121.299339000">
  <ele>1416.280000</ele>
  <time>2009-10-19T03:44:56Z</time>
  <name>Point 165</name>
  <cmt>Point 165</cmt>
  <desc>Point 165</desc>
</trkpt>
<trkpt lat="24.603149000" lon="121.299385000">
  <ele>1415.940000</ele>
  <time>2009-10-19T03:45:01Z</time>
  <name>Point 166</name>
  <cmt>Point 166</cmt>
  <desc>Point 166</desc>
</trkpt>
<trkpt lat="24.603092000" lon="121.299469000">
  <ele>1414.880000</ele>
  <time>2009-10-19T03:45:06Z</time>
  <name>Point 167</name>
  <cmt>Point 167</cmt>
  <desc>Point 167</desc>
</trkpt>
<trkpt lat="24.602987000" lon="121.299538000">
  <ele>1414.780000</ele>
  <time>2009-10-19T03:45:11Z</time>
  <name>Point 168</name>
  <cmt>Point 168</cmt>
  <desc>Point 168</desc>
</trkpt>
<trkpt lat="24.602896000" lon="121.299599000">
  <ele>1414.280000</ele>
  <time>2009-10-19T03:45:16Z</time>
  <name>Point 169</name>
  <cmt>Point 169</cmt>
  <desc>Point 169</desc>
</trkpt>
<trkpt lat="24.602776000" lon="121.299614000">
  <ele>1414.160000</ele>
  <time>2009-10-19T03:45:21Z</time>
  <name>Point 170</name>
  <cmt>Point 170</cmt>
  <desc>Point 170</desc>
</trkpt>
<trkpt lat="24.602650000" lon="121.299614000">
  <ele>1414.560000</ele>
  <time>2009-10-19T03:45:26Z</time>
  <name>Point 171</name>
  <cmt>Point 171</cmt>
  <desc>Point 171</desc>
</trkpt>
<trkpt lat="24.602570000" lon="121.299561000">
  <ele>1415.060000</ele>
  <time>2009-10-19T03:45:31Z</time>
  <name>Point 172</name>
  <cmt>Point 172</cmt>
  <desc>Point 172</desc>
</trkpt>
<trkpt lat="24.602488000" lon="121.299461000">
  <ele>1415.060000</ele>
  <time>2009-10-19T03:45:36Z</time>
  <name>Point 173</name>
  <cmt>Point 173</cmt>
  <desc>Point 173</desc>
</trkpt>
<trkpt lat="24.602379000" lon="121.299377000">
  <ele>1415.340000</ele>
  <time>2009-10-19T03:45:41Z</time>
  <name>Point 174</name>
  <cmt>Point 174</cmt>
  <desc>Point 174</desc>
</trkpt>
<trkpt lat="24.602278000" lon="121.299294000">
  <ele>1416.340000</ele>
  <time>2009-10-19T03:45:46Z</time>
  <name>Point 175</name>
  <cmt>Point 175</cmt>
  <desc>Point 175</desc>
</trkpt>
<trkpt lat="24.602226000" lon="121.299179000">
  <ele>1416.340000</ele>
  <time>2009-10-19T03:45:51Z</time>
  <name>Point 176</name>
  <cmt>Point 176</cmt>
  <desc>Point 176</desc>
</trkpt>
<trkpt lat="24.602230000" lon="121.299057000">
  <ele>1416.720000</ele>
  <time>2009-10-19T03:45:56Z</time>
  <name>Point 177</name>
  <cmt>Point 177</cmt>
  <desc>Point 177</desc>
</trkpt>
<trkpt lat="24.602200000" lon="121.298996000">
  <ele>1417.340000</ele>
  <time>2009-10-19T03:46:01Z</time>
  <name>Point 178</name>
  <cmt>Point 178</cmt>
  <desc>Point 178</desc>
</trkpt>
<trkpt lat="24.602144000" lon="121.298958000">
  <ele>1417.880000</ele>
  <time>2009-10-19T03:46:06Z</time>
  <name>Point 179</name>
  <cmt>Point 179</cmt>
  <desc>Point 179</desc>
</trkpt>
<trkpt lat="24.602058000" lon="121.298920000">
  <ele>1419.130000</ele>
  <time>2009-10-19T03:46:11Z</time>
  <name>Point 180</name>
  <cmt>Point 180</cmt>
  <desc>Point 180</desc>
</trkpt>
<trkpt lat="24.601955000" lon="121.298920000">
  <ele>1419.690000</ele>
  <time>2009-10-19T03:46:16Z</time>
  <name>Point 181</name>
  <cmt>Point 181</cmt>
  <desc>Point 181</desc>
</trkpt>
<trkpt lat="24.601835000" lon="121.298988000">
  <ele>1419.440000</ele>
  <time>2009-10-19T03:46:21Z</time>
  <name>Point 182</name>
  <cmt>Point 182</cmt>
  <desc>Point 182</desc>
</trkpt>
<trkpt lat="24.601728000" lon="121.299049000">
  <ele>1419.250000</ele>
  <time>2009-10-19T03:46:26Z</time>
  <name>Point 183</name>
  <cmt>Point 183</cmt>
  <desc>Point 183</desc>
</trkpt>
<trkpt lat="24.601635000" lon="121.299126000">
  <ele>1418.810000</ele>
  <time>2009-10-19T03:46:31Z</time>
  <name>Point 184</name>
  <cmt>Point 184</cmt>
  <desc>Point 184</desc>
</trkpt>
<trkpt lat="24.601542000" lon="121.299232000">
  <ele>1419.190000</ele>
  <time>2009-10-19T03:46:36Z</time>
  <name>Point 185</name>
  <cmt>Point 185</cmt>
  <desc>Point 185</desc>
</trkpt>
<trkpt lat="24.601463000" lon="121.299255000">
  <ele>1419.000000</ele>
  <time>2009-10-19T03:46:41Z</time>
  <name>Point 186</name>
  <cmt>Point 186</cmt>
  <desc>Point 186</desc>
</trkpt>
<trkpt lat="24.601377000" lon="121.299225000">
  <ele>1421.810000</ele>
  <time>2009-10-19T03:46:46Z</time>
  <name>Point 187</name>
  <cmt>Point 187</cmt>
  <desc>Point 187</desc>
</trkpt>
<trkpt lat="24.601332000" lon="121.299171000">
  <ele>1420.630000</ele>
  <time>2009-10-19T03:46:51Z</time>
  <name>Point 188</name>
  <cmt>Point 188</cmt>
  <desc>Point 188</desc>
</trkpt>
<trkpt lat="24.601316000" lon="121.299088000">
  <ele>1420.660000</ele>
  <time>2009-10-19T03:46:56Z</time>
  <name>Point 189</name>
  <cmt>Point 189</cmt>
  <desc>Point 189</desc>
</trkpt>
<trkpt lat="24.601303000" lon="121.299004000">
  <ele>1420.590000</ele>
  <time>2009-10-19T03:47:01Z</time>
  <name>Point 190</name>
  <cmt>Point 190</cmt>
  <desc>Point 190</desc>
</trkpt>
<trkpt lat="24.601299000" lon="121.298904000">
  <ele>1420.340000</ele>
  <time>2009-10-19T03:47:06Z</time>
  <name>Point 191</name>
  <cmt>Point 191</cmt>
  <desc>Point 191</desc>
</trkpt>
<trkpt lat="24.601265000" lon="121.298836000">
  <ele>1421.310000</ele>
  <time>2009-10-19T03:47:11Z</time>
  <name>Point 192</name>
  <cmt>Point 192</cmt>
  <desc>Point 192</desc>
</trkpt>
<trkpt lat="24.601133000" lon="121.298790000">
  <ele>1421.720000</ele>
  <time>2009-10-19T03:47:16Z</time>
  <name>Point 193</name>
  <cmt>Point 193</cmt>
  <desc>Point 193</desc>
</trkpt>
<trkpt lat="24.601055000" lon="121.298767000">
  <ele>1420.630000</ele>
  <time>2009-10-19T03:47:21Z</time>
  <name>Point 194</name>
  <cmt>Point 194</cmt>
  <desc>Point 194</desc>
</trkpt>
<trkpt lat="24.600990000" lon="121.298721000">
  <ele>1420.780000</ele>
  <time>2009-10-19T03:47:26Z</time>
  <name>Point 195</name>
  <cmt>Point 195</cmt>
  <desc>Point 195</desc>
</trkpt>
<trkpt lat="24.600925000" lon="121.298706000">
  <ele>1420.470000</ele>
  <time>2009-10-19T03:47:31Z</time>
  <name>Point 196</name>
  <cmt>Point 196</cmt>
  <desc>Point 196</desc>
</trkpt>
<trkpt lat="24.600838000" lon="121.298706000">
  <ele>1420.530000</ele>
  <time>2009-10-19T03:47:36Z</time>
  <name>Point 197</name>
  <cmt>Point 197</cmt>
  <desc>Point 197</desc>
</trkpt>
<trkpt lat="24.600777000" lon="121.298729000">
  <ele>1420.910000</ele>
  <time>2009-10-19T03:47:41Z</time>
  <name>Point 198</name>
  <cmt>Point 198</cmt>
  <desc>Point 198</desc>
</trkpt>
<trkpt lat="24.600733000" lon="121.298767000">
  <ele>1421.250000</ele>
  <time>2009-10-19T03:47:46Z</time>
  <name>Point 199</name>
  <cmt>Point 199</cmt>
  <desc>Point 199</desc>
</trkpt>
<trkpt lat="24.600634000" lon="121.298767000">
  <ele>1422.000000</ele>
  <time>2009-10-19T03:47:51Z</time>
  <name>Point 200</name>
  <cmt>Point 200</cmt>
  <desc>Point 200</desc>
</trkpt>
<trkpt lat="24.600576000" lon="121.298805000">
  <ele>1421.500000</ele>
  <time>2009-10-19T03:47:56Z</time>
  <name>Point 201</name>
  <cmt>Point 201</cmt>
  <desc>Point 201</desc>
</trkpt>
<trkpt lat="24.600477000" lon="121.298843000">
  <ele>1421.410000</ele>
  <time>2009-10-19T03:48:01Z</time>
  <name>Point 202</name>
  <cmt>Point 202</cmt>
  <desc>Point 202</desc>
</trkpt>
<trkpt lat="24.600340000" lon="121.298882000">
  <ele>1421.060000</ele>
  <time>2009-10-19T03:48:07Z</time>
  <name>Point 203</name>
  <cmt>Point 203</cmt>
  <desc>Point 203</desc>
</trkpt>
<trkpt lat="24.600269000" lon="121.298935000">
  <ele>1422.060000</ele>
  <time>2009-10-19T03:48:12Z</time>
  <name>Point 204</name>
  <cmt>Point 204</cmt>
  <desc>Point 204</desc>
</trkpt>
<trkpt lat="24.600197000" lon="121.299026000">
  <ele>1422.750000</ele>
  <time>2009-10-19T03:48:17Z</time>
  <name>Point 205</name>
  <cmt>Point 205</cmt>
  <desc>Point 205</desc>
</trkpt>
<trkpt lat="24.600073000" lon="121.299080000">
  <ele>1422.560000</ele>
  <time>2009-10-19T03:48:22Z</time>
  <name>Point 206</name>
  <cmt>Point 206</cmt>
  <desc>Point 206</desc>
</trkpt>
<trkpt lat="24.599983000" lon="121.299095000">
  <ele>1425.190000</ele>
  <time>2009-10-19T03:48:27Z</time>
  <name>Point 207</name>
  <cmt>Point 207</cmt>
  <desc>Point 207</desc>
</trkpt>
<trkpt lat="24.599937000" lon="121.299034000">
  <ele>1425.910000</ele>
  <time>2009-10-19T03:48:32Z</time>
  <name>Point 208</name>
  <cmt>Point 208</cmt>
  <desc>Point 208</desc>
</trkpt>
<trkpt lat="24.599880000" lon="121.298950000">
  <ele>1427.940000</ele>
  <time>2009-10-19T03:48:37Z</time>
  <name>Point 209</name>
  <cmt>Point 209</cmt>
  <desc>Point 209</desc>
</trkpt>
<trkpt lat="24.599825000" lon="121.298851000">
  <ele>1429.250000</ele>
  <time>2009-10-19T03:48:42Z</time>
  <name>Point 210</name>
  <cmt>Point 210</cmt>
  <desc>Point 210</desc>
</trkpt>
<trkpt lat="24.599642000" lon="121.298721000">
  <ele>1430.250000</ele>
  <time>2009-10-19T03:48:52Z</time>
  <name>Point 211</name>
  <cmt>Point 211</cmt>
  <desc>Point 211</desc>
</trkpt>
<trkpt lat="24.599558000" lon="121.298660000">
  <ele>1433.780000</ele>
  <time>2009-10-19T03:48:57Z</time>
  <name>Point 212</name>
  <cmt>Point 212</cmt>
  <desc>Point 212</desc>
</trkpt>
<trkpt lat="24.599459000" lon="121.298660000">
  <ele>1435.310000</ele>
  <time>2009-10-19T03:49:02Z</time>
  <name>Point 213</name>
  <cmt>Point 213</cmt>
  <desc>Point 213</desc>
</trkpt>
<trkpt lat="24.599369000" lon="121.298622000">
  <ele>1436.630000</ele>
  <time>2009-10-19T03:49:07Z</time>
  <name>Point 214</name>
  <cmt>Point 214</cmt>
  <desc>Point 214</desc>
</trkpt>
<trkpt lat="24.599226000" lon="121.298645000">
  <ele>1442.440000</ele>
  <time>2009-10-19T03:49:12Z</time>
  <name>Point 215</name>
  <cmt>Point 215</cmt>
  <desc>Point 215</desc>
</trkpt>
<trkpt lat="24.599077000" lon="121.298599000">
  <ele>1445.310000</ele>
  <time>2009-10-19T03:49:17Z</time>
  <name>Point 216</name>
  <cmt>Point 216</cmt>
  <desc>Point 216</desc>
</trkpt>
<trkpt lat="24.598948000" lon="121.298553000">
  <ele>1450.690000</ele>
  <time>2009-10-19T03:49:22Z</time>
  <name>Point 217</name>
  <cmt>Point 217</cmt>
  <desc>Point 217</desc>
</trkpt>
<trkpt lat="24.598841000" lon="121.298500000">
  <ele>1454.970000</ele>
  <time>2009-10-19T03:49:27Z</time>
  <name>Point 218</name>
  <cmt>Point 218</cmt>
  <desc>Point 218</desc>
</trkpt>
<trkpt lat="24.598736000" lon="121.298470000">
  <ele>1458.910000</ele>
  <time>2009-10-19T03:49:32Z</time>
  <name>Point 219</name>
  <cmt>Point 219</cmt>
  <desc>Point 219</desc>
</trkpt>
<trkpt lat="24.598637000" lon="121.298477000">
  <ele>1461.940000</ele>
  <time>2009-10-19T03:49:37Z</time>
  <name>Point 220</name>
  <cmt>Point 220</cmt>
  <desc>Point 220</desc>
</trkpt>
<trkpt lat="24.598583000" lon="121.298485000">
  <ele>1464.590000</ele>
  <time>2009-10-19T03:49:42Z</time>
  <name>Point 221</name>
  <cmt>Point 221</cmt>
  <desc>Point 221</desc>
</trkpt>
<trkpt lat="24.598492000" lon="121.298515000">
  <ele>1464.690000</ele>
  <time>2009-10-19T03:49:47Z</time>
  <name>Point 222</name>
  <cmt>Point 222</cmt>
  <desc>Point 222</desc>
</trkpt>
<trkpt lat="24.598415000" lon="121.298515000">
  <ele>1465.810000</ele>
  <time>2009-10-19T03:49:52Z</time>
  <name>Point 223</name>
  <cmt>Point 223</cmt>
  <desc>Point 223</desc>
</trkpt>
<trkpt lat="24.598372000" lon="121.298424000">
  <ele>1466.250000</ele>
  <time>2009-10-19T03:49:57Z</time>
  <name>Point 224</name>
  <cmt>Point 224</cmt>
  <desc>Point 224</desc>
</trkpt>
<trkpt lat="24.598295000" lon="121.298363000">
  <ele>1467.090000</ele>
  <time>2009-10-19T03:50:02Z</time>
  <name>Point 225</name>
  <cmt>Point 225</cmt>
  <desc>Point 225</desc>
</trkpt>
<trkpt lat="24.598225000" lon="121.298271000">
  <ele>1467.940000</ele>
  <time>2009-10-19T03:50:07Z</time>
  <name>Point 226</name>
  <cmt>Point 226</cmt>
  <desc>Point 226</desc>
</trkpt>
<trkpt lat="24.598131000" lon="121.298203000">
  <ele>1467.500000</ele>
  <time>2009-10-19T03:50:12Z</time>
  <name>Point 227</name>
  <cmt>Point 227</cmt>
  <desc>Point 227</desc>
</trkpt>
<trkpt lat="24.598000000" lon="121.298096000">
  <ele>1465.000000</ele>
  <time>2009-10-19T03:50:17Z</time>
  <name>Point 228</name>
  <cmt>Point 228</cmt>
  <desc>Point 228</desc>
</trkpt>
<trkpt lat="24.597858000" lon="121.297958000">
  <ele>1459.380000</ele>
  <time>2009-10-19T03:50:22Z</time>
  <name>Point 229</name>
  <cmt>Point 229</cmt>
  <desc>Point 229</desc>
</trkpt>
<trkpt lat="24.597721000" lon="121.297859000">
  <ele>1459.380000</ele>
  <time>2009-10-19T03:50:27Z</time>
  <name>Point 230</name>
  <cmt>Point 230</cmt>
  <desc>Point 230</desc>
</trkpt>
<trkpt lat="24.597572000" lon="121.297798000">
  <ele>1458.780000</ele>
  <time>2009-10-19T03:50:32Z</time>
  <name>Point 231</name>
  <cmt>Point 231</cmt>
  <desc>Point 231</desc>
</trkpt>
<trkpt lat="24.597385000" lon="121.297752000">
  <ele>1458.880000</ele>
  <time>2009-10-19T03:50:37Z</time>
  <name>Point 232</name>
  <cmt>Point 232</cmt>
  <desc>Point 232</desc>
</trkpt>
<trkpt lat="24.597176000" lon="121.297737000">
  <ele>1455.970000</ele>
  <time>2009-10-19T03:50:42Z</time>
  <name>Point 233</name>
  <cmt>Point 233</cmt>
  <desc>Point 233</desc>
</trkpt>
<trkpt lat="24.597107000" lon="121.297768000">
  <ele>1455.310000</ele>
  <time>2009-10-19T03:50:47Z</time>
  <name>Point 234</name>
  <cmt>Point 234</cmt>
  <desc>Point 234</desc>
</trkpt>
<trkpt lat="24.597101000" lon="121.297775000">
  <ele>1455.840000</ele>
  <time>2009-10-19T03:50:52Z</time>
  <name>Point 235</name>
  <cmt>Point 235</cmt>
  <desc>Point 235</desc>
</trkpt>
<trkpt lat="24.597101000" lon="121.297775000">
  <ele>1455.720000</ele>
  <time>2009-10-19T03:50:57Z</time>
  <name>Point 236</name>
  <cmt>Point 236</cmt>
  <desc>Point 236</desc>
</trkpt>
<trkpt lat="24.597136000" lon="121.297768000">
  <ele>1453.720000</ele>
  <time>2009-10-19T03:51:02Z</time>
  <name>Point 237</name>
  <cmt>Point 237</cmt>
  <desc>Point 237</desc>
</trkpt>
<trkpt lat="24.597185000" lon="121.297752000">
  <ele>1451.780000</ele>
  <time>2009-10-19T03:51:07Z</time>
  <name>Point 238</name>
  <cmt>Point 238</cmt>
  <desc>Point 238</desc>
</trkpt>
<trkpt lat="24.597235000" lon="121.297676000">
  <ele>1449.220000</ele>
  <time>2009-10-19T03:51:12Z</time>
  <name>Point 239</name>
  <cmt>Point 239</cmt>
  <desc>Point 239</desc>
</trkpt>
<trkpt lat="24.597225000" lon="121.297684000">
  <ele>1448.590000</ele>
  <time>2009-10-19T03:51:17Z</time>
  <name>Point 240</name>
  <cmt>Point 240</cmt>
  <desc>Point 240</desc>
</trkpt>
<trkpt lat="24.597216000" lon="121.297691000">
  <ele>1447.380000</ele>
  <time>2009-10-19T03:51:22Z</time>
  <name>Point 241</name>
  <cmt>Point 241</cmt>
  <desc>Point 241</desc>
</trkpt>
<trkpt lat="24.597178000" lon="121.297699000">
  <ele>1444.630000</ele>
  <time>2009-10-19T03:51:27Z</time>
  <name>Point 242</name>
  <cmt>Point 242</cmt>
  <desc>Point 242</desc>
</trkpt>
<trkpt lat="24.597172000" lon="121.297714000">
  <ele>1443.030000</ele>
  <time>2009-10-19T03:51:32Z</time>
  <name>Point 243</name>
  <cmt>Point 243</cmt>
  <desc>Point 243</desc>
</trkpt>
<trkpt lat="24.597145000" lon="121.297737000">
  <ele>1438.970000</ele>
  <time>2009-10-19T03:51:37Z</time>
  <name>Point 244</name>
  <cmt>Point 244</cmt>
  <desc>Point 244</desc>
</trkpt>
<trkpt lat="24.597080000" lon="121.297852000">
  <ele>1442.160000</ele>
  <time>2009-10-19T03:51:42Z</time>
  <name>Point 245</name>
  <cmt>Point 245</cmt>
  <desc>Point 245</desc>
</trkpt>
<trkpt lat="24.597034000" lon="121.298019000">
  <ele>1441.220000</ele>
  <time>2009-10-19T03:51:47Z</time>
  <name>Point 246</name>
  <cmt>Point 246</cmt>
  <desc>Point 246</desc>
</trkpt>
<trkpt lat="24.597044000" lon="121.298218000">
  <ele>1440.130000</ele>
  <time>2009-10-19T03:51:52Z</time>
  <name>Point 247</name>
  <cmt>Point 247</cmt>
  <desc>Point 247</desc>
</trkpt>
<trkpt lat="24.597057000" lon="121.298370000">
  <ele>1436.470000</ele>
  <time>2009-10-19T03:51:57Z</time>
  <name>Point 248</name>
  <cmt>Point 248</cmt>
  <desc>Point 248</desc>
</trkpt>
<trkpt lat="24.597076000" lon="121.298477000">
  <ele>1438.220000</ele>
  <time>2009-10-19T03:52:02Z</time>
  <name>Point 249</name>
  <cmt>Point 249</cmt>
  <desc>Point 249</desc>
</trkpt>
<trkpt lat="24.597019000" lon="121.298546000">
  <ele>1437.590000</ele>
  <time>2009-10-19T03:52:07Z</time>
  <name>Point 250</name>
  <cmt>Point 250</cmt>
  <desc>Point 250</desc>
</trkpt>
<trkpt lat="24.596985000" lon="121.298653000">
  <ele>1437.500000</ele>
  <time>2009-10-19T03:52:12Z</time>
  <name>Point 251</name>
  <cmt>Point 251</cmt>
  <desc>Point 251</desc>
</trkpt>
<trkpt lat="24.596945000" lon="121.298843000">
  <ele>1434.030000</ele>
  <time>2009-10-19T03:52:17Z</time>
  <name>Point 252</name>
  <cmt>Point 252</cmt>
  <desc>Point 252</desc>
</trkpt>
<trkpt lat="24.596924000" lon="121.298996000">
  <ele>1430.560000</ele>
  <time>2009-10-19T03:52:22Z</time>
  <name>Point 253</name>
  <cmt>Point 253</cmt>
  <desc>Point 253</desc>
</trkpt>
<trkpt lat="24.596870000" lon="121.299202000">
  <ele>1423.780000</ele>
  <time>2009-10-19T03:52:27Z</time>
  <name>Point 254</name>
  <cmt>Point 254</cmt>
  <desc>Point 254</desc>
</trkpt>
<trkpt lat="24.596821000" lon="121.299355000">
  <ele>1421.160000</ele>
  <time>2009-10-19T03:52:32Z</time>
  <name>Point 255</name>
  <cmt>Point 255</cmt>
  <desc>Point 255</desc>
</trkpt>
<trkpt lat="24.596828000" lon="121.299461000">
  <ele>1419.000000</ele>
  <time>2009-10-19T03:52:37Z</time>
  <name>Point 256</name>
  <cmt>Point 256</cmt>
  <desc>Point 256</desc>
</trkpt>
<trkpt lat="24.596851000" lon="121.299583000">
  <ele>1417.220000</ele>
  <time>2009-10-19T03:52:42Z</time>
  <name>Point 257</name>
  <cmt>Point 257</cmt>
  <desc>Point 257</desc>
</trkpt>
<trkpt lat="24.596857000" lon="121.299782000">
  <ele>1421.780000</ele>
  <time>2009-10-19T03:52:47Z</time>
  <name>Point 258</name>
  <cmt>Point 258</cmt>
  <desc>Point 258</desc>
</trkpt>
<trkpt lat="24.596798000" lon="121.299835000">
  <ele>1422.910000</ele>
  <time>2009-10-19T03:52:52Z</time>
  <name>Point 259</name>
  <cmt>Point 259</cmt>
  <desc>Point 259</desc>
</trkpt>
<trkpt lat="24.596682000" lon="121.299843000">
  <ele>1422.560000</ele>
  <time>2009-10-19T03:52:57Z</time>
  <name>Point 260</name>
  <cmt>Point 260</cmt>
  <desc>Point 260</desc>
</trkpt>
<trkpt lat="24.596554000" lon="121.299858000">
  <ele>1425.250000</ele>
  <time>2009-10-19T03:53:02Z</time>
  <name>Point 261</name>
  <cmt>Point 261</cmt>
  <desc>Point 261</desc>
</trkpt>
<trkpt lat="24.596441000" lon="121.299927000">
  <ele>1425.160000</ele>
  <time>2009-10-19T03:53:07Z</time>
  <name>Point 262</name>
  <cmt>Point 262</cmt>
  <desc>Point 262</desc>
</trkpt>
<trkpt lat="24.596338000" lon="121.300087000">
  <ele>1425.470000</ele>
  <time>2009-10-19T03:53:12Z</time>
  <name>Point 263</name>
  <cmt>Point 263</cmt>
  <desc>Point 263</desc>
</trkpt>
<trkpt lat="24.596188000" lon="121.300194000">
  <ele>1422.780000</ele>
  <time>2009-10-19T03:53:17Z</time>
  <name>Point 264</name>
  <cmt>Point 264</cmt>
  <desc>Point 264</desc>
</trkpt>
<trkpt lat="24.596071000" lon="121.300316000">
  <ele>1424.380000</ele>
  <time>2009-10-19T03:53:22Z</time>
  <name>Point 265</name>
  <cmt>Point 265</cmt>
  <desc>Point 265</desc>
</trkpt>
<trkpt lat="24.595926000" lon="121.300552000">
  <ele>1427.190000</ele>
  <time>2009-10-19T03:53:27Z</time>
  <name>Point 266</name>
  <cmt>Point 266</cmt>
  <desc>Point 266</desc>
</trkpt>
<trkpt lat="24.595821000" lon="121.300690000">
  <ele>1430.380000</ele>
  <time>2009-10-19T03:53:32Z</time>
  <name>Point 267</name>
  <cmt>Point 267</cmt>
  <desc>Point 267</desc>
</trkpt>
<trkpt lat="24.595699000" lon="121.300705000">
  <ele>1429.340000</ele>
  <time>2009-10-19T03:53:37Z</time>
  <name>Point 268</name>
  <cmt>Point 268</cmt>
  <desc>Point 268</desc>
</trkpt>
<trkpt lat="24.595551000" lon="121.300743000">
  <ele>1430.030000</ele>
  <time>2009-10-19T03:53:42Z</time>
  <name>Point 269</name>
  <cmt>Point 269</cmt>
  <desc>Point 269</desc>
</trkpt>
<trkpt lat="24.595444000" lon="121.300880000">
  <ele>1431.660000</ele>
  <time>2009-10-19T03:53:47Z</time>
  <name>Point 270</name>
  <cmt>Point 270</cmt>
  <desc>Point 270</desc>
</trkpt>
<trkpt lat="24.595362000" lon="121.300995000">
  <ele>1434.220000</ele>
  <time>2009-10-19T03:53:52Z</time>
  <name>Point 271</name>
  <cmt>Point 271</cmt>
  <desc>Point 271</desc>
</trkpt>
<trkpt lat="24.595261000" lon="121.301025000">
  <ele>1432.190000</ele>
  <time>2009-10-19T03:53:57Z</time>
  <name>Point 272</name>
  <cmt>Point 272</cmt>
  <desc>Point 272</desc>
</trkpt>
<trkpt lat="24.595171000" lon="121.301056000">
  <ele>1433.690000</ele>
  <time>2009-10-19T03:54:02Z</time>
  <name>Point 273</name>
  <cmt>Point 273</cmt>
  <desc>Point 273</desc>
</trkpt>
<trkpt lat="24.595064000" lon="121.301071000">
  <ele>1434.060000</ele>
  <time>2009-10-19T03:54:07Z</time>
  <name>Point 274</name>
  <cmt>Point 274</cmt>
  <desc>Point 274</desc>
</trkpt>
<trkpt lat="24.594975000" lon="121.301094000">
  <ele>1435.880000</ele>
  <time>2009-10-19T03:54:12Z</time>
  <name>Point 275</name>
  <cmt>Point 275</cmt>
  <desc>Point 275</desc>
</trkpt>
<trkpt lat="24.594904000" lon="121.301117000">
  <ele>1438.380000</ele>
  <time>2009-10-19T03:54:17Z</time>
  <name>Point 276</name>
  <cmt>Point 276</cmt>
  <desc>Point 276</desc>
</trkpt>
<trkpt lat="24.594879000" lon="121.301125000">
  <ele>1439.840000</ele>
  <time>2009-10-19T03:54:22Z</time>
  <name>Point 277</name>
  <cmt>Point 277</cmt>
  <desc>Point 277</desc>
</trkpt>
<trkpt lat="24.594860000" lon="121.301155000">
  <ele>1441.410000</ele>
  <time>2009-10-19T03:54:27Z</time>
  <name>Point 278</name>
  <cmt>Point 278</cmt>
  <desc>Point 278</desc>
</trkpt>
<trkpt lat="24.594852000" lon="121.301254000">
  <ele>1439.970000</ele>
  <time>2009-10-19T03:54:32Z</time>
  <name>Point 279</name>
  <cmt>Point 279</cmt>
  <desc>Point 279</desc>
</trkpt>
<trkpt lat="24.594791000" lon="121.301384000">
  <ele>1439.130000</ele>
  <time>2009-10-19T03:54:37Z</time>
  <name>Point 280</name>
  <cmt>Point 280</cmt>
  <desc>Point 280</desc>
</trkpt>
<trkpt lat="24.594776000" lon="121.301582000">
  <ele>1440.560000</ele>
  <time>2009-10-19T03:54:42Z</time>
  <name>Point 281</name>
  <cmt>Point 281</cmt>
  <desc>Point 281</desc>
</trkpt>
<trkpt lat="24.594677000" lon="121.301811000">
  <ele>1444.060000</ele>
  <time>2009-10-19T03:54:47Z</time>
  <name>Point 282</name>
  <cmt>Point 282</cmt>
  <desc>Point 282</desc>
</trkpt>
<trkpt lat="24.594700000" lon="121.301933000">
  <ele>1444.940000</ele>
  <time>2009-10-19T03:54:52Z</time>
  <name>Point 283</name>
  <cmt>Point 283</cmt>
  <desc>Point 283</desc>
</trkpt>
<trkpt lat="24.594618000" lon="121.302170000">
  <ele>1447.030000</ele>
  <time>2009-10-19T03:54:57Z</time>
  <name>Point 284</name>
  <cmt>Point 284</cmt>
  <desc>Point 284</desc>
</trkpt>
<trkpt lat="24.594509000" lon="121.302376000">
  <ele>1447.380000</ele>
  <time>2009-10-19T03:55:02Z</time>
  <name>Point 285</name>
  <cmt>Point 285</cmt>
  <desc>Point 285</desc>
</trkpt>
<trkpt lat="24.594490000" lon="121.302521000">
  <ele>1448.190000</ele>
  <time>2009-10-19T03:55:07Z</time>
  <name>Point 286</name>
  <cmt>Point 286</cmt>
  <desc>Point 286</desc>
</trkpt>
<trkpt lat="24.594360000" lon="121.302719000">
  <ele>1447.590000</ele>
  <time>2009-10-19T03:55:12Z</time>
  <name>Point 287</name>
  <cmt>Point 287</cmt>
  <desc>Point 287</desc>
</trkpt>
<trkpt lat="24.594374000" lon="121.302834000">
  <ele>1446.220000</ele>
  <time>2009-10-19T03:55:17Z</time>
  <name>Point 288</name>
  <cmt>Point 288</cmt>
  <desc>Point 288</desc>
</trkpt>
<trkpt lat="24.594398000" lon="121.302925000">
  <ele>1448.530000</ele>
  <time>2009-10-19T03:55:22Z</time>
  <name>Point 289</name>
  <cmt>Point 289</cmt>
  <desc>Point 289</desc>
</trkpt>
<trkpt lat="24.594437000" lon="121.303024000">
  <ele>1451.250000</ele>
  <time>2009-10-19T03:55:27Z</time>
  <name>Point 290</name>
  <cmt>Point 290</cmt>
  <desc>Point 290</desc>
</trkpt>
<trkpt lat="24.594473000" lon="121.303169000">
  <ele>1453.000000</ele>
  <time>2009-10-19T03:55:32Z</time>
  <name>Point 291</name>
  <cmt>Point 291</cmt>
  <desc>Point 291</desc>
</trkpt>
<trkpt lat="24.594528000" lon="121.303261000">
  <ele>1455.660000</ele>
  <time>2009-10-19T03:55:37Z</time>
  <name>Point 292</name>
  <cmt>Point 292</cmt>
  <desc>Point 292</desc>
</trkpt>
<trkpt lat="24.594563000" lon="121.303383000">
  <ele>1456.810000</ele>
  <time>2009-10-19T03:55:42Z</time>
  <name>Point 293</name>
  <cmt>Point 293</cmt>
  <desc>Point 293</desc>
</trkpt>
<trkpt lat="24.594599000" lon="121.303497000">
  <ele>1455.280000</ele>
  <time>2009-10-19T03:55:47Z</time>
  <name>Point 294</name>
  <cmt>Point 294</cmt>
  <desc>Point 294</desc>
</trkpt>
<trkpt lat="24.594641000" lon="121.303574000">
  <ele>1454.590000</ele>
  <time>2009-10-19T03:55:52Z</time>
  <name>Point 295</name>
  <cmt>Point 295</cmt>
  <desc>Point 295</desc>
</trkpt>
<trkpt lat="24.594677000" lon="121.303604000">
  <ele>1453.220000</ele>
  <time>2009-10-19T03:55:57Z</time>
  <name>Point 296</name>
  <cmt>Point 296</cmt>
  <desc>Point 296</desc>
</trkpt>
<trkpt lat="24.594610000" lon="121.303658000">
  <ele>1457.190000</ele>
  <time>2009-10-19T03:56:02Z</time>
  <name>Point 297</name>
  <cmt>Point 297</cmt>
  <desc>Point 297</desc>
</trkpt>
<trkpt lat="24.594604000" lon="121.303673000">
  <ele>1462.630000</ele>
  <time>2009-10-19T03:56:07Z</time>
  <name>Point 298</name>
  <cmt>Point 298</cmt>
  <desc>Point 298</desc>
</trkpt>
<trkpt lat="24.594593000" lon="121.303680000">
  <ele>1462.690000</ele>
  <time>2009-10-19T03:56:12Z</time>
  <name>Point 299</name>
  <cmt>Point 299</cmt>
  <desc>Point 299</desc>
</trkpt>
<trkpt lat="24.594593000" lon="121.303680000">
  <ele>1462.970000</ele>
  <time>2009-10-19T03:56:17Z</time>
  <name>Point 300</name>
  <cmt>Point 300</cmt>
  <desc>Point 300</desc>
</trkpt>
<trkpt lat="24.594591000" lon="121.303680000">
  <ele>1463.130000</ele>
  <time>2009-10-19T03:56:22Z</time>
  <name>Point 301</name>
  <cmt>Point 301</cmt>
  <desc>Point 301</desc>
</trkpt>
<trkpt lat="24.594584000" lon="121.303680000">
  <ele>1463.190000</ele>
  <time>2009-10-19T03:56:27Z</time>
  <name>Point 302</name>
  <cmt>Point 302</cmt>
  <desc>Point 302</desc>
</trkpt>
<trkpt lat="24.594612000" lon="121.303673000">
  <ele>1462.630000</ele>
  <time>2009-10-19T03:56:32Z</time>
  <name>Point 303</name>
  <cmt>Point 303</cmt>
  <desc>Point 303</desc>
</trkpt>
<trkpt lat="24.594641000" lon="121.303680000">
  <ele>1459.630000</ele>
  <time>2009-10-19T03:56:37Z</time>
  <name>Point 304</name>
  <cmt>Point 304</cmt>
  <desc>Point 304</desc>
</trkpt>
<trkpt lat="24.594627000" lon="121.303673000">
  <ele>1460.000000</ele>
  <time>2009-10-19T03:56:42Z</time>
  <name>Point 305</name>
  <cmt>Point 305</cmt>
  <desc>Point 305</desc>
</trkpt>
</trkseg>
</trk>
</gpx>
