<?xml version="1.0" encoding="UTF-8"?>
<kml xmlns="http://earth.google.com/kml/2.1">
<Document>
<Style id="normalState_TLP_Start">
<IconStyle>
<scale>1.0</scale>
<Icon>
<href>http://maps.google.com/mapfiles/kml/pal4/icon15.png</href>
</Icon>
</IconStyle>
<LabelStyle>
<scale>1.0</scale>
</LabelStyle>
</Style>
<Style id="highlightState_TLP_Start">
<IconStyle>
<scale>1.1</scale>
<Icon>
<href>http://maps.google.com/mapfiles/kml/pal4/icon7.png</href>
</Icon>
</IconStyle>
<LabelStyle>
<scale>1.1</scale>
<color>ff0000ff</color>
</LabelStyle>
</Style>
<StyleMap id="styleMap_TLP_Start">
<Pair>
<key>normal</key>
<styleUrl>#normalState_TLP_Start</styleUrl>
</Pair>
<Pair>
<key>highlight</key>
<styleUrl>#highlightState_TLP_Start</styleUrl>
</Pair>
</StyleMap>
<Style id="normalState_TLP_Finish">
<IconStyle>
<scale>1.0</scale>
<Icon>
<href>http://maps.google.com/mapfiles/kml/pal4/icon15.png</href>
</Icon>
</IconStyle>
<LabelStyle>
<scale>1.0</scale>
</LabelStyle>
</Style>
<Style id="highlightState_TLP_Finish">
<IconStyle>
<scale>1.1</scale>
<Icon>
<href>http://maps.google.com/mapfiles/kml/pal4/icon7.png</href>
</Icon>
</IconStyle>
<LabelStyle>
<scale>1.1</scale>
<color>ff0000ff</color>
</LabelStyle>
</Style>
<StyleMap id="styleMap_TLP_Finish">
<Pair>
<key>normal</key>
<styleUrl>#normalState_TLP_Finish</styleUrl>
</Pair>
<Pair>
<key>highlight</key>
<styleUrl>#highlightState_TLP_Finish</styleUrl>
</Pair>
</StyleMap>
<Style id="normalState_TLP_Normal">
<IconStyle>
<scale>1.0</scale>
<Icon>
<href>http://maps.google.com/mapfiles/kml/pal4/icon31.png</href>
</Icon>
</IconStyle>
<LabelStyle>
<scale>1.0</scale>
</LabelStyle>
</Style>
<Style id="highlightState_TLP_Normal">
<IconStyle>
<scale>1.1</scale>
<Icon>
<href>http://maps.google.com/mapfiles/kml/pal4/icon23.png</href>
</Icon>
</IconStyle>
<LabelStyle>
<scale>1.1</scale>
<color>ff0000ff</color>
</LabelStyle>
</Style>
<StyleMap id="styleMap_TLP_Normal">
<Pair>
<key>normal</key>
<styleUrl>#normalState_TLP_Normal</styleUrl>
</Pair>
<Pair>
<key>highlight</key>
<styleUrl>#highlightState_TLP_Normal</styleUrl>
</Pair>
</StyleMap>
<Style id="normalState_TLP_Photo">
<IconStyle>
<scale>1.0</scale>
<Icon>
<href>http://maps.google.com/mapfiles/kml/pal4/icon46.png</href>
</Icon>
</IconStyle>
<LabelStyle>
<scale>1.0</scale>
</LabelStyle>
</Style>
<Style id="highlightState_TLP_Photo">
<IconStyle>
<scale>1.1</scale>
<Icon>
<href>http://maps.google.com/mapfiles/kml/pal4/icon38.png</href>
</Icon>
</IconStyle>
<LabelStyle>
<scale>1.1</scale>
<color>ff0000ff</color>
</LabelStyle>
</Style>
<StyleMap id="styleMap_TLP_Photo">
<Pair>
<key>normal</key>
<styleUrl>#normalState_TLP_Photo</styleUrl>
</Pair>
<Pair>
<key>highlight</key>
<styleUrl>#highlightState_TLP_Photo</styleUrl>
</Pair>
</StyleMap>
<Style id="roadStyle">
<LineStyle>
<color>ffffff00</color>
<width>6</width>
</LineStyle>
</Style>
<Open>1</Open>
<description>Route</description>
<name>Track Log</name>
<Placemark>
<name>Route</name>
<styleUrl>#roadStyle</styleUrl>
<MultiGeometry>
<LineString>
<coordinates>
7.4611931,46.9510841,484.63 7.4604702,46.9509468,558.69 7.4605136,46.9508476,572.22 7.4605341,46.9508209,575.45 7.4605713,46.9507675,577.63 7.4606118,46.9507065,577.50 7.4606299,46.9506607,579.05 7.4606624,46.9506340,579.11 7.4606652,46.9506073,577.97 7.4606810,46.9505692,576.84 7.4606867,46.9505386,575.08 7.4607000,46.9504776,574.94 7.4606919,46.9504585,573.56 7.4606595,46.9504814,573.31 7.4606690,46.9504700,572.83 7.4606872,46.9504814,572.41 7.4606853,46.9504318,571.94 7.4607081,46.9503937,571.36 7.4607387,46.9503517,571.66 7.4607530,46.9503098,570.50 7.4607706,46.9502678,570.53 7.4607973,46.9502487,571.38 7.4607902,46.9502373,570.39 7.4607882,46.9502335,570.56 7.4607873,46.9502373,570.64 7.4607830,46.9502335,570.66 7.4607825,46.9502373,570.67 7.4607782,46.9502335,570.67 7.4607611,46.9501877,570.09 7.4607401,46.9501572,568.92 7.4607558,46.9501495,568.23 7.4607611,46.9501343,567.67 7.4607506,46.9501266,565.98 7.4607658,46.9500999,565.61 7.4607768,46.9500847,566.00 7.4607754,46.9500809,566.00 7.4607711,46.9500732,566.17 7.4607534,46.9500771,566.34 7.4607406,46.9500771,566.56 7.4607453,46.9500618,566.28 7.4607291,46.9500389,564.84 7.4607234,46.9500122,563.48 7.4607387,46.9499702,562.55 7.4607081,46.9499397,561.56 7.4606738,46.9499054,560.70 7.4606805,46.9498634,559.70 7.4606848,46.9498291,558.81 7.4606776,46.9497910,557.91 7.4607062,46.9497337,556.84 7.4606981,46.9496841,556.31 7.4607148,46.9496422,554.69 7.4607148,46.9496002,553.70 7.4607201,46.9495468,552.30 7.4607248,46.9495201,550.39 7.4607472,46.9494820,549.22 7.4607482,46.9494324,548.11 7.4607430,46.9493980,546.77 7.4607372,46.9493484,545.11 7.4607472,46.9493027,543.53 7.4607387,46.9492798,542.31 7.4607291,46.9492455,541.13 7.4607329,46.9491959,539.86 7.4607205,46.9491463,538.75 7.4607310,46.9491081,538.00 7.4607382,46.9490738,536.97 7.4607430,46.9490166,535.95 7.4607534,46.9489822,535.69 7.4607515,46.9489365,535.73 7.4607387,46.9488945,535.95 7.4607182,46.9488602,534.92 7.4607511,46.9488258,534.58 7.4607415,46.9487991,534.33 7.4607453,46.9487686,533.63 7.4607477,46.9487305,533.31 7.4607763,46.9486961,533.42 7.4607682,46.9486885,532.86 7.4607892,46.9486771,532.61 7.4608321,46.9486961,532.39 7.4608464,46.9487038,532.42 7.4608235,46.9486961,532.42 7.4607954,46.9486961,532.66 7.4607611,46.9486847,532.22 7.4606996,46.9486542,532.94 7.4606347,46.9486198,533.23 7.4605794,46.9485741,532.95 7.4605370,46.9485512,532.61 7.4604921,46.9485321,532.45 7.4604402,46.9485168,532.27 7.4604268,46.9485168,530.75 7.4604130,46.9485168,530.11 7.4603367,46.9484749,528.97 7.4602895,46.9484444,528.31 7.4602776,46.9483986,528.45 7.4602561,46.9483795,527.61 7.4602351,46.9483986,525.25 7.4602180,46.9483643,523.97 7.4601936,46.9483185,523.25 7.4601760,46.9482994,523.20 7.4601750,46.9482689,523.31 7.4601455,46.9482422,522.69 7.4600573,46.9482040,522.91 7.4600115,46.9482040,522.48 7.4599991,46.9481888,521.80 7.4600148,46.9481735,520.97 7.4599972,46.9481697,520.70 7.4599848,46.9481506,519.95 7.4599934,46.9481239,519.39 7.4599833,46.9481087,519.45 7.4599609,46.9480820,520.00 7.4599457,46.9480324,519.61 7.4599338,46.9479790,520.25 7.4599042,46.9479179,520.69 7.4598746,46.9478798,522.25 7.4598393,46.9478416,524.30 7.4598112,46.9477959,526.50 7.4597993,46.9478073,527.36 7.4597816,46.9478149,527.77 7.4597788,46.9477997,527.98 7.4597769,46.9477921,528.05 7.4597769,46.9477654,528.09 7.4597340,46.9477043,528.14 7.4597049,46.9476700,528.19 7.4596825,46.9476280,520.64 7.4597802,46.9476318,511.63 7.4597363,46.9476585,515.83 7.4597254,46.9476547,520.63 7.4597182,46.9476433,521.00 7.4597116,46.9476357,521.09 7.4597092,46.9476166,523.09 7.4597106,46.9476089,523.16 7.4597087,46.9475937,523.27 7.4597230,46.9475670,523.05 7.4597130,46.9475555,523.16 7.4597321,46.9475861,523.77 7.4597301,46.9476166,525.39 7.4597235,46.9476166,526.84 7.4597492,46.9476128,528.13 7.4597468,46.9476128,528.17 7.4597301,46.9476089,528.25 7.4597230,46.9475975,529.00 7.4597144,46.9475975,529.02 7.4597249,46.9475784,529.03 7.4597006,46.9475250,528.94 7.4596796,46.9474907,528.92 7.4596844,46.9475136,528.63 7.4597492,46.9476509,526.86 7.4597201,46.9477577,526.53 7.4597440,46.9478264,528.53 7.4597259,46.9478645,528.53 7.4596796,46.9478531,526.81 7.4596686,46.9478149,524.92 7.4596381,46.9478111,524.17 7.4595990,46.9478111,524.52 7.4595351,46.9478149,523.91 7.4594650,46.9478226,522.83 7.4594293,46.9478416,522.92 7.4594264,46.9478455,522.91 7.4594078,46.9478493,522.73 7.4594140,46.9478493,522.02 7.4594173,46.9478493,521.97 7.4594078,46.9478683,522.31 7.4593992,46.9478874,522.33 7.4593878,46.9478874,522.38 7.4593897,46.9478912,522.36 7.4593921,46.9478989,522.33 7.4593949,46.9478989,522.30 7.4593849,46.9478989,523.28 7.4593849,46.9478989,523.28 7.4593906,46.9478951,523.17 7.4593768,46.9478989,520.77 7.4593792,46.9478989,520.08 7.4593792,46.9478951,519.98 7.4593787,46.9479103,519.30 7.4593949,46.9479179,519.06 7.4593906,46.9479103,519.52 7.4593906,46.9479103,519.48 7.4593897,46.9479103,519.41 7.4593897,46.9479103,519.38 7.4593897,46.9479141,519.42 7.4593887,46.9479179,519.45 7.4593887,46.9479294,519.52 7.4593892,46.9479370,519.73 7.4593925,46.9479446,519.86 7.4593964,46.9479485,519.94 7.4593968,46.9479485,520.03 7.4593973,46.9479485,520.08 7.4594078,46.9479218,520.30 7.4593949,46.9478912,519.77 7.4594007,46.9478760,519.64 7.4594235,46.9478302,519.39 7.4594417,46.9478149,519.16 7.4594235,46.9478149,518.33 7.4594169,46.9478188,517.81 7.4594154,46.9478188,517.73 7.4594259,46.9478340,517.88 7.4594398,46.9478302,518.16 7.4594421,46.9478340,518.36 7.4594417,46.9478378,518.67 7.4594431,46.9478264,519.80 7.4594216,46.9477844,519.36 7.4593930,46.9477806,518.86 7.4593759,46.9477654,518.66 7.4593778,46.9477654,518.69 7.4593787,46.9477654,518.75 7.4593801,46.9477501,519.09 7.4593906,46.9477425,518.63 7.4593883,46.9477425,518.58 7.4593878,46.9477386,518.58 7.4593878,46.9477425,518.63 7.4593849,46.9477425,518.72 7.4593782,46.9477425,518.84 7.4593773,46.9477463,518.92 7.4594374,46.9477272,519.25 7.4594240,46.9477310,518.53 7.4594288,46.9477348,518.48 7.4594383,46.9477501,518.33 7.4594426,46.9478073,518.59 7.4594312,46.9478569,518.56 7.4594450,46.9479065,517.48 7.4594297,46.9479561,517.09 7.4594264,46.9480095,515.89 7.4594240,46.9480553,517.72 7.4594288,46.9481125,519.20 7.4594350,46.9481697,519.11 7.4594450,46.9482079,517.81 7.4594498,46.9482651,518.64 7.4594698,46.9483070,520.06 7.4594760,46.9483681,518.39 7.4594617,46.9484062,517.88 7.4594698,46.9484062,518.67 7.4594331,46.9483986,518.81 7.4593577,46.9484062,518.77 7.4593091,46.9484177,519.94 7.4592552,46.9484291,520.66 7.4592061,46.9484100,520.98 7.4591718,46.9484062,521.53 7.4591823,46.9483948,522.50 7.4591212,46.9483986,522.56 7.4590473,46.9483948,522.22 7.4589734,46.9484024,520.81 7.4589210,46.9484100,520.98 7.4588642,46.9484253,521.19 7.4588051,46.9484291,521.33 7.4587336,46.9484177,520.73 7.4587011,46.9484253,520.03 7.4587083,46.9484367,520.20 7.4587078,46.9484367,520.14 7.4587116,46.9484367,520.09 7.4587183,46.9484406,520.08 7.4587231,46.9484406,520.05 7.4586935,46.9484520,519.66 7.4586415,46.9484482,519.78 7.4586086,46.9484520,519.84 7.4586082,46.9484558,519.92 7.4586077,46.9484558,520.03 7.4586043,46.9484558,520.03 7.4585967,46.9484558,519.97 7.4585905,46.9484558,519.83 7.4585891,46.9484520,519.59 7.4585900,46.9484558,519.34 7.4585896,46.9484558,519.22 7.4585900,46.9484558,519.19 7.4585924,46.9484558,519.20 7.4585958,46.9484558,519.23 7.4585967,46.9484558,519.25 7.4585967,46.9484558,519.27 7.4585972,46.9484558,519.25 7.4585977,46.9484558,519.23 7.4585977,46.9484558,519.25 7.4585981,46.9484558,519.25 7.4585977,46.9484558,519.25 7.4585991,46.9484558,519.25 7.4586039,46.9484558,519.22 7.4586058,46.9484596,519.14 7.4586062,46.9484596,519.13 7.4586067,46.9484596,519.14 7.4586067,46.9484596,519.13 7.4586048,46.9484558,519.11 7.4586053,46.9484558,519.19 7.4586062,46.9484558,519.22 7.4586058,46.9484558,519.14 7.4586067,46.9484558,519.05 7.4586067,46.9484558,518.91 7.4586058,46.9484558,518.88 7.4586105,46.9484520,518.97 7.4586172,46.9484520,519.03 7.4586186,46.9484520,518.97 7.4586229,46.9484520,518.75 7.4586229,46.9484520,518.72 7.4586229,46.9484520,518.67 7.4586229,46.9484520,518.66 7.4586229,46.9484558,518.66 7.4586229,46.9484558,518.66 7.4586248,46.9484558,518.66 7.4586306,46.9484520,518.63 7.4586387,46.9484520,518.52 7.4587054,46.9484444,518.38 7.4587765,46.9484329,518.97 7.4588342,46.9484291,520.02 7.4588876,46.9484177,520.05 7.4589515,46.9484024,519.81 7.4590220,46.9483948,519.88 7.4590998,46.9483833,519.91 7.4591694,46.9483757,519.78 7.4592400,46.9483795,519.34 7.4593005,46.9483757,519.11 7.4593873,46.9483681,519.13 7.4594584,46.9483795,519.25 7.4595008,46.9483452,517.55 7.4594946,46.9483109,516.39 7.4595203,46.9482803,516.28 7.4595408,46.9482384,516.56 7.4595723,46.9482155,517.89 7.4595590,46.9482269,517.69 7.4595690,46.9482269,516.84 7.4595695,46.9482269,516.80 7.4595757,46.9482307,516.89 7.4595795,46.9482574,518.16 7.4596004,46.9482384,518.47 7.4596295,46.9482422,518.70 7.4596882,46.9482307,519.00 7.4597297,46.9482269,518.89 7.4597468,46.9482193,518.81 7.4597397,46.9482536,518.94 7.4597216,46.9482765,518.86 7.4597278,46.9482880,518.92 7.4597325,46.9482880,518.83 7.4597187,46.9482918,519.92 7.4597254,46.9482880,519.92 7.4597297,46.9482841,519.91 7.4597301,46.9482841,519.83 7.4597316,46.9482880,519.80 7.4597631,46.9482765,519.83 7.4597735,46.9482651,519.39 7.4597678,46.9482574,519.19 7.4597778,46.9482498,518.95 7.4597731,46.9482651,518.73 7.4597564,46.9482880,519.00 7.4597402,46.9482918,518.41 7.4597220,46.9482841,519.17 7.4597225,46.9482841,519.17 7.4597268,46.9482727,519.09 7.4597301,46.9482727,519.14 7.4597292,46.9482765,519.13 7.4597545,46.9482536,519.52 7.4597878,46.9482422,519.70 7.4598112,46.9482384,519.84 7.4598179,46.9482384,519.77 7.4598141,46.9482422,519.80 7.4598165,46.9482460,519.81 7.4598198,46.9482460,519.91 7.4598179,46.9482536,520.61 7.4598088,46.9482651,519.81 7.4598298,46.9482918,519.53 7.4598079,46.9482918,518.52 7.4597840,46.9483032,518.97 7.4597936,46.9483109,519.73 7.4597926,46.9483185,519.86 7.4597845,46.9483528,519.95 7.4597969,46.9483910,519.78 7.4598107,46.9484711,518.20 7.4598536,46.9484749,517.55 7.4599252,46.9484711,517.22 7.4599948,46.9485016,516.88 7.4600844,46.9484940,517.36 7.4601426,46.9484634,516.86 7.4602113,46.9484444,516.59 7.4602838,46.9484634,516.66 7.4603338,46.9485092,516.81 7.4603844,46.9485931,515.97 7.4604535,46.9486465,517.77 7.4605064,46.9487152,519.91 7.4605284,46.9487457,522.05 7.4605699,46.9487762,522.42 7.4605880,46.9487877,523.77 7.4605947,46.9487762,524.39 7.4606237,46.9487724,525.13 7.4606066,46.9487457,526.27 7.4605598,46.9487076,526.56 7.4605527,46.9487076,526.66 7.4605517,46.9487038,526.70 7.4605517,46.9487076,526.72 7.4605522,46.9487190,526.73 7.4605536,46.9487267,526.73 </coordinates>
</LineString>
</MultiGeometry>
</Placemark>
<Folder>
<name>waypoints</name>
<Placemark>
<name>
Thu Oct 20 23:42:44 2011 S=0.80 Km/hr
</name>
<styleUrl>
#styleMap_TLP_Start
</styleUrl>
<Point>
<coordinates>
7.4611931,46.9510841,484.63
</coordinates>
</Point>
</Placemark>
<Placemark>
<name>
Thu Oct 20 23:42:50 2011 S=1.09 Km/hr
</name>
<styleUrl>
#styleMap_TLP_Normal
</styleUrl>
<Point>
<coordinates>
7.4604702,46.9509468,558.69
</coordinates>
</Point>
</Placemark>
<Placemark>
<name>
Thu Oct 20 23:42:56 2011 S=2.98 Km/hr
</name>
<styleUrl>
#styleMap_TLP_Normal
</styleUrl>
<Point>
<coordinates>
7.4605136,46.9508476,572.22
</coordinates>
</Point>
</Placemark>
<Placemark>
<name>
Thu Oct 20 23:43:02 2011 S=2.46 Km/hr
</name>
<styleUrl>
#styleMap_TLP_Normal
</styleUrl>
<Point>
<coordinates>
7.4605341,46.9508209,575.45
</coordinates>
</Point>
</Placemark>
<Placemark>
<name>
Thu Oct 20 23:43:07 2011 S=3.42 Km/hr
</name>
<styleUrl>
#styleMap_TLP_Normal
</styleUrl>
<Point>
<coordinates>
7.4605713,46.9507675,577.63
</coordinates>
</Point>
</Placemark>
<Placemark>
<name>
Thu Oct 20 23:43:12 2011 S=3.38 Km/hr
</name>
<styleUrl>
#styleMap_TLP_Normal
</styleUrl>
<Point>
<coordinates>
7.4606118,46.9507065,577.50
</coordinates>
</Point>
</Placemark>
<Placemark>
<name>
Thu Oct 20 23:43:17 2011 S=3.64 Km/hr
</name>
<styleUrl>
#styleMap_TLP_Normal
</styleUrl>
<Point>
<coordinates>
7.4606299,46.9506607,579.05
</coordinates>
</Point>
</Placemark>
<Placemark>
<name>
Thu Oct 20 23:43:22 2011 S=2.48 Km/hr
</name>
<styleUrl>
#styleMap_TLP_Normal
</styleUrl>
<Point>
<coordinates>
7.4606624,46.9506340,579.11
</coordinates>
</Point>
</Placemark>
<Placemark>
<name>
Thu Oct 20 23:43:27 2011 S=2.87 Km/hr
</name>
<styleUrl>
#styleMap_TLP_Normal
</styleUrl>
<Point>
<coordinates>
7.4606652,46.9506073,577.97
</coordinates>
</Point>
</Placemark>
<Placemark>
<name>
Thu Oct 20 23:43:32 2011 S=2.78 Km/hr
</name>
<styleUrl>
#styleMap_TLP_Normal
</styleUrl>
<Point>
<coordinates>
7.4606810,46.9505692,576.84
</coordinates>
</Point>
</Placemark>
<Placemark>
<name>
Thu Oct 20 23:43:37 2011 S=2.62 Km/hr
</name>
<styleUrl>
#styleMap_TLP_Normal
</styleUrl>
<Point>
<coordinates>
7.4606867,46.9505386,575.08
</coordinates>
</Point>
</Placemark>
<Placemark>
<name>
Thu Oct 20 23:43:42 2011 S=2.64 Km/hr
</name>
<styleUrl>
#styleMap_TLP_Normal
</styleUrl>
<Point>
<coordinates>
7.4607000,46.9504776,574.94
</coordinates>
</Point>
</Placemark>
<Placemark>
<name>
Thu Oct 20 23:43:47 2011 S=1.35 Km/hr
</name>
<styleUrl>
#styleMap_TLP_Normal
</styleUrl>
<Point>
<coordinates>
7.4606919,46.9504585,573.56
</coordinates>
</Point>
</Placemark>
<Placemark>
<name>
Thu Oct 20 23:43:52 2011 S=0.24 Km/hr
</name>
<styleUrl>
#styleMap_TLP_Normal
</styleUrl>
<Point>
<coordinates>
7.4606595,46.9504814,573.31
</coordinates>
</Point>
</Placemark>
<Placemark>
<name>
Thu Oct 20 23:43:57 2011 S=0.15 Km/hr
</name>
<styleUrl>
#styleMap_TLP_Normal
</styleUrl>
<Point>
<coordinates>
7.4606690,46.9504700,572.83
</coordinates>
</Point>
</Placemark>
<Placemark>
<name>
Thu Oct 20 23:44:02 2011 S=1.45 Km/hr
</name>
<styleUrl>
#styleMap_TLP_Normal
</styleUrl>
<Point>
<coordinates>
7.4606872,46.9504814,572.41
</coordinates>
</Point>
</Placemark>
<Placemark>
<name>
Thu Oct 20 23:44:07 2011 S=3.04 Km/hr
</name>
<styleUrl>
#styleMap_TLP_Normal
</styleUrl>
<Point>
<coordinates>
7.4606853,46.9504318,571.94
</coordinates>
</Point>
</Placemark>
<Placemark>
<name>
Thu Oct 20 23:44:12 2011 S=3.33 Km/hr
</name>
<styleUrl>
#styleMap_TLP_Normal
</styleUrl>
<Point>
<coordinates>
7.4607081,46.9503937,571.36
</coordinates>
</Point>
</Placemark>
<Placemark>
<name>
Thu Oct 20 23:44:17 2011 S=3.21 Km/hr
</name>
<styleUrl>
#styleMap_TLP_Normal
</styleUrl>
<Point>
<coordinates>
7.4607387,46.9503517,571.66
</coordinates>
</Point>
</Placemark>
<Placemark>
<name>
Thu Oct 20 23:44:22 2011 S=3.48 Km/hr
</name>
<styleUrl>
#styleMap_TLP_Normal
</styleUrl>
<Point>
<coordinates>
7.4607530,46.9503098,570.50
</coordinates>
</Point>
</Placemark>
<Placemark>
<name>
Thu Oct 20 23:44:27 2011 S=3.44 Km/hr
</name>
<styleUrl>
#styleMap_TLP_Normal
</styleUrl>
<Point>
<coordinates>
7.4607706,46.9502678,570.53
</coordinates>
</Point>
</Placemark>
<Placemark>
<name>
Thu Oct 20 23:44:32 2011 S=0.44 Km/hr
</name>
<styleUrl>
#styleMap_TLP_Normal
</styleUrl>
<Point>
<coordinates>
7.4607973,46.9502487,571.38
</coordinates>
</Point>
</Placemark>
<Placemark>
<name>
Thu Oct 20 23:44:37 2011 S=0.44 Km/hr
</name>
<styleUrl>
#styleMap_TLP_Normal
</styleUrl>
<Point>
<coordinates>
7.4607902,46.9502373,570.39
</coordinates>
</Point>
</Placemark>
<Placemark>
<name>
Thu Oct 20 23:44:42 2011 S=0.68 Km/hr
</name>
<styleUrl>
#styleMap_TLP_Normal
</styleUrl>
<Point>
<coordinates>
7.4607882,46.9502335,570.56
</coordinates>
</Point>
</Placemark>
<Placemark>
<name>
Thu Oct 20 23:44:47 2011 S=0.23 Km/hr
</name>
<styleUrl>
#styleMap_TLP_Normal
</styleUrl>
<Point>
<coordinates>
7.4607873,46.9502373,570.64
</coordinates>
</Point>
</Placemark>
<Placemark>
<name>
Thu Oct 20 23:44:52 2011 S=0.33 Km/hr
</name>
<styleUrl>
#styleMap_TLP_Normal
</styleUrl>
<Point>
<coordinates>
7.4607830,46.9502335,570.66
</coordinates>
</Point>
</Placemark>
<Placemark>
<name>
Thu Oct 20 23:44:57 2011 S=0.13 Km/hr
</name>
<styleUrl>
#styleMap_TLP_Normal
</styleUrl>
<Point>
<coordinates>
7.4607825,46.9502373,570.67
</coordinates>
</Point>
</Placemark>
<Placemark>
<name>
Thu Oct 20 23:45:02 2011 S=0.98 Km/hr
</name>
<styleUrl>
#styleMap_TLP_Normal
</styleUrl>
<Point>
<coordinates>
7.4607782,46.9502335,570.67
</coordinates>
</Point>
</Placemark>
<Placemark>
<name>
Thu Oct 20 23:45:07 2011 S=3.54 Km/hr
</name>
<styleUrl>
#styleMap_TLP_Normal
</styleUrl>
<Point>
<coordinates>
7.4607611,46.9501877,570.09
</coordinates>
</Point>
</Placemark>
<Placemark>
<name>
Thu Oct 20 23:45:12 2011 S=1.77 Km/hr
</name>
<styleUrl>
#styleMap_TLP_Normal
</styleUrl>
<Point>
<coordinates>
7.4607401,46.9501572,568.92
</coordinates>
</Point>
</Placemark>
<Placemark>
<name>
Thu Oct 20 23:45:17 2011 S=1.03 Km/hr
</name>
<styleUrl>
#styleMap_TLP_Normal
</styleUrl>
<Point>
<coordinates>
7.4607558,46.9501495,568.23
</coordinates>
</Point>
</Placemark>
<Placemark>
<name>
Thu Oct 20 23:45:22 2011 S=2.36 Km/hr
</name>
<styleUrl>
#styleMap_TLP_Normal
</styleUrl>
<Point>
<coordinates>
7.4607611,46.9501343,567.67
</coordinates>
</Point>
</Placemark>
<Placemark>
<name>
Thu Oct 20 23:45:27 2011 S=1.92 Km/hr
</name>
<styleUrl>
#styleMap_TLP_Normal
</styleUrl>
<Point>
<coordinates>
7.4607506,46.9501266,565.98
</coordinates>
</Point>
</Placemark>
<Placemark>
<name>
Thu Oct 20 23:45:32 2011 S=1.41 Km/hr
</name>
<styleUrl>
#styleMap_TLP_Normal
</styleUrl>
<Point>
<coordinates>
7.4607658,46.9500999,565.61
</coordinates>
</Point>
</Placemark>
<Placemark>
<name>
Thu Oct 20 23:45:37 2011 S=0.43 Km/hr
</name>
<styleUrl>
#styleMap_TLP_Normal
</styleUrl>
<Point>
<coordinates>
7.4607768,46.9500847,566.00
</coordinates>
</Point>
</Placemark>
<Placemark>
<name>
Thu Oct 20 23:45:42 2011 S=2.36 Km/hr
</name>
<styleUrl>
#styleMap_TLP_Normal
</styleUrl>
<Point>
<coordinates>
7.4607754,46.9500809,566.00
</coordinates>
</Point>
</Placemark>
<Placemark>
<name>
Thu Oct 20 23:45:47 2011 S=1.75 Km/hr
</name>
<styleUrl>
#styleMap_TLP_Normal
</styleUrl>
<Point>
<coordinates>
7.4607711,46.9500732,566.17
</coordinates>
</Point>
</Placemark>
<Placemark>
<name>
Thu Oct 20 23:45:52 2011 S=0.27 Km/hr
</name>
<styleUrl>
#styleMap_TLP_Normal
</styleUrl>
<Point>
<coordinates>
7.4607534,46.9500771,566.34
</coordinates>
</Point>
</Placemark>
<Placemark>
<name>
Thu Oct 20 23:45:57 2011 S=0.42 Km/hr
</name>
<styleUrl>
#styleMap_TLP_Normal
</styleUrl>
<Point>
<coordinates>
7.4607406,46.9500771,566.56
</coordinates>
</Point>
</Placemark>
<Placemark>
<name>
Thu Oct 20 23:46:02 2011 S=2.26 Km/hr
</name>
<styleUrl>
#styleMap_TLP_Normal
</styleUrl>
<Point>
<coordinates>
7.4607453,46.9500618,566.28
</coordinates>
</Point>
</Placemark>
<Placemark>
<name>
Thu Oct 20 23:46:07 2011 S=1.96 Km/hr
</name>
<styleUrl>
#styleMap_TLP_Normal
</styleUrl>
<Point>
<coordinates>
7.4607291,46.9500389,564.84
</coordinates>
</Point>
</Placemark>
<Placemark>
<name>
Thu Oct 20 23:46:12 2011 S=2.56 Km/hr
</name>
<styleUrl>
#styleMap_TLP_Normal
</styleUrl>
<Point>
<coordinates>
7.4607234,46.9500122,563.48
</coordinates>
</Point>
</Placemark>
<Placemark>
<name>
Thu Oct 20 23:46:17 2011 S=3.37 Km/hr
</name>
<styleUrl>
#styleMap_TLP_Normal
</styleUrl>
<Point>
<coordinates>
7.4607387,46.9499702,562.55
</coordinates>
</Point>
</Placemark>
<Placemark>
<name>
Thu Oct 20 23:46:22 2011 S=3.37 Km/hr
</name>
<styleUrl>
#styleMap_TLP_Normal
</styleUrl>
<Point>
<coordinates>
7.4607081,46.9499397,561.56
</coordinates>
</Point>
</Placemark>
<Placemark>
<name>
Thu Oct 20 23:46:27 2011 S=3.19 Km/hr
</name>
<styleUrl>
#styleMap_TLP_Normal
</styleUrl>
<Point>
<coordinates>
7.4606738,46.9499054,560.70
</coordinates>
</Point>
</Placemark>
<Placemark>
<name>
Thu Oct 20 23:46:32 2011 S=2.83 Km/hr
</name>
<styleUrl>
#styleMap_TLP_Normal
</styleUrl>
<Point>
<coordinates>
7.4606805,46.9498634,559.70
</coordinates>
</Point>
</Placemark>
<Placemark>
<name>
Thu Oct 20 23:46:37 2011 S=2.52 Km/hr
</name>
<styleUrl>
#styleMap_TLP_Normal
</styleUrl>
<Point>
<coordinates>
7.4606848,46.9498291,558.81
</coordinates>
</Point>
</Placemark>
<Placemark>
<name>
Thu Oct 20 23:46:42 2011 S=3.23 Km/hr
</name>
<styleUrl>
#styleMap_TLP_Normal
</styleUrl>
<Point>
<coordinates>
7.4606776,46.9497910,557.91
</coordinates>
</Point>
</Placemark>
<Placemark>
<name>
Thu Oct 20 23:46:47 2011 S=3.18 Km/hr
</name>
<styleUrl>
#styleMap_TLP_Normal
</styleUrl>
<Point>
<coordinates>
7.4607062,46.9497337,556.84
</coordinates>
</Point>
</Placemark>
<Placemark>
<name>
Thu Oct 20 23:46:52 2011 S=2.30 Km/hr
</name>
<styleUrl>
#styleMap_TLP_Normal
</styleUrl>
<Point>
<coordinates>
7.4606981,46.9496841,556.31
</coordinates>
</Point>
</Placemark>
<Placemark>
<name>
Thu Oct 20 23:46:57 2011 S=2.02 Km/hr
</name>
<styleUrl>
#styleMap_TLP_Normal
</styleUrl>
<Point>
<coordinates>
7.4607148,46.9496422,554.69
</coordinates>
</Point>
</Placemark>
<Placemark>
<name>
Thu Oct 20 23:47:02 2011 S=1.91 Km/hr
</name>
<styleUrl>
#styleMap_TLP_Normal
</styleUrl>
<Point>
<coordinates>
7.4607148,46.9496002,553.70
</coordinates>
</Point>
</Placemark>
<Placemark>
<name>
Thu Oct 20 23:47:07 2011 S=3.01 Km/hr
</name>
<styleUrl>
#styleMap_TLP_Normal
</styleUrl>
<Point>
<coordinates>
7.4607201,46.9495468,552.30
</coordinates>
</Point>
</Placemark>
<Placemark>
<name>
Thu Oct 20 23:47:12 2011 S=2.28 Km/hr
</name>
<styleUrl>
#styleMap_TLP_Normal
</styleUrl>
<Point>
<coordinates>
7.4607248,46.9495201,550.39
</coordinates>
</Point>
</Placemark>
<Placemark>
<name>
Thu Oct 20 23:47:17 2011 S=2.91 Km/hr
</name>
<styleUrl>
#styleMap_TLP_Normal
</styleUrl>
<Point>
<coordinates>
7.4607472,46.9494820,549.22
</coordinates>
</Point>
</Placemark>
<Placemark>
<name>
Thu Oct 20 23:47:22 2011 S=3.10 Km/hr
</name>
<styleUrl>
#styleMap_TLP_Normal
</styleUrl>
<Point>
<coordinates>
7.4607482,46.9494324,548.11
</coordinates>
</Point>
</Placemark>
<Placemark>
<name>
Thu Oct 20 23:47:27 2011 S=3.40 Km/hr
</name>
<styleUrl>
#styleMap_TLP_Normal
</styleUrl>
<Point>
<coordinates>
7.4607430,46.9493980,546.77
</coordinates>
</Point>
</Placemark>
<Placemark>
<name>
Thu Oct 20 23:47:32 2011 S=2.33 Km/hr
</name>
<styleUrl>
#styleMap_TLP_Normal
</styleUrl>
<Point>
<coordinates>
7.4607372,46.9493484,545.11
</coordinates>
</Point>
</Placemark>
<Placemark>
<name>
Thu Oct 20 23:47:37 2011 S=3.26 Km/hr
</name>
<styleUrl>
#styleMap_TLP_Normal
</styleUrl>
<Point>
<coordinates>
7.4607472,46.9493027,543.53
</coordinates>
</Point>
</Placemark>
<Placemark>
<name>
Thu Oct 20 23:47:42 2011 S=2.24 Km/hr
</name>
<styleUrl>
#styleMap_TLP_Normal
</styleUrl>
<Point>
<coordinates>
7.4607387,46.9492798,542.31
</coordinates>
</Point>
</Placemark>
<Placemark>
<name>
Thu Oct 20 23:47:47 2011 S=2.72 Km/hr
</name>
<styleUrl>
#styleMap_TLP_Normal
</styleUrl>
<Point>
<coordinates>
7.4607291,46.9492455,541.13
</coordinates>
</Point>
</Placemark>
<Placemark>
<name>
Thu Oct 20 23:47:52 2011 S=2.64 Km/hr
</name>
<styleUrl>
#styleMap_TLP_Normal
</styleUrl>
<Point>
<coordinates>
7.4607329,46.9491959,539.86
</coordinates>
</Point>
</Placemark>
<Placemark>
<name>
Thu Oct 20 23:47:57 2011 S=2.72 Km/hr
</name>
<styleUrl>
#styleMap_TLP_Normal
</styleUrl>
<Point>
<coordinates>
7.4607205,46.9491463,538.75
</coordinates>
</Point>
</Placemark>
<Placemark>
<name>
Thu Oct 20 23:48:02 2011 S=3.01 Km/hr
</name>
<styleUrl>
#styleMap_TLP_Normal
</styleUrl>
<Point>
<coordinates>
7.4607310,46.9491081,538.00
</coordinates>
</Point>
</Placemark>
<Placemark>
<name>
Thu Oct 20 23:48:07 2011 S=1.95 Km/hr
</name>
<styleUrl>
#styleMap_TLP_Normal
</styleUrl>
<Point>
<coordinates>
7.4607382,46.9490738,536.97
</coordinates>
</Point>
</Placemark>
<Placemark>
<name>
Thu Oct 20 23:48:12 2011 S=3.55 Km/hr
</name>
<styleUrl>
#styleMap_TLP_Normal
</styleUrl>
<Point>
<coordinates>
7.4607430,46.9490166,535.95
</coordinates>
</Point>
</Placemark>
<Placemark>
<name>
Thu Oct 20 23:48:17 2011 S=1.74 Km/hr
</name>
<styleUrl>
#styleMap_TLP_Normal
</styleUrl>
<Point>
<coordinates>
7.4607534,46.9489822,535.69
</coordinates>
</Point>
</Placemark>
<Placemark>
<name>
Thu Oct 20 23:48:22 2011 S=2.63 Km/hr
</name>
<styleUrl>
#styleMap_TLP_Normal
</styleUrl>
<Point>
<coordinates>
7.4607515,46.9489365,535.73
</coordinates>
</Point>
</Placemark>
<Placemark>
<name>
Thu Oct 20 23:48:27 2011 S=1.61 Km/hr
</name>
<styleUrl>
#styleMap_TLP_Normal
</styleUrl>
<Point>
<coordinates>
7.4607387,46.9488945,535.95
</coordinates>
</Point>
</Placemark>
<Placemark>
<name>
Thu Oct 20 23:48:32 2011 S=2.68 Km/hr
</name>
<styleUrl>
#styleMap_TLP_Normal
</styleUrl>
<Point>
<coordinates>
7.4607182,46.9488602,534.92
</coordinates>
</Point>
</Placemark>
<Placemark>
<name>
Thu Oct 20 23:48:37 2011 S=1.85 Km/hr
</name>
<styleUrl>
#styleMap_TLP_Normal
</styleUrl>
<Point>
<coordinates>
7.4607511,46.9488258,534.58
</coordinates>
</Point>
</Placemark>
<Placemark>
<name>
Thu Oct 20 23:48:42 2011 S=1.25 Km/hr
</name>
<styleUrl>
#styleMap_TLP_Normal
</styleUrl>
<Point>
<coordinates>
7.4607415,46.9487991,534.33
</coordinates>
</Point>
</Placemark>
<Placemark>
<name>
Thu Oct 20 23:48:47 2011 S=2.82 Km/hr
</name>
<styleUrl>
#styleMap_TLP_Normal
</styleUrl>
<Point>
<coordinates>
7.4607453,46.9487686,533.63
</coordinates>
</Point>
</Placemark>
<Placemark>
<name>
Thu Oct 20 23:48:52 2011 S=2.18 Km/hr
</name>
<styleUrl>
#styleMap_TLP_Normal
</styleUrl>
<Point>
<coordinates>
7.4607477,46.9487305,533.31
</coordinates>
</Point>
</Placemark>
<Placemark>
<name>
Thu Oct 20 23:48:57 2011 S=1.78 Km/hr
</name>
<styleUrl>
#styleMap_TLP_Normal
</styleUrl>
<Point>
<coordinates>
7.4607763,46.9486961,533.42
</coordinates>
</Point>
</Placemark>
<Placemark>
<name>
Thu Oct 20 23:49:02 2011 S=1.10 Km/hr
</name>
<styleUrl>
#styleMap_TLP_Normal
</styleUrl>
<Point>
<coordinates>
7.4607682,46.9486885,532.86
</coordinates>
</Point>
</Placemark>
<Placemark>
<name>
Thu Oct 20 23:49:07 2011 S=2.05 Km/hr
</name>
<styleUrl>
#styleMap_TLP_Normal
</styleUrl>
<Point>
<coordinates>
7.4607892,46.9486771,532.61
</coordinates>
</Point>
</Placemark>
<Placemark>
<name>
Thu Oct 20 23:49:12 2011 S=0.99 Km/hr
</name>
<styleUrl>
#styleMap_TLP_Normal
</styleUrl>
<Point>
<coordinates>
7.4608321,46.9486961,532.39
</coordinates>
</Point>
</Placemark>
<Placemark>
<name>
Thu Oct 20 23:49:17 2011 S=0.51 Km/hr
</name>
<styleUrl>
#styleMap_TLP_Normal
</styleUrl>
<Point>
<coordinates>
7.4608464,46.9487038,532.42
</coordinates>
</Point>
</Placemark>
<Placemark>
<name>
Thu Oct 20 23:49:22 2011 S=1.72 Km/hr
</name>
<styleUrl>
#styleMap_TLP_Normal
</styleUrl>
<Point>
<coordinates>
7.4608235,46.9486961,532.42
</coordinates>
</Point>
</Placemark>
<Placemark>
<name>
Thu Oct 20 23:49:27 2011 S=2.56 Km/hr
</name>
<styleUrl>
#styleMap_TLP_Normal
</styleUrl>
<Point>
<coordinates>
7.4607954,46.9486961,532.66
</coordinates>
</Point>
</Placemark>
<Placemark>
<name>
Thu Oct 20 23:49:32 2011 S=2.64 Km/hr
</name>
<styleUrl>
#styleMap_TLP_Normal
</styleUrl>
<Point>
<coordinates>
7.4607611,46.9486847,532.22
</coordinates>
</Point>
</Placemark>
<Placemark>
<name>
Thu Oct 20 23:49:37 2011 S=2.18 Km/hr
</name>
<styleUrl>
#styleMap_TLP_Normal
</styleUrl>
<Point>
<coordinates>
7.4606996,46.9486542,532.94
</coordinates>
</Point>
</Placemark>
<Placemark>
<name>
Thu Oct 20 23:49:42 2011 S=3.08 Km/hr
</name>
<styleUrl>
#styleMap_TLP_Normal
</styleUrl>
<Point>
<coordinates>
7.4606347,46.9486198,533.23
</coordinates>
</Point>
</Placemark>
<Placemark>
<name>
Thu Oct 20 23:49:47 2011 S=3.76 Km/hr
</name>
<styleUrl>
#styleMap_TLP_Normal
</styleUrl>
<Point>
<coordinates>
7.4605794,46.9485741,532.95
</coordinates>
</Point>
</Placemark>
<Placemark>
<name>
Thu Oct 20 23:49:52 2011 S=2.47 Km/hr
</name>
<styleUrl>
#styleMap_TLP_Normal
</styleUrl>
<Point>
<coordinates>
7.4605370,46.9485512,532.61
</coordinates>
</Point>
</Placemark>
<Placemark>
<name>
Thu Oct 20 23:49:57 2011 S=3.18 Km/hr
</name>
<styleUrl>
#styleMap_TLP_Normal
</styleUrl>
<Point>
<coordinates>
7.4604921,46.9485321,532.45
</coordinates>
</Point>
</Placemark>
<Placemark>
<name>
Thu Oct 20 23:50:02 2011 S=2.53 Km/hr
</name>
<styleUrl>
#styleMap_TLP_Normal
</styleUrl>
<Point>
<coordinates>
7.4604402,46.9485168,532.27
</coordinates>
</Point>
</Placemark>
<Placemark>
<name>
Thu Oct 20 23:50:07 2011 S=0.46 Km/hr
</name>
<styleUrl>
#styleMap_TLP_Normal
</styleUrl>
<Point>
<coordinates>
7.4604268,46.9485168,530.75
</coordinates>
</Point>
</Placemark>
<Placemark>
<name>
Thu Oct 20 23:50:12 2011 S=1.85 Km/hr
</name>
<styleUrl>
#styleMap_TLP_Normal
</styleUrl>
<Point>
<coordinates>
7.4604130,46.9485168,530.11
</coordinates>
</Point>
</Placemark>
<Placemark>
<name>
Thu Oct 20 23:50:17 2011 S=3.63 Km/hr
</name>
<styleUrl>
#styleMap_TLP_Normal
</styleUrl>
<Point>
<coordinates>
7.4603367,46.9484749,528.97
</coordinates>
</Point>
</Placemark>
<Placemark>
<name>
Thu Oct 20 23:50:22 2011 S=2.27 Km/hr
</name>
<styleUrl>
#styleMap_TLP_Normal
</styleUrl>
<Point>
<coordinates>
7.4602895,46.9484444,528.31
</coordinates>
</Point>
</Placemark>
<Placemark>
<name>
Thu Oct 20 23:50:27 2011 S=2.68 Km/hr
</name>
<styleUrl>
#styleMap_TLP_Normal
</styleUrl>
<Point>
<coordinates>
7.4602776,46.9483986,528.45
</coordinates>
</Point>
</Placemark>
<Placemark>
<name>
Thu Oct 20 23:50:32 2011 S=1.52 Km/hr
</name>
<styleUrl>
#styleMap_TLP_Normal
</styleUrl>
<Point>
<coordinates>
7.4602561,46.9483795,527.61
</coordinates>
</Point>
</Placemark>
<Placemark>
<name>
Thu Oct 20 23:50:37 2011 S=1.65 Km/hr
</name>
<styleUrl>
#styleMap_TLP_Normal
</styleUrl>
<Point>
<coordinates>
7.4602351,46.9483986,525.25
</coordinates>
</Point>
</Placemark>
<Placemark>
<name>
Thu Oct 20 23:50:42 2011 S=3.85 Km/hr
</name>
<styleUrl>
#styleMap_TLP_Normal
</styleUrl>
<Point>
<coordinates>
7.4602180,46.9483643,523.97
</coordinates>
</Point>
</Placemark>
<Placemark>
<name>
Thu Oct 20 23:50:47 2011 S=1.34 Km/hr
</name>
<styleUrl>
#styleMap_TLP_Normal
</styleUrl>
<Point>
<coordinates>
7.4601936,46.9483185,523.25
</coordinates>
</Point>
</Placemark>
<Placemark>
<name>
Thu Oct 20 23:50:52 2011 S=1.82 Km/hr
</name>
<styleUrl>
#styleMap_TLP_Normal
</styleUrl>
<Point>
<coordinates>
7.4601760,46.9482994,523.20
</coordinates>
</Point>
</Placemark>
<Placemark>
<name>
Thu Oct 20 23:50:57 2011 S=2.04 Km/hr
</name>
<styleUrl>
#styleMap_TLP_Normal
</styleUrl>
<Point>
<coordinates>
7.4601750,46.9482689,523.31
</coordinates>
</Point>
</Placemark>
<Placemark>
<name>
Thu Oct 20 23:51:02 2011 S=3.44 Km/hr
</name>
<styleUrl>
#styleMap_TLP_Normal
</styleUrl>
<Point>
<coordinates>
7.4601455,46.9482422,522.69
</coordinates>
</Point>
</Placemark>
<Placemark>
<name>
Thu Oct 20 23:51:07 2011 S=3.93 Km/hr
</name>
<styleUrl>
#styleMap_TLP_Normal
</styleUrl>
<Point>
<coordinates>
7.4600573,46.9482040,522.91
</coordinates>
</Point>
</Placemark>
<Placemark>
<name>
Thu Oct 20 23:51:12 2011 S=2.80 Km/hr
</name>
<styleUrl>
#styleMap_TLP_Normal
</styleUrl>
<Point>
<coordinates>
7.4600115,46.9482040,522.48
</coordinates>
</Point>
</Placemark>
<Placemark>
<name>
Thu Oct 20 23:51:17 2011 S=1.02 Km/hr
</name>
<styleUrl>
#styleMap_TLP_Normal
</styleUrl>
<Point>
<coordinates>
7.4599991,46.9481888,521.80
</coordinates>
</Point>
</Placemark>
<Placemark>
<name>
Thu Oct 20 23:51:22 2011 S=1.24 Km/hr
</name>
<styleUrl>
#styleMap_TLP_Normal
</styleUrl>
<Point>
<coordinates>
7.4600148,46.9481735,520.97
</coordinates>
</Point>
</Placemark>
<Placemark>
<name>
Thu Oct 20 23:51:27 2011 S=0.73 Km/hr
</name>
<styleUrl>
#styleMap_TLP_Normal
</styleUrl>
<Point>
<coordinates>
7.4599972,46.9481697,520.70
</coordinates>
</Point>
</Placemark>
<Placemark>
<name>
Thu Oct 20 23:51:32 2011 S=2.07 Km/hr
</name>
<styleUrl>
#styleMap_TLP_Normal
</styleUrl>
<Point>
<coordinates>
7.4599848,46.9481506,519.95
</coordinates>
</Point>
</Placemark>
<Placemark>
<name>
Thu Oct 20 23:51:37 2011 S=2.16 Km/hr
</name>
<styleUrl>
#styleMap_TLP_Normal
</styleUrl>
<Point>
<coordinates>
7.4599934,46.9481239,519.39
</coordinates>
</Point>
</Placemark>
<Placemark>
<name>
Thu Oct 20 23:51:42 2011 S=1.43 Km/hr
</name>
<styleUrl>
#styleMap_TLP_Normal
</styleUrl>
<Point>
<coordinates>
7.4599833,46.9481087,519.45
</coordinates>
</Point>
</Placemark>
<Placemark>
<name>
Thu Oct 20 23:51:47 2011 S=2.36 Km/hr
</name>
<styleUrl>
#styleMap_TLP_Normal
</styleUrl>
<Point>
<coordinates>
7.4599609,46.9480820,520.00
</coordinates>
</Point>
</Placemark>
<Placemark>
<name>
Thu Oct 20 23:51:52 2011 S=2.49 Km/hr
</name>
<styleUrl>
#styleMap_TLP_Normal
</styleUrl>
<Point>
<coordinates>
7.4599457,46.9480324,519.61
</coordinates>
</Point>
</Placemark>
<Placemark>
<name>
Thu Oct 20 23:51:57 2011 S=5.43 Km/hr
</name>
<styleUrl>
#styleMap_TLP_Normal
</styleUrl>
<Point>
<coordinates>
7.4599338,46.9479790,520.25
</coordinates>
</Point>
</Placemark>
<Placemark>
<name>
Thu Oct 20 23:52:02 2011 S=4.67 Km/hr
</name>
<styleUrl>
#styleMap_TLP_Normal
</styleUrl>
<Point>
<coordinates>
7.4599042,46.9479179,520.69
</coordinates>
</Point>
</Placemark>
<Placemark>
<name>
Thu Oct 20 23:52:07 2011 S=1.69 Km/hr
</name>
<styleUrl>
#styleMap_TLP_Normal
</styleUrl>
<Point>
<coordinates>
7.4598746,46.9478798,522.25
</coordinates>
</Point>
</Placemark>
<Placemark>
<name>
Thu Oct 20 23:52:12 2011 S=3.40 Km/hr
</name>
<styleUrl>
#styleMap_TLP_Normal
</styleUrl>
<Point>
<coordinates>
7.4598393,46.9478416,524.30
</coordinates>
</Point>
</Placemark>
<Placemark>
<name>
Thu Oct 20 23:52:17 2011 S=2.44 Km/hr
</name>
<styleUrl>
#styleMap_TLP_Normal
</styleUrl>
<Point>
<coordinates>
7.4598112,46.9477959,526.50
</coordinates>
</Point>
</Placemark>
<Placemark>
<name>
Thu Oct 20 23:52:22 2011 S=1.10 Km/hr
</name>
<styleUrl>
#styleMap_TLP_Normal
</styleUrl>
<Point>
<coordinates>
7.4597993,46.9478073,527.36
</coordinates>
</Point>
</Placemark>
<Placemark>
<name>
Thu Oct 20 23:52:27 2011 S=0.88 Km/hr
</name>
<styleUrl>
#styleMap_TLP_Normal
</styleUrl>
<Point>
<coordinates>
7.4597816,46.9478149,527.77
</coordinates>
</Point>
</Placemark>
<Placemark>
<name>
Thu Oct 20 23:52:32 2011 S=1.20 Km/hr
</name>
<styleUrl>
#styleMap_TLP_Normal
</styleUrl>
<Point>
<coordinates>
7.4597788,46.9477997,527.98
</coordinates>
</Point>
</Placemark>
<Placemark>
<name>
Thu Oct 20 23:52:37 2011 S=0.83 Km/hr
</name>
<styleUrl>
#styleMap_TLP_Normal
</styleUrl>
<Point>
<coordinates>
7.4597769,46.9477921,528.05
</coordinates>
</Point>
</Placemark>
<Placemark>
<name>
Thu Oct 20 23:52:42 2011 S=1.56 Km/hr
</name>
<styleUrl>
#styleMap_TLP_Normal
</styleUrl>
<Point>
<coordinates>
7.4597769,46.9477654,528.09
</coordinates>
</Point>
</Placemark>
<Placemark>
<name>
Thu Oct 20 23:52:47 2011 S=3.03 Km/hr
</name>
<styleUrl>
#styleMap_TLP_Normal
</styleUrl>
<Point>
<coordinates>
7.4597340,46.9477043,528.14
</coordinates>
</Point>
</Placemark>
<Placemark>
<name>
Thu Oct 20 23:52:52 2011 S=2.86 Km/hr
</name>
<styleUrl>
#styleMap_TLP_Normal
</styleUrl>
<Point>
<coordinates>
7.4597049,46.9476700,528.19
</coordinates>
</Point>
</Placemark>
<Placemark>
<name>
Thu Oct 20 23:55:45 2011 S=1.34 Km/hr
</name>
<styleUrl>
#styleMap_TLP_Normal
</styleUrl>
<Point>
<coordinates>
7.4596825,46.9476280,520.64
</coordinates>
</Point>
</Placemark>
<Placemark>
<name>
Thu Oct 20 23:55:50 2011 S=0.75 Km/hr
</name>
<styleUrl>
#styleMap_TLP_Normal
</styleUrl>
<Point>
<coordinates>
7.4597802,46.9476318,511.63
</coordinates>
</Point>
</Placemark>
<Placemark>
<name>
Thu Oct 20 23:55:55 2011 S=1.80 Km/hr
</name>
<styleUrl>
#styleMap_TLP_Normal
</styleUrl>
<Point>
<coordinates>
7.4597363,46.9476585,515.83
</coordinates>
</Point>
</Placemark>
<Placemark>
<name>
Thu Oct 20 23:56:00 2011 S=0.57 Km/hr
</name>
<styleUrl>
#styleMap_TLP_Normal
</styleUrl>
<Point>
<coordinates>
7.4597254,46.9476547,520.63
</coordinates>
</Point>
</Placemark>
<Placemark>
<name>
Thu Oct 20 23:56:05 2011 S=1.02 Km/hr
</name>
<styleUrl>
#styleMap_TLP_Normal
</styleUrl>
<Point>
<coordinates>
7.4597182,46.9476433,521.00
</coordinates>
</Point>
</Placemark>
<Placemark>
<name>
Thu Oct 20 23:56:10 2011 S=1.69 Km/hr
</name>
<styleUrl>
#styleMap_TLP_Normal
</styleUrl>
<Point>
<coordinates>
7.4597116,46.9476357,521.09
</coordinates>
</Point>
</Placemark>
<Placemark>
<name>
Thu Oct 20 23:56:15 2011 S=0.46 Km/hr
</name>
<styleUrl>
#styleMap_TLP_Normal
</styleUrl>
<Point>
<coordinates>
7.4597092,46.9476166,523.09
</coordinates>
</Point>
</Placemark>
<Placemark>
<name>
Thu Oct 20 23:56:20 2011 S=0.76 Km/hr
</name>
<styleUrl>
#styleMap_TLP_Normal
</styleUrl>
<Point>
<coordinates>
7.4597106,46.9476089,523.16
</coordinates>
</Point>
</Placemark>
<Placemark>
<name>
Thu Oct 20 23:56:25 2011 S=1.06 Km/hr
</name>
<styleUrl>
#styleMap_TLP_Normal
</styleUrl>
<Point>
<coordinates>
7.4597087,46.9475937,523.27
</coordinates>
</Point>
</Placemark>
<Placemark>
<name>
Thu Oct 20 23:56:30 2011 S=0.88 Km/hr
</name>
<styleUrl>
#styleMap_TLP_Normal
</styleUrl>
<Point>
<coordinates>
7.4597230,46.9475670,523.05
</coordinates>
</Point>
</Placemark>
<Placemark>
<name>
Thu Oct 20 23:56:35 2011 S=0.41 Km/hr
</name>
<styleUrl>
#styleMap_TLP_Normal
</styleUrl>
<Point>
<coordinates>
7.4597130,46.9475555,523.16
</coordinates>
</Point>
</Placemark>
<Placemark>
<name>
Thu Oct 20 23:56:40 2011 S=1.92 Km/hr
</name>
<styleUrl>
#styleMap_TLP_Normal
</styleUrl>
<Point>
<coordinates>
7.4597321,46.9475861,523.77
</coordinates>
</Point>
</Placemark>
<Placemark>
<name>
Thu Oct 20 23:56:45 2011 S=1.32 Km/hr
</name>
<styleUrl>
#styleMap_TLP_Normal
</styleUrl>
<Point>
<coordinates>
7.4597301,46.9476166,525.39
</coordinates>
</Point>
</Placemark>
<Placemark>
<name>
Thu Oct 20 23:56:50 2011 S=0.57 Km/hr
</name>
<styleUrl>
#styleMap_TLP_Normal
</styleUrl>
<Point>
<coordinates>
7.4597235,46.9476166,526.84
</coordinates>
</Point>
</Placemark>
<Placemark>
<name>
Thu Oct 20 23:56:55 2011 S=0.55 Km/hr
</name>
<styleUrl>
#styleMap_TLP_Normal
</styleUrl>
<Point>
<coordinates>
7.4597492,46.9476128,528.13
</coordinates>
</Point>
</Placemark>
<Placemark>
<name>
Thu Oct 20 23:57:00 2011 S=0.40 Km/hr
</name>
<styleUrl>
#styleMap_TLP_Normal
</styleUrl>
<Point>
<coordinates>
7.4597468,46.9476128,528.17
</coordinates>
</Point>
</Placemark>
<Placemark>
<name>
Thu Oct 20 23:57:05 2011 S=1.06 Km/hr
</name>
<styleUrl>
#styleMap_TLP_Normal
</styleUrl>
<Point>
<coordinates>
7.4597301,46.9476089,528.25
</coordinates>
</Point>
</Placemark>
<Placemark>
<name>
Thu Oct 20 23:57:10 2011 S=0.36 Km/hr
</name>
<styleUrl>
#styleMap_TLP_Normal
</styleUrl>
<Point>
<coordinates>
7.4597230,46.9475975,529.00
</coordinates>
</Point>
</Placemark>
<Placemark>
<name>
Thu Oct 20 23:57:15 2011 S=0.37 Km/hr
</name>
<styleUrl>
#styleMap_TLP_Normal
</styleUrl>
<Point>
<coordinates>
7.4597144,46.9475975,529.02
</coordinates>
</Point>
</Placemark>
<Placemark>
<name>
Thu Oct 20 23:57:20 2011 S=1.53 Km/hr
</name>
<styleUrl>
#styleMap_TLP_Normal
</styleUrl>
<Point>
<coordinates>
7.4597249,46.9475784,529.03
</coordinates>
</Point>
</Placemark>
<Placemark>
<name>
Thu Oct 20 23:57:25 2011 S=1.24 Km/hr
</name>
<styleUrl>
#styleMap_TLP_Normal
</styleUrl>
<Point>
<coordinates>
7.4597006,46.9475250,528.94
</coordinates>
</Point>
</Placemark>
<Placemark>
<name>
Thu Oct 20 23:57:30 2011 S=1.57 Km/hr
</name>
<styleUrl>
#styleMap_TLP_Normal
</styleUrl>
<Point>
<coordinates>
7.4596796,46.9474907,528.92
</coordinates>
</Point>
</Placemark>
<Placemark>
<name>
Thu Oct 20 23:57:35 2011 S=0.22 Km/hr
</name>
<styleUrl>
#styleMap_TLP_Normal
</styleUrl>
<Point>
<coordinates>
7.4596844,46.9475136,528.63
</coordinates>
</Point>
</Placemark>
<Placemark>
<name>
Thu Oct 20 23:57:40 2011 S=2.15 Km/hr
</name>
<styleUrl>
#styleMap_TLP_Normal
</styleUrl>
<Point>
<coordinates>
7.4597492,46.9476509,526.86
</coordinates>
</Point>
</Placemark>
<Placemark>
<name>
Thu Oct 20 23:57:45 2011 S=2.57 Km/hr
</name>
<styleUrl>
#styleMap_TLP_Normal
</styleUrl>
<Point>
<coordinates>
7.4597201,46.9477577,526.53
</coordinates>
</Point>
</Placemark>
<Placemark>
<name>
Thu Oct 20 23:57:50 2011 S=1.65 Km/hr
</name>
<styleUrl>
#styleMap_TLP_Normal
</styleUrl>
<Point>
<coordinates>
7.4597440,46.9478264,528.53
</coordinates>
</Point>
</Placemark>
<Placemark>
<name>
Thu Oct 20 23:57:55 2011 S=1.57 Km/hr
</name>
<styleUrl>
#styleMap_TLP_Normal
</styleUrl>
<Point>
<coordinates>
7.4597259,46.9478645,528.53
</coordinates>
</Point>
</Placemark>
<Placemark>
<name>
Thu Oct 20 23:58:00 2011 S=2.07 Km/hr
</name>
<styleUrl>
#styleMap_TLP_Normal
</styleUrl>
<Point>
<coordinates>
7.4596796,46.9478531,526.81
</coordinates>
</Point>
</Placemark>
<Placemark>
<name>
Thu Oct 20 23:58:05 2011 S=2.49 Km/hr
</name>
<styleUrl>
#styleMap_TLP_Normal
</styleUrl>
<Point>
<coordinates>
7.4596686,46.9478149,524.92
</coordinates>
</Point>
</Placemark>
<Placemark>
<name>
Thu Oct 20 23:58:10 2011 S=0.79 Km/hr
</name>
<styleUrl>
#styleMap_TLP_Normal
</styleUrl>
<Point>
<coordinates>
7.4596381,46.9478111,524.17
</coordinates>
</Point>
</Placemark>
<Placemark>
<name>
Thu Oct 20 23:58:15 2011 S=2.69 Km/hr
</name>
<styleUrl>
#styleMap_TLP_Normal
</styleUrl>
<Point>
<coordinates>
7.4595990,46.9478111,524.52
</coordinates>
</Point>
</Placemark>
<Placemark>
<name>
Thu Oct 20 23:58:20 2011 S=3.64 Km/hr
</name>
<styleUrl>
#styleMap_TLP_Normal
</styleUrl>
<Point>
<coordinates>
7.4595351,46.9478149,523.91
</coordinates>
</Point>
</Placemark>
<Placemark>
<name>
Thu Oct 20 23:58:25 2011 S=3.60 Km/hr
</name>
<styleUrl>
#styleMap_TLP_Normal
</styleUrl>
<Point>
<coordinates>
7.4594650,46.9478226,522.83
</coordinates>
</Point>
</Placemark>
<Placemark>
<name>
Thu Oct 20 23:58:30 2011 S=1.38 Km/hr
</name>
<styleUrl>
#styleMap_TLP_Normal
</styleUrl>
<Point>
<coordinates>
7.4594293,46.9478416,522.92
</coordinates>
</Point>
</Placemark>
<Placemark>
<name>
Thu Oct 20 23:58:35 2011 S=0.37 Km/hr
</name>
<styleUrl>
#styleMap_TLP_Normal
</styleUrl>
<Point>
<coordinates>
7.4594264,46.9478455,522.91
</coordinates>
</Point>
</Placemark>
<Placemark>
<name>
Thu Oct 20 23:58:40 2011 S=1.50 Km/hr
</name>
<styleUrl>
#styleMap_TLP_Normal
</styleUrl>
<Point>
<coordinates>
7.4594078,46.9478493,522.73
</coordinates>
</Point>
</Placemark>
<Placemark>
<name>
Thu Oct 20 23:58:45 2011 S=0.12 Km/hr
</name>
<styleUrl>
#styleMap_TLP_Normal
</styleUrl>
<Point>
<coordinates>
7.4594140,46.9478493,522.02
</coordinates>
</Point>
</Placemark>
<Placemark>
<name>
Thu Oct 20 23:58:50 2011 S=1.11 Km/hr
</name>
<styleUrl>
#styleMap_TLP_Normal
</styleUrl>
<Point>
<coordinates>
7.4594173,46.9478493,521.97
</coordinates>
</Point>
</Placemark>
<Placemark>
<name>
Thu Oct 20 23:58:55 2011 S=1.83 Km/hr
</name>
<styleUrl>
#styleMap_TLP_Normal
</styleUrl>
<Point>
<coordinates>
7.4594078,46.9478683,522.31
</coordinates>
</Point>
</Placemark>
<Placemark>
<name>
Thu Oct 20 23:59:00 2011 S=1.06 Km/hr
</name>
<styleUrl>
#styleMap_TLP_Normal
</styleUrl>
<Point>
<coordinates>
7.4593992,46.9478874,522.33
</coordinates>
</Point>
</Placemark>
<Placemark>
<name>
Thu Oct 20 23:59:05 2011 S=0.06 Km/hr
</name>
<styleUrl>
#styleMap_TLP_Normal
</styleUrl>
<Point>
<coordinates>
7.4593878,46.9478874,522.38
</coordinates>
</Point>
</Placemark>
<Placemark>
<name>
Thu Oct 20 23:59:10 2011 S=0.37 Km/hr
</name>
<styleUrl>
#styleMap_TLP_Normal
</styleUrl>
<Point>
<coordinates>
7.4593897,46.9478912,522.36
</coordinates>
</Point>
</Placemark>
<Placemark>
<name>
Thu Oct 20 23:59:15 2011 S=0.40 Km/hr
</name>
<styleUrl>
#styleMap_TLP_Normal
</styleUrl>
<Point>
<coordinates>
7.4593921,46.9478989,522.33
</coordinates>
</Point>
</Placemark>
<Placemark>
<name>
Thu Oct 20 23:59:20 2011 S=1.01 Km/hr
</name>
<styleUrl>
#styleMap_TLP_Normal
</styleUrl>
<Point>
<coordinates>
7.4593949,46.9478989,522.30
</coordinates>
</Point>
</Placemark>
<Placemark>
<name>
Thu Oct 20 23:59:25 2011 S=0.10 Km/hr
</name>
<styleUrl>
#styleMap_TLP_Normal
</styleUrl>
<Point>
<coordinates>
7.4593849,46.9478989,523.28
</coordinates>
</Point>
</Placemark>
<Placemark>
<name>
Thu Oct 20 23:59:30 2011 S=0.49 Km/hr
</name>
<styleUrl>
#styleMap_TLP_Normal
</styleUrl>
<Point>
<coordinates>
7.4593849,46.9478989,523.28
</coordinates>
</Point>
</Placemark>
<Placemark>
<name>
Thu Oct 20 23:59:35 2011 S=1.45 Km/hr
</name>
<styleUrl>
#styleMap_TLP_Normal
</styleUrl>
<Point>
<coordinates>
7.4593906,46.9478951,523.17
</coordinates>
</Point>
</Placemark>
<Placemark>
<name>
Thu Oct 20 23:59:40 2011 S=0.39 Km/hr
</name>
<styleUrl>
#styleMap_TLP_Normal
</styleUrl>
<Point>
<coordinates>
7.4593768,46.9478989,520.77
</coordinates>
</Point>
</Placemark>
<Placemark>
<name>
Thu Oct 20 23:59:45 2011 S=0.02 Km/hr
</name>
<styleUrl>
#styleMap_TLP_Normal
</styleUrl>
<Point>
<coordinates>
7.4593792,46.9478989,520.08
</coordinates>
</Point>
</Placemark>
<Placemark>
<name>
Thu Oct 20 23:59:50 2011 S=0.10 Km/hr
</name>
<styleUrl>
#styleMap_TLP_Normal
</styleUrl>
<Point>
<coordinates>
7.4593792,46.9478951,519.98
</coordinates>
</Point>
</Placemark>
<Placemark>
<name>
Thu Oct 20 23:59:55 2011 S=2.08 Km/hr
</name>
<styleUrl>
#styleMap_TLP_Normal
</styleUrl>
<Point>
<coordinates>
7.4593787,46.9479103,519.30
</coordinates>
</Point>
</Placemark>
<Placemark>
<name>
Fri Oct 21 00:00:00 2011 S=0.97 Km/hr
</name>
<styleUrl>
#styleMap_TLP_Normal
</styleUrl>
<Point>
<coordinates>
7.4593949,46.9479179,519.06
</coordinates>
</Point>
</Placemark>
<Placemark>
<name>
Fri Oct 21 00:00:05 2011 S=0.14 Km/hr
</name>
<styleUrl>
#styleMap_TLP_Normal
</styleUrl>
<Point>
<coordinates>
7.4593906,46.9479103,519.52
</coordinates>
</Point>
</Placemark>
<Placemark>
<name>
Fri Oct 21 00:00:10 2011 S=0.08 Km/hr
</name>
<styleUrl>
#styleMap_TLP_Normal
</styleUrl>
<Point>
<coordinates>
7.4593906,46.9479103,519.48
</coordinates>
</Point>
</Placemark>
<Placemark>
<name>
Fri Oct 21 00:00:15 2011 S=0.01 Km/hr
</name>
<styleUrl>
#styleMap_TLP_Normal
</styleUrl>
<Point>
<coordinates>
7.4593897,46.9479103,519.41
</coordinates>
</Point>
</Placemark>
<Placemark>
<name>
Fri Oct 21 00:00:20 2011 S=0.02 Km/hr
</name>
<styleUrl>
#styleMap_TLP_Normal
</styleUrl>
<Point>
<coordinates>
7.4593897,46.9479103,519.38
</coordinates>
</Point>
</Placemark>
<Placemark>
<name>
Fri Oct 21 00:00:25 2011 S=0.39 Km/hr
</name>
<styleUrl>
#styleMap_TLP_Normal
</styleUrl>
<Point>
<coordinates>
7.4593897,46.9479141,519.42
</coordinates>
</Point>
</Placemark>
<Placemark>
<name>
Fri Oct 21 00:00:30 2011 S=0.55 Km/hr
</name>
<styleUrl>
#styleMap_TLP_Normal
</styleUrl>
<Point>
<coordinates>
7.4593887,46.9479179,519.45
</coordinates>
</Point>
</Placemark>
<Placemark>
<name>
Fri Oct 21 00:00:35 2011 S=0.69 Km/hr
</name>
<styleUrl>
#styleMap_TLP_Normal
</styleUrl>
<Point>
<coordinates>
7.4593887,46.9479294,519.52
</coordinates>
</Point>
</Placemark>
<Placemark>
<name>
Fri Oct 21 00:00:40 2011 S=0.67 Km/hr
</name>
<styleUrl>
#styleMap_TLP_Normal
</styleUrl>
<Point>
<coordinates>
7.4593892,46.9479370,519.73
</coordinates>
</Point>
</Placemark>
<Placemark>
<name>
Fri Oct 21 00:00:45 2011 S=0.47 Km/hr
</name>
<styleUrl>
#styleMap_TLP_Normal
</styleUrl>
<Point>
<coordinates>
7.4593925,46.9479446,519.86
</coordinates>
</Point>
</Placemark>
<Placemark>
<name>
Fri Oct 21 00:00:50 2011 S=0.23 Km/hr
</name>
<styleUrl>
#styleMap_TLP_Normal
</styleUrl>
<Point>
<coordinates>
7.4593964,46.9479485,519.94
</coordinates>
</Point>
</Placemark>
<Placemark>
<name>
Fri Oct 21 00:00:55 2011 S=0.06 Km/hr
</name>
<styleUrl>
#styleMap_TLP_Normal
</styleUrl>
<Point>
<coordinates>
7.4593968,46.9479485,520.03
</coordinates>
</Point>
</Placemark>
<Placemark>
<name>
Fri Oct 21 00:01:00 2011 S=0.15 Km/hr
</name>
<styleUrl>
#styleMap_TLP_Normal
</styleUrl>
<Point>
<coordinates>
7.4593973,46.9479485,520.08
</coordinates>
</Point>
</Placemark>
<Placemark>
<name>
Fri Oct 21 00:01:05 2011 S=4.39 Km/hr
</name>
<styleUrl>
#styleMap_TLP_Normal
</styleUrl>
<Point>
<coordinates>
7.4594078,46.9479218,520.30
</coordinates>
</Point>
</Placemark>
<Placemark>
<name>
Fri Oct 21 00:01:10 2011 S=0.18 Km/hr
</name>
<styleUrl>
#styleMap_TLP_Normal
</styleUrl>
<Point>
<coordinates>
7.4593949,46.9478912,519.77
</coordinates>
</Point>
</Placemark>
<Placemark>
<name>
Fri Oct 21 00:01:15 2011 S=2.44 Km/hr
</name>
<styleUrl>
#styleMap_TLP_Normal
</styleUrl>
<Point>
<coordinates>
7.4594007,46.9478760,519.64
</coordinates>
</Point>
</Placemark>
<Placemark>
<name>
Fri Oct 21 00:01:20 2011 S=0.09 Km/hr
</name>
<styleUrl>
#styleMap_TLP_Normal
</styleUrl>
<Point>
<coordinates>
7.4594235,46.9478302,519.39
</coordinates>
</Point>
</Placemark>
<Placemark>
<name>
Fri Oct 21 00:01:25 2011 S=0.10 Km/hr
</name>
<styleUrl>
#styleMap_TLP_Normal
</styleUrl>
<Point>
<coordinates>
7.4594417,46.9478149,519.16
</coordinates>
</Point>
</Placemark>
<Placemark>
<name>
Fri Oct 21 00:01:30 2011 S=0.29 Km/hr
</name>
<styleUrl>
#styleMap_TLP_Normal
</styleUrl>
<Point>
<coordinates>
7.4594235,46.9478149,518.33
</coordinates>
</Point>
</Placemark>
<Placemark>
<name>
Fri Oct 21 00:01:35 2011 S=0.10 Km/hr
</name>
<styleUrl>
#styleMap_TLP_Normal
</styleUrl>
<Point>
<coordinates>
7.4594169,46.9478188,517.81
</coordinates>
</Point>
</Placemark>
<Placemark>
<name>
Fri Oct 21 00:01:40 2011 S=0.47 Km/hr
</name>
<styleUrl>
#styleMap_TLP_Normal
</styleUrl>
<Point>
<coordinates>
7.4594154,46.9478188,517.73
</coordinates>
</Point>
</Placemark>
<Placemark>
<name>
Fri Oct 21 00:01:45 2011 S=0.26 Km/hr
</name>
<styleUrl>
#styleMap_TLP_Normal
</styleUrl>
<Point>
<coordinates>
7.4594259,46.9478340,517.88
</coordinates>
</Point>
</Placemark>
<Placemark>
<name>
Fri Oct 21 00:01:50 2011 S=0.30 Km/hr
</name>
<styleUrl>
#styleMap_TLP_Normal
</styleUrl>
<Point>
<coordinates>
7.4594398,46.9478302,518.16
</coordinates>
</Point>
</Placemark>
<Placemark>
<name>
Fri Oct 21 00:01:55 2011 S=0.30 Km/hr
</name>
<styleUrl>
#styleMap_TLP_Normal
</styleUrl>
<Point>
<coordinates>
7.4594421,46.9478340,518.36
</coordinates>
</Point>
</Placemark>
<Placemark>
<name>
Fri Oct 21 00:02:00 2011 S=0.49 Km/hr
</name>
<styleUrl>
#styleMap_TLP_Normal
</styleUrl>
<Point>
<coordinates>
7.4594417,46.9478378,518.67
</coordinates>
</Point>
</Placemark>
<Placemark>
<name>
Fri Oct 21 00:02:05 2011 S=2.68 Km/hr
</name>
<styleUrl>
#styleMap_TLP_Normal
</styleUrl>
<Point>
<coordinates>
7.4594431,46.9478264,519.80
</coordinates>
</Point>
</Placemark>
<Placemark>
<name>
Fri Oct 21 00:02:10 2011 S=0.63 Km/hr
</name>
<styleUrl>
#styleMap_TLP_Normal
</styleUrl>
<Point>
<coordinates>
7.4594216,46.9477844,519.36
</coordinates>
</Point>
</Placemark>
<Placemark>
<name>
Fri Oct 21 00:02:15 2011 S=1.12 Km/hr
</name>
<styleUrl>
#styleMap_TLP_Normal
</styleUrl>
<Point>
<coordinates>
7.4593930,46.9477806,518.86
</coordinates>
</Point>
</Placemark>
<Placemark>
<name>
Fri Oct 21 00:02:20 2011 S=0.15 Km/hr
</name>
<styleUrl>
#styleMap_TLP_Normal
</styleUrl>
<Point>
<coordinates>
7.4593759,46.9477654,518.66
</coordinates>
</Point>
</Placemark>
<Placemark>
<name>
Fri Oct 21 00:02:25 2011 S=0.10 Km/hr
</name>
<styleUrl>
#styleMap_TLP_Normal
</styleUrl>
<Point>
<coordinates>
7.4593778,46.9477654,518.69
</coordinates>
</Point>
</Placemark>
<Placemark>
<name>
Fri Oct 21 00:02:30 2011 S=0.64 Km/hr
</name>
<styleUrl>
#styleMap_TLP_Normal
</styleUrl>
<Point>
<coordinates>
7.4593787,46.9477654,518.75
</coordinates>
</Point>
</Placemark>
<Placemark>
<name>
Fri Oct 21 00:02:35 2011 S=0.88 Km/hr
</name>
<styleUrl>
#styleMap_TLP_Normal
</styleUrl>
<Point>
<coordinates>
7.4593801,46.9477501,519.09
</coordinates>
</Point>
</Placemark>
<Placemark>
<name>
Fri Oct 21 00:02:40 2011 S=0.20 Km/hr
</name>
<styleUrl>
#styleMap_TLP_Normal
</styleUrl>
<Point>
<coordinates>
7.4593906,46.9477425,518.63
</coordinates>
</Point>
</Placemark>
<Placemark>
<name>
Fri Oct 21 00:02:45 2011 S=0.30 Km/hr
</name>
<styleUrl>
#styleMap_TLP_Normal
</styleUrl>
<Point>
<coordinates>
7.4593883,46.9477425,518.58
</coordinates>
</Point>
</Placemark>
<Placemark>
<name>
Fri Oct 21 00:02:50 2011 S=0.24 Km/hr
</name>
<styleUrl>
#styleMap_TLP_Normal
</styleUrl>
<Point>
<coordinates>
7.4593878,46.9477386,518.58
</coordinates>
</Point>
</Placemark>
<Placemark>
<name>
Fri Oct 21 00:02:55 2011 S=0.05 Km/hr
</name>
<styleUrl>
#styleMap_TLP_Normal
</styleUrl>
<Point>
<coordinates>
7.4593878,46.9477425,518.63
</coordinates>
</Point>
</Placemark>
<Placemark>
<name>
Fri Oct 21 00:03:00 2011 S=0.20 Km/hr
</name>
<styleUrl>
#styleMap_TLP_Normal
</styleUrl>
<Point>
<coordinates>
7.4593849,46.9477425,518.72
</coordinates>
</Point>
</Placemark>
<Placemark>
<name>
Fri Oct 21 00:03:05 2011 S=0.26 Km/hr
</name>
<styleUrl>
#styleMap_TLP_Normal
</styleUrl>
<Point>
<coordinates>
7.4593782,46.9477425,518.84
</coordinates>
</Point>
</Placemark>
<Placemark>
<name>
Fri Oct 21 00:03:10 2011 S=1.81 Km/hr
</name>
<styleUrl>
#styleMap_TLP_Normal
</styleUrl>
<Point>
<coordinates>
7.4593773,46.9477463,518.92
</coordinates>
</Point>
</Placemark>
<Placemark>
<name>
Fri Oct 21 00:03:15 2011 S=1.46 Km/hr
</name>
<styleUrl>
#styleMap_TLP_Normal
</styleUrl>
<Point>
<coordinates>
7.4594374,46.9477272,519.25
</coordinates>
</Point>
</Placemark>
<Placemark>
<name>
Fri Oct 21 00:03:20 2011 S=0.58 Km/hr
</name>
<styleUrl>
#styleMap_TLP_Normal
</styleUrl>
<Point>
<coordinates>
7.4594240,46.9477310,518.53
</coordinates>
</Point>
</Placemark>
<Placemark>
<name>
Fri Oct 21 00:03:25 2011 S=0.10 Km/hr
</name>
<styleUrl>
#styleMap_TLP_Normal
</styleUrl>
<Point>
<coordinates>
7.4594288,46.9477348,518.48
</coordinates>
</Point>
</Placemark>
<Placemark>
<name>
Fri Oct 21 00:03:30 2011 S=2.31 Km/hr
</name>
<styleUrl>
#styleMap_TLP_Normal
</styleUrl>
<Point>
<coordinates>
7.4594383,46.9477501,518.33
</coordinates>
</Point>
</Placemark>
<Placemark>
<name>
Fri Oct 21 00:03:35 2011 S=3.73 Km/hr
</name>
<styleUrl>
#styleMap_TLP_Normal
</styleUrl>
<Point>
<coordinates>
7.4594426,46.9478073,518.59
</coordinates>
</Point>
</Placemark>
<Placemark>
<name>
Fri Oct 21 00:03:40 2011 S=3.26 Km/hr
</name>
<styleUrl>
#styleMap_TLP_Normal
</styleUrl>
<Point>
<coordinates>
7.4594312,46.9478569,518.56
</coordinates>
</Point>
</Placemark>
<Placemark>
<name>
Fri Oct 21 00:03:45 2011 S=3.08 Km/hr
</name>
<styleUrl>
#styleMap_TLP_Normal
</styleUrl>
<Point>
<coordinates>
7.4594450,46.9479065,517.48
</coordinates>
</Point>
</Placemark>
<Placemark>
<name>
Fri Oct 21 00:03:50 2011 S=4.45 Km/hr
</name>
<styleUrl>
#styleMap_TLP_Normal
</styleUrl>
<Point>
<coordinates>
7.4594297,46.9479561,517.09
</coordinates>
</Point>
</Placemark>
<Placemark>
<name>
Fri Oct 21 00:03:55 2011 S=3.95 Km/hr
</name>
<styleUrl>
#styleMap_TLP_Normal
</styleUrl>
<Point>
<coordinates>
7.4594264,46.9480095,515.89
</coordinates>
</Point>
</Placemark>
<Placemark>
<name>
Fri Oct 21 00:04:00 2011 S=3.86 Km/hr
</name>
<styleUrl>
#styleMap_TLP_Normal
</styleUrl>
<Point>
<coordinates>
7.4594240,46.9480553,517.72
</coordinates>
</Point>
</Placemark>
<Placemark>
<name>
Fri Oct 21 00:04:05 2011 S=4.20 Km/hr
</name>
<styleUrl>
#styleMap_TLP_Normal
</styleUrl>
<Point>
<coordinates>
7.4594288,46.9481125,519.20
</coordinates>
</Point>
</Placemark>
<Placemark>
<name>
Fri Oct 21 00:04:10 2011 S=3.91 Km/hr
</name>
<styleUrl>
#styleMap_TLP_Normal
</styleUrl>
<Point>
<coordinates>
7.4594350,46.9481697,519.11
</coordinates>
</Point>
</Placemark>
<Placemark>
<name>
Fri Oct 21 00:04:15 2011 S=4.37 Km/hr
</name>
<styleUrl>
#styleMap_TLP_Normal
</styleUrl>
<Point>
<coordinates>
7.4594450,46.9482079,517.81
</coordinates>
</Point>
</Placemark>
<Placemark>
<name>
Fri Oct 21 00:04:20 2011 S=3.19 Km/hr
</name>
<styleUrl>
#styleMap_TLP_Normal
</styleUrl>
<Point>
<coordinates>
7.4594498,46.9482651,518.64
</coordinates>
</Point>
</Placemark>
<Placemark>
<name>
Fri Oct 21 00:04:25 2011 S=1.72 Km/hr
</name>
<styleUrl>
#styleMap_TLP_Normal
</styleUrl>
<Point>
<coordinates>
7.4594698,46.9483070,520.06
</coordinates>
</Point>
</Placemark>
<Placemark>
<name>
Fri Oct 21 00:04:30 2011 S=5.87 Km/hr
</name>
<styleUrl>
#styleMap_TLP_Normal
</styleUrl>
<Point>
<coordinates>
7.4594760,46.9483681,518.39
</coordinates>
</Point>
</Placemark>
<Placemark>
<name>
Fri Oct 21 00:04:35 2011 S=1.51 Km/hr
</name>
<styleUrl>
#styleMap_TLP_Normal
</styleUrl>
<Point>
<coordinates>
7.4594617,46.9484062,517.88
</coordinates>
</Point>
</Placemark>
<Placemark>
<name>
Fri Oct 21 00:04:40 2011 S=0.49 Km/hr
</name>
<styleUrl>
#styleMap_TLP_Normal
</styleUrl>
<Point>
<coordinates>
7.4594698,46.9484062,518.67
</coordinates>
</Point>
</Placemark>
<Placemark>
<name>
Fri Oct 21 00:04:45 2011 S=3.00 Km/hr
</name>
<styleUrl>
#styleMap_TLP_Normal
</styleUrl>
<Point>
<coordinates>
7.4594331,46.9483986,518.81
</coordinates>
</Point>
</Placemark>
<Placemark>
<name>
Fri Oct 21 00:04:50 2011 S=3.79 Km/hr
</name>
<styleUrl>
#styleMap_TLP_Normal
</styleUrl>
<Point>
<coordinates>
7.4593577,46.9484062,518.77
</coordinates>
</Point>
</Placemark>
<Placemark>
<name>
Fri Oct 21 00:04:55 2011 S=2.83 Km/hr
</name>
<styleUrl>
#styleMap_TLP_Normal
</styleUrl>
<Point>
<coordinates>
7.4593091,46.9484177,519.94
</coordinates>
</Point>
</Placemark>
<Placemark>
<name>
Fri Oct 21 00:05:00 2011 S=2.90 Km/hr
</name>
<styleUrl>
#styleMap_TLP_Normal
</styleUrl>
<Point>
<coordinates>
7.4592552,46.9484291,520.66
</coordinates>
</Point>
</Placemark>
<Placemark>
<name>
Fri Oct 21 00:05:05 2011 S=1.68 Km/hr
</name>
<styleUrl>
#styleMap_TLP_Normal
</styleUrl>
<Point>
<coordinates>
7.4592061,46.9484100,520.98
</coordinates>
</Point>
</Placemark>
<Placemark>
<name>
Fri Oct 21 00:05:10 2011 S=0.76 Km/hr
</name>
<styleUrl>
#styleMap_TLP_Normal
</styleUrl>
<Point>
<coordinates>
7.4591718,46.9484062,521.53
</coordinates>
</Point>
</Placemark>
<Placemark>
<name>
Fri Oct 21 00:05:15 2011 S=0.47 Km/hr
</name>
<styleUrl>
#styleMap_TLP_Normal
</styleUrl>
<Point>
<coordinates>
7.4591823,46.9483948,522.50
</coordinates>
</Point>
</Placemark>
<Placemark>
<name>
Fri Oct 21 00:05:20 2011 S=3.56 Km/hr
</name>
<styleUrl>
#styleMap_TLP_Normal
</styleUrl>
<Point>
<coordinates>
7.4591212,46.9483986,522.56
</coordinates>
</Point>
</Placemark>
<Placemark>
<name>
Fri Oct 21 00:05:25 2011 S=4.18 Km/hr
</name>
<styleUrl>
#styleMap_TLP_Normal
</styleUrl>
<Point>
<coordinates>
7.4590473,46.9483948,522.22
</coordinates>
</Point>
</Placemark>
<Placemark>
<name>
Fri Oct 21 00:05:30 2011 S=2.95 Km/hr
</name>
<styleUrl>
#styleMap_TLP_Normal
</styleUrl>
<Point>
<coordinates>
7.4589734,46.9484024,520.81
</coordinates>
</Point>
</Placemark>
<Placemark>
<name>
Fri Oct 21 00:05:35 2011 S=4.68 Km/hr
</name>
<styleUrl>
#styleMap_TLP_Normal
</styleUrl>
<Point>
<coordinates>
7.4589210,46.9484100,520.98
</coordinates>
</Point>
</Placemark>
<Placemark>
<name>
Fri Oct 21 00:05:40 2011 S=2.85 Km/hr
</name>
<styleUrl>
#styleMap_TLP_Normal
</styleUrl>
<Point>
<coordinates>
7.4588642,46.9484253,521.19
</coordinates>
</Point>
</Placemark>
<Placemark>
<name>
Fri Oct 21 00:05:45 2011 S=2.98 Km/hr
</name>
<styleUrl>
#styleMap_TLP_Normal
</styleUrl>
<Point>
<coordinates>
7.4588051,46.9484291,521.33
</coordinates>
</Point>
</Placemark>
<Placemark>
<name>
Fri Oct 21 00:05:50 2011 S=2.47 Km/hr
</name>
<styleUrl>
#styleMap_TLP_Normal
</styleUrl>
<Point>
<coordinates>
7.4587336,46.9484177,520.73
</coordinates>
</Point>
</Placemark>
<Placemark>
<name>
Fri Oct 21 00:05:55 2011 S=0.83 Km/hr
</name>
<styleUrl>
#styleMap_TLP_Normal
</styleUrl>
<Point>
<coordinates>
7.4587011,46.9484253,520.03
</coordinates>
</Point>
</Placemark>
<Placemark>
<name>
Fri Oct 21 00:06:00 2011 S=0.10 Km/hr
</name>
<styleUrl>
#styleMap_TLP_Normal
</styleUrl>
<Point>
<coordinates>
7.4587083,46.9484367,520.20
</coordinates>
</Point>
</Placemark>
<Placemark>
<name>
Fri Oct 21 00:06:05 2011 S=0.05 Km/hr
</name>
<styleUrl>
#styleMap_TLP_Normal
</styleUrl>
<Point>
<coordinates>
7.4587078,46.9484367,520.14
</coordinates>
</Point>
</Placemark>
<Placemark>
<name>
Fri Oct 21 00:06:10 2011 S=0.37 Km/hr
</name>
<styleUrl>
#styleMap_TLP_Normal
</styleUrl>
<Point>
<coordinates>
7.4587116,46.9484367,520.09
</coordinates>
</Point>
</Placemark>
<Placemark>
<name>
Fri Oct 21 00:06:15 2011 S=0.47 Km/hr
</name>
<styleUrl>
#styleMap_TLP_Normal
</styleUrl>
<Point>
<coordinates>
7.4587183,46.9484406,520.08
</coordinates>
</Point>
</Placemark>
<Placemark>
<name>
Fri Oct 21 00:06:20 2011 S=0.48 Km/hr
</name>
<styleUrl>
#styleMap_TLP_Normal
</styleUrl>
<Point>
<coordinates>
7.4587231,46.9484406,520.05
</coordinates>
</Point>
</Placemark>
<Placemark>
<name>
Fri Oct 21 00:06:25 2011 S=4.38 Km/hr
</name>
<styleUrl>
#styleMap_TLP_Normal
</styleUrl>
<Point>
<coordinates>
7.4586935,46.9484520,519.66
</coordinates>
</Point>
</Placemark>
<Placemark>
<name>
Fri Oct 21 00:06:30 2011 S=1.92 Km/hr
</name>
<styleUrl>
#styleMap_TLP_Normal
</styleUrl>
<Point>
<coordinates>
7.4586415,46.9484482,519.78
</coordinates>
</Point>
</Placemark>
<Placemark>
<name>
Fri Oct 21 00:06:35 2011 S=0.06 Km/hr
</name>
<styleUrl>
#styleMap_TLP_Normal
</styleUrl>
<Point>
<coordinates>
7.4586086,46.9484520,519.84
</coordinates>
</Point>
</Placemark>
<Placemark>
<name>
Fri Oct 21 00:06:40 2011 S=0.07 Km/hr
</name>
<styleUrl>
#styleMap_TLP_Normal
</styleUrl>
<Point>
<coordinates>
7.4586082,46.9484558,519.92
</coordinates>
</Point>
</Placemark>
<Placemark>
<name>
Fri Oct 21 00:06:45 2011 S=0.01 Km/hr
</name>
<styleUrl>
#styleMap_TLP_Normal
</styleUrl>
<Point>
<coordinates>
7.4586077,46.9484558,520.03
</coordinates>
</Point>
</Placemark>
<Placemark>
<name>
Fri Oct 21 00:06:50 2011 S=0.38 Km/hr
</name>
<styleUrl>
#styleMap_TLP_Normal
</styleUrl>
<Point>
<coordinates>
7.4586043,46.9484558,520.03
</coordinates>
</Point>
</Placemark>
<Placemark>
<name>
Fri Oct 21 00:06:55 2011 S=0.41 Km/hr
</name>
<styleUrl>
#styleMap_TLP_Normal
</styleUrl>
<Point>
<coordinates>
7.4585967,46.9484558,519.97
</coordinates>
</Point>
</Placemark>
<Placemark>
<name>
Fri Oct 21 00:07:00 2011 S=0.28 Km/hr
</name>
<styleUrl>
#styleMap_TLP_Normal
</styleUrl>
<Point>
<coordinates>
7.4585905,46.9484558,519.83
</coordinates>
</Point>
</Placemark>
<Placemark>
<name>
Fri Oct 21 00:07:05 2011 S=0.06 Km/hr
</name>
<styleUrl>
#styleMap_TLP_Normal
</styleUrl>
<Point>
<coordinates>
7.4585891,46.9484520,519.59
</coordinates>
</Point>
</Placemark>
<Placemark>
<name>
Fri Oct 21 00:07:10 2011 S=0.45 Km/hr
</name>
<styleUrl>
#styleMap_TLP_Normal
</styleUrl>
<Point>
<coordinates>
7.4585900,46.9484558,519.34
</coordinates>
</Point>
</Placemark>
<Placemark>
<name>
Fri Oct 21 00:07:15 2011 S=0.02 Km/hr
</name>
<styleUrl>
#styleMap_TLP_Normal
</styleUrl>
<Point>
<coordinates>
7.4585896,46.9484558,519.22
</coordinates>
</Point>
</Placemark>
<Placemark>
<name>
Fri Oct 21 00:07:20 2011 S=0.06 Km/hr
</name>
<styleUrl>
#styleMap_TLP_Normal
</styleUrl>
<Point>
<coordinates>
7.4585900,46.9484558,519.19
</coordinates>
</Point>
</Placemark>
<Placemark>
<name>
Fri Oct 21 00:07:25 2011 S=0.27 Km/hr
</name>
<styleUrl>
#styleMap_TLP_Normal
</styleUrl>
<Point>
<coordinates>
7.4585924,46.9484558,519.20
</coordinates>
</Point>
</Placemark>
<Placemark>
<name>
Fri Oct 21 00:07:30 2011 S=0.01 Km/hr
</name>
<styleUrl>
#styleMap_TLP_Normal
</styleUrl>
<Point>
<coordinates>
7.4585958,46.9484558,519.23
</coordinates>
</Point>
</Placemark>
<Placemark>
<name>
Fri Oct 21 00:07:35 2011 S=0.01 Km/hr
</name>
<styleUrl>
#styleMap_TLP_Normal
</styleUrl>
<Point>
<coordinates>
7.4585967,46.9484558,519.25
</coordinates>
</Point>
</Placemark>
<Placemark>
<name>
Fri Oct 21 00:07:40 2011 S=0.00 Km/hr
</name>
<styleUrl>
#styleMap_TLP_Normal
</styleUrl>
<Point>
<coordinates>
7.4585967,46.9484558,519.27
</coordinates>
</Point>
</Placemark>
<Placemark>
<name>
Fri Oct 21 00:07:45 2011 S=0.02 Km/hr
</name>
<styleUrl>
#styleMap_TLP_Normal
</styleUrl>
<Point>
<coordinates>
7.4585972,46.9484558,519.25
</coordinates>
</Point>
</Placemark>
<Placemark>
<name>
Fri Oct 21 00:07:50 2011 S=0.01 Km/hr
</name>
<styleUrl>
#styleMap_TLP_Normal
</styleUrl>
<Point>
<coordinates>
7.4585977,46.9484558,519.23
</coordinates>
</Point>
</Placemark>
<Placemark>
<name>
Fri Oct 21 00:07:55 2011 S=0.01 Km/hr
</name>
<styleUrl>
#styleMap_TLP_Normal
</styleUrl>
<Point>
<coordinates>
7.4585977,46.9484558,519.25
</coordinates>
</Point>
</Placemark>
<Placemark>
<name>
Fri Oct 21 00:08:00 2011 S=0.00 Km/hr
</name>
<styleUrl>
#styleMap_TLP_Normal
</styleUrl>
<Point>
<coordinates>
7.4585981,46.9484558,519.25
</coordinates>
</Point>
</Placemark>
<Placemark>
<name>
Fri Oct 21 00:08:05 2011 S=0.01 Km/hr
</name>
<styleUrl>
#styleMap_TLP_Normal
</styleUrl>
<Point>
<coordinates>
7.4585977,46.9484558,519.25
</coordinates>
</Point>
</Placemark>
<Placemark>
<name>
Fri Oct 21 00:08:10 2011 S=0.32 Km/hr
</name>
<styleUrl>
#styleMap_TLP_Normal
</styleUrl>
<Point>
<coordinates>
7.4585991,46.9484558,519.25
</coordinates>
</Point>
</Placemark>
<Placemark>
<name>
Fri Oct 21 00:08:15 2011 S=0.21 Km/hr
</name>
<styleUrl>
#styleMap_TLP_Normal
</styleUrl>
<Point>
<coordinates>
7.4586039,46.9484558,519.22
</coordinates>
</Point>
</Placemark>
<Placemark>
<name>
Fri Oct 21 00:08:20 2011 S=0.01 Km/hr
</name>
<styleUrl>
#styleMap_TLP_Normal
</styleUrl>
<Point>
<coordinates>
7.4586058,46.9484596,519.14
</coordinates>
</Point>
</Placemark>
<Placemark>
<name>
Fri Oct 21 00:08:25 2011 S=0.01 Km/hr
</name>
<styleUrl>
#styleMap_TLP_Normal
</styleUrl>
<Point>
<coordinates>
7.4586062,46.9484596,519.13
</coordinates>
</Point>
</Placemark>
<Placemark>
<name>
Fri Oct 21 00:08:30 2011 S=0.00 Km/hr
</name>
<styleUrl>
#styleMap_TLP_Normal
</styleUrl>
<Point>
<coordinates>
7.4586067,46.9484596,519.14
</coordinates>
</Point>
</Placemark>
<Placemark>
<name>
Fri Oct 21 00:08:35 2011 S=0.06 Km/hr
</name>
<styleUrl>
#styleMap_TLP_Normal
</styleUrl>
<Point>
<coordinates>
7.4586067,46.9484596,519.13
</coordinates>
</Point>
</Placemark>
<Placemark>
<name>
Fri Oct 21 00:08:40 2011 S=0.12 Km/hr
</name>
<styleUrl>
#styleMap_TLP_Normal
</styleUrl>
<Point>
<coordinates>
7.4586048,46.9484558,519.11
</coordinates>
</Point>
</Placemark>
<Placemark>
<name>
Fri Oct 21 00:08:45 2011 S=0.11 Km/hr
</name>
<styleUrl>
#styleMap_TLP_Normal
</styleUrl>
<Point>
<coordinates>
7.4586053,46.9484558,519.19
</coordinates>
</Point>
</Placemark>
<Placemark>
<name>
Fri Oct 21 00:08:50 2011 S=0.00 Km/hr
</name>
<styleUrl>
#styleMap_TLP_Normal
</styleUrl>
<Point>
<coordinates>
7.4586062,46.9484558,519.22
</coordinates>
</Point>
</Placemark>
<Placemark>
<name>
Fri Oct 21 00:08:55 2011 S=0.00 Km/hr
</name>
<styleUrl>
#styleMap_TLP_Normal
</styleUrl>
<Point>
<coordinates>
7.4586058,46.9484558,519.14
</coordinates>
</Point>
</Placemark>
<Placemark>
<name>
Fri Oct 21 00:09:00 2011 S=0.01 Km/hr
</name>
<styleUrl>
#styleMap_TLP_Normal
</styleUrl>
<Point>
<coordinates>
7.4586067,46.9484558,519.05
</coordinates>
</Point>
</Placemark>
<Placemark>
<name>
Fri Oct 21 00:09:05 2011 S=0.01 Km/hr
</name>
<styleUrl>
#styleMap_TLP_Normal
</styleUrl>
<Point>
<coordinates>
7.4586067,46.9484558,518.91
</coordinates>
</Point>
</Placemark>
<Placemark>
<name>
Fri Oct 21 00:09:10 2011 S=0.18 Km/hr
</name>
<styleUrl>
#styleMap_TLP_Normal
</styleUrl>
<Point>
<coordinates>
7.4586058,46.9484558,518.88
</coordinates>
</Point>
</Placemark>
<Placemark>
<name>
Fri Oct 21 00:09:15 2011 S=0.59 Km/hr
</name>
<styleUrl>
#styleMap_TLP_Normal
</styleUrl>
<Point>
<coordinates>
7.4586105,46.9484520,518.97
</coordinates>
</Point>
</Placemark>
<Placemark>
<name>
Fri Oct 21 00:09:20 2011 S=0.08 Km/hr
</name>
<styleUrl>
#styleMap_TLP_Normal
</styleUrl>
<Point>
<coordinates>
7.4586172,46.9484520,519.03
</coordinates>
</Point>
</Placemark>
<Placemark>
<name>
Fri Oct 21 00:09:25 2011 S=0.19 Km/hr
</name>
<styleUrl>
#styleMap_TLP_Normal
</styleUrl>
<Point>
<coordinates>
7.4586186,46.9484520,518.97
</coordinates>
</Point>
</Placemark>
<Placemark>
<name>
Fri Oct 21 00:09:30 2011 S=0.03 Km/hr
</name>
<styleUrl>
#styleMap_TLP_Normal
</styleUrl>
<Point>
<coordinates>
7.4586229,46.9484520,518.75
</coordinates>
</Point>
</Placemark>
<Placemark>
<name>
Fri Oct 21 00:09:35 2011 S=0.00 Km/hr
</name>
<styleUrl>
#styleMap_TLP_Normal
</styleUrl>
<Point>
<coordinates>
7.4586229,46.9484520,518.72
</coordinates>
</Point>
</Placemark>
<Placemark>
<name>
Fri Oct 21 00:09:40 2011 S=0.00 Km/hr
</name>
<styleUrl>
#styleMap_TLP_Normal
</styleUrl>
<Point>
<coordinates>
7.4586229,46.9484520,518.67
</coordinates>
</Point>
</Placemark>
<Placemark>
<name>
Fri Oct 21 00:09:45 2011 S=0.01 Km/hr
</name>
<styleUrl>
#styleMap_TLP_Normal
</styleUrl>
<Point>
<coordinates>
7.4586229,46.9484520,518.66
</coordinates>
</Point>
</Placemark>
<Placemark>
<name>
Fri Oct 21 00:09:50 2011 S=0.01 Km/hr
</name>
<styleUrl>
#styleMap_TLP_Normal
</styleUrl>
<Point>
<coordinates>
7.4586229,46.9484558,518.66
</coordinates>
</Point>
</Placemark>
<Placemark>
<name>
Fri Oct 21 00:09:55 2011 S=0.02 Km/hr
</name>
<styleUrl>
#styleMap_TLP_Normal
</styleUrl>
<Point>
<coordinates>
7.4586229,46.9484558,518.66
</coordinates>
</Point>
</Placemark>
<Placemark>
<name>
Fri Oct 21 00:10:00 2011 S=0.44 Km/hr
</name>
<styleUrl>
#styleMap_TLP_Normal
</styleUrl>
<Point>
<coordinates>
7.4586248,46.9484558,518.66
</coordinates>
</Point>
</Placemark>
<Placemark>
<name>
Fri Oct 21 00:10:05 2011 S=0.36 Km/hr
</name>
<styleUrl>
#styleMap_TLP_Normal
</styleUrl>
<Point>
<coordinates>
7.4586306,46.9484520,518.63
</coordinates>
</Point>
</Placemark>
<Placemark>
<name>
Fri Oct 21 00:10:10 2011 S=1.05 Km/hr
</name>
<styleUrl>
#styleMap_TLP_Normal
</styleUrl>
<Point>
<coordinates>
7.4586387,46.9484520,518.52
</coordinates>
</Point>
</Placemark>
<Placemark>
<name>
Fri Oct 21 00:10:15 2011 S=4.33 Km/hr
</name>
<styleUrl>
#styleMap_TLP_Normal
</styleUrl>
<Point>
<coordinates>
7.4587054,46.9484444,518.38
</coordinates>
</Point>
</Placemark>
<Placemark>
<name>
Fri Oct 21 00:10:20 2011 S=3.00 Km/hr
</name>
<styleUrl>
#styleMap_TLP_Normal
</styleUrl>
<Point>
<coordinates>
7.4587765,46.9484329,518.97
</coordinates>
</Point>
</Placemark>
<Placemark>
<name>
Fri Oct 21 00:10:25 2011 S=3.50 Km/hr
</name>
<styleUrl>
#styleMap_TLP_Normal
</styleUrl>
<Point>
<coordinates>
7.4588342,46.9484291,520.02
</coordinates>
</Point>
</Placemark>
<Placemark>
<name>
Fri Oct 21 00:10:30 2011 S=3.33 Km/hr
</name>
<styleUrl>
#styleMap_TLP_Normal
</styleUrl>
<Point>
<coordinates>
7.4588876,46.9484177,520.05
</coordinates>
</Point>
</Placemark>
<Placemark>
<name>
Fri Oct 21 00:10:35 2011 S=3.17 Km/hr
</name>
<styleUrl>
#styleMap_TLP_Normal
</styleUrl>
<Point>
<coordinates>
7.4589515,46.9484024,519.81
</coordinates>
</Point>
</Placemark>
<Placemark>
<name>
Fri Oct 21 00:10:40 2011 S=4.18 Km/hr
</name>
<styleUrl>
#styleMap_TLP_Normal
</styleUrl>
<Point>
<coordinates>
7.4590220,46.9483948,519.88
</coordinates>
</Point>
</Placemark>
<Placemark>
<name>
Fri Oct 21 00:10:45 2011 S=3.46 Km/hr
</name>
<styleUrl>
#styleMap_TLP_Normal
</styleUrl>
<Point>
<coordinates>
7.4590998,46.9483833,519.91
</coordinates>
</Point>
</Placemark>
<Placemark>
<name>
Fri Oct 21 00:10:50 2011 S=3.83 Km/hr
</name>
<styleUrl>
#styleMap_TLP_Normal
</styleUrl>
<Point>
<coordinates>
7.4591694,46.9483757,519.78
</coordinates>
</Point>
</Placemark>
<Placemark>
<name>
Fri Oct 21 00:10:55 2011 S=3.23 Km/hr
</name>
<styleUrl>
#styleMap_TLP_Normal
</styleUrl>
<Point>
<coordinates>
7.4592400,46.9483795,519.34
</coordinates>
</Point>
</Placemark>
<Placemark>
<name>
Fri Oct 21 00:11:00 2011 S=4.45 Km/hr
</name>
<styleUrl>
#styleMap_TLP_Normal
</styleUrl>
<Point>
<coordinates>
7.4593005,46.9483757,519.11
</coordinates>
</Point>
</Placemark>
<Placemark>
<name>
Fri Oct 21 00:11:05 2011 S=3.80 Km/hr
</name>
<styleUrl>
#styleMap_TLP_Normal
</styleUrl>
<Point>
<coordinates>
7.4593873,46.9483681,519.13
</coordinates>
</Point>
</Placemark>
<Placemark>
<name>
Fri Oct 21 00:11:10 2011 S=2.72 Km/hr
</name>
<styleUrl>
#styleMap_TLP_Normal
</styleUrl>
<Point>
<coordinates>
7.4594584,46.9483795,519.25
</coordinates>
</Point>
</Placemark>
<Placemark>
<name>
Fri Oct 21 00:11:15 2011 S=2.38 Km/hr
</name>
<styleUrl>
#styleMap_TLP_Normal
</styleUrl>
<Point>
<coordinates>
7.4595008,46.9483452,517.55
</coordinates>
</Point>
</Placemark>
<Placemark>
<name>
Fri Oct 21 00:11:20 2011 S=2.27 Km/hr
</name>
<styleUrl>
#styleMap_TLP_Normal
</styleUrl>
<Point>
<coordinates>
7.4594946,46.9483109,516.39
</coordinates>
</Point>
</Placemark>
<Placemark>
<name>
Fri Oct 21 00:11:25 2011 S=4.50 Km/hr
</name>
<styleUrl>
#styleMap_TLP_Normal
</styleUrl>
<Point>
<coordinates>
7.4595203,46.9482803,516.28
</coordinates>
</Point>
</Placemark>
<Placemark>
<name>
Fri Oct 21 00:11:30 2011 S=2.97 Km/hr
</name>
<styleUrl>
#styleMap_TLP_Normal
</styleUrl>
<Point>
<coordinates>
7.4595408,46.9482384,516.56
</coordinates>
</Point>
</Placemark>
<Placemark>
<name>
Fri Oct 21 00:11:35 2011 S=0.16 Km/hr
</name>
<styleUrl>
#styleMap_TLP_Normal
</styleUrl>
<Point>
<coordinates>
7.4595723,46.9482155,517.89
</coordinates>
</Point>
</Placemark>
<Placemark>
<name>
Fri Oct 21 00:11:40 2011 S=0.42 Km/hr
</name>
<styleUrl>
#styleMap_TLP_Normal
</styleUrl>
<Point>
<coordinates>
7.4595590,46.9482269,517.69
</coordinates>
</Point>
</Placemark>
<Placemark>
<name>
Fri Oct 21 00:11:45 2011 S=0.04 Km/hr
</name>
<styleUrl>
#styleMap_TLP_Normal
</styleUrl>
<Point>
<coordinates>
7.4595690,46.9482269,516.84
</coordinates>
</Point>
</Placemark>
<Placemark>
<name>
Fri Oct 21 00:11:50 2011 S=0.13 Km/hr
</name>
<styleUrl>
#styleMap_TLP_Normal
</styleUrl>
<Point>
<coordinates>
7.4595695,46.9482269,516.80
</coordinates>
</Point>
</Placemark>
<Placemark>
<name>
Fri Oct 21 00:11:55 2011 S=1.01 Km/hr
</name>
<styleUrl>
#styleMap_TLP_Normal
</styleUrl>
<Point>
<coordinates>
7.4595757,46.9482307,516.89
</coordinates>
</Point>
</Placemark>
<Placemark>
<name>
Fri Oct 21 00:12:00 2011 S=1.97 Km/hr
</name>
<styleUrl>
#styleMap_TLP_Normal
</styleUrl>
<Point>
<coordinates>
7.4595795,46.9482574,518.16
</coordinates>
</Point>
</Placemark>
<Placemark>
<name>
Fri Oct 21 00:12:05 2011 S=0.37 Km/hr
</name>
<styleUrl>
#styleMap_TLP_Normal
</styleUrl>
<Point>
<coordinates>
7.4596004,46.9482384,518.47
</coordinates>
</Point>
</Placemark>
<Placemark>
<name>
Fri Oct 21 00:12:10 2011 S=1.81 Km/hr
</name>
<styleUrl>
#styleMap_TLP_Normal
</styleUrl>
<Point>
<coordinates>
7.4596295,46.9482422,518.70
</coordinates>
</Point>
</Placemark>
<Placemark>
<name>
Fri Oct 21 00:12:15 2011 S=2.45 Km/hr
</name>
<styleUrl>
#styleMap_TLP_Normal
</styleUrl>
<Point>
<coordinates>
7.4596882,46.9482307,519.00
</coordinates>
</Point>
</Placemark>
<Placemark>
<name>
Fri Oct 21 00:12:20 2011 S=1.68 Km/hr
</name>
<styleUrl>
#styleMap_TLP_Normal
</styleUrl>
<Point>
<coordinates>
7.4597297,46.9482269,518.89
</coordinates>
</Point>
</Placemark>
<Placemark>
<name>
Fri Oct 21 00:12:25 2011 S=1.55 Km/hr
</name>
<styleUrl>
#styleMap_TLP_Normal
</styleUrl>
<Point>
<coordinates>
7.4597468,46.9482193,518.81
</coordinates>
</Point>
</Placemark>
<Placemark>
<name>
Fri Oct 21 00:12:30 2011 S=4.29 Km/hr
</name>
<styleUrl>
#styleMap_TLP_Normal
</styleUrl>
<Point>
<coordinates>
7.4597397,46.9482536,518.94
</coordinates>
</Point>
</Placemark>
<Placemark>
<name>
Fri Oct 21 00:12:35 2011 S=0.32 Km/hr
</name>
<styleUrl>
#styleMap_TLP_Normal
</styleUrl>
<Point>
<coordinates>
7.4597216,46.9482765,518.86
</coordinates>
</Point>
</Placemark>
<Placemark>
<name>
Fri Oct 21 00:12:40 2011 S=0.18 Km/hr
</name>
<styleUrl>
#styleMap_TLP_Normal
</styleUrl>
<Point>
<coordinates>
7.4597278,46.9482880,518.92
</coordinates>
</Point>
</Placemark>
<Placemark>
<name>
Fri Oct 21 00:12:45 2011 S=0.27 Km/hr
</name>
<styleUrl>
#styleMap_TLP_Normal
</styleUrl>
<Point>
<coordinates>
7.4597325,46.9482880,518.83
</coordinates>
</Point>
</Placemark>
<Placemark>
<name>
Fri Oct 21 00:12:50 2011 S=0.40 Km/hr
</name>
<styleUrl>
#styleMap_TLP_Normal
</styleUrl>
<Point>
<coordinates>
7.4597187,46.9482918,519.92
</coordinates>
</Point>
</Placemark>
<Placemark>
<name>
Fri Oct 21 00:12:55 2011 S=0.42 Km/hr
</name>
<styleUrl>
#styleMap_TLP_Normal
</styleUrl>
<Point>
<coordinates>
7.4597254,46.9482880,519.92
</coordinates>
</Point>
</Placemark>
<Placemark>
<name>
Fri Oct 21 00:13:00 2011 S=0.23 Km/hr
</name>
<styleUrl>
#styleMap_TLP_Normal
</styleUrl>
<Point>
<coordinates>
7.4597297,46.9482841,519.91
</coordinates>
</Point>
</Placemark>
<Placemark>
<name>
Fri Oct 21 00:13:05 2011 S=0.15 Km/hr
</name>
<styleUrl>
#styleMap_TLP_Normal
</styleUrl>
<Point>
<coordinates>
7.4597301,46.9482841,519.83
</coordinates>
</Point>
</Placemark>
<Placemark>
<name>
Fri Oct 21 00:13:10 2011 S=0.44 Km/hr
</name>
<styleUrl>
#styleMap_TLP_Normal
</styleUrl>
<Point>
<coordinates>
7.4597316,46.9482880,519.80
</coordinates>
</Point>
</Placemark>
<Placemark>
<name>
Fri Oct 21 00:13:15 2011 S=1.89 Km/hr
</name>
<styleUrl>
#styleMap_TLP_Normal
</styleUrl>
<Point>
<coordinates>
7.4597631,46.9482765,519.83
</coordinates>
</Point>
</Placemark>
<Placemark>
<name>
Fri Oct 21 00:13:20 2011 S=0.84 Km/hr
</name>
<styleUrl>
#styleMap_TLP_Normal
</styleUrl>
<Point>
<coordinates>
7.4597735,46.9482651,519.39
</coordinates>
</Point>
</Placemark>
<Placemark>
<name>
Fri Oct 21 00:13:25 2011 S=0.66 Km/hr
</name>
<styleUrl>
#styleMap_TLP_Normal
</styleUrl>
<Point>
<coordinates>
7.4597678,46.9482574,519.19
</coordinates>
</Point>
</Placemark>
<Placemark>
<name>
Fri Oct 21 00:13:30 2011 S=0.96 Km/hr
</name>
<styleUrl>
#styleMap_TLP_Normal
</styleUrl>
<Point>
<coordinates>
7.4597778,46.9482498,518.95
</coordinates>
</Point>
</Placemark>
<Placemark>
<name>
Fri Oct 21 00:13:35 2011 S=1.84 Km/hr
</name>
<styleUrl>
#styleMap_TLP_Normal
</styleUrl>
<Point>
<coordinates>
7.4597731,46.9482651,518.73
</coordinates>
</Point>
</Placemark>
<Placemark>
<name>
Fri Oct 21 00:13:40 2011 S=1.57 Km/hr
</name>
<styleUrl>
#styleMap_TLP_Normal
</styleUrl>
<Point>
<coordinates>
7.4597564,46.9482880,519.00
</coordinates>
</Point>
</Placemark>
<Placemark>
<name>
Fri Oct 21 00:13:45 2011 S=2.46 Km/hr
</name>
<styleUrl>
#styleMap_TLP_Normal
</styleUrl>
<Point>
<coordinates>
7.4597402,46.9482918,518.41
</coordinates>
</Point>
</Placemark>
<Placemark>
<name>
Fri Oct 21 00:13:50 2011 S=0.18 Km/hr
</name>
<styleUrl>
#styleMap_TLP_Normal
</styleUrl>
<Point>
<coordinates>
7.4597220,46.9482841,519.17
</coordinates>
</Point>
</Placemark>
<Placemark>
<name>
Fri Oct 21 00:13:55 2011 S=0.96 Km/hr
</name>
<styleUrl>
#styleMap_TLP_Normal
</styleUrl>
<Point>
<coordinates>
7.4597225,46.9482841,519.17
</coordinates>
</Point>
</Placemark>
<Placemark>
<name>
Fri Oct 21 00:14:00 2011 S=0.31 Km/hr
</name>
<styleUrl>
#styleMap_TLP_Normal
</styleUrl>
<Point>
<coordinates>
7.4597268,46.9482727,519.09
</coordinates>
</Point>
</Placemark>
<Placemark>
<name>
Fri Oct 21 00:14:05 2011 S=0.18 Km/hr
</name>
<styleUrl>
#styleMap_TLP_Normal
</styleUrl>
<Point>
<coordinates>
7.4597301,46.9482727,519.14
</coordinates>
</Point>
</Placemark>
<Placemark>
<name>
Fri Oct 21 00:14:10 2011 S=0.81 Km/hr
</name>
<styleUrl>
#styleMap_TLP_Normal
</styleUrl>
<Point>
<coordinates>
7.4597292,46.9482765,519.13
</coordinates>
</Point>
</Placemark>
<Placemark>
<name>
Fri Oct 21 00:14:15 2011 S=2.22 Km/hr
</name>
<styleUrl>
#styleMap_TLP_Normal
</styleUrl>
<Point>
<coordinates>
7.4597545,46.9482536,519.52
</coordinates>
</Point>
</Placemark>
<Placemark>
<name>
Fri Oct 21 00:14:20 2011 S=1.59 Km/hr
</name>
<styleUrl>
#styleMap_TLP_Normal
</styleUrl>
<Point>
<coordinates>
7.4597878,46.9482422,519.70
</coordinates>
</Point>
</Placemark>
<Placemark>
<name>
Fri Oct 21 00:14:25 2011 S=0.26 Km/hr
</name>
<styleUrl>
#styleMap_TLP_Normal
</styleUrl>
<Point>
<coordinates>
7.4598112,46.9482384,519.84
</coordinates>
</Point>
</Placemark>
<Placemark>
<name>
Fri Oct 21 00:14:30 2011 S=0.22 Km/hr
</name>
<styleUrl>
#styleMap_TLP_Normal
</styleUrl>
<Point>
<coordinates>
7.4598179,46.9482384,519.77
</coordinates>
</Point>
</Placemark>
<Placemark>
<name>
Fri Oct 21 00:14:35 2011 S=0.59 Km/hr
</name>
<styleUrl>
#styleMap_TLP_Normal
</styleUrl>
<Point>
<coordinates>
7.4598141,46.9482422,519.80
</coordinates>
</Point>
</Placemark>
<Placemark>
<name>
Fri Oct 21 00:14:40 2011 S=0.45 Km/hr
</name>
<styleUrl>
#styleMap_TLP_Normal
</styleUrl>
<Point>
<coordinates>
7.4598165,46.9482460,519.81
</coordinates>
</Point>
</Placemark>
<Placemark>
<name>
Fri Oct 21 00:14:45 2011 S=0.15 Km/hr
</name>
<styleUrl>
#styleMap_TLP_Normal
</styleUrl>
<Point>
<coordinates>
7.4598198,46.9482460,519.91
</coordinates>
</Point>
</Placemark>
<Placemark>
<name>
Fri Oct 21 00:14:50 2011 S=0.53 Km/hr
</name>
<styleUrl>
#styleMap_TLP_Normal
</styleUrl>
<Point>
<coordinates>
7.4598179,46.9482536,520.61
</coordinates>
</Point>
</Placemark>
<Placemark>
<name>
Fri Oct 21 00:14:55 2011 S=1.53 Km/hr
</name>
<styleUrl>
#styleMap_TLP_Normal
</styleUrl>
<Point>
<coordinates>
7.4598088,46.9482651,519.81
</coordinates>
</Point>
</Placemark>
<Placemark>
<name>
Fri Oct 21 00:15:00 2011 S=1.70 Km/hr
</name>
<styleUrl>
#styleMap_TLP_Normal
</styleUrl>
<Point>
<coordinates>
7.4598298,46.9482918,519.53
</coordinates>
</Point>
</Placemark>
<Placemark>
<name>
Fri Oct 21 00:15:05 2011 S=1.57 Km/hr
</name>
<styleUrl>
#styleMap_TLP_Normal
</styleUrl>
<Point>
<coordinates>
7.4598079,46.9482918,518.52
</coordinates>
</Point>
</Placemark>
<Placemark>
<name>
Fri Oct 21 00:15:10 2011 S=0.50 Km/hr
</name>
<styleUrl>
#styleMap_TLP_Normal
</styleUrl>
<Point>
<coordinates>
7.4597840,46.9483032,518.97
</coordinates>
</Point>
</Placemark>
<Placemark>
<name>
Fri Oct 21 00:15:15 2011 S=1.49 Km/hr
</name>
<styleUrl>
#styleMap_TLP_Normal
</styleUrl>
<Point>
<coordinates>
7.4597936,46.9483109,519.73
</coordinates>
</Point>
</Placemark>
<Placemark>
<name>
Fri Oct 21 00:15:20 2011 S=1.40 Km/hr
</name>
<styleUrl>
#styleMap_TLP_Normal
</styleUrl>
<Point>
<coordinates>
7.4597926,46.9483185,519.86
</coordinates>
</Point>
</Placemark>
<Placemark>
<name>
Fri Oct 21 00:15:25 2011 S=1.89 Km/hr
</name>
<styleUrl>
#styleMap_TLP_Normal
</styleUrl>
<Point>
<coordinates>
7.4597845,46.9483528,519.95
</coordinates>
</Point>
</Placemark>
<Placemark>
<name>
Fri Oct 21 00:15:30 2011 S=5.51 Km/hr
</name>
<styleUrl>
#styleMap_TLP_Normal
</styleUrl>
<Point>
<coordinates>
7.4597969,46.9483910,519.78
</coordinates>
</Point>
</Placemark>
<Placemark>
<name>
Fri Oct 21 00:15:35 2011 S=3.42 Km/hr
</name>
<styleUrl>
#styleMap_TLP_Normal
</styleUrl>
<Point>
<coordinates>
7.4598107,46.9484711,518.20
</coordinates>
</Point>
</Placemark>
<Placemark>
<name>
Fri Oct 21 00:15:40 2011 S=2.52 Km/hr
</name>
<styleUrl>
#styleMap_TLP_Normal
</styleUrl>
<Point>
<coordinates>
7.4598536,46.9484749,517.55
</coordinates>
</Point>
</Placemark>
<Placemark>
<name>
Fri Oct 21 00:15:45 2011 S=3.98 Km/hr
</name>
<styleUrl>
#styleMap_TLP_Normal
</styleUrl>
<Point>
<coordinates>
7.4599252,46.9484711,517.22
</coordinates>
</Point>
</Placemark>
<Placemark>
<name>
Fri Oct 21 00:15:50 2011 S=4.38 Km/hr
</name>
<styleUrl>
#styleMap_TLP_Normal
</styleUrl>
<Point>
<coordinates>
7.4599948,46.9485016,516.88
</coordinates>
</Point>
</Placemark>
<Placemark>
<name>
Fri Oct 21 00:15:55 2011 S=3.16 Km/hr
</name>
<styleUrl>
#styleMap_TLP_Normal
</styleUrl>
<Point>
<coordinates>
7.4600844,46.9484940,517.36
</coordinates>
</Point>
</Placemark>
<Placemark>
<name>
Fri Oct 21 00:16:00 2011 S=3.56 Km/hr
</name>
<styleUrl>
#styleMap_TLP_Normal
</styleUrl>
<Point>
<coordinates>
7.4601426,46.9484634,516.86
</coordinates>
</Point>
</Placemark>
<Placemark>
<name>
Fri Oct 21 00:16:05 2011 S=5.76 Km/hr
</name>
<styleUrl>
#styleMap_TLP_Normal
</styleUrl>
<Point>
<coordinates>
7.4602113,46.9484444,516.59
</coordinates>
</Point>
</Placemark>
<Placemark>
<name>
Fri Oct 21 00:16:10 2011 S=4.02 Km/hr
</name>
<styleUrl>
#styleMap_TLP_Normal
</styleUrl>
<Point>
<coordinates>
7.4602838,46.9484634,516.66
</coordinates>
</Point>
</Placemark>
<Placemark>
<name>
Fri Oct 21 00:16:15 2011 S=4.87 Km/hr
</name>
<styleUrl>
#styleMap_TLP_Normal
</styleUrl>
<Point>
<coordinates>
7.4603338,46.9485092,516.81
</coordinates>
</Point>
</Placemark>
<Placemark>
<name>
Fri Oct 21 00:16:20 2011 S=4.61 Km/hr
</name>
<styleUrl>
#styleMap_TLP_Normal
</styleUrl>
<Point>
<coordinates>
7.4603844,46.9485931,515.97
</coordinates>
</Point>
</Placemark>
<Placemark>
<name>
Fri Oct 21 00:16:25 2011 S=3.75 Km/hr
</name>
<styleUrl>
#styleMap_TLP_Normal
</styleUrl>
<Point>
<coordinates>
7.4604535,46.9486465,517.77
</coordinates>
</Point>
</Placemark>
<Placemark>
<name>
Fri Oct 21 00:16:30 2011 S=4.35 Km/hr
</name>
<styleUrl>
#styleMap_TLP_Normal
</styleUrl>
<Point>
<coordinates>
7.4605064,46.9487152,519.91
</coordinates>
</Point>
</Placemark>
<Placemark>
<name>
Fri Oct 21 00:16:35 2011 S=2.63 Km/hr
</name>
<styleUrl>
#styleMap_TLP_Normal
</styleUrl>
<Point>
<coordinates>
7.4605284,46.9487457,522.05
</coordinates>
</Point>
</Placemark>
<Placemark>
<name>
Fri Oct 21 00:16:40 2011 S=2.69 Km/hr
</name>
<styleUrl>
#styleMap_TLP_Normal
</styleUrl>
<Point>
<coordinates>
7.4605699,46.9487762,522.42
</coordinates>
</Point>
</Placemark>
<Placemark>
<name>
Fri Oct 21 00:16:45 2011 S=2.01 Km/hr
</name>
<styleUrl>
#styleMap_TLP_Normal
</styleUrl>
<Point>
<coordinates>
7.4605880,46.9487877,523.77
</coordinates>
</Point>
</Placemark>
<Placemark>
<name>
Fri Oct 21 00:16:50 2011 S=0.09 Km/hr
</name>
<styleUrl>
#styleMap_TLP_Normal
</styleUrl>
<Point>
<coordinates>
7.4605947,46.9487762,524.39
</coordinates>
</Point>
</Placemark>
<Placemark>
<name>
Fri Oct 21 00:16:55 2011 S=1.13 Km/hr
</name>
<styleUrl>
#styleMap_TLP_Normal
</styleUrl>
<Point>
<coordinates>
7.4606237,46.9487724,525.13
</coordinates>
</Point>
</Placemark>
<Placemark>
<name>
Fri Oct 21 00:17:00 2011 S=1.48 Km/hr
</name>
<styleUrl>
#styleMap_TLP_Normal
</styleUrl>
<Point>
<coordinates>
7.4606066,46.9487457,526.27
</coordinates>
</Point>
</Placemark>
<Placemark>
<name>
Fri Oct 21 00:17:05 2011 S=1.11 Km/hr
</name>
<styleUrl>
#styleMap_TLP_Normal
</styleUrl>
<Point>
<coordinates>
7.4605598,46.9487076,526.56
</coordinates>
</Point>
</Placemark>
<Placemark>
<name>
Fri Oct 21 00:17:10 2011 S=0.24 Km/hr
</name>
<styleUrl>
#styleMap_TLP_Normal
</styleUrl>
<Point>
<coordinates>
7.4605527,46.9487076,526.66
</coordinates>
</Point>
</Placemark>
<Placemark>
<name>
Fri Oct 21 00:17:15 2011 S=0.22 Km/hr
</name>
<styleUrl>
#styleMap_TLP_Normal
</styleUrl>
<Point>
<coordinates>
7.4605517,46.9487038,526.70
</coordinates>
</Point>
</Placemark>
<Placemark>
<name>
Fri Oct 21 00:17:20 2011 S=0.53 Km/hr
</name>
<styleUrl>
#styleMap_TLP_Normal
</styleUrl>
<Point>
<coordinates>
7.4605517,46.9487076,526.72
</coordinates>
</Point>
</Placemark>
<Placemark>
<name>
Fri Oct 21 00:17:25 2011 S=0.71 Km/hr
</name>
<styleUrl>
#styleMap_TLP_Normal
</styleUrl>
<Point>
<coordinates>
7.4605522,46.9487190,526.73
</coordinates>
</Point>
</Placemark>
<Placemark>
<name>
Fri Oct 21 00:17:30 2011 S=1.46 Km/hr
</name>
<styleUrl>
#styleMap_TLP_Finish
</styleUrl>
<Point>
<coordinates>
7.4605536,46.9487267,526.73
</coordinates>
</Point>
</Placemark>
</Folder>
</Document>
</kml>
