<?xml version="1.0" encoding="UTF-8"?>
<kml xmlns="http://earth.google.com/kml/2.1">
<Document>
<Style id="normalState_TLP_Start">
<IconStyle>
<scale>1.0</scale>
<Icon>
<href>http://maps.google.com/mapfiles/kml/pal4/icon15.png</href>
</Icon>
</IconStyle>
<LabelStyle>
<scale>1.0</scale>
</LabelStyle>
</Style>
<Style id="highlightState_TLP_Start">
<IconStyle>
<scale>1.1</scale>
<Icon>
<href>http://maps.google.com/mapfiles/kml/pal4/icon7.png</href>
</Icon>
</IconStyle>
<LabelStyle>
<scale>1.1</scale>
<color>ff0000ff</color>
</LabelStyle>
</Style>
<StyleMap id="styleMap_TLP_Start">
<Pair>
<key>normal</key>
<styleUrl>#normalState_TLP_Start</styleUrl>
</Pair>
<Pair>
<key>highlight</key>
<styleUrl>#highlightState_TLP_Start</styleUrl>
</Pair>
</StyleMap>
<Style id="normalState_TLP_Finish">
<IconStyle>
<scale>1.0</scale>
<Icon>
<href>http://maps.google.com/mapfiles/kml/pal4/icon15.png</href>
</Icon>
</IconStyle>
<LabelStyle>
<scale>1.0</scale>
</LabelStyle>
</Style>
<Style id="highlightState_TLP_Finish">
<IconStyle>
<scale>1.1</scale>
<Icon>
<href>http://maps.google.com/mapfiles/kml/pal4/icon7.png</href>
</Icon>
</IconStyle>
<LabelStyle>
<scale>1.1</scale>
<color>ff0000ff</color>
</LabelStyle>
</Style>
<StyleMap id="styleMap_TLP_Finish">
<Pair>
<key>normal</key>
<styleUrl>#normalState_TLP_Finish</styleUrl>
</Pair>
<Pair>
<key>highlight</key>
<styleUrl>#highlightState_TLP_Finish</styleUrl>
</Pair>
</StyleMap>
<Style id="normalState_TLP_Normal">
<IconStyle>
<scale>1.0</scale>
<Icon>
<href>http://maps.google.com/mapfiles/kml/pal4/icon31.png</href>
</Icon>
</IconStyle>
<LabelStyle>
<scale>1.0</scale>
</LabelStyle>
</Style>
<Style id="highlightState_TLP_Normal">
<IconStyle>
<scale>1.1</scale>
<Icon>
<href>http://maps.google.com/mapfiles/kml/pal4/icon23.png</href>
</Icon>
</IconStyle>
<LabelStyle>
<scale>1.1</scale>
<color>ff0000ff</color>
</LabelStyle>
</Style>
<StyleMap id="styleMap_TLP_Normal">
<Pair>
<key>normal</key>
<styleUrl>#normalState_TLP_Normal</styleUrl>
</Pair>
<Pair>
<key>highlight</key>
<styleUrl>#highlightState_TLP_Normal</styleUrl>
</Pair>
</StyleMap>
<Style id="normalState_TLP_Photo">
<IconStyle>
<scale>1.0</scale>
<Icon>
<href>http://maps.google.com/mapfiles/kml/pal4/icon46.png</href>
</Icon>
</IconStyle>
<LabelStyle>
<scale>1.0</scale>
</LabelStyle>
</Style>
<Style id="highlightState_TLP_Photo">
<IconStyle>
<scale>1.1</scale>
<Icon>
<href>http://maps.google.com/mapfiles/kml/pal4/icon38.png</href>
</Icon>
</IconStyle>
<LabelStyle>
<scale>1.1</scale>
<color>ff0000ff</color>
</LabelStyle>
</Style>
<StyleMap id="styleMap_TLP_Photo">
<Pair>
<key>normal</key>
<styleUrl>#normalState_TLP_Photo</styleUrl>
</Pair>
<Pair>
<key>highlight</key>
<styleUrl>#highlightState_TLP_Photo</styleUrl>
</Pair>
</StyleMap>
<Style id="roadStyle">
<LineStyle>
<color>ffffff00</color>
<width>6</width>
</LineStyle>
</Style>
<Open>1</Open>
<description>Route</description>
<name>Track Log</name>
<Placemark>
<name>Route</name>
<styleUrl>#roadStyle</styleUrl>
<MultiGeometry>
<LineString>
<coordinates>
7.5945711,50.2329483,43.02 7.5939569,50.2329102,92.61 7.5941181,50.2329292,70.35 7.5940361,50.2329483,62.41 7.5940118,50.2329674,59.76 7.5940261,50.2329788,60.57 7.5939932,50.2329750,60.50 7.5939841,50.2329826,59.78 7.5939817,50.2329826,59.79 7.5939937,50.2329865,60.03 7.5940003,50.2329941,60.31 7.5939922,50.2329979,60.32 7.5939236,50.2329826,59.79 7.5938091,50.2329712,60.06 7.5937262,50.2329636,59.78 7.5936465,50.2329712,58.79 7.5935555,50.2329674,58.13 7.5934658,50.2329483,57.78 7.5934033,50.2329445,57.74 7.5933189,50.2329483,57.67 7.5932631,50.2329369,56.64 7.5932188,50.2329254,56.16 7.5931563,50.2329140,55.21 7.5931020,50.2329140,56.17 7.5930266,50.2329140,55.92 7.5929875,50.2329102,55.83 7.5928826,50.2329178,57.02 7.5928683,50.2329178,57.32 7.5928850,50.2329369,57.31 7.5929122,50.2329521,57.51 7.5929184,50.2329369,57.67 7.5929289,50.2329330,58.09 7.5929260,50.2329330,58.08 7.5928941,50.2329063,58.64 7.5928183,50.2328873,58.64 7.5927000,50.2328568,59.04 7.5925574,50.2328644,58.73 7.5924406,50.2328529,58.05 7.5922842,50.2328720,58.34 7.5921617,50.2328682,59.75 7.5920634,50.2329025,60.35 7.5919871,50.2328987,59.48 7.5919266,50.2328758,59.34 7.5918908,50.2328491,59.37 7.5918870,50.2328644,58.60 7.5918055,50.2328682,58.99 7.5917106,50.2328835,58.84 7.5916257,50.2328835,59.84 7.5915222,50.2328644,61.79 7.5914369,50.2328644,63.78 7.5913196,50.2328682,64.84 7.5912061,50.2328720,63.85 7.5911303,50.2328796,62.64 7.5910525,50.2328987,61.65 7.5909500,50.2329216,60.62 7.5908642,50.2329254,59.73 7.5907874,50.2329216,58.41 7.5907226,50.2329254,57.49 7.5906706,50.2329254,57.33 7.5905857,50.2328873,57.49 7.5905318,50.2328987,57.04 7.5904779,50.2329063,56.97 7.5904202,50.2329025,57.02 7.5903139,50.2328758,57.40 7.5902944,50.2328682,56.92 7.5903034,50.2328453,56.65 7.5903125,50.2328110,57.42 7.5902915,50.2327881,58.09 </coordinates>
</LineString>
</MultiGeometry>
</Placemark>
<Folder>
<name>waypoints</name>
<Placemark>
<name>
Wed Oct 26 00:19:18 2011 S=0.77 Km/hr
</name>
<styleUrl>
#styleMap_TLP_Start
</styleUrl>
<Point>
<coordinates>
7.5945711,50.2329483,43.02
</coordinates>
</Point>
</Placemark>
<Placemark>
<name>
Wed Oct 26 00:19:23 2011 S=0.52 Km/hr
</name>
<styleUrl>
#styleMap_TLP_Normal
</styleUrl>
<Point>
<coordinates>
7.5939569,50.2329102,92.61
</coordinates>
</Point>
</Placemark>
<Placemark>
<name>
Wed Oct 26 00:19:28 2011 S=1.48 Km/hr
</name>
<styleUrl>
#styleMap_TLP_Normal
</styleUrl>
<Point>
<coordinates>
7.5941181,50.2329292,70.35
</coordinates>
</Point>
</Placemark>
<Placemark>
<name>
Wed Oct 26 00:19:34 2011 S=0.69 Km/hr
</name>
<styleUrl>
#styleMap_TLP_Normal
</styleUrl>
<Point>
<coordinates>
7.5940361,50.2329483,62.41
</coordinates>
</Point>
</Placemark>
<Placemark>
<name>
Wed Oct 26 00:19:39 2011 S=0.61 Km/hr
</name>
<styleUrl>
#styleMap_TLP_Normal
</styleUrl>
<Point>
<coordinates>
7.5940118,50.2329674,59.76
</coordinates>
</Point>
</Placemark>
<Placemark>
<name>
Wed Oct 26 00:19:44 2011 S=0.91 Km/hr
</name>
<styleUrl>
#styleMap_TLP_Normal
</styleUrl>
<Point>
<coordinates>
7.5940261,50.2329788,60.57
</coordinates>
</Point>
</Placemark>
<Placemark>
<name>
Wed Oct 26 00:19:49 2011 S=1.41 Km/hr
</name>
<styleUrl>
#styleMap_TLP_Normal
</styleUrl>
<Point>
<coordinates>
7.5939932,50.2329750,60.50
</coordinates>
</Point>
</Placemark>
<Placemark>
<name>
Wed Oct 26 00:19:54 2011 S=0.18 Km/hr
</name>
<styleUrl>
#styleMap_TLP_Normal
</styleUrl>
<Point>
<coordinates>
7.5939841,50.2329826,59.78
</coordinates>
</Point>
</Placemark>
<Placemark>
<name>
Wed Oct 26 00:19:59 2011 S=0.34 Km/hr
</name>
<styleUrl>
#styleMap_TLP_Normal
</styleUrl>
<Point>
<coordinates>
7.5939817,50.2329826,59.79
</coordinates>
</Point>
</Placemark>
<Placemark>
<name>
Wed Oct 26 00:20:04 2011 S=0.77 Km/hr
</name>
<styleUrl>
#styleMap_TLP_Normal
</styleUrl>
<Point>
<coordinates>
7.5939937,50.2329865,60.03
</coordinates>
</Point>
</Placemark>
<Placemark>
<name>
Wed Oct 26 00:20:09 2011 S=0.75 Km/hr
</name>
<styleUrl>
#styleMap_TLP_Normal
</styleUrl>
<Point>
<coordinates>
7.5940003,50.2329941,60.31
</coordinates>
</Point>
</Placemark>
<Placemark>
<name>
Wed Oct 26 00:20:14 2011 S=1.25 Km/hr
</name>
<styleUrl>
#styleMap_TLP_Normal
</styleUrl>
<Point>
<coordinates>
7.5939922,50.2329979,60.32
</coordinates>
</Point>
</Placemark>
<Placemark>
<name>
Wed Oct 26 00:20:19 2011 S=2.35 Km/hr
</name>
<styleUrl>
#styleMap_TLP_Normal
</styleUrl>
<Point>
<coordinates>
7.5939236,50.2329826,59.79
</coordinates>
</Point>
</Placemark>
<Placemark>
<name>
Wed Oct 26 00:20:24 2011 S=5.04 Km/hr
</name>
<styleUrl>
#styleMap_TLP_Normal
</styleUrl>
<Point>
<coordinates>
7.5938091,50.2329712,60.06
</coordinates>
</Point>
</Placemark>
<Placemark>
<name>
Wed Oct 26 00:20:29 2011 S=2.98 Km/hr
</name>
<styleUrl>
#styleMap_TLP_Normal
</styleUrl>
<Point>
<coordinates>
7.5937262,50.2329636,59.78
</coordinates>
</Point>
</Placemark>
<Placemark>
<name>
Wed Oct 26 00:20:34 2011 S=4.13 Km/hr
</name>
<styleUrl>
#styleMap_TLP_Normal
</styleUrl>
<Point>
<coordinates>
7.5936465,50.2329712,58.79
</coordinates>
</Point>
</Placemark>
<Placemark>
<name>
Wed Oct 26 00:20:39 2011 S=3.71 Km/hr
</name>
<styleUrl>
#styleMap_TLP_Normal
</styleUrl>
<Point>
<coordinates>
7.5935555,50.2329674,58.13
</coordinates>
</Point>
</Placemark>
<Placemark>
<name>
Wed Oct 26 00:20:44 2011 S=3.87 Km/hr
</name>
<styleUrl>
#styleMap_TLP_Normal
</styleUrl>
<Point>
<coordinates>
7.5934658,50.2329483,57.78
</coordinates>
</Point>
</Placemark>
<Placemark>
<name>
Wed Oct 26 00:20:49 2011 S=4.33 Km/hr
</name>
<styleUrl>
#styleMap_TLP_Normal
</styleUrl>
<Point>
<coordinates>
7.5934033,50.2329445,57.74
</coordinates>
</Point>
</Placemark>
<Placemark>
<name>
Wed Oct 26 00:20:54 2011 S=2.72 Km/hr
</name>
<styleUrl>
#styleMap_TLP_Normal
</styleUrl>
<Point>
<coordinates>
7.5933189,50.2329483,57.67
</coordinates>
</Point>
</Placemark>
<Placemark>
<name>
Wed Oct 26 00:20:59 2011 S=2.87 Km/hr
</name>
<styleUrl>
#styleMap_TLP_Normal
</styleUrl>
<Point>
<coordinates>
7.5932631,50.2329369,56.64
</coordinates>
</Point>
</Placemark>
<Placemark>
<name>
Wed Oct 26 00:21:04 2011 S=1.94 Km/hr
</name>
<styleUrl>
#styleMap_TLP_Normal
</styleUrl>
<Point>
<coordinates>
7.5932188,50.2329254,56.16
</coordinates>
</Point>
</Placemark>
<Placemark>
<name>
Wed Oct 26 00:21:09 2011 S=3.12 Km/hr
</name>
<styleUrl>
#styleMap_TLP_Normal
</styleUrl>
<Point>
<coordinates>
7.5931563,50.2329140,55.21
</coordinates>
</Point>
</Placemark>
<Placemark>
<name>
Wed Oct 26 00:21:14 2011 S=2.07 Km/hr
</name>
<styleUrl>
#styleMap_TLP_Normal
</styleUrl>
<Point>
<coordinates>
7.5931020,50.2329140,56.17
</coordinates>
</Point>
</Placemark>
<Placemark>
<name>
Wed Oct 26 00:21:19 2011 S=3.42 Km/hr
</name>
<styleUrl>
#styleMap_TLP_Normal
</styleUrl>
<Point>
<coordinates>
7.5930266,50.2329140,55.92
</coordinates>
</Point>
</Placemark>
<Placemark>
<name>
Wed Oct 26 00:21:24 2011 S=2.90 Km/hr
</name>
<styleUrl>
#styleMap_TLP_Normal
</styleUrl>
<Point>
<coordinates>
7.5929875,50.2329102,55.83
</coordinates>
</Point>
</Placemark>
<Placemark>
<name>
Wed Oct 26 00:21:29 2011 S=4.23 Km/hr
</name>
<styleUrl>
#styleMap_TLP_Normal
</styleUrl>
<Point>
<coordinates>
7.5928826,50.2329178,57.02
</coordinates>
</Point>
</Placemark>
<Placemark>
<name>
Wed Oct 26 00:21:34 2011 S=0.44 Km/hr
</name>
<styleUrl>
#styleMap_TLP_Normal
</styleUrl>
<Point>
<coordinates>
7.5928683,50.2329178,57.32
</coordinates>
</Point>
</Placemark>
<Placemark>
<name>
Wed Oct 26 00:21:39 2011 S=1.52 Km/hr
</name>
<styleUrl>
#styleMap_TLP_Normal
</styleUrl>
<Point>
<coordinates>
7.5928850,50.2329369,57.31
</coordinates>
</Point>
</Placemark>
<Placemark>
<name>
Wed Oct 26 00:21:44 2011 S=0.36 Km/hr
</name>
<styleUrl>
#styleMap_TLP_Normal
</styleUrl>
<Point>
<coordinates>
7.5929122,50.2329521,57.51
</coordinates>
</Point>
</Placemark>
<Placemark>
<name>
Wed Oct 26 00:21:49 2011 S=1.21 Km/hr
</name>
<styleUrl>
#styleMap_TLP_Normal
</styleUrl>
<Point>
<coordinates>
7.5929184,50.2329369,57.67
</coordinates>
</Point>
</Placemark>
<Placemark>
<name>
Wed Oct 26 00:21:54 2011 S=0.43 Km/hr
</name>
<styleUrl>
#styleMap_TLP_Normal
</styleUrl>
<Point>
<coordinates>
7.5929289,50.2329330,58.09
</coordinates>
</Point>
</Placemark>
<Placemark>
<name>
Wed Oct 26 00:21:59 2011 S=0.10 Km/hr
</name>
<styleUrl>
#styleMap_TLP_Normal
</styleUrl>
<Point>
<coordinates>
7.5929260,50.2329330,58.08
</coordinates>
</Point>
</Placemark>
<Placemark>
<name>
Wed Oct 26 00:22:04 2011 S=2.61 Km/hr
</name>
<styleUrl>
#styleMap_TLP_Normal
</styleUrl>
<Point>
<coordinates>
7.5928941,50.2329063,58.64
</coordinates>
</Point>
</Placemark>
<Placemark>
<name>
Wed Oct 26 00:22:09 2011 S=2.82 Km/hr
</name>
<styleUrl>
#styleMap_TLP_Normal
</styleUrl>
<Point>
<coordinates>
7.5928183,50.2328873,58.64
</coordinates>
</Point>
</Placemark>
<Placemark>
<name>
Wed Oct 26 00:22:14 2011 S=5.75 Km/hr
</name>
<styleUrl>
#styleMap_TLP_Normal
</styleUrl>
<Point>
<coordinates>
7.5927000,50.2328568,59.04
</coordinates>
</Point>
</Placemark>
<Placemark>
<name>
Wed Oct 26 00:22:19 2011 S=7.52 Km/hr
</name>
<styleUrl>
#styleMap_TLP_Normal
</styleUrl>
<Point>
<coordinates>
7.5925574,50.2328644,58.73
</coordinates>
</Point>
</Placemark>
<Placemark>
<name>
Wed Oct 26 00:22:24 2011 S=4.90 Km/hr
</name>
<styleUrl>
#styleMap_TLP_Normal
</styleUrl>
<Point>
<coordinates>
7.5924406,50.2328529,58.05
</coordinates>
</Point>
</Placemark>
<Placemark>
<name>
Wed Oct 26 00:22:29 2011 S=5.88 Km/hr
</name>
<styleUrl>
#styleMap_TLP_Normal
</styleUrl>
<Point>
<coordinates>
7.5922842,50.2328720,58.34
</coordinates>
</Point>
</Placemark>
<Placemark>
<name>
Wed Oct 26 00:22:34 2011 S=7.07 Km/hr
</name>
<styleUrl>
#styleMap_TLP_Normal
</styleUrl>
<Point>
<coordinates>
7.5921617,50.2328682,59.75
</coordinates>
</Point>
</Placemark>
<Placemark>
<name>
Wed Oct 26 00:22:39 2011 S=3.71 Km/hr
</name>
<styleUrl>
#styleMap_TLP_Normal
</styleUrl>
<Point>
<coordinates>
7.5920634,50.2329025,60.35
</coordinates>
</Point>
</Placemark>
<Placemark>
<name>
Wed Oct 26 00:22:44 2011 S=2.20 Km/hr
</name>
<styleUrl>
#styleMap_TLP_Normal
</styleUrl>
<Point>
<coordinates>
7.5919871,50.2328987,59.48
</coordinates>
</Point>
</Placemark>
<Placemark>
<name>
Wed Oct 26 00:22:49 2011 S=3.52 Km/hr
</name>
<styleUrl>
#styleMap_TLP_Normal
</styleUrl>
<Point>
<coordinates>
7.5919266,50.2328758,59.34
</coordinates>
</Point>
</Placemark>
<Placemark>
<name>
Wed Oct 26 00:22:54 2011 S=2.44 Km/hr
</name>
<styleUrl>
#styleMap_TLP_Normal
</styleUrl>
<Point>
<coordinates>
7.5918908,50.2328491,59.37
</coordinates>
</Point>
</Placemark>
<Placemark>
<name>
Wed Oct 26 00:22:59 2011 S=0.71 Km/hr
</name>
<styleUrl>
#styleMap_TLP_Normal
</styleUrl>
<Point>
<coordinates>
7.5918870,50.2328644,58.60
</coordinates>
</Point>
</Placemark>
<Placemark>
<name>
Wed Oct 26 00:23:04 2011 S=4.22 Km/hr
</name>
<styleUrl>
#styleMap_TLP_Normal
</styleUrl>
<Point>
<coordinates>
7.5918055,50.2328682,58.99
</coordinates>
</Point>
</Placemark>
<Placemark>
<name>
Wed Oct 26 00:23:09 2011 S=3.54 Km/hr
</name>
<styleUrl>
#styleMap_TLP_Normal
</styleUrl>
<Point>
<coordinates>
7.5917106,50.2328835,58.84
</coordinates>
</Point>
</Placemark>
<Placemark>
<name>
Wed Oct 26 00:23:14 2011 S=3.95 Km/hr
</name>
<styleUrl>
#styleMap_TLP_Normal
</styleUrl>
<Point>
<coordinates>
7.5916257,50.2328835,59.84
</coordinates>
</Point>
</Placemark>
<Placemark>
<name>
Wed Oct 26 00:23:19 2011 S=3.44 Km/hr
</name>
<styleUrl>
#styleMap_TLP_Normal
</styleUrl>
<Point>
<coordinates>
7.5915222,50.2328644,61.79
</coordinates>
</Point>
</Placemark>
<Placemark>
<name>
Wed Oct 26 00:23:24 2011 S=4.63 Km/hr
</name>
<styleUrl>
#styleMap_TLP_Normal
</styleUrl>
<Point>
<coordinates>
7.5914369,50.2328644,63.78
</coordinates>
</Point>
</Placemark>
<Placemark>
<name>
Wed Oct 26 00:23:29 2011 S=4.95 Km/hr
</name>
<styleUrl>
#styleMap_TLP_Normal
</styleUrl>
<Point>
<coordinates>
7.5913196,50.2328682,64.84
</coordinates>
</Point>
</Placemark>
<Placemark>
<name>
Wed Oct 26 00:23:34 2011 S=3.29 Km/hr
</name>
<styleUrl>
#styleMap_TLP_Normal
</styleUrl>
<Point>
<coordinates>
7.5912061,50.2328720,63.85
</coordinates>
</Point>
</Placemark>
<Placemark>
<name>
Wed Oct 26 00:23:39 2011 S=3.42 Km/hr
</name>
<styleUrl>
#styleMap_TLP_Normal
</styleUrl>
<Point>
<coordinates>
7.5911303,50.2328796,62.64
</coordinates>
</Point>
</Placemark>
<Placemark>
<name>
Wed Oct 26 00:23:44 2011 S=3.22 Km/hr
</name>
<styleUrl>
#styleMap_TLP_Normal
</styleUrl>
<Point>
<coordinates>
7.5910525,50.2328987,61.65
</coordinates>
</Point>
</Placemark>
<Placemark>
<name>
Wed Oct 26 00:23:49 2011 S=3.33 Km/hr
</name>
<styleUrl>
#styleMap_TLP_Normal
</styleUrl>
<Point>
<coordinates>
7.5909500,50.2329216,60.62
</coordinates>
</Point>
</Placemark>
<Placemark>
<name>
Wed Oct 26 00:23:54 2011 S=3.31 Km/hr
</name>
<styleUrl>
#styleMap_TLP_Normal
</styleUrl>
<Point>
<coordinates>
7.5908642,50.2329254,59.73
</coordinates>
</Point>
</Placemark>
<Placemark>
<name>
Wed Oct 26 00:23:59 2011 S=3.07 Km/hr
</name>
<styleUrl>
#styleMap_TLP_Normal
</styleUrl>
<Point>
<coordinates>
7.5907874,50.2329216,58.41
</coordinates>
</Point>
</Placemark>
<Placemark>
<name>
Wed Oct 26 00:24:04 2011 S=3.17 Km/hr
</name>
<styleUrl>
#styleMap_TLP_Normal
</styleUrl>
<Point>
<coordinates>
7.5907226,50.2329254,57.49
</coordinates>
</Point>
</Placemark>
<Placemark>
<name>
Wed Oct 26 00:24:09 2011 S=2.08 Km/hr
</name>
<styleUrl>
#styleMap_TLP_Normal
</styleUrl>
<Point>
<coordinates>
7.5906706,50.2329254,57.33
</coordinates>
</Point>
</Placemark>
<Placemark>
<name>
Wed Oct 26 00:24:14 2011 S=2.29 Km/hr
</name>
<styleUrl>
#styleMap_TLP_Normal
</styleUrl>
<Point>
<coordinates>
7.5905857,50.2328873,57.49
</coordinates>
</Point>
</Placemark>
<Placemark>
<name>
Wed Oct 26 00:24:19 2011 S=2.05 Km/hr
</name>
<styleUrl>
#styleMap_TLP_Normal
</styleUrl>
<Point>
<coordinates>
7.5905318,50.2328987,57.04
</coordinates>
</Point>
</Placemark>
<Placemark>
<name>
Wed Oct 26 00:24:24 2011 S=2.54 Km/hr
</name>
<styleUrl>
#styleMap_TLP_Normal
</styleUrl>
<Point>
<coordinates>
7.5904779,50.2329063,56.97
</coordinates>
</Point>
</Placemark>
<Placemark>
<name>
Wed Oct 26 00:24:29 2011 S=2.11 Km/hr
</name>
<styleUrl>
#styleMap_TLP_Normal
</styleUrl>
<Point>
<coordinates>
7.5904202,50.2329025,57.02
</coordinates>
</Point>
</Placemark>
<Placemark>
<name>
Wed Oct 26 00:24:34 2011 S=2.16 Km/hr
</name>
<styleUrl>
#styleMap_TLP_Normal
</styleUrl>
<Point>
<coordinates>
7.5903139,50.2328758,57.40
</coordinates>
</Point>
</Placemark>
<Placemark>
<name>
Wed Oct 26 00:24:39 2011 S=1.24 Km/hr
</name>
<styleUrl>
#styleMap_TLP_Normal
</styleUrl>
<Point>
<coordinates>
7.5902944,50.2328682,56.92
</coordinates>
</Point>
</Placemark>
<Placemark>
<name>
Wed Oct 26 00:24:44 2011 S=1.56 Km/hr
</name>
<styleUrl>
#styleMap_TLP_Normal
</styleUrl>
<Point>
<coordinates>
7.5903034,50.2328453,56.65
</coordinates>
</Point>
</Placemark>
<Placemark>
<name>
Wed Oct 26 00:24:49 2011 S=1.10 Km/hr
</name>
<styleUrl>
#styleMap_TLP_Normal
</styleUrl>
<Point>
<coordinates>
7.5903125,50.2328110,57.42
</coordinates>
</Point>
</Placemark>
<Placemark>
<name>
Wed Oct 26 00:24:54 2011 S=1.22 Km/hr
</name>
<styleUrl>
#styleMap_TLP_Finish
</styleUrl>
<Point>
<coordinates>
7.5902915,50.2327881,58.09
</coordinates>
</Point>
</Placemark>
</Folder>
</Document>
</kml>
