<?xml version="1.0" encoding="UTF-8"?>
<kml xmlns="http://earth.google.com/kml/2.1">
<Document>
<Style id="normalState_TLP_Start">
<IconStyle>
<scale>1.0</scale>
<Icon>
<href>http://maps.google.com/mapfiles/kml/pal4/icon15.png</href>
</Icon>
</IconStyle>
<LabelStyle>
<scale>1.0</scale>
</LabelStyle>
</Style>
<Style id="highlightState_TLP_Start">
<IconStyle>
<scale>1.1</scale>
<Icon>
<href>http://maps.google.com/mapfiles/kml/pal4/icon7.png</href>
</Icon>
</IconStyle>
<LabelStyle>
<scale>1.1</scale>
<color>ff0000ff</color>
</LabelStyle>
</Style>
<StyleMap id="styleMap_TLP_Start">
<Pair>
<key>normal</key>
<styleUrl>#normalState_TLP_Start</styleUrl>
</Pair>
<Pair>
<key>highlight</key>
<styleUrl>#highlightState_TLP_Start</styleUrl>
</Pair>
</StyleMap>
<Style id="normalState_TLP_Finish">
<IconStyle>
<scale>1.0</scale>
<Icon>
<href>http://maps.google.com/mapfiles/kml/pal4/icon15.png</href>
</Icon>
</IconStyle>
<LabelStyle>
<scale>1.0</scale>
</LabelStyle>
</Style>
<Style id="highlightState_TLP_Finish">
<IconStyle>
<scale>1.1</scale>
<Icon>
<href>http://maps.google.com/mapfiles/kml/pal4/icon7.png</href>
</Icon>
</IconStyle>
<LabelStyle>
<scale>1.1</scale>
<color>ff0000ff</color>
</LabelStyle>
</Style>
<StyleMap id="styleMap_TLP_Finish">
<Pair>
<key>normal</key>
<styleUrl>#normalState_TLP_Finish</styleUrl>
</Pair>
<Pair>
<key>highlight</key>
<styleUrl>#highlightState_TLP_Finish</styleUrl>
</Pair>
</StyleMap>
<Style id="normalState_TLP_Normal">
<IconStyle>
<scale>1.0</scale>
<Icon>
<href>http://maps.google.com/mapfiles/kml/pal4/icon31.png</href>
</Icon>
</IconStyle>
<LabelStyle>
<scale>1.0</scale>
</LabelStyle>
</Style>
<Style id="highlightState_TLP_Normal">
<IconStyle>
<scale>1.1</scale>
<Icon>
<href>http://maps.google.com/mapfiles/kml/pal4/icon23.png</href>
</Icon>
</IconStyle>
<LabelStyle>
<scale>1.1</scale>
<color>ff0000ff</color>
</LabelStyle>
</Style>
<StyleMap id="styleMap_TLP_Normal">
<Pair>
<key>normal</key>
<styleUrl>#normalState_TLP_Normal</styleUrl>
</Pair>
<Pair>
<key>highlight</key>
<styleUrl>#highlightState_TLP_Normal</styleUrl>
</Pair>
</StyleMap>
<Style id="normalState_TLP_Photo">
<IconStyle>
<scale>1.0</scale>
<Icon>
<href>http://maps.google.com/mapfiles/kml/pal4/icon46.png</href>
</Icon>
</IconStyle>
<LabelStyle>
<scale>1.0</scale>
</LabelStyle>
</Style>
<Style id="highlightState_TLP_Photo">
<IconStyle>
<scale>1.1</scale>
<Icon>
<href>http://maps.google.com/mapfiles/kml/pal4/icon38.png</href>
</Icon>
</IconStyle>
<LabelStyle>
<scale>1.1</scale>
<color>ff0000ff</color>
</LabelStyle>
</Style>
<StyleMap id="styleMap_TLP_Photo">
<Pair>
<key>normal</key>
<styleUrl>#normalState_TLP_Photo</styleUrl>
</Pair>
<Pair>
<key>highlight</key>
<styleUrl>#highlightState_TLP_Photo</styleUrl>
</Pair>
</StyleMap>
<Style id="roadStyle">
<LineStyle>
<color>ffffff00</color>
<width>6</width>
</LineStyle>
</Style>
<Open>1</Open>
<description>Route</description>
<name>Track Log</name>
<Placemark>
<name>Route</name>
<styleUrl>#roadStyle</styleUrl>
<MultiGeometry>
<LineString>
<coordinates>
10.7496023,47.5576324,957.84 10.7496891,47.5576439,953.17 10.7496710,47.5576439,951.31 10.7496576,47.5576363,950.83 10.7496891,47.5576324,950.94 10.7496605,47.5576019,951.33 10.7496653,47.5574150,957.67 10.7496996,47.5574226,957.64 10.7496786,47.5573997,957.63 10.7496815,47.5573349,957.63 10.7496824,47.5573235,957.59 10.7497139,47.5573349,957.58 10.7497616,47.5573578,957.53 10.7497845,47.5573883,957.48 10.7491274,47.5585136,957.52 10.7491283,47.5584106,957.53 10.7491713,47.5583267,957.55 10.7492599,47.5581894,957.55 10.7492504,47.5580177,957.55 10.7492304,47.5578804,957.55 10.7491732,47.5576324,957.56 10.7491722,47.5573540,957.58 10.7491913,47.5570755,957.58 10.7491941,47.5569420,957.59 10.7491817,47.5569878,957.59 10.7492132,47.5571060,957.58 10.7492418,47.5570412,957.56 10.7492809,47.5571480,957.55 10.7492352,47.5572701,957.53 10.7491999,47.5575562,957.52 10.7491493,47.5577545,957.48 10.7491446,47.5579643,957.47 10.7490969,47.5583534,957.42 10.7489538,47.5587044,957.41 10.7487583,47.5592499,957.36 10.7491636,47.5561256,1327.50 10.7492142,47.5561028,1350.09 10.7492018,47.5561905,1351.78 10.7492065,47.5562477,1350.91 10.7491531,47.5563316,1349.66 10.7501726,47.5580559,892.14 10.7497454,47.5577164,939.17 10.7494755,47.5576057,955.11 10.7494850,47.5575867,956.47 10.7495184,47.5576019,956.84 10.7495394,47.5575829,957.03 10.7495165,47.5575905,957.25 10.7495041,47.5575943,957.36 10.7494373,47.5575790,957.42 10.7493706,47.5575523,957.47 10.7493124,47.5575180,957.50 10.7493343,47.5575447,957.53 10.7493010,47.5574951,957.55 10.7493324,47.5575333,957.56 10.7492981,47.5574989,957.58 10.7493744,47.5574379,957.59 10.7496681,47.5574951,957.58 10.7487230,47.5562630,642.53 10.7480574,47.5604324,617.73 10.7484989,47.5597725,729.42 10.7485428,47.5595436,742.31 10.7505207,47.5568924,958.81 10.7503262,47.5570793,959.67 10.7502165,47.5571632,961.36 10.7499056,47.5574112,961.39 10.7497883,47.5574951,962.83 10.7497444,47.5575142,962.47 10.7496166,47.5575790,961.48 10.7495432,47.5575867,961.11 10.7494869,47.5575943,961.03 10.7494898,47.5576134,961.22 10.7494802,47.5576172,961.23 10.7494144,47.5576859,961.14 10.7493629,47.5577202,961.08 10.7493677,47.5577240,961.08 10.7493753,47.5577202,961.08 10.7493048,47.5577888,961.33 10.7493124,47.5578079,961.23 10.7493181,47.5578346,961.17 10.7493353,47.5578079,959.86 10.7493324,47.5578041,959.80 10.7493305,47.5578041,959.72 10.7493315,47.5578079,959.58 10.7493305,47.5578079,959.47 10.7493315,47.5578079,959.41 10.7493315,47.5578079,959.36 10.7493315,47.5578079,959.31 10.7493305,47.5578079,959.31 10.7493305,47.5578079,959.30 10.7493305,47.5578079,959.30 10.7493296,47.5578079,959.31 10.7493296,47.5578079,959.31 10.7493286,47.5578079,959.33 10.7493277,47.5578079,959.33 10.7493277,47.5578079,959.33 10.7493277,47.5578079,959.36 10.7493258,47.5578117,959.38 10.7493248,47.5578117,959.38 10.7493258,47.5578079,959.38 10.7493258,47.5578117,959.36 10.7493258,47.5578117,959.36 10.7493258,47.5578117,959.36 10.7493258,47.5578117,959.36 10.7493258,47.5578079,959.36 10.7493258,47.5578079,959.36 10.7493258,47.5578079,959.36 10.7493248,47.5578079,959.36 10.7493248,47.5578079,959.36 10.7493238,47.5578079,959.34 10.7493238,47.5578117,959.34 10.7493248,47.5578117,959.34 10.7493248,47.5578117,959.34 10.7493248,47.5578117,959.34 10.7493248,47.5578117,959.33 10.7493258,47.5578079,959.33 10.7493258,47.5578079,959.33 10.7493248,47.5578079,959.31 10.7493258,47.5578079,959.30 10.7493258,47.5578079,959.28 10.7493258,47.5578079,959.28 10.7493248,47.5578079,959.28 10.7493248,47.5578079,959.28 10.7493248,47.5578041,959.28 10.7493248,47.5578041,959.28 10.7493248,47.5578041,959.28 10.7493248,47.5578041,959.30 10.7493248,47.5578041,959.28 10.7493248,47.5578041,959.28 10.7493258,47.5578079,959.28 10.7493258,47.5578079,959.28 10.7493258,47.5578079,959.28 10.7493248,47.5578079,959.28 10.7493258,47.5578079,959.28 10.7493258,47.5578079,959.28 10.7493258,47.5578079,959.27 10.7493258,47.5578117,959.28 10.7493267,47.5578117,959.30 10.7493267,47.5578117,959.31 10.7493267,47.5578117,959.30 10.7493277,47.5578117,959.28 10.7493277,47.5578117,959.28 10.7493277,47.5578117,959.27 10.7493286,47.5578117,959.27 10.7493286,47.5578117,959.28 10.7493296,47.5578117,959.27 10.7493305,47.5578156,959.27 10.7493296,47.5578117,959.28 10.7493305,47.5578117,959.27 10.7493315,47.5578117,959.25 10.7493305,47.5578117,959.23 10.7493305,47.5578117,959.22 10.7493305,47.5578117,959.22 10.7493305,47.5578117,959.20 10.7493305,47.5578117,959.20 10.7493305,47.5578079,959.19 10.7493305,47.5578079,959.19 10.7493305,47.5578079,959.17 10.7493315,47.5578079,959.17 10.7493324,47.5578079,959.17 10.7493334,47.5578079,959.17 10.7493343,47.5578079,959.16 10.7493343,47.5578079,959.16 10.7493343,47.5578079,959.17 10.7493382,47.5578079,959.16 10.7493401,47.5578079,959.14 10.7493410,47.5578079,959.11 10.7493696,47.5578156,958.98 10.7493935,47.5578232,959.13 10.7493925,47.5578308,959.16 10.7493925,47.5578384,959.22 10.7494116,47.5578499,959.00 10.7494411,47.5578728,958.84 10.7494698,47.5578880,958.69 10.7494717,47.5578842,958.72 10.7494698,47.5578766,958.73 10.7494669,47.5578651,958.75 10.7494583,47.5578651,958.73 10.7494535,47.5578651,958.73 10.7494593,47.5578613,958.72 10.7494659,47.5578651,958.70 10.7494736,47.5578728,958.69 10.7495356,47.5578918,958.02 10.7495136,47.5578957,958.47 10.7495155,47.5578918,958.78 10.7495155,47.5578995,958.80 10.7495060,47.5579033,958.80 10.7494984,47.5578995,958.80 10.7495031,47.5579033,958.77 10.7495098,47.5579033,958.77 10.7495251,47.5579071,958.61 10.7495947,47.5579185,958.58 10.7496376,47.5579643,957.80 10.7496548,47.5579987,957.22 10.7496843,47.5580482,956.05 10.7497196,47.5580788,955.19 10.7497196,47.5581055,954.67 </coordinates>
</LineString>
</MultiGeometry>
</Placemark>
<Folder>
<name>waypoints</name>
<Placemark>
<name>
Sun Oct 23 17:50:05 2011 S=0.43 Km/hr
</name>
<styleUrl>
#styleMap_TLP_Start
</styleUrl>
<Point>
<coordinates>
10.7496023,47.5576324,957.84
</coordinates>
</Point>
</Placemark>
<Placemark>
<name>
Sun Oct 23 17:50:10 2011 S=1.29 Km/hr
</name>
<styleUrl>
#styleMap_TLP_Normal
</styleUrl>
<Point>
<coordinates>
10.7496891,47.5576439,953.17
</coordinates>
</Point>
</Placemark>
<Placemark>
<name>
Sun Oct 23 17:50:15 2011 S=0.92 Km/hr
</name>
<styleUrl>
#styleMap_TLP_Normal
</styleUrl>
<Point>
<coordinates>
10.7496710,47.5576439,951.31
</coordinates>
</Point>
</Placemark>
<Placemark>
<name>
Sun Oct 23 17:50:20 2011 S=0.59 Km/hr
</name>
<styleUrl>
#styleMap_TLP_Normal
</styleUrl>
<Point>
<coordinates>
10.7496576,47.5576363,950.83
</coordinates>
</Point>
</Placemark>
<Placemark>
<name>
Sun Oct 23 17:50:25 2011 S=2.00 Km/hr
</name>
<styleUrl>
#styleMap_TLP_Normal
</styleUrl>
<Point>
<coordinates>
10.7496891,47.5576324,950.94
</coordinates>
</Point>
</Placemark>
<Placemark>
<name>
Sun Oct 23 17:50:30 2011 S=1.27 Km/hr
</name>
<styleUrl>
#styleMap_TLP_Normal
</styleUrl>
<Point>
<coordinates>
10.7496605,47.5576019,951.33
</coordinates>
</Point>
</Placemark>
<Placemark>
<name>
Sun Oct 23 17:50:58 2011 S=0.46 Km/hr
</name>
<styleUrl>
#styleMap_TLP_Normal
</styleUrl>
<Point>
<coordinates>
10.7496653,47.5574150,957.67
</coordinates>
</Point>
</Placemark>
<Placemark>
<name>
Sun Oct 23 17:51:03 2011 S=0.64 Km/hr
</name>
<styleUrl>
#styleMap_TLP_Normal
</styleUrl>
<Point>
<coordinates>
10.7496996,47.5574226,957.64
</coordinates>
</Point>
</Placemark>
<Placemark>
<name>
Sun Oct 23 17:51:08 2011 S=1.41 Km/hr
</name>
<styleUrl>
#styleMap_TLP_Normal
</styleUrl>
<Point>
<coordinates>
10.7496786,47.5573997,957.63
</coordinates>
</Point>
</Placemark>
<Placemark>
<name>
Sun Oct 23 17:51:13 2011 S=2.87 Km/hr
</name>
<styleUrl>
#styleMap_TLP_Normal
</styleUrl>
<Point>
<coordinates>
10.7496815,47.5573349,957.63
</coordinates>
</Point>
</Placemark>
<Placemark>
<name>
Sun Oct 23 17:51:18 2011 S=0.59 Km/hr
</name>
<styleUrl>
#styleMap_TLP_Normal
</styleUrl>
<Point>
<coordinates>
10.7496824,47.5573235,957.59
</coordinates>
</Point>
</Placemark>
<Placemark>
<name>
Sun Oct 23 17:51:23 2011 S=1.34 Km/hr
</name>
<styleUrl>
#styleMap_TLP_Normal
</styleUrl>
<Point>
<coordinates>
10.7497139,47.5573349,957.58
</coordinates>
</Point>
</Placemark>
<Placemark>
<name>
Sun Oct 23 17:51:28 2011 S=2.46 Km/hr
</name>
<styleUrl>
#styleMap_TLP_Normal
</styleUrl>
<Point>
<coordinates>
10.7497616,47.5573578,957.53
</coordinates>
</Point>
</Placemark>
<Placemark>
<name>
Sun Oct 23 17:51:33 2011 S=2.94 Km/hr
</name>
<styleUrl>
#styleMap_TLP_Normal
</styleUrl>
<Point>
<coordinates>
10.7497845,47.5573883,957.48
</coordinates>
</Point>
</Placemark>
<Placemark>
<name>
Sun Oct 23 17:52:01 2011 S=3.33 Km/hr
</name>
<styleUrl>
#styleMap_TLP_Normal
</styleUrl>
<Point>
<coordinates>
10.7491274,47.5585136,957.52
</coordinates>
</Point>
</Placemark>
<Placemark>
<name>
Sun Oct 23 17:52:06 2011 S=4.21 Km/hr
</name>
<styleUrl>
#styleMap_TLP_Normal
</styleUrl>
<Point>
<coordinates>
10.7491283,47.5584106,957.53
</coordinates>
</Point>
</Placemark>
<Placemark>
<name>
Sun Oct 23 17:52:11 2011 S=4.33 Km/hr
</name>
<styleUrl>
#styleMap_TLP_Normal
</styleUrl>
<Point>
<coordinates>
10.7491713,47.5583267,957.55
</coordinates>
</Point>
</Placemark>
<Placemark>
<name>
Sun Oct 23 17:52:16 2011 S=5.11 Km/hr
</name>
<styleUrl>
#styleMap_TLP_Normal
</styleUrl>
<Point>
<coordinates>
10.7492599,47.5581894,957.55
</coordinates>
</Point>
</Placemark>
<Placemark>
<name>
Sun Oct 23 17:52:21 2011 S=4.37 Km/hr
</name>
<styleUrl>
#styleMap_TLP_Normal
</styleUrl>
<Point>
<coordinates>
10.7492504,47.5580177,957.55
</coordinates>
</Point>
</Placemark>
<Placemark>
<name>
Sun Oct 23 17:52:26 2011 S=4.32 Km/hr
</name>
<styleUrl>
#styleMap_TLP_Normal
</styleUrl>
<Point>
<coordinates>
10.7492304,47.5578804,957.55
</coordinates>
</Point>
</Placemark>
<Placemark>
<name>
Sun Oct 23 17:52:31 2011 S=8.80 Km/hr
</name>
<styleUrl>
#styleMap_TLP_Normal
</styleUrl>
<Point>
<coordinates>
10.7491732,47.5576324,957.56
</coordinates>
</Point>
</Placemark>
<Placemark>
<name>
Sun Oct 23 17:52:36 2011 S=10.06 Km/hr
</name>
<styleUrl>
#styleMap_TLP_Normal
</styleUrl>
<Point>
<coordinates>
10.7491722,47.5573540,957.58
</coordinates>
</Point>
</Placemark>
<Placemark>
<name>
Sun Oct 23 17:52:41 2011 S=12.18 Km/hr
</name>
<styleUrl>
#styleMap_TLP_Normal
</styleUrl>
<Point>
<coordinates>
10.7491913,47.5570755,957.58
</coordinates>
</Point>
</Placemark>
<Placemark>
<name>
Sun Oct 23 17:52:46 2011 S=10.25 Km/hr
</name>
<styleUrl>
#styleMap_TLP_Normal
</styleUrl>
<Point>
<coordinates>
10.7491941,47.5569420,957.59
</coordinates>
</Point>
</Placemark>
<Placemark>
<name>
Sun Oct 23 17:52:51 2011 S=7.71 Km/hr
</name>
<styleUrl>
#styleMap_TLP_Normal
</styleUrl>
<Point>
<coordinates>
10.7491817,47.5569878,957.59
</coordinates>
</Point>
</Placemark>
<Placemark>
<name>
Sun Oct 23 17:52:56 2011 S=3.78 Km/hr
</name>
<styleUrl>
#styleMap_TLP_Normal
</styleUrl>
<Point>
<coordinates>
10.7492132,47.5571060,957.58
</coordinates>
</Point>
</Placemark>
<Placemark>
<name>
Sun Oct 23 17:53:01 2011 S=4.39 Km/hr
</name>
<styleUrl>
#styleMap_TLP_Normal
</styleUrl>
<Point>
<coordinates>
10.7492418,47.5570412,957.56
</coordinates>
</Point>
</Placemark>
<Placemark>
<name>
Sun Oct 23 17:53:06 2011 S=1.90 Km/hr
</name>
<styleUrl>
#styleMap_TLP_Normal
</styleUrl>
<Point>
<coordinates>
10.7492809,47.5571480,957.55
</coordinates>
</Point>
</Placemark>
<Placemark>
<name>
Sun Oct 23 17:53:11 2011 S=2.35 Km/hr
</name>
<styleUrl>
#styleMap_TLP_Normal
</styleUrl>
<Point>
<coordinates>
10.7492352,47.5572701,957.53
</coordinates>
</Point>
</Placemark>
<Placemark>
<name>
Sun Oct 23 17:53:16 2011 S=5.46 Km/hr
</name>
<styleUrl>
#styleMap_TLP_Normal
</styleUrl>
<Point>
<coordinates>
10.7491999,47.5575562,957.52
</coordinates>
</Point>
</Placemark>
<Placemark>
<name>
Sun Oct 23 17:53:21 2011 S=5.07 Km/hr
</name>
<styleUrl>
#styleMap_TLP_Normal
</styleUrl>
<Point>
<coordinates>
10.7491493,47.5577545,957.48
</coordinates>
</Point>
</Placemark>
<Placemark>
<name>
Sun Oct 23 17:53:26 2011 S=7.79 Km/hr
</name>
<styleUrl>
#styleMap_TLP_Normal
</styleUrl>
<Point>
<coordinates>
10.7491446,47.5579643,957.47
</coordinates>
</Point>
</Placemark>
<Placemark>
<name>
Sun Oct 23 17:53:31 2011 S=12.30 Km/hr
</name>
<styleUrl>
#styleMap_TLP_Normal
</styleUrl>
<Point>
<coordinates>
10.7490969,47.5583534,957.42
</coordinates>
</Point>
</Placemark>
<Placemark>
<name>
Sun Oct 23 17:53:36 2011 S=14.98 Km/hr
</name>
<styleUrl>
#styleMap_TLP_Normal
</styleUrl>
<Point>
<coordinates>
10.7489538,47.5587044,957.41
</coordinates>
</Point>
</Placemark>
<Placemark>
<name>
Sun Oct 23 17:53:41 2011 S=21.74 Km/hr
</name>
<styleUrl>
#styleMap_TLP_Normal
</styleUrl>
<Point>
<coordinates>
10.7487583,47.5592499,957.36
</coordinates>
</Point>
</Placemark>
<Placemark>
<name>
Sun Oct 23 17:58:57 2011 S=0.53 Km/hr
</name>
<styleUrl>
#styleMap_TLP_Normal
</styleUrl>
<Point>
<coordinates>
10.7491636,47.5561256,1327.50
</coordinates>
</Point>
</Placemark>
<Placemark>
<name>
Sun Oct 23 17:59:02 2011 S=3.20 Km/hr
</name>
<styleUrl>
#styleMap_TLP_Normal
</styleUrl>
<Point>
<coordinates>
10.7492142,47.5561028,1350.09
</coordinates>
</Point>
</Placemark>
<Placemark>
<name>
Sun Oct 23 17:59:07 2011 S=3.19 Km/hr
</name>
<styleUrl>
#styleMap_TLP_Normal
</styleUrl>
<Point>
<coordinates>
10.7492018,47.5561905,1351.78
</coordinates>
</Point>
</Placemark>
<Placemark>
<name>
Sun Oct 23 17:59:12 2011 S=1.56 Km/hr
</name>
<styleUrl>
#styleMap_TLP_Normal
</styleUrl>
<Point>
<coordinates>
10.7492065,47.5562477,1350.91
</coordinates>
</Point>
</Placemark>
<Placemark>
<name>
Sun Oct 23 17:59:22 2011 S=1.50 Km/hr
</name>
<styleUrl>
#styleMap_TLP_Normal
</styleUrl>
<Point>
<coordinates>
10.7491531,47.5563316,1349.66
</coordinates>
</Point>
</Placemark>
<Placemark>
<name>
Sun Oct 23 18:05:19 2011 S=0.72 Km/hr
</name>
<styleUrl>
#styleMap_TLP_Normal
</styleUrl>
<Point>
<coordinates>
10.7501726,47.5580559,892.14
</coordinates>
</Point>
</Placemark>
<Placemark>
<name>
Sun Oct 23 18:05:24 2011 S=1.32 Km/hr
</name>
<styleUrl>
#styleMap_TLP_Normal
</styleUrl>
<Point>
<coordinates>
10.7497454,47.5577164,939.17
</coordinates>
</Point>
</Placemark>
<Placemark>
<name>
Sun Oct 23 18:05:29 2011 S=0.75 Km/hr
</name>
<styleUrl>
#styleMap_TLP_Normal
</styleUrl>
<Point>
<coordinates>
10.7494755,47.5576057,955.11
</coordinates>
</Point>
</Placemark>
<Placemark>
<name>
Sun Oct 23 18:05:34 2011 S=1.26 Km/hr
</name>
<styleUrl>
#styleMap_TLP_Normal
</styleUrl>
<Point>
<coordinates>
10.7494850,47.5575867,956.47
</coordinates>
</Point>
</Placemark>
<Placemark>
<name>
Sun Oct 23 18:05:39 2011 S=2.34 Km/hr
</name>
<styleUrl>
#styleMap_TLP_Normal
</styleUrl>
<Point>
<coordinates>
10.7495184,47.5576019,956.84
</coordinates>
</Point>
</Placemark>
<Placemark>
<name>
Sun Oct 23 18:05:44 2011 S=1.41 Km/hr
</name>
<styleUrl>
#styleMap_TLP_Normal
</styleUrl>
<Point>
<coordinates>
10.7495394,47.5575829,957.03
</coordinates>
</Point>
</Placemark>
<Placemark>
<name>
Sun Oct 23 18:05:49 2011 S=2.07 Km/hr
</name>
<styleUrl>
#styleMap_TLP_Normal
</styleUrl>
<Point>
<coordinates>
10.7495165,47.5575905,957.25
</coordinates>
</Point>
</Placemark>
<Placemark>
<name>
Sun Oct 23 18:05:54 2011 S=0.64 Km/hr
</name>
<styleUrl>
#styleMap_TLP_Normal
</styleUrl>
<Point>
<coordinates>
10.7495041,47.5575943,957.36
</coordinates>
</Point>
</Placemark>
<Placemark>
<name>
Sun Oct 23 18:05:59 2011 S=1.94 Km/hr
</name>
<styleUrl>
#styleMap_TLP_Normal
</styleUrl>
<Point>
<coordinates>
10.7494373,47.5575790,957.42
</coordinates>
</Point>
</Placemark>
<Placemark>
<name>
Sun Oct 23 18:06:04 2011 S=2.21 Km/hr
</name>
<styleUrl>
#styleMap_TLP_Normal
</styleUrl>
<Point>
<coordinates>
10.7493706,47.5575523,957.47
</coordinates>
</Point>
</Placemark>
<Placemark>
<name>
Sun Oct 23 18:06:09 2011 S=2.45 Km/hr
</name>
<styleUrl>
#styleMap_TLP_Normal
</styleUrl>
<Point>
<coordinates>
10.7493124,47.5575180,957.50
</coordinates>
</Point>
</Placemark>
<Placemark>
<name>
Sun Oct 23 18:06:14 2011 S=0.29 Km/hr
</name>
<styleUrl>
#styleMap_TLP_Normal
</styleUrl>
<Point>
<coordinates>
10.7493343,47.5575447,957.53
</coordinates>
</Point>
</Placemark>
<Placemark>
<name>
Sun Oct 23 18:06:19 2011 S=1.77 Km/hr
</name>
<styleUrl>
#styleMap_TLP_Normal
</styleUrl>
<Point>
<coordinates>
10.7493010,47.5574951,957.55
</coordinates>
</Point>
</Placemark>
<Placemark>
<name>
Sun Oct 23 18:06:24 2011 S=0.70 Km/hr
</name>
<styleUrl>
#styleMap_TLP_Normal
</styleUrl>
<Point>
<coordinates>
10.7493324,47.5575333,957.56
</coordinates>
</Point>
</Placemark>
<Placemark>
<name>
Sun Oct 23 18:06:29 2011 S=1.69 Km/hr
</name>
<styleUrl>
#styleMap_TLP_Normal
</styleUrl>
<Point>
<coordinates>
10.7492981,47.5574989,957.58
</coordinates>
</Point>
</Placemark>
<Placemark>
<name>
Sun Oct 23 18:06:38 2011 S=3.22 Km/hr
</name>
<styleUrl>
#styleMap_TLP_Normal
</styleUrl>
<Point>
<coordinates>
10.7493744,47.5574379,957.59
</coordinates>
</Point>
</Placemark>
<Placemark>
<name>
Sun Oct 23 18:06:43 2011 S=3.81 Km/hr
</name>
<styleUrl>
#styleMap_TLP_Normal
</styleUrl>
<Point>
<coordinates>
10.7496681,47.5574951,957.58
</coordinates>
</Point>
</Placemark>
<Placemark>
<name>
Sun Oct 23 18:10:04 2011 S=1.03 Km/hr
</name>
<styleUrl>
#styleMap_TLP_Normal
</styleUrl>
<Point>
<coordinates>
10.7487230,47.5562630,642.53
</coordinates>
</Point>
</Placemark>
<Placemark>
<name>
Sun Oct 23 18:36:52 2011 S=0.81 Km/hr
</name>
<styleUrl>
#styleMap_TLP_Normal
</styleUrl>
<Point>
<coordinates>
10.7480574,47.5604324,617.73
</coordinates>
</Point>
</Placemark>
<Placemark>
<name>
Sun Oct 23 18:36:57 2011 S=2.60 Km/hr
</name>
<styleUrl>
#styleMap_TLP_Normal
</styleUrl>
<Point>
<coordinates>
10.7484989,47.5597725,729.42
</coordinates>
</Point>
</Placemark>
<Placemark>
<name>
Sun Oct 23 18:37:02 2011 S=2.94 Km/hr
</name>
<styleUrl>
#styleMap_TLP_Normal
</styleUrl>
<Point>
<coordinates>
10.7485428,47.5595436,742.31
</coordinates>
</Point>
</Placemark>
<Placemark>
<name>
Sun Oct 23 18:44:23 2011 S=1.87 Km/hr
</name>
<styleUrl>
#styleMap_TLP_Normal
</styleUrl>
<Point>
<coordinates>
10.7505207,47.5568924,958.81
</coordinates>
</Point>
</Placemark>
<Placemark>
<name>
Sun Oct 23 18:44:28 2011 S=1.15 Km/hr
</name>
<styleUrl>
#styleMap_TLP_Normal
</styleUrl>
<Point>
<coordinates>
10.7503262,47.5570793,959.67
</coordinates>
</Point>
</Placemark>
<Placemark>
<name>
Sun Oct 23 18:44:33 2011 S=0.28 Km/hr
</name>
<styleUrl>
#styleMap_TLP_Normal
</styleUrl>
<Point>
<coordinates>
10.7502165,47.5571632,961.36
</coordinates>
</Point>
</Placemark>
<Placemark>
<name>
Sun Oct 23 18:44:38 2011 S=0.61 Km/hr
</name>
<styleUrl>
#styleMap_TLP_Normal
</styleUrl>
<Point>
<coordinates>
10.7499056,47.5574112,961.39
</coordinates>
</Point>
</Placemark>
<Placemark>
<name>
Sun Oct 23 18:44:43 2011 S=0.37 Km/hr
</name>
<styleUrl>
#styleMap_TLP_Normal
</styleUrl>
<Point>
<coordinates>
10.7497883,47.5574951,962.83
</coordinates>
</Point>
</Placemark>
<Placemark>
<name>
Sun Oct 23 18:44:48 2011 S=0.36 Km/hr
</name>
<styleUrl>
#styleMap_TLP_Normal
</styleUrl>
<Point>
<coordinates>
10.7497444,47.5575142,962.47
</coordinates>
</Point>
</Placemark>
<Placemark>
<name>
Sun Oct 23 18:44:53 2011 S=0.23 Km/hr
</name>
<styleUrl>
#styleMap_TLP_Normal
</styleUrl>
<Point>
<coordinates>
10.7496166,47.5575790,961.48
</coordinates>
</Point>
</Placemark>
<Placemark>
<name>
Sun Oct 23 18:44:58 2011 S=0.75 Km/hr
</name>
<styleUrl>
#styleMap_TLP_Normal
</styleUrl>
<Point>
<coordinates>
10.7495432,47.5575867,961.11
</coordinates>
</Point>
</Placemark>
<Placemark>
<name>
Sun Oct 23 18:45:03 2011 S=2.10 Km/hr
</name>
<styleUrl>
#styleMap_TLP_Normal
</styleUrl>
<Point>
<coordinates>
10.7494869,47.5575943,961.03
</coordinates>
</Point>
</Placemark>
<Placemark>
<name>
Sun Oct 23 18:45:08 2011 S=0.86 Km/hr
</name>
<styleUrl>
#styleMap_TLP_Normal
</styleUrl>
<Point>
<coordinates>
10.7494898,47.5576134,961.22
</coordinates>
</Point>
</Placemark>
<Placemark>
<name>
Sun Oct 23 18:45:13 2011 S=0.87 Km/hr
</name>
<styleUrl>
#styleMap_TLP_Normal
</styleUrl>
<Point>
<coordinates>
10.7494802,47.5576172,961.23
</coordinates>
</Point>
</Placemark>
<Placemark>
<name>
Sun Oct 23 18:45:18 2011 S=1.13 Km/hr
</name>
<styleUrl>
#styleMap_TLP_Normal
</styleUrl>
<Point>
<coordinates>
10.7494144,47.5576859,961.14
</coordinates>
</Point>
</Placemark>
<Placemark>
<name>
Sun Oct 23 18:45:23 2011 S=0.74 Km/hr
</name>
<styleUrl>
#styleMap_TLP_Normal
</styleUrl>
<Point>
<coordinates>
10.7493629,47.5577202,961.08
</coordinates>
</Point>
</Placemark>
<Placemark>
<name>
Sun Oct 23 18:45:28 2011 S=0.36 Km/hr
</name>
<styleUrl>
#styleMap_TLP_Normal
</styleUrl>
<Point>
<coordinates>
10.7493677,47.5577240,961.08
</coordinates>
</Point>
</Placemark>
<Placemark>
<name>
Sun Oct 23 18:45:33 2011 S=0.61 Km/hr
</name>
<styleUrl>
#styleMap_TLP_Normal
</styleUrl>
<Point>
<coordinates>
10.7493753,47.5577202,961.08
</coordinates>
</Point>
</Placemark>
<Placemark>
<name>
Sun Oct 23 18:45:38 2011 S=1.37 Km/hr
</name>
<styleUrl>
#styleMap_TLP_Normal
</styleUrl>
<Point>
<coordinates>
10.7493048,47.5577888,961.33
</coordinates>
</Point>
</Placemark>
<Placemark>
<name>
Sun Oct 23 18:45:43 2011 S=1.50 Km/hr
</name>
<styleUrl>
#styleMap_TLP_Normal
</styleUrl>
<Point>
<coordinates>
10.7493124,47.5578079,961.23
</coordinates>
</Point>
</Placemark>
<Placemark>
<name>
Sun Oct 23 18:45:48 2011 S=0.81 Km/hr
</name>
<styleUrl>
#styleMap_TLP_Normal
</styleUrl>
<Point>
<coordinates>
10.7493181,47.5578346,961.17
</coordinates>
</Point>
</Placemark>
<Placemark>
<name>
Sun Oct 23 18:45:53 2011 S=0.05 Km/hr
</name>
<styleUrl>
#styleMap_TLP_Normal
</styleUrl>
<Point>
<coordinates>
10.7493353,47.5578079,959.86
</coordinates>
</Point>
</Placemark>
<Placemark>
<name>
Sun Oct 23 18:45:58 2011 S=0.23 Km/hr
</name>
<styleUrl>
#styleMap_TLP_Normal
</styleUrl>
<Point>
<coordinates>
10.7493324,47.5578041,959.80
</coordinates>
</Point>
</Placemark>
<Placemark>
<name>
Sun Oct 23 18:46:03 2011 S=0.30 Km/hr
</name>
<styleUrl>
#styleMap_TLP_Normal
</styleUrl>
<Point>
<coordinates>
10.7493305,47.5578041,959.72
</coordinates>
</Point>
</Placemark>
<Placemark>
<name>
Sun Oct 23 18:46:08 2011 S=0.17 Km/hr
</name>
<styleUrl>
#styleMap_TLP_Normal
</styleUrl>
<Point>
<coordinates>
10.7493315,47.5578079,959.58
</coordinates>
</Point>
</Placemark>
<Placemark>
<name>
Sun Oct 23 18:46:13 2011 S=0.30 Km/hr
</name>
<styleUrl>
#styleMap_TLP_Normal
</styleUrl>
<Point>
<coordinates>
10.7493305,47.5578079,959.47
</coordinates>
</Point>
</Placemark>
<Placemark>
<name>
Sun Oct 23 18:46:18 2011 S=0.01 Km/hr
</name>
<styleUrl>
#styleMap_TLP_Normal
</styleUrl>
<Point>
<coordinates>
10.7493315,47.5578079,959.41
</coordinates>
</Point>
</Placemark>
<Placemark>
<name>
Sun Oct 23 18:46:23 2011 S=0.02 Km/hr
</name>
<styleUrl>
#styleMap_TLP_Normal
</styleUrl>
<Point>
<coordinates>
10.7493315,47.5578079,959.36
</coordinates>
</Point>
</Placemark>
<Placemark>
<name>
Sun Oct 23 18:46:28 2011 S=0.01 Km/hr
</name>
<styleUrl>
#styleMap_TLP_Normal
</styleUrl>
<Point>
<coordinates>
10.7493315,47.5578079,959.31
</coordinates>
</Point>
</Placemark>
<Placemark>
<name>
Sun Oct 23 18:46:33 2011 S=0.00 Km/hr
</name>
<styleUrl>
#styleMap_TLP_Normal
</styleUrl>
<Point>
<coordinates>
10.7493305,47.5578079,959.31
</coordinates>
</Point>
</Placemark>
<Placemark>
<name>
Sun Oct 23 18:46:38 2011 S=0.00 Km/hr
</name>
<styleUrl>
#styleMap_TLP_Normal
</styleUrl>
<Point>
<coordinates>
10.7493305,47.5578079,959.30
</coordinates>
</Point>
</Placemark>
<Placemark>
<name>
Sun Oct 23 18:46:43 2011 S=0.00 Km/hr
</name>
<styleUrl>
#styleMap_TLP_Normal
</styleUrl>
<Point>
<coordinates>
10.7493305,47.5578079,959.30
</coordinates>
</Point>
</Placemark>
<Placemark>
<name>
Sun Oct 23 18:46:48 2011 S=0.01 Km/hr
</name>
<styleUrl>
#styleMap_TLP_Normal
</styleUrl>
<Point>
<coordinates>
10.7493296,47.5578079,959.31
</coordinates>
</Point>
</Placemark>
<Placemark>
<name>
Sun Oct 23 18:46:53 2011 S=0.01 Km/hr
</name>
<styleUrl>
#styleMap_TLP_Normal
</styleUrl>
<Point>
<coordinates>
10.7493296,47.5578079,959.31
</coordinates>
</Point>
</Placemark>
<Placemark>
<name>
Sun Oct 23 18:46:58 2011 S=0.03 Km/hr
</name>
<styleUrl>
#styleMap_TLP_Normal
</styleUrl>
<Point>
<coordinates>
10.7493286,47.5578079,959.33
</coordinates>
</Point>
</Placemark>
<Placemark>
<name>
Sun Oct 23 18:47:03 2011 S=0.00 Km/hr
</name>
<styleUrl>
#styleMap_TLP_Normal
</styleUrl>
<Point>
<coordinates>
10.7493277,47.5578079,959.33
</coordinates>
</Point>
</Placemark>
<Placemark>
<name>
Sun Oct 23 18:47:08 2011 S=0.00 Km/hr
</name>
<styleUrl>
#styleMap_TLP_Normal
</styleUrl>
<Point>
<coordinates>
10.7493277,47.5578079,959.33
</coordinates>
</Point>
</Placemark>
<Placemark>
<name>
Sun Oct 23 18:47:13 2011 S=0.01 Km/hr
</name>
<styleUrl>
#styleMap_TLP_Normal
</styleUrl>
<Point>
<coordinates>
10.7493277,47.5578079,959.36
</coordinates>
</Point>
</Placemark>
<Placemark>
<name>
Sun Oct 23 18:47:18 2011 S=0.01 Km/hr
</name>
<styleUrl>
#styleMap_TLP_Normal
</styleUrl>
<Point>
<coordinates>
10.7493258,47.5578117,959.38
</coordinates>
</Point>
</Placemark>
<Placemark>
<name>
Sun Oct 23 18:47:23 2011 S=0.01 Km/hr
</name>
<styleUrl>
#styleMap_TLP_Normal
</styleUrl>
<Point>
<coordinates>
10.7493248,47.5578117,959.38
</coordinates>
</Point>
</Placemark>
<Placemark>
<name>
Sun Oct 23 18:47:28 2011 S=0.00 Km/hr
</name>
<styleUrl>
#styleMap_TLP_Normal
</styleUrl>
<Point>
<coordinates>
10.7493258,47.5578079,959.38
</coordinates>
</Point>
</Placemark>
<Placemark>
<name>
Sun Oct 23 18:47:33 2011 S=0.00 Km/hr
</name>
<styleUrl>
#styleMap_TLP_Normal
</styleUrl>
<Point>
<coordinates>
10.7493258,47.5578117,959.36
</coordinates>
</Point>
</Placemark>
<Placemark>
<name>
Sun Oct 23 18:47:38 2011 S=0.01 Km/hr
</name>
<styleUrl>
#styleMap_TLP_Normal
</styleUrl>
<Point>
<coordinates>
10.7493258,47.5578117,959.36
</coordinates>
</Point>
</Placemark>
<Placemark>
<name>
Sun Oct 23 18:47:43 2011 S=0.00 Km/hr
</name>
<styleUrl>
#styleMap_TLP_Normal
</styleUrl>
<Point>
<coordinates>
10.7493258,47.5578117,959.36
</coordinates>
</Point>
</Placemark>
<Placemark>
<name>
Sun Oct 23 18:47:48 2011 S=0.00 Km/hr
</name>
<styleUrl>
#styleMap_TLP_Normal
</styleUrl>
<Point>
<coordinates>
10.7493258,47.5578117,959.36
</coordinates>
</Point>
</Placemark>
<Placemark>
<name>
Sun Oct 23 18:47:53 2011 S=0.00 Km/hr
</name>
<styleUrl>
#styleMap_TLP_Normal
</styleUrl>
<Point>
<coordinates>
10.7493258,47.5578079,959.36
</coordinates>
</Point>
</Placemark>
<Placemark>
<name>
Sun Oct 23 18:47:58 2011 S=0.01 Km/hr
</name>
<styleUrl>
#styleMap_TLP_Normal
</styleUrl>
<Point>
<coordinates>
10.7493258,47.5578079,959.36
</coordinates>
</Point>
</Placemark>
<Placemark>
<name>
Sun Oct 23 18:48:03 2011 S=0.01 Km/hr
</name>
<styleUrl>
#styleMap_TLP_Normal
</styleUrl>
<Point>
<coordinates>
10.7493258,47.5578079,959.36
</coordinates>
</Point>
</Placemark>
<Placemark>
<name>
Sun Oct 23 18:48:08 2011 S=0.01 Km/hr
</name>
<styleUrl>
#styleMap_TLP_Normal
</styleUrl>
<Point>
<coordinates>
10.7493248,47.5578079,959.36
</coordinates>
</Point>
</Placemark>
<Placemark>
<name>
Sun Oct 23 18:48:13 2011 S=0.00 Km/hr
</name>
<styleUrl>
#styleMap_TLP_Normal
</styleUrl>
<Point>
<coordinates>
10.7493248,47.5578079,959.36
</coordinates>
</Point>
</Placemark>
<Placemark>
<name>
Sun Oct 23 18:48:18 2011 S=0.01 Km/hr
</name>
<styleUrl>
#styleMap_TLP_Normal
</styleUrl>
<Point>
<coordinates>
10.7493238,47.5578079,959.34
</coordinates>
</Point>
</Placemark>
<Placemark>
<name>
Sun Oct 23 18:48:23 2011 S=0.01 Km/hr
</name>
<styleUrl>
#styleMap_TLP_Normal
</styleUrl>
<Point>
<coordinates>
10.7493238,47.5578117,959.34
</coordinates>
</Point>
</Placemark>
<Placemark>
<name>
Sun Oct 23 18:48:28 2011 S=0.02 Km/hr
</name>
<styleUrl>
#styleMap_TLP_Normal
</styleUrl>
<Point>
<coordinates>
10.7493248,47.5578117,959.34
</coordinates>
</Point>
</Placemark>
<Placemark>
<name>
Sun Oct 23 18:48:33 2011 S=0.02 Km/hr
</name>
<styleUrl>
#styleMap_TLP_Normal
</styleUrl>
<Point>
<coordinates>
10.7493248,47.5578117,959.34
</coordinates>
</Point>
</Placemark>
<Placemark>
<name>
Sun Oct 23 18:48:38 2011 S=0.00 Km/hr
</name>
<styleUrl>
#styleMap_TLP_Normal
</styleUrl>
<Point>
<coordinates>
10.7493248,47.5578117,959.34
</coordinates>
</Point>
</Placemark>
<Placemark>
<name>
Sun Oct 23 18:48:43 2011 S=0.01 Km/hr
</name>
<styleUrl>
#styleMap_TLP_Normal
</styleUrl>
<Point>
<coordinates>
10.7493248,47.5578117,959.33
</coordinates>
</Point>
</Placemark>
<Placemark>
<name>
Sun Oct 23 18:48:48 2011 S=0.02 Km/hr
</name>
<styleUrl>
#styleMap_TLP_Normal
</styleUrl>
<Point>
<coordinates>
10.7493258,47.5578079,959.33
</coordinates>
</Point>
</Placemark>
<Placemark>
<name>
Sun Oct 23 18:48:53 2011 S=0.01 Km/hr
</name>
<styleUrl>
#styleMap_TLP_Normal
</styleUrl>
<Point>
<coordinates>
10.7493258,47.5578079,959.33
</coordinates>
</Point>
</Placemark>
<Placemark>
<name>
Sun Oct 23 18:48:58 2011 S=0.01 Km/hr
</name>
<styleUrl>
#styleMap_TLP_Normal
</styleUrl>
<Point>
<coordinates>
10.7493248,47.5578079,959.31
</coordinates>
</Point>
</Placemark>
<Placemark>
<name>
Sun Oct 23 18:49:03 2011 S=0.01 Km/hr
</name>
<styleUrl>
#styleMap_TLP_Normal
</styleUrl>
<Point>
<coordinates>
10.7493258,47.5578079,959.30
</coordinates>
</Point>
</Placemark>
<Placemark>
<name>
Sun Oct 23 18:49:08 2011 S=0.00 Km/hr
</name>
<styleUrl>
#styleMap_TLP_Normal
</styleUrl>
<Point>
<coordinates>
10.7493258,47.5578079,959.28
</coordinates>
</Point>
</Placemark>
<Placemark>
<name>
Sun Oct 23 18:49:13 2011 S=0.00 Km/hr
</name>
<styleUrl>
#styleMap_TLP_Normal
</styleUrl>
<Point>
<coordinates>
10.7493258,47.5578079,959.28
</coordinates>
</Point>
</Placemark>
<Placemark>
<name>
Sun Oct 23 18:49:18 2011 S=0.00 Km/hr
</name>
<styleUrl>
#styleMap_TLP_Normal
</styleUrl>
<Point>
<coordinates>
10.7493248,47.5578079,959.28
</coordinates>
</Point>
</Placemark>
<Placemark>
<name>
Sun Oct 23 18:49:23 2011 S=0.01 Km/hr
</name>
<styleUrl>
#styleMap_TLP_Normal
</styleUrl>
<Point>
<coordinates>
10.7493248,47.5578079,959.28
</coordinates>
</Point>
</Placemark>
<Placemark>
<name>
Sun Oct 23 18:49:28 2011 S=0.01 Km/hr
</name>
<styleUrl>
#styleMap_TLP_Normal
</styleUrl>
<Point>
<coordinates>
10.7493248,47.5578041,959.28
</coordinates>
</Point>
</Placemark>
<Placemark>
<name>
Sun Oct 23 18:49:33 2011 S=0.02 Km/hr
</name>
<styleUrl>
#styleMap_TLP_Normal
</styleUrl>
<Point>
<coordinates>
10.7493248,47.5578041,959.28
</coordinates>
</Point>
</Placemark>
<Placemark>
<name>
Sun Oct 23 18:49:38 2011 S=0.02 Km/hr
</name>
<styleUrl>
#styleMap_TLP_Normal
</styleUrl>
<Point>
<coordinates>
10.7493248,47.5578041,959.28
</coordinates>
</Point>
</Placemark>
<Placemark>
<name>
Sun Oct 23 18:49:43 2011 S=0.01 Km/hr
</name>
<styleUrl>
#styleMap_TLP_Normal
</styleUrl>
<Point>
<coordinates>
10.7493248,47.5578041,959.30
</coordinates>
</Point>
</Placemark>
<Placemark>
<name>
Sun Oct 23 18:49:48 2011 S=0.00 Km/hr
</name>
<styleUrl>
#styleMap_TLP_Normal
</styleUrl>
<Point>
<coordinates>
10.7493248,47.5578041,959.28
</coordinates>
</Point>
</Placemark>
<Placemark>
<name>
Sun Oct 23 18:49:53 2011 S=0.02 Km/hr
</name>
<styleUrl>
#styleMap_TLP_Normal
</styleUrl>
<Point>
<coordinates>
10.7493248,47.5578041,959.28
</coordinates>
</Point>
</Placemark>
<Placemark>
<name>
Sun Oct 23 18:49:58 2011 S=0.00 Km/hr
</name>
<styleUrl>
#styleMap_TLP_Normal
</styleUrl>
<Point>
<coordinates>
10.7493258,47.5578079,959.28
</coordinates>
</Point>
</Placemark>
<Placemark>
<name>
Sun Oct 23 18:50:03 2011 S=0.01 Km/hr
</name>
<styleUrl>
#styleMap_TLP_Normal
</styleUrl>
<Point>
<coordinates>
10.7493258,47.5578079,959.28
</coordinates>
</Point>
</Placemark>
<Placemark>
<name>
Sun Oct 23 18:50:08 2011 S=0.01 Km/hr
</name>
<styleUrl>
#styleMap_TLP_Normal
</styleUrl>
<Point>
<coordinates>
10.7493258,47.5578079,959.28
</coordinates>
</Point>
</Placemark>
<Placemark>
<name>
Sun Oct 23 18:50:13 2011 S=0.01 Km/hr
</name>
<styleUrl>
#styleMap_TLP_Normal
</styleUrl>
<Point>
<coordinates>
10.7493248,47.5578079,959.28
</coordinates>
</Point>
</Placemark>
<Placemark>
<name>
Sun Oct 23 18:50:18 2011 S=0.01 Km/hr
</name>
<styleUrl>
#styleMap_TLP_Normal
</styleUrl>
<Point>
<coordinates>
10.7493258,47.5578079,959.28
</coordinates>
</Point>
</Placemark>
<Placemark>
<name>
Sun Oct 23 18:50:23 2011 S=0.01 Km/hr
</name>
<styleUrl>
#styleMap_TLP_Normal
</styleUrl>
<Point>
<coordinates>
10.7493258,47.5578079,959.28
</coordinates>
</Point>
</Placemark>
<Placemark>
<name>
Sun Oct 23 18:50:28 2011 S=0.02 Km/hr
</name>
<styleUrl>
#styleMap_TLP_Normal
</styleUrl>
<Point>
<coordinates>
10.7493258,47.5578079,959.27
</coordinates>
</Point>
</Placemark>
<Placemark>
<name>
Sun Oct 23 18:50:33 2011 S=0.02 Km/hr
</name>
<styleUrl>
#styleMap_TLP_Normal
</styleUrl>
<Point>
<coordinates>
10.7493258,47.5578117,959.28
</coordinates>
</Point>
</Placemark>
<Placemark>
<name>
Sun Oct 23 18:50:38 2011 S=0.01 Km/hr
</name>
<styleUrl>
#styleMap_TLP_Normal
</styleUrl>
<Point>
<coordinates>
10.7493267,47.5578117,959.30
</coordinates>
</Point>
</Placemark>
<Placemark>
<name>
Sun Oct 23 18:50:43 2011 S=0.01 Km/hr
</name>
<styleUrl>
#styleMap_TLP_Normal
</styleUrl>
<Point>
<coordinates>
10.7493267,47.5578117,959.31
</coordinates>
</Point>
</Placemark>
<Placemark>
<name>
Sun Oct 23 18:50:48 2011 S=0.01 Km/hr
</name>
<styleUrl>
#styleMap_TLP_Normal
</styleUrl>
<Point>
<coordinates>
10.7493267,47.5578117,959.30
</coordinates>
</Point>
</Placemark>
<Placemark>
<name>
Sun Oct 23 18:50:53 2011 S=0.00 Km/hr
</name>
<styleUrl>
#styleMap_TLP_Normal
</styleUrl>
<Point>
<coordinates>
10.7493277,47.5578117,959.28
</coordinates>
</Point>
</Placemark>
<Placemark>
<name>
Sun Oct 23 18:50:58 2011 S=0.00 Km/hr
</name>
<styleUrl>
#styleMap_TLP_Normal
</styleUrl>
<Point>
<coordinates>
10.7493277,47.5578117,959.28
</coordinates>
</Point>
</Placemark>
<Placemark>
<name>
Sun Oct 23 18:51:03 2011 S=0.00 Km/hr
</name>
<styleUrl>
#styleMap_TLP_Normal
</styleUrl>
<Point>
<coordinates>
10.7493277,47.5578117,959.27
</coordinates>
</Point>
</Placemark>
<Placemark>
<name>
Sun Oct 23 18:51:08 2011 S=0.01 Km/hr
</name>
<styleUrl>
#styleMap_TLP_Normal
</styleUrl>
<Point>
<coordinates>
10.7493286,47.5578117,959.27
</coordinates>
</Point>
</Placemark>
<Placemark>
<name>
Sun Oct 23 18:51:13 2011 S=0.01 Km/hr
</name>
<styleUrl>
#styleMap_TLP_Normal
</styleUrl>
<Point>
<coordinates>
10.7493286,47.5578117,959.28
</coordinates>
</Point>
</Placemark>
<Placemark>
<name>
Sun Oct 23 18:51:18 2011 S=0.01 Km/hr
</name>
<styleUrl>
#styleMap_TLP_Normal
</styleUrl>
<Point>
<coordinates>
10.7493296,47.5578117,959.27
</coordinates>
</Point>
</Placemark>
<Placemark>
<name>
Sun Oct 23 18:51:23 2011 S=0.01 Km/hr
</name>
<styleUrl>
#styleMap_TLP_Normal
</styleUrl>
<Point>
<coordinates>
10.7493305,47.5578156,959.27
</coordinates>
</Point>
</Placemark>
<Placemark>
<name>
Sun Oct 23 18:51:28 2011 S=0.02 Km/hr
</name>
<styleUrl>
#styleMap_TLP_Normal
</styleUrl>
<Point>
<coordinates>
10.7493296,47.5578117,959.28
</coordinates>
</Point>
</Placemark>
<Placemark>
<name>
Sun Oct 23 18:51:33 2011 S=0.01 Km/hr
</name>
<styleUrl>
#styleMap_TLP_Normal
</styleUrl>
<Point>
<coordinates>
10.7493305,47.5578117,959.27
</coordinates>
</Point>
</Placemark>
<Placemark>
<name>
Sun Oct 23 18:51:38 2011 S=0.01 Km/hr
</name>
<styleUrl>
#styleMap_TLP_Normal
</styleUrl>
<Point>
<coordinates>
10.7493315,47.5578117,959.25
</coordinates>
</Point>
</Placemark>
<Placemark>
<name>
Sun Oct 23 18:51:43 2011 S=0.00 Km/hr
</name>
<styleUrl>
#styleMap_TLP_Normal
</styleUrl>
<Point>
<coordinates>
10.7493305,47.5578117,959.23
</coordinates>
</Point>
</Placemark>
<Placemark>
<name>
Sun Oct 23 18:51:48 2011 S=0.01 Km/hr
</name>
<styleUrl>
#styleMap_TLP_Normal
</styleUrl>
<Point>
<coordinates>
10.7493305,47.5578117,959.22
</coordinates>
</Point>
</Placemark>
<Placemark>
<name>
Sun Oct 23 18:51:53 2011 S=0.01 Km/hr
</name>
<styleUrl>
#styleMap_TLP_Normal
</styleUrl>
<Point>
<coordinates>
10.7493305,47.5578117,959.22
</coordinates>
</Point>
</Placemark>
<Placemark>
<name>
Sun Oct 23 18:51:58 2011 S=0.01 Km/hr
</name>
<styleUrl>
#styleMap_TLP_Normal
</styleUrl>
<Point>
<coordinates>
10.7493305,47.5578117,959.20
</coordinates>
</Point>
</Placemark>
<Placemark>
<name>
Sun Oct 23 18:52:03 2011 S=0.02 Km/hr
</name>
<styleUrl>
#styleMap_TLP_Normal
</styleUrl>
<Point>
<coordinates>
10.7493305,47.5578117,959.20
</coordinates>
</Point>
</Placemark>
<Placemark>
<name>
Sun Oct 23 18:52:08 2011 S=0.02 Km/hr
</name>
<styleUrl>
#styleMap_TLP_Normal
</styleUrl>
<Point>
<coordinates>
10.7493305,47.5578079,959.19
</coordinates>
</Point>
</Placemark>
<Placemark>
<name>
Sun Oct 23 18:52:13 2011 S=0.01 Km/hr
</name>
<styleUrl>
#styleMap_TLP_Normal
</styleUrl>
<Point>
<coordinates>
10.7493305,47.5578079,959.19
</coordinates>
</Point>
</Placemark>
<Placemark>
<name>
Sun Oct 23 18:52:18 2011 S=0.01 Km/hr
</name>
<styleUrl>
#styleMap_TLP_Normal
</styleUrl>
<Point>
<coordinates>
10.7493305,47.5578079,959.17
</coordinates>
</Point>
</Placemark>
<Placemark>
<name>
Sun Oct 23 18:52:23 2011 S=0.01 Km/hr
</name>
<styleUrl>
#styleMap_TLP_Normal
</styleUrl>
<Point>
<coordinates>
10.7493315,47.5578079,959.17
</coordinates>
</Point>
</Placemark>
<Placemark>
<name>
Sun Oct 23 18:52:28 2011 S=0.01 Km/hr
</name>
<styleUrl>
#styleMap_TLP_Normal
</styleUrl>
<Point>
<coordinates>
10.7493324,47.5578079,959.17
</coordinates>
</Point>
</Placemark>
<Placemark>
<name>
Sun Oct 23 18:52:33 2011 S=0.01 Km/hr
</name>
<styleUrl>
#styleMap_TLP_Normal
</styleUrl>
<Point>
<coordinates>
10.7493334,47.5578079,959.17
</coordinates>
</Point>
</Placemark>
<Placemark>
<name>
Sun Oct 23 18:52:38 2011 S=0.01 Km/hr
</name>
<styleUrl>
#styleMap_TLP_Normal
</styleUrl>
<Point>
<coordinates>
10.7493343,47.5578079,959.16
</coordinates>
</Point>
</Placemark>
<Placemark>
<name>
Sun Oct 23 18:52:43 2011 S=0.01 Km/hr
</name>
<styleUrl>
#styleMap_TLP_Normal
</styleUrl>
<Point>
<coordinates>
10.7493343,47.5578079,959.16
</coordinates>
</Point>
</Placemark>
<Placemark>
<name>
Sun Oct 23 18:52:48 2011 S=0.01 Km/hr
</name>
<styleUrl>
#styleMap_TLP_Normal
</styleUrl>
<Point>
<coordinates>
10.7493343,47.5578079,959.17
</coordinates>
</Point>
</Placemark>
<Placemark>
<name>
Sun Oct 23 18:52:53 2011 S=0.01 Km/hr
</name>
<styleUrl>
#styleMap_TLP_Normal
</styleUrl>
<Point>
<coordinates>
10.7493382,47.5578079,959.16
</coordinates>
</Point>
</Placemark>
<Placemark>
<name>
Sun Oct 23 18:52:58 2011 S=0.01 Km/hr
</name>
<styleUrl>
#styleMap_TLP_Normal
</styleUrl>
<Point>
<coordinates>
10.7493401,47.5578079,959.14
</coordinates>
</Point>
</Placemark>
<Placemark>
<name>
Sun Oct 23 18:53:03 2011 S=0.24 Km/hr
</name>
<styleUrl>
#styleMap_TLP_Normal
</styleUrl>
<Point>
<coordinates>
10.7493410,47.5578079,959.11
</coordinates>
</Point>
</Placemark>
<Placemark>
<name>
Sun Oct 23 18:53:08 2011 S=0.75 Km/hr
</name>
<styleUrl>
#styleMap_TLP_Normal
</styleUrl>
<Point>
<coordinates>
10.7493696,47.5578156,958.98
</coordinates>
</Point>
</Placemark>
<Placemark>
<name>
Sun Oct 23 18:53:13 2011 S=0.41 Km/hr
</name>
<styleUrl>
#styleMap_TLP_Normal
</styleUrl>
<Point>
<coordinates>
10.7493935,47.5578232,959.13
</coordinates>
</Point>
</Placemark>
<Placemark>
<name>
Sun Oct 23 18:53:18 2011 S=0.68 Km/hr
</name>
<styleUrl>
#styleMap_TLP_Normal
</styleUrl>
<Point>
<coordinates>
10.7493925,47.5578308,959.16
</coordinates>
</Point>
</Placemark>
<Placemark>
<name>
Sun Oct 23 18:53:23 2011 S=0.93 Km/hr
</name>
<styleUrl>
#styleMap_TLP_Normal
</styleUrl>
<Point>
<coordinates>
10.7493925,47.5578384,959.22
</coordinates>
</Point>
</Placemark>
<Placemark>
<name>
Sun Oct 23 18:53:28 2011 S=1.11 Km/hr
</name>
<styleUrl>
#styleMap_TLP_Normal
</styleUrl>
<Point>
<coordinates>
10.7494116,47.5578499,959.00
</coordinates>
</Point>
</Placemark>
<Placemark>
<name>
Sun Oct 23 18:53:33 2011 S=1.42 Km/hr
</name>
<styleUrl>
#styleMap_TLP_Normal
</styleUrl>
<Point>
<coordinates>
10.7494411,47.5578728,958.84
</coordinates>
</Point>
</Placemark>
<Placemark>
<name>
Sun Oct 23 18:53:38 2011 S=0.70 Km/hr
</name>
<styleUrl>
#styleMap_TLP_Normal
</styleUrl>
<Point>
<coordinates>
10.7494698,47.5578880,958.69
</coordinates>
</Point>
</Placemark>
<Placemark>
<name>
Sun Oct 23 18:53:43 2011 S=0.99 Km/hr
</name>
<styleUrl>
#styleMap_TLP_Normal
</styleUrl>
<Point>
<coordinates>
10.7494717,47.5578842,958.72
</coordinates>
</Point>
</Placemark>
<Placemark>
<name>
Sun Oct 23 18:53:48 2011 S=0.54 Km/hr
</name>
<styleUrl>
#styleMap_TLP_Normal
</styleUrl>
<Point>
<coordinates>
10.7494698,47.5578766,958.73
</coordinates>
</Point>
</Placemark>
<Placemark>
<name>
Sun Oct 23 18:53:53 2011 S=1.02 Km/hr
</name>
<styleUrl>
#styleMap_TLP_Normal
</styleUrl>
<Point>
<coordinates>
10.7494669,47.5578651,958.75
</coordinates>
</Point>
</Placemark>
<Placemark>
<name>
Sun Oct 23 18:53:58 2011 S=0.50 Km/hr
</name>
<styleUrl>
#styleMap_TLP_Normal
</styleUrl>
<Point>
<coordinates>
10.7494583,47.5578651,958.73
</coordinates>
</Point>
</Placemark>
<Placemark>
<name>
Sun Oct 23 18:54:03 2011 S=0.16 Km/hr
</name>
<styleUrl>
#styleMap_TLP_Normal
</styleUrl>
<Point>
<coordinates>
10.7494535,47.5578651,958.73
</coordinates>
</Point>
</Placemark>
<Placemark>
<name>
Sun Oct 23 18:54:08 2011 S=0.54 Km/hr
</name>
<styleUrl>
#styleMap_TLP_Normal
</styleUrl>
<Point>
<coordinates>
10.7494593,47.5578613,958.72
</coordinates>
</Point>
</Placemark>
<Placemark>
<name>
Sun Oct 23 18:54:13 2011 S=0.98 Km/hr
</name>
<styleUrl>
#styleMap_TLP_Normal
</styleUrl>
<Point>
<coordinates>
10.7494659,47.5578651,958.70
</coordinates>
</Point>
</Placemark>
<Placemark>
<name>
Sun Oct 23 18:54:18 2011 S=1.24 Km/hr
</name>
<styleUrl>
#styleMap_TLP_Normal
</styleUrl>
<Point>
<coordinates>
10.7494736,47.5578728,958.69
</coordinates>
</Point>
</Placemark>
<Placemark>
<name>
Sun Oct 23 18:54:23 2011 S=1.66 Km/hr
</name>
<styleUrl>
#styleMap_TLP_Normal
</styleUrl>
<Point>
<coordinates>
10.7495356,47.5578918,958.02
</coordinates>
</Point>
</Placemark>
<Placemark>
<name>
Sun Oct 23 18:54:28 2011 S=0.17 Km/hr
</name>
<styleUrl>
#styleMap_TLP_Normal
</styleUrl>
<Point>
<coordinates>
10.7495136,47.5578957,958.47
</coordinates>
</Point>
</Placemark>
<Placemark>
<name>
Sun Oct 23 18:54:33 2011 S=0.20 Km/hr
</name>
<styleUrl>
#styleMap_TLP_Normal
</styleUrl>
<Point>
<coordinates>
10.7495155,47.5578918,958.78
</coordinates>
</Point>
</Placemark>
<Placemark>
<name>
Sun Oct 23 18:54:38 2011 S=1.07 Km/hr
</name>
<styleUrl>
#styleMap_TLP_Normal
</styleUrl>
<Point>
<coordinates>
10.7495155,47.5578995,958.80
</coordinates>
</Point>
</Placemark>
<Placemark>
<name>
Sun Oct 23 18:54:43 2011 S=0.51 Km/hr
</name>
<styleUrl>
#styleMap_TLP_Normal
</styleUrl>
<Point>
<coordinates>
10.7495060,47.5579033,958.80
</coordinates>
</Point>
</Placemark>
<Placemark>
<name>
Sun Oct 23 18:54:48 2011 S=0.03 Km/hr
</name>
<styleUrl>
#styleMap_TLP_Normal
</styleUrl>
<Point>
<coordinates>
10.7494984,47.5578995,958.80
</coordinates>
</Point>
</Placemark>
<Placemark>
<name>
Sun Oct 23 18:54:53 2011 S=0.80 Km/hr
</name>
<styleUrl>
#styleMap_TLP_Normal
</styleUrl>
<Point>
<coordinates>
10.7495031,47.5579033,958.77
</coordinates>
</Point>
</Placemark>
<Placemark>
<name>
Sun Oct 23 18:54:58 2011 S=1.13 Km/hr
</name>
<styleUrl>
#styleMap_TLP_Normal
</styleUrl>
<Point>
<coordinates>
10.7495098,47.5579033,958.77
</coordinates>
</Point>
</Placemark>
<Placemark>
<name>
Sun Oct 23 18:55:03 2011 S=2.33 Km/hr
</name>
<styleUrl>
#styleMap_TLP_Normal
</styleUrl>
<Point>
<coordinates>
10.7495251,47.5579071,958.61
</coordinates>
</Point>
</Placemark>
<Placemark>
<name>
Sun Oct 23 18:55:08 2011 S=2.41 Km/hr
</name>
<styleUrl>
#styleMap_TLP_Normal
</styleUrl>
<Point>
<coordinates>
10.7495947,47.5579185,958.58
</coordinates>
</Point>
</Placemark>
<Placemark>
<name>
Sun Oct 23 18:55:13 2011 S=3.68 Km/hr
</name>
<styleUrl>
#styleMap_TLP_Normal
</styleUrl>
<Point>
<coordinates>
10.7496376,47.5579643,957.80
</coordinates>
</Point>
</Placemark>
<Placemark>
<name>
Sun Oct 23 18:55:18 2011 S=2.67 Km/hr
</name>
<styleUrl>
#styleMap_TLP_Normal
</styleUrl>
<Point>
<coordinates>
10.7496548,47.5579987,957.22
</coordinates>
</Point>
</Placemark>
<Placemark>
<name>
Sun Oct 23 18:55:23 2011 S=2.73 Km/hr
</name>
<styleUrl>
#styleMap_TLP_Normal
</styleUrl>
<Point>
<coordinates>
10.7496843,47.5580482,956.05
</coordinates>
</Point>
</Placemark>
<Placemark>
<name>
Sun Oct 23 18:55:28 2011 S=1.89 Km/hr
</name>
<styleUrl>
#styleMap_TLP_Normal
</styleUrl>
<Point>
<coordinates>
10.7497196,47.5580788,955.19
</coordinates>
</Point>
</Placemark>
<Placemark>
<name>
Sun Oct 23 18:55:33 2011 S=1.26 Km/hr
</name>
<styleUrl>
#styleMap_TLP_Finish
</styleUrl>
<Point>
<coordinates>
10.7497196,47.5581055,954.67
</coordinates>
</Point>
</Placemark>
</Folder>
</Document>
</kml>
