<?xml version="1.0" encoding="UTF-8"?>
<kml xmlns="http://earth.google.com/kml/2.1">
<Document>
<Style id="normalState_TLP_Start">
<IconStyle>
<scale>1.0</scale>
<Icon>
<href>http://maps.google.com/mapfiles/kml/pal4/icon15.png</href>
</Icon>
</IconStyle>
<LabelStyle>
<scale>1.0</scale>
</LabelStyle>
</Style>
<Style id="highlightState_TLP_Start">
<IconStyle>
<scale>1.1</scale>
<Icon>
<href>http://maps.google.com/mapfiles/kml/pal4/icon7.png</href>
</Icon>
</IconStyle>
<LabelStyle>
<scale>1.1</scale>
<color>ff0000ff</color>
</LabelStyle>
</Style>
<StyleMap id="styleMap_TLP_Start">
<Pair>
<key>normal</key>
<styleUrl>#normalState_TLP_Start</styleUrl>
</Pair>
<Pair>
<key>highlight</key>
<styleUrl>#highlightState_TLP_Start</styleUrl>
</Pair>
</StyleMap>
<Style id="normalState_TLP_Finish">
<IconStyle>
<scale>1.0</scale>
<Icon>
<href>http://maps.google.com/mapfiles/kml/pal4/icon15.png</href>
</Icon>
</IconStyle>
<LabelStyle>
<scale>1.0</scale>
</LabelStyle>
</Style>
<Style id="highlightState_TLP_Finish">
<IconStyle>
<scale>1.1</scale>
<Icon>
<href>http://maps.google.com/mapfiles/kml/pal4/icon7.png</href>
</Icon>
</IconStyle>
<LabelStyle>
<scale>1.1</scale>
<color>ff0000ff</color>
</LabelStyle>
</Style>
<StyleMap id="styleMap_TLP_Finish">
<Pair>
<key>normal</key>
<styleUrl>#normalState_TLP_Finish</styleUrl>
</Pair>
<Pair>
<key>highlight</key>
<styleUrl>#highlightState_TLP_Finish</styleUrl>
</Pair>
</StyleMap>
<Style id="normalState_TLP_Normal">
<IconStyle>
<scale>1.0</scale>
<Icon>
<href>http://maps.google.com/mapfiles/kml/pal4/icon31.png</href>
</Icon>
</IconStyle>
<LabelStyle>
<scale>1.0</scale>
</LabelStyle>
</Style>
<Style id="highlightState_TLP_Normal">
<IconStyle>
<scale>1.1</scale>
<Icon>
<href>http://maps.google.com/mapfiles/kml/pal4/icon23.png</href>
</Icon>
</IconStyle>
<LabelStyle>
<scale>1.1</scale>
<color>ff0000ff</color>
</LabelStyle>
</Style>
<StyleMap id="styleMap_TLP_Normal">
<Pair>
<key>normal</key>
<styleUrl>#normalState_TLP_Normal</styleUrl>
</Pair>
<Pair>
<key>highlight</key>
<styleUrl>#highlightState_TLP_Normal</styleUrl>
</Pair>
</StyleMap>
<Style id="normalState_TLP_Photo">
<IconStyle>
<scale>1.0</scale>
<Icon>
<href>http://maps.google.com/mapfiles/kml/pal4/icon46.png</href>
</Icon>
</IconStyle>
<LabelStyle>
<scale>1.0</scale>
</LabelStyle>
</Style>
<Style id="highlightState_TLP_Photo">
<IconStyle>
<scale>1.1</scale>
<Icon>
<href>http://maps.google.com/mapfiles/kml/pal4/icon38.png</href>
</Icon>
</IconStyle>
<LabelStyle>
<scale>1.1</scale>
<color>ff0000ff</color>
</LabelStyle>
</Style>
<StyleMap id="styleMap_TLP_Photo">
<Pair>
<key>normal</key>
<styleUrl>#normalState_TLP_Photo</styleUrl>
</Pair>
<Pair>
<key>highlight</key>
<styleUrl>#highlightState_TLP_Photo</styleUrl>
</Pair>
</StyleMap>
<Style id="roadStyle">
<LineStyle>
<color>ffffff00</color>
<width>6</width>
</LineStyle>
</Style>
<Open>1</Open>
<description>Route</description>
<name>Track Log</name>
<Placemark>
<name>Route</name>
<styleUrl>#roadStyle</styleUrl>
<MultiGeometry>
<LineString>
<coordinates>
121.9164429,25.0976601,24.53 121.9165039,25.0976658,28.52 121.9165039,25.0976658,28.53 121.9165039,25.0976677,28.54 121.9164963,25.0976677,28.55 121.9164963,25.0976448,29.06 121.9164505,25.0975914,29.22 121.9163971,25.0975075,30.27 121.9164047,25.0973225,33.49 121.9164429,25.0971603,35.55 121.9164963,25.0970287,37.56 121.9165573,25.0968800,41.10 121.9166107,25.0967388,43.17 121.9166489,25.0966110,44.42 121.9166870,25.0964775,45.30 121.9167328,25.0963440,46.42 121.9167786,25.0962048,46.68 121.9168015,25.0960312,48.15 121.9168320,25.0958328,50.06 121.9167786,25.0956326,50.79 121.9166183,25.0954533,50.13 121.9163971,25.0952721,50.12 121.9161453,25.0950603,49.43 121.9158936,25.0948067,48.64 121.9156799,25.0945168,47.18 121.9154587,25.0941982,46.27 121.9152527,25.0938663,45.09 121.9150467,25.0935173,43.21 121.9148560,25.0932217,40.33 121.9147568,25.0928993,37.20 121.9147568,25.0924969,37.19 121.9147263,25.0921402,36.16 121.9146042,25.0918331,33.95 121.9144363,25.0915489,30.74 121.9141235,25.0914001,28.57 121.9138412,25.0912991,27.09 121.9136200,25.0911770,25.78 121.9134445,25.0910950,24.07 121.9133301,25.0910225,23.10 121.9132080,25.0909500,21.75 121.9131165,25.0908699,20.97 121.9130249,25.0907822,20.47 121.9129257,25.0906849,20.30 121.9128418,25.0905895,20.27 121.9127426,25.0904808,19.79 121.9126587,25.0903721,20.09 121.9125977,25.0902405,20.29 121.9125214,25.0900841,21.04 121.9124374,25.0899162,25.65 121.9123764,25.0897503,26.62 121.9123383,25.0895615,28.78 121.9122772,25.0893421,30.65 121.9122238,25.0891476,32.00 121.9122009,25.0889053,34.10 121.9122086,25.0886021,37.30 121.9122314,25.0883121,39.30 121.9122467,25.0880394,41.19 121.9122696,25.0877476,42.67 121.9123077,25.0874691,43.83 121.9123383,25.0871773,44.13 121.9123459,25.0868835,43.16 121.9123154,25.0866261,40.64 121.9122620,25.0863514,39.78 121.9122314,25.0860920,38.54 121.9122162,25.0858154,35.79 121.9122238,25.0855007,33.34 121.9123688,25.0851688,35.21 121.9126511,25.0849247,34.33 121.9129486,25.0846500,32.89 121.9132385,25.0843868,30.67 121.9134903,25.0841560,27.17 121.9136581,25.0838718,23.93 121.9137878,25.0835400,24.97 121.9138947,25.0832062,27.25 121.9139862,25.0828705,28.21 121.9140549,25.0825481,28.50 121.9140701,25.0822411,28.16 121.9140625,25.0819359,27.63 121.9140549,25.0816383,27.85 121.9140549,25.0813541,27.63 121.9141006,25.0810795,26.18 121.9141464,25.0808067,25.57 121.9142227,25.0805244,26.65 121.9142914,25.0802422,27.03 121.9143600,25.0799637,28.11 121.9144363,25.0796814,29.73 121.9144897,25.0794220,30.35 121.9145508,25.0791569,28.47 121.9146118,25.0788879,27.48 121.9146652,25.0786304,26.46 121.9147263,25.0783939,25.31 121.9147644,25.0781612,24.73 121.9148026,25.0779057,23.67 121.9148560,25.0776329,23.20 121.9148712,25.0773602,24.89 121.9148560,25.0770817,25.46 121.9148331,25.0767994,25.01 121.9147568,25.0765305,24.31 121.9146729,25.0762711,23.75 121.9146652,25.0760479,23.38 121.9146652,25.0758209,23.00 121.9147034,25.0755692,24.00 121.9148407,25.0753174,24.27 121.9150772,25.0751266,23.79 121.9153214,25.0749493,23.23 121.9155045,25.0746670,23.24 121.9157333,25.0745544,22.47 121.9159622,25.0744438,20.98 121.9161530,25.0743217,19.16 121.9163666,25.0742779,17.56 121.9165878,25.0742836,16.77 121.9168396,25.0742550,15.98 121.9170990,25.0742607,14.96 121.9173508,25.0742493,14.21 121.9176025,25.0742245,13.64 121.9178238,25.0741444,12.68 121.9180450,25.0740223,12.01 121.9182434,25.0738678,11.39 121.9184113,25.0737000,10.56 121.9185410,25.0735397,12.19 121.9186630,25.0733871,12.85 121.9187851,25.0732288,13.87 121.9189148,25.0730743,13.59 121.9190216,25.0728607,13.84 121.9191818,25.0726643,13.91 121.9193726,25.0725002,14.67 121.9196243,25.0723915,15.57 121.9198685,25.0723114,16.23 121.9201202,25.0722122,15.21 121.9204025,25.0721359,15.72 121.9207001,25.0720482,14.40 121.9209824,25.0719433,12.90 121.9212341,25.0718212,12.08 121.9214325,25.0716667,10.81 121.9216156,25.0715275,9.42 121.9218140,25.0713902,8.55 121.9220200,25.0712585,9.42 121.9221725,25.0711174,9.24 121.9223022,25.0709782,10.37 121.9223938,25.0708561,12.26 121.9224472,25.0707073,14.38 121.9225159,25.0705433,16.21 121.9225693,25.0703773,17.77 121.9226532,25.0702190,18.84 121.9227829,25.0700550,20.17 121.9229202,25.0698872,19.44 121.9230423,25.0696487,20.32 121.9231415,25.0694656,21.19 121.9232025,25.0693092,20.99 121.9232330,25.0691109,20.29 121.9232788,25.0689087,19.84 121.9233322,25.0687046,18.94 121.9234161,25.0684948,19.02 121.9235153,25.0683060,20.33 121.9236298,25.0681381,22.76 121.9237442,25.0679569,24.08 121.9239044,25.0678444,24.33 121.9240417,25.0677109,23.77 121.9240875,25.0675678,22.67 121.9240952,25.0674095,21.74 121.9241028,25.0672340,20.52 121.9241028,25.0670528,21.45 121.9241257,25.0669022,21.63 121.9241486,25.0667477,21.75 121.9242096,25.0666142,22.41 121.9243088,25.0664463,22.32 121.9244385,25.0662975,21.99 121.9246063,25.0661564,21.47 121.9248123,25.0660706,19.93 121.9250793,25.0660095,18.56 121.9253540,25.0659389,18.39 121.9256363,25.0658741,18.99 121.9259033,25.0657616,18.69 121.9261246,25.0655899,17.95 121.9263382,25.0654049,17.76 121.9265289,25.0652237,17.13 121.9267120,25.0650635,16.59 121.9268723,25.0648994,16.56 121.9270172,25.0647335,16.25 121.9271774,25.0645885,16.47 121.9273376,25.0644283,15.99 121.9275131,25.0642662,15.24 121.9276886,25.0640984,16.44 121.9278641,25.0639343,16.58 121.9280396,25.0637474,15.20 121.9282227,25.0635757,15.86 121.9284058,25.0634022,15.28 121.9286041,25.0632420,15.50 121.9288330,25.0631161,16.94 121.9290771,25.0629807,17.15 121.9293289,25.0628395,16.89 121.9295502,25.0626984,17.25 121.9296646,25.0624886,16.85 121.9297104,25.0622730,17.95 121.9296722,25.0620899,18.77 121.9295425,25.0619087,19.34 121.9293747,25.0617485,19.45 121.9291916,25.0615997,19.31 121.9290161,25.0614433,19.71 121.9288635,25.0612984,20.41 121.9287338,25.0611668,21.09 121.9286041,25.0610371,20.50 121.9284515,25.0609131,20.41 121.9282913,25.0607738,19.77 121.9281235,25.0606003,19.54 121.9279099,25.0604324,19.84 121.9277039,25.0602703,18.76 121.9274445,25.0600815,16.26 121.9271927,25.0598621,14.39 121.9268494,25.0597610,11.52 121.9264679,25.0597553,9.21 121.9261093,25.0597172,6.60 121.9258270,25.0596066,5.35 121.9256134,25.0594387,3.78 121.9254074,25.0592403,3.27 121.9252701,25.0590324,3.67 121.9251556,25.0588131,3.80 121.9251099,25.0585594,4.36 121.9250870,25.0582771,4.85 121.9250793,25.0580273,5.25 121.9250259,25.0578232,6.00 121.9249039,25.0576382,5.89 121.9247742,25.0574360,5.31 121.9246368,25.0572548,5.32 121.9245834,25.0570221,5.61 121.9244843,25.0568542,6.61 121.9244232,25.0566978,8.52 121.9243469,25.0565529,8.80 121.9243622,25.0564022,9.61 121.9243774,25.0563087,10.39 121.9244232,25.0561981,11.75 121.9244614,25.0561104,11.95 121.9244995,25.0559845,13.10 121.9245377,25.0558758,14.62 121.9245911,25.0558662,19.21 121.9246063,25.0558453,21.11 121.9247513,25.0557728,23.61 121.9246521,25.0555973,21.57 121.9245911,25.0555420,20.83 121.9245529,25.0555019,20.81 121.9245834,25.0555000,21.32 121.9245987,25.0555172,22.29 121.9246750,25.0555153,23.69 121.9246750,25.0555058,23.89 121.9246826,25.0554943,24.00 </coordinates>
</LineString>
</MultiGeometry>
</Placemark>
<Folder>
<name>waypoints</name>
<Placemark>
<name>
Sat Apr 30 10:09:36 2011
</name>
<styleUrl>
#styleMap_TLP_Start
</styleUrl>
<Point>
<coordinates>
121.9164429,25.0976601,24.53
</coordinates>
</Point>
</Placemark>
<Placemark>
<name>
Sat Apr 30 10:09:42 2011
</name>
<styleUrl>
#styleMap_TLP_Normal
</styleUrl>
<Point>
<coordinates>
121.9165039,25.0976658,28.52
</coordinates>
</Point>
</Placemark>
<Placemark>
<name>
Sat Apr 30 10:09:47 2011
</name>
<styleUrl>
#styleMap_TLP_Normal
</styleUrl>
<Point>
<coordinates>
121.9165039,25.0976658,28.53
</coordinates>
</Point>
</Placemark>
<Placemark>
<name>
Sat Apr 30 10:09:52 2011
</name>
<styleUrl>
#styleMap_TLP_Normal
</styleUrl>
<Point>
<coordinates>
121.9165039,25.0976677,28.54
</coordinates>
</Point>
</Placemark>
<Placemark>
<name>
Sat Apr 30 10:09:57 2011
</name>
<styleUrl>
#styleMap_TLP_Normal
</styleUrl>
<Point>
<coordinates>
121.9164963,25.0976677,28.55
</coordinates>
</Point>
</Placemark>
<Placemark>
<name>
Sat Apr 30 10:10:02 2011
</name>
<styleUrl>
#styleMap_TLP_Normal
</styleUrl>
<Point>
<coordinates>
121.9164963,25.0976448,29.06
</coordinates>
</Point>
</Placemark>
<Placemark>
<name>
Sat Apr 30 10:10:07 2011
</name>
<styleUrl>
#styleMap_TLP_Normal
</styleUrl>
<Point>
<coordinates>
121.9164505,25.0975914,29.22
</coordinates>
</Point>
</Placemark>
<Placemark>
<name>
Sat Apr 30 10:10:12 2011
</name>
<styleUrl>
#styleMap_TLP_Normal
</styleUrl>
<Point>
<coordinates>
121.9163971,25.0975075,30.27
</coordinates>
</Point>
</Placemark>
<Placemark>
<name>
Sat Apr 30 10:10:17 2011
</name>
<styleUrl>
#styleMap_TLP_Normal
</styleUrl>
<Point>
<coordinates>
121.9164047,25.0973225,33.49
</coordinates>
</Point>
</Placemark>
<Placemark>
<name>
Sat Apr 30 10:10:22 2011
</name>
<styleUrl>
#styleMap_TLP_Normal
</styleUrl>
<Point>
<coordinates>
121.9164429,25.0971603,35.55
</coordinates>
</Point>
</Placemark>
<Placemark>
<name>
Sat Apr 30 10:10:27 2011
</name>
<styleUrl>
#styleMap_TLP_Normal
</styleUrl>
<Point>
<coordinates>
121.9164963,25.0970287,37.56
</coordinates>
</Point>
</Placemark>
<Placemark>
<name>
Sat Apr 30 10:10:32 2011
</name>
<styleUrl>
#styleMap_TLP_Normal
</styleUrl>
<Point>
<coordinates>
121.9165573,25.0968800,41.10
</coordinates>
</Point>
</Placemark>
<Placemark>
<name>
Sat Apr 30 10:10:37 2011
</name>
<styleUrl>
#styleMap_TLP_Normal
</styleUrl>
<Point>
<coordinates>
121.9166107,25.0967388,43.17
</coordinates>
</Point>
</Placemark>
<Placemark>
<name>
Sat Apr 30 10:10:42 2011
</name>
<styleUrl>
#styleMap_TLP_Normal
</styleUrl>
<Point>
<coordinates>
121.9166489,25.0966110,44.42
</coordinates>
</Point>
</Placemark>
<Placemark>
<name>
Sat Apr 30 10:10:47 2011
</name>
<styleUrl>
#styleMap_TLP_Normal
</styleUrl>
<Point>
<coordinates>
121.9166870,25.0964775,45.30
</coordinates>
</Point>
</Placemark>
<Placemark>
<name>
Sat Apr 30 10:10:52 2011
</name>
<styleUrl>
#styleMap_TLP_Normal
</styleUrl>
<Point>
<coordinates>
121.9167328,25.0963440,46.42
</coordinates>
</Point>
</Placemark>
<Placemark>
<name>
Sat Apr 30 10:10:57 2011
</name>
<styleUrl>
#styleMap_TLP_Normal
</styleUrl>
<Point>
<coordinates>
121.9167786,25.0962048,46.68
</coordinates>
</Point>
</Placemark>
<Placemark>
<name>
Sat Apr 30 10:11:02 2011
</name>
<styleUrl>
#styleMap_TLP_Normal
</styleUrl>
<Point>
<coordinates>
121.9168015,25.0960312,48.15
</coordinates>
</Point>
</Placemark>
<Placemark>
<name>
Sat Apr 30 10:11:07 2011
</name>
<styleUrl>
#styleMap_TLP_Normal
</styleUrl>
<Point>
<coordinates>
121.9168320,25.0958328,50.06
</coordinates>
</Point>
</Placemark>
<Placemark>
<name>
Sat Apr 30 10:11:12 2011
</name>
<styleUrl>
#styleMap_TLP_Normal
</styleUrl>
<Point>
<coordinates>
121.9167786,25.0956326,50.79
</coordinates>
</Point>
</Placemark>
<Placemark>
<name>
Sat Apr 30 10:11:17 2011
</name>
<styleUrl>
#styleMap_TLP_Normal
</styleUrl>
<Point>
<coordinates>
121.9166183,25.0954533,50.13
</coordinates>
</Point>
</Placemark>
<Placemark>
<name>
Sat Apr 30 10:11:22 2011
</name>
<styleUrl>
#styleMap_TLP_Normal
</styleUrl>
<Point>
<coordinates>
121.9163971,25.0952721,50.12
</coordinates>
</Point>
</Placemark>
<Placemark>
<name>
Sat Apr 30 10:11:27 2011
</name>
<styleUrl>
#styleMap_TLP_Normal
</styleUrl>
<Point>
<coordinates>
121.9161453,25.0950603,49.43
</coordinates>
</Point>
</Placemark>
<Placemark>
<name>
Sat Apr 30 10:11:32 2011
</name>
<styleUrl>
#styleMap_TLP_Normal
</styleUrl>
<Point>
<coordinates>
121.9158936,25.0948067,48.64
</coordinates>
</Point>
</Placemark>
<Placemark>
<name>
Sat Apr 30 10:11:37 2011
</name>
<styleUrl>
#styleMap_TLP_Normal
</styleUrl>
<Point>
<coordinates>
121.9156799,25.0945168,47.18
</coordinates>
</Point>
</Placemark>
<Placemark>
<name>
Sat Apr 30 10:11:42 2011
</name>
<styleUrl>
#styleMap_TLP_Normal
</styleUrl>
<Point>
<coordinates>
121.9154587,25.0941982,46.27
</coordinates>
</Point>
</Placemark>
<Placemark>
<name>
Sat Apr 30 10:11:47 2011
</name>
<styleUrl>
#styleMap_TLP_Normal
</styleUrl>
<Point>
<coordinates>
121.9152527,25.0938663,45.09
</coordinates>
</Point>
</Placemark>
<Placemark>
<name>
Sat Apr 30 10:11:52 2011
</name>
<styleUrl>
#styleMap_TLP_Normal
</styleUrl>
<Point>
<coordinates>
121.9150467,25.0935173,43.21
</coordinates>
</Point>
</Placemark>
<Placemark>
<name>
Sat Apr 30 10:11:57 2011
</name>
<styleUrl>
#styleMap_TLP_Normal
</styleUrl>
<Point>
<coordinates>
121.9148560,25.0932217,40.33
</coordinates>
</Point>
</Placemark>
<Placemark>
<name>
Sat Apr 30 10:12:02 2011
</name>
<styleUrl>
#styleMap_TLP_Normal
</styleUrl>
<Point>
<coordinates>
121.9147568,25.0928993,37.20
</coordinates>
</Point>
</Placemark>
<Placemark>
<name>
Sat Apr 30 10:12:07 2011
</name>
<styleUrl>
#styleMap_TLP_Normal
</styleUrl>
<Point>
<coordinates>
121.9147568,25.0924969,37.19
</coordinates>
</Point>
</Placemark>
<Placemark>
<name>
Sat Apr 30 10:12:12 2011
</name>
<styleUrl>
#styleMap_TLP_Normal
</styleUrl>
<Point>
<coordinates>
121.9147263,25.0921402,36.16
</coordinates>
</Point>
</Placemark>
<Placemark>
<name>
Sat Apr 30 10:12:17 2011
</name>
<styleUrl>
#styleMap_TLP_Normal
</styleUrl>
<Point>
<coordinates>
121.9146042,25.0918331,33.95
</coordinates>
</Point>
</Placemark>
<Placemark>
<name>
Sat Apr 30 10:12:22 2011
</name>
<styleUrl>
#styleMap_TLP_Normal
</styleUrl>
<Point>
<coordinates>
121.9144363,25.0915489,30.74
</coordinates>
</Point>
</Placemark>
<Placemark>
<name>
Sat Apr 30 10:12:27 2011
</name>
<styleUrl>
#styleMap_TLP_Normal
</styleUrl>
<Point>
<coordinates>
121.9141235,25.0914001,28.57
</coordinates>
</Point>
</Placemark>
<Placemark>
<name>
Sat Apr 30 10:12:32 2011
</name>
<styleUrl>
#styleMap_TLP_Normal
</styleUrl>
<Point>
<coordinates>
121.9138412,25.0912991,27.09
</coordinates>
</Point>
</Placemark>
<Placemark>
<name>
Sat Apr 30 10:12:37 2011
</name>
<styleUrl>
#styleMap_TLP_Normal
</styleUrl>
<Point>
<coordinates>
121.9136200,25.0911770,25.78
</coordinates>
</Point>
</Placemark>
<Placemark>
<name>
Sat Apr 30 10:12:42 2011
</name>
<styleUrl>
#styleMap_TLP_Normal
</styleUrl>
<Point>
<coordinates>
121.9134445,25.0910950,24.07
</coordinates>
</Point>
</Placemark>
<Placemark>
<name>
Sat Apr 30 10:12:47 2011
</name>
<styleUrl>
#styleMap_TLP_Normal
</styleUrl>
<Point>
<coordinates>
121.9133301,25.0910225,23.10
</coordinates>
</Point>
</Placemark>
<Placemark>
<name>
Sat Apr 30 10:12:52 2011
</name>
<styleUrl>
#styleMap_TLP_Normal
</styleUrl>
<Point>
<coordinates>
121.9132080,25.0909500,21.75
</coordinates>
</Point>
</Placemark>
<Placemark>
<name>
Sat Apr 30 10:12:57 2011
</name>
<styleUrl>
#styleMap_TLP_Normal
</styleUrl>
<Point>
<coordinates>
121.9131165,25.0908699,20.97
</coordinates>
</Point>
</Placemark>
<Placemark>
<name>
Sat Apr 30 10:13:02 2011
</name>
<styleUrl>
#styleMap_TLP_Normal
</styleUrl>
<Point>
<coordinates>
121.9130249,25.0907822,20.47
</coordinates>
</Point>
</Placemark>
<Placemark>
<name>
Sat Apr 30 10:13:07 2011
</name>
<styleUrl>
#styleMap_TLP_Normal
</styleUrl>
<Point>
<coordinates>
121.9129257,25.0906849,20.30
</coordinates>
</Point>
</Placemark>
<Placemark>
<name>
Sat Apr 30 10:13:12 2011
</name>
<styleUrl>
#styleMap_TLP_Normal
</styleUrl>
<Point>
<coordinates>
121.9128418,25.0905895,20.27
</coordinates>
</Point>
</Placemark>
<Placemark>
<name>
Sat Apr 30 10:13:17 2011
</name>
<styleUrl>
#styleMap_TLP_Normal
</styleUrl>
<Point>
<coordinates>
121.9127426,25.0904808,19.79
</coordinates>
</Point>
</Placemark>
<Placemark>
<name>
Sat Apr 30 10:13:22 2011
</name>
<styleUrl>
#styleMap_TLP_Normal
</styleUrl>
<Point>
<coordinates>
121.9126587,25.0903721,20.09
</coordinates>
</Point>
</Placemark>
<Placemark>
<name>
Sat Apr 30 10:13:27 2011
</name>
<styleUrl>
#styleMap_TLP_Normal
</styleUrl>
<Point>
<coordinates>
121.9125977,25.0902405,20.29
</coordinates>
</Point>
</Placemark>
<Placemark>
<name>
Sat Apr 30 10:13:32 2011
</name>
<styleUrl>
#styleMap_TLP_Normal
</styleUrl>
<Point>
<coordinates>
121.9125214,25.0900841,21.04
</coordinates>
</Point>
</Placemark>
<Placemark>
<name>
Sat Apr 30 10:13:37 2011
</name>
<styleUrl>
#styleMap_TLP_Normal
</styleUrl>
<Point>
<coordinates>
121.9124374,25.0899162,25.65
</coordinates>
</Point>
</Placemark>
<Placemark>
<name>
Sat Apr 30 10:13:42 2011
</name>
<styleUrl>
#styleMap_TLP_Normal
</styleUrl>
<Point>
<coordinates>
121.9123764,25.0897503,26.62
</coordinates>
</Point>
</Placemark>
<Placemark>
<name>
Sat Apr 30 10:13:47 2011
</name>
<styleUrl>
#styleMap_TLP_Normal
</styleUrl>
<Point>
<coordinates>
121.9123383,25.0895615,28.78
</coordinates>
</Point>
</Placemark>
<Placemark>
<name>
Sat Apr 30 10:13:52 2011
</name>
<styleUrl>
#styleMap_TLP_Normal
</styleUrl>
<Point>
<coordinates>
121.9122772,25.0893421,30.65
</coordinates>
</Point>
</Placemark>
<Placemark>
<name>
Sat Apr 30 10:13:57 2011
</name>
<styleUrl>
#styleMap_TLP_Normal
</styleUrl>
<Point>
<coordinates>
121.9122238,25.0891476,32.00
</coordinates>
</Point>
</Placemark>
<Placemark>
<name>
Sat Apr 30 10:14:02 2011
</name>
<styleUrl>
#styleMap_TLP_Normal
</styleUrl>
<Point>
<coordinates>
121.9122009,25.0889053,34.10
</coordinates>
</Point>
</Placemark>
<Placemark>
<name>
Sat Apr 30 10:14:07 2011
</name>
<styleUrl>
#styleMap_TLP_Normal
</styleUrl>
<Point>
<coordinates>
121.9122086,25.0886021,37.30
</coordinates>
</Point>
</Placemark>
<Placemark>
<name>
Sat Apr 30 10:14:12 2011
</name>
<styleUrl>
#styleMap_TLP_Normal
</styleUrl>
<Point>
<coordinates>
121.9122314,25.0883121,39.30
</coordinates>
</Point>
</Placemark>
<Placemark>
<name>
Sat Apr 30 10:14:17 2011
</name>
<styleUrl>
#styleMap_TLP_Normal
</styleUrl>
<Point>
<coordinates>
121.9122467,25.0880394,41.19
</coordinates>
</Point>
</Placemark>
<Placemark>
<name>
Sat Apr 30 10:14:22 2011
</name>
<styleUrl>
#styleMap_TLP_Normal
</styleUrl>
<Point>
<coordinates>
121.9122696,25.0877476,42.67
</coordinates>
</Point>
</Placemark>
<Placemark>
<name>
Sat Apr 30 10:14:27 2011
</name>
<styleUrl>
#styleMap_TLP_Normal
</styleUrl>
<Point>
<coordinates>
121.9123077,25.0874691,43.83
</coordinates>
</Point>
</Placemark>
<Placemark>
<name>
Sat Apr 30 10:14:32 2011
</name>
<styleUrl>
#styleMap_TLP_Normal
</styleUrl>
<Point>
<coordinates>
121.9123383,25.0871773,44.13
</coordinates>
</Point>
</Placemark>
<Placemark>
<name>
Sat Apr 30 10:14:37 2011
</name>
<styleUrl>
#styleMap_TLP_Normal
</styleUrl>
<Point>
<coordinates>
121.9123459,25.0868835,43.16
</coordinates>
</Point>
</Placemark>
<Placemark>
<name>
Sat Apr 30 10:14:42 2011
</name>
<styleUrl>
#styleMap_TLP_Normal
</styleUrl>
<Point>
<coordinates>
121.9123154,25.0866261,40.64
</coordinates>
</Point>
</Placemark>
<Placemark>
<name>
Sat Apr 30 10:14:47 2011
</name>
<styleUrl>
#styleMap_TLP_Normal
</styleUrl>
<Point>
<coordinates>
121.9122620,25.0863514,39.78
</coordinates>
</Point>
</Placemark>
<Placemark>
<name>
Sat Apr 30 10:14:52 2011
</name>
<styleUrl>
#styleMap_TLP_Normal
</styleUrl>
<Point>
<coordinates>
121.9122314,25.0860920,38.54
</coordinates>
</Point>
</Placemark>
<Placemark>
<name>
Sat Apr 30 10:14:57 2011
</name>
<styleUrl>
#styleMap_TLP_Normal
</styleUrl>
<Point>
<coordinates>
121.9122162,25.0858154,35.79
</coordinates>
</Point>
</Placemark>
<Placemark>
<name>
Sat Apr 30 10:15:02 2011
</name>
<styleUrl>
#styleMap_TLP_Normal
</styleUrl>
<Point>
<coordinates>
121.9122238,25.0855007,33.34
</coordinates>
</Point>
</Placemark>
<Placemark>
<name>
Sat Apr 30 10:15:07 2011
</name>
<styleUrl>
#styleMap_TLP_Normal
</styleUrl>
<Point>
<coordinates>
121.9123688,25.0851688,35.21
</coordinates>
</Point>
</Placemark>
<Placemark>
<name>
Sat Apr 30 10:15:12 2011
</name>
<styleUrl>
#styleMap_TLP_Normal
</styleUrl>
<Point>
<coordinates>
121.9126511,25.0849247,34.33
</coordinates>
</Point>
</Placemark>
<Placemark>
<name>
Sat Apr 30 10:15:17 2011
</name>
<styleUrl>
#styleMap_TLP_Normal
</styleUrl>
<Point>
<coordinates>
121.9129486,25.0846500,32.89
</coordinates>
</Point>
</Placemark>
<Placemark>
<name>
Sat Apr 30 10:15:22 2011
</name>
<styleUrl>
#styleMap_TLP_Normal
</styleUrl>
<Point>
<coordinates>
121.9132385,25.0843868,30.67
</coordinates>
</Point>
</Placemark>
<Placemark>
<name>
Sat Apr 30 10:15:27 2011
</name>
<styleUrl>
#styleMap_TLP_Normal
</styleUrl>
<Point>
<coordinates>
121.9134903,25.0841560,27.17
</coordinates>
</Point>
</Placemark>
<Placemark>
<name>
Sat Apr 30 10:15:32 2011
</name>
<styleUrl>
#styleMap_TLP_Normal
</styleUrl>
<Point>
<coordinates>
121.9136581,25.0838718,23.93
</coordinates>
</Point>
</Placemark>
<Placemark>
<name>
Sat Apr 30 10:15:37 2011
</name>
<styleUrl>
#styleMap_TLP_Normal
</styleUrl>
<Point>
<coordinates>
121.9137878,25.0835400,24.97
</coordinates>
</Point>
</Placemark>
<Placemark>
<name>
Sat Apr 30 10:15:42 2011
</name>
<styleUrl>
#styleMap_TLP_Normal
</styleUrl>
<Point>
<coordinates>
121.9138947,25.0832062,27.25
</coordinates>
</Point>
</Placemark>
<Placemark>
<name>
Sat Apr 30 10:15:47 2011
</name>
<styleUrl>
#styleMap_TLP_Normal
</styleUrl>
<Point>
<coordinates>
121.9139862,25.0828705,28.21
</coordinates>
</Point>
</Placemark>
<Placemark>
<name>
Sat Apr 30 10:15:52 2011
</name>
<styleUrl>
#styleMap_TLP_Normal
</styleUrl>
<Point>
<coordinates>
121.9140549,25.0825481,28.50
</coordinates>
</Point>
</Placemark>
<Placemark>
<name>
Sat Apr 30 10:15:57 2011
</name>
<styleUrl>
#styleMap_TLP_Normal
</styleUrl>
<Point>
<coordinates>
121.9140701,25.0822411,28.16
</coordinates>
</Point>
</Placemark>
<Placemark>
<name>
Sat Apr 30 10:16:02 2011
</name>
<styleUrl>
#styleMap_TLP_Normal
</styleUrl>
<Point>
<coordinates>
121.9140625,25.0819359,27.63
</coordinates>
</Point>
</Placemark>
<Placemark>
<name>
Sat Apr 30 10:16:07 2011
</name>
<styleUrl>
#styleMap_TLP_Normal
</styleUrl>
<Point>
<coordinates>
121.9140549,25.0816383,27.85
</coordinates>
</Point>
</Placemark>
<Placemark>
<name>
Sat Apr 30 10:16:12 2011
</name>
<styleUrl>
#styleMap_TLP_Normal
</styleUrl>
<Point>
<coordinates>
121.9140549,25.0813541,27.63
</coordinates>
</Point>
</Placemark>
<Placemark>
<name>
Sat Apr 30 10:16:17 2011
</name>
<styleUrl>
#styleMap_TLP_Normal
</styleUrl>
<Point>
<coordinates>
121.9141006,25.0810795,26.18
</coordinates>
</Point>
</Placemark>
<Placemark>
<name>
Sat Apr 30 10:16:22 2011
</name>
<styleUrl>
#styleMap_TLP_Normal
</styleUrl>
<Point>
<coordinates>
121.9141464,25.0808067,25.57
</coordinates>
</Point>
</Placemark>
<Placemark>
<name>
Sat Apr 30 10:16:27 2011
</name>
<styleUrl>
#styleMap_TLP_Normal
</styleUrl>
<Point>
<coordinates>
121.9142227,25.0805244,26.65
</coordinates>
</Point>
</Placemark>
<Placemark>
<name>
Sat Apr 30 10:16:32 2011
</name>
<styleUrl>
#styleMap_TLP_Normal
</styleUrl>
<Point>
<coordinates>
121.9142914,25.0802422,27.03
</coordinates>
</Point>
</Placemark>
<Placemark>
<name>
Sat Apr 30 10:16:37 2011
</name>
<styleUrl>
#styleMap_TLP_Normal
</styleUrl>
<Point>
<coordinates>
121.9143600,25.0799637,28.11
</coordinates>
</Point>
</Placemark>
<Placemark>
<name>
Sat Apr 30 10:16:42 2011
</name>
<styleUrl>
#styleMap_TLP_Normal
</styleUrl>
<Point>
<coordinates>
121.9144363,25.0796814,29.73
</coordinates>
</Point>
</Placemark>
<Placemark>
<name>
Sat Apr 30 10:16:47 2011
</name>
<styleUrl>
#styleMap_TLP_Normal
</styleUrl>
<Point>
<coordinates>
121.9144897,25.0794220,30.35
</coordinates>
</Point>
</Placemark>
<Placemark>
<name>
Sat Apr 30 10:16:52 2011
</name>
<styleUrl>
#styleMap_TLP_Normal
</styleUrl>
<Point>
<coordinates>
121.9145508,25.0791569,28.47
</coordinates>
</Point>
</Placemark>
<Placemark>
<name>
Sat Apr 30 10:16:57 2011
</name>
<styleUrl>
#styleMap_TLP_Normal
</styleUrl>
<Point>
<coordinates>
121.9146118,25.0788879,27.48
</coordinates>
</Point>
</Placemark>
<Placemark>
<name>
Sat Apr 30 10:17:02 2011
</name>
<styleUrl>
#styleMap_TLP_Normal
</styleUrl>
<Point>
<coordinates>
121.9146652,25.0786304,26.46
</coordinates>
</Point>
</Placemark>
<Placemark>
<name>
Sat Apr 30 10:17:07 2011
</name>
<styleUrl>
#styleMap_TLP_Normal
</styleUrl>
<Point>
<coordinates>
121.9147263,25.0783939,25.31
</coordinates>
</Point>
</Placemark>
<Placemark>
<name>
Sat Apr 30 10:17:12 2011
</name>
<styleUrl>
#styleMap_TLP_Normal
</styleUrl>
<Point>
<coordinates>
121.9147644,25.0781612,24.73
</coordinates>
</Point>
</Placemark>
<Placemark>
<name>
Sat Apr 30 10:17:17 2011
</name>
<styleUrl>
#styleMap_TLP_Normal
</styleUrl>
<Point>
<coordinates>
121.9148026,25.0779057,23.67
</coordinates>
</Point>
</Placemark>
<Placemark>
<name>
Sat Apr 30 10:17:22 2011
</name>
<styleUrl>
#styleMap_TLP_Normal
</styleUrl>
<Point>
<coordinates>
121.9148560,25.0776329,23.20
</coordinates>
</Point>
</Placemark>
<Placemark>
<name>
Sat Apr 30 10:17:27 2011
</name>
<styleUrl>
#styleMap_TLP_Normal
</styleUrl>
<Point>
<coordinates>
121.9148712,25.0773602,24.89
</coordinates>
</Point>
</Placemark>
<Placemark>
<name>
Sat Apr 30 10:17:32 2011
</name>
<styleUrl>
#styleMap_TLP_Normal
</styleUrl>
<Point>
<coordinates>
121.9148560,25.0770817,25.46
</coordinates>
</Point>
</Placemark>
<Placemark>
<name>
Sat Apr 30 10:17:37 2011
</name>
<styleUrl>
#styleMap_TLP_Normal
</styleUrl>
<Point>
<coordinates>
121.9148331,25.0767994,25.01
</coordinates>
</Point>
</Placemark>
<Placemark>
<name>
Sat Apr 30 10:17:42 2011
</name>
<styleUrl>
#styleMap_TLP_Normal
</styleUrl>
<Point>
<coordinates>
121.9147568,25.0765305,24.31
</coordinates>
</Point>
</Placemark>
<Placemark>
<name>
Sat Apr 30 10:17:47 2011
</name>
<styleUrl>
#styleMap_TLP_Normal
</styleUrl>
<Point>
<coordinates>
121.9146729,25.0762711,23.75
</coordinates>
</Point>
</Placemark>
<Placemark>
<name>
Sat Apr 30 10:17:52 2011
</name>
<styleUrl>
#styleMap_TLP_Normal
</styleUrl>
<Point>
<coordinates>
121.9146652,25.0760479,23.38
</coordinates>
</Point>
</Placemark>
<Placemark>
<name>
Sat Apr 30 10:17:57 2011
</name>
<styleUrl>
#styleMap_TLP_Normal
</styleUrl>
<Point>
<coordinates>
121.9146652,25.0758209,23.00
</coordinates>
</Point>
</Placemark>
<Placemark>
<name>
Sat Apr 30 10:18:02 2011
</name>
<styleUrl>
#styleMap_TLP_Normal
</styleUrl>
<Point>
<coordinates>
121.9147034,25.0755692,24.00
</coordinates>
</Point>
</Placemark>
<Placemark>
<name>
Sat Apr 30 10:18:07 2011
</name>
<styleUrl>
#styleMap_TLP_Normal
</styleUrl>
<Point>
<coordinates>
121.9148407,25.0753174,24.27
</coordinates>
</Point>
</Placemark>
<Placemark>
<name>
Sat Apr 30 10:18:12 2011
</name>
<styleUrl>
#styleMap_TLP_Normal
</styleUrl>
<Point>
<coordinates>
121.9150772,25.0751266,23.79
</coordinates>
</Point>
</Placemark>
<Placemark>
<name>
Sat Apr 30 10:18:17 2011
</name>
<styleUrl>
#styleMap_TLP_Normal
</styleUrl>
<Point>
<coordinates>
121.9153214,25.0749493,23.23
</coordinates>
</Point>
</Placemark>
<Placemark>
<name>
Sat Apr 30 10:18:22 2011
</name>
<styleUrl>
#styleMap_TLP_Normal
</styleUrl>
<Point>
<coordinates>
121.9155045,25.0746670,23.24
</coordinates>
</Point>
</Placemark>
<Placemark>
<name>
Sat Apr 30 10:18:27 2011
</name>
<styleUrl>
#styleMap_TLP_Normal
</styleUrl>
<Point>
<coordinates>
121.9157333,25.0745544,22.47
</coordinates>
</Point>
</Placemark>
<Placemark>
<name>
Sat Apr 30 10:18:32 2011
</name>
<styleUrl>
#styleMap_TLP_Normal
</styleUrl>
<Point>
<coordinates>
121.9159622,25.0744438,20.98
</coordinates>
</Point>
</Placemark>
<Placemark>
<name>
Sat Apr 30 10:18:37 2011
</name>
<styleUrl>
#styleMap_TLP_Normal
</styleUrl>
<Point>
<coordinates>
121.9161530,25.0743217,19.16
</coordinates>
</Point>
</Placemark>
<Placemark>
<name>
Sat Apr 30 10:18:42 2011
</name>
<styleUrl>
#styleMap_TLP_Normal
</styleUrl>
<Point>
<coordinates>
121.9163666,25.0742779,17.56
</coordinates>
</Point>
</Placemark>
<Placemark>
<name>
Sat Apr 30 10:18:47 2011
</name>
<styleUrl>
#styleMap_TLP_Normal
</styleUrl>
<Point>
<coordinates>
121.9165878,25.0742836,16.77
</coordinates>
</Point>
</Placemark>
<Placemark>
<name>
Sat Apr 30 10:18:52 2011
</name>
<styleUrl>
#styleMap_TLP_Normal
</styleUrl>
<Point>
<coordinates>
121.9168396,25.0742550,15.98
</coordinates>
</Point>
</Placemark>
<Placemark>
<name>
Sat Apr 30 10:18:57 2011
</name>
<styleUrl>
#styleMap_TLP_Normal
</styleUrl>
<Point>
<coordinates>
121.9170990,25.0742607,14.96
</coordinates>
</Point>
</Placemark>
<Placemark>
<name>
Sat Apr 30 10:19:02 2011
</name>
<styleUrl>
#styleMap_TLP_Normal
</styleUrl>
<Point>
<coordinates>
121.9173508,25.0742493,14.21
</coordinates>
</Point>
</Placemark>
<Placemark>
<name>
Sat Apr 30 10:19:07 2011
</name>
<styleUrl>
#styleMap_TLP_Normal
</styleUrl>
<Point>
<coordinates>
121.9176025,25.0742245,13.64
</coordinates>
</Point>
</Placemark>
<Placemark>
<name>
Sat Apr 30 10:19:12 2011
</name>
<styleUrl>
#styleMap_TLP_Normal
</styleUrl>
<Point>
<coordinates>
121.9178238,25.0741444,12.68
</coordinates>
</Point>
</Placemark>
<Placemark>
<name>
Sat Apr 30 10:19:17 2011
</name>
<styleUrl>
#styleMap_TLP_Normal
</styleUrl>
<Point>
<coordinates>
121.9180450,25.0740223,12.01
</coordinates>
</Point>
</Placemark>
<Placemark>
<name>
Sat Apr 30 10:19:22 2011
</name>
<styleUrl>
#styleMap_TLP_Normal
</styleUrl>
<Point>
<coordinates>
121.9182434,25.0738678,11.39
</coordinates>
</Point>
</Placemark>
<Placemark>
<name>
Sat Apr 30 10:19:27 2011
</name>
<styleUrl>
#styleMap_TLP_Normal
</styleUrl>
<Point>
<coordinates>
121.9184113,25.0737000,10.56
</coordinates>
</Point>
</Placemark>
<Placemark>
<name>
Sat Apr 30 10:19:32 2011
</name>
<styleUrl>
#styleMap_TLP_Normal
</styleUrl>
<Point>
<coordinates>
121.9185410,25.0735397,12.19
</coordinates>
</Point>
</Placemark>
<Placemark>
<name>
Sat Apr 30 10:19:37 2011
</name>
<styleUrl>
#styleMap_TLP_Normal
</styleUrl>
<Point>
<coordinates>
121.9186630,25.0733871,12.85
</coordinates>
</Point>
</Placemark>
<Placemark>
<name>
Sat Apr 30 10:19:42 2011
</name>
<styleUrl>
#styleMap_TLP_Normal
</styleUrl>
<Point>
<coordinates>
121.9187851,25.0732288,13.87
</coordinates>
</Point>
</Placemark>
<Placemark>
<name>
Sat Apr 30 10:19:47 2011
</name>
<styleUrl>
#styleMap_TLP_Normal
</styleUrl>
<Point>
<coordinates>
121.9189148,25.0730743,13.59
</coordinates>
</Point>
</Placemark>
<Placemark>
<name>
Sat Apr 30 10:19:52 2011
</name>
<styleUrl>
#styleMap_TLP_Normal
</styleUrl>
<Point>
<coordinates>
121.9190216,25.0728607,13.84
</coordinates>
</Point>
</Placemark>
<Placemark>
<name>
Sat Apr 30 10:19:57 2011
</name>
<styleUrl>
#styleMap_TLP_Normal
</styleUrl>
<Point>
<coordinates>
121.9191818,25.0726643,13.91
</coordinates>
</Point>
</Placemark>
<Placemark>
<name>
Sat Apr 30 10:20:02 2011
</name>
<styleUrl>
#styleMap_TLP_Normal
</styleUrl>
<Point>
<coordinates>
121.9193726,25.0725002,14.67
</coordinates>
</Point>
</Placemark>
<Placemark>
<name>
Sat Apr 30 10:20:07 2011
</name>
<styleUrl>
#styleMap_TLP_Normal
</styleUrl>
<Point>
<coordinates>
121.9196243,25.0723915,15.57
</coordinates>
</Point>
</Placemark>
<Placemark>
<name>
Sat Apr 30 10:20:12 2011
</name>
<styleUrl>
#styleMap_TLP_Normal
</styleUrl>
<Point>
<coordinates>
121.9198685,25.0723114,16.23
</coordinates>
</Point>
</Placemark>
<Placemark>
<name>
Sat Apr 30 10:20:17 2011
</name>
<styleUrl>
#styleMap_TLP_Normal
</styleUrl>
<Point>
<coordinates>
121.9201202,25.0722122,15.21
</coordinates>
</Point>
</Placemark>
<Placemark>
<name>
Sat Apr 30 10:20:22 2011
</name>
<styleUrl>
#styleMap_TLP_Normal
</styleUrl>
<Point>
<coordinates>
121.9204025,25.0721359,15.72
</coordinates>
</Point>
</Placemark>
<Placemark>
<name>
Sat Apr 30 10:20:27 2011
</name>
<styleUrl>
#styleMap_TLP_Normal
</styleUrl>
<Point>
<coordinates>
121.9207001,25.0720482,14.40
</coordinates>
</Point>
</Placemark>
<Placemark>
<name>
Sat Apr 30 10:20:32 2011
</name>
<styleUrl>
#styleMap_TLP_Normal
</styleUrl>
<Point>
<coordinates>
121.9209824,25.0719433,12.90
</coordinates>
</Point>
</Placemark>
<Placemark>
<name>
Sat Apr 30 10:20:37 2011
</name>
<styleUrl>
#styleMap_TLP_Normal
</styleUrl>
<Point>
<coordinates>
121.9212341,25.0718212,12.08
</coordinates>
</Point>
</Placemark>
<Placemark>
<name>
Sat Apr 30 10:20:42 2011
</name>
<styleUrl>
#styleMap_TLP_Normal
</styleUrl>
<Point>
<coordinates>
121.9214325,25.0716667,10.81
</coordinates>
</Point>
</Placemark>
<Placemark>
<name>
Sat Apr 30 10:20:47 2011
</name>
<styleUrl>
#styleMap_TLP_Normal
</styleUrl>
<Point>
<coordinates>
121.9216156,25.0715275,9.42
</coordinates>
</Point>
</Placemark>
<Placemark>
<name>
Sat Apr 30 10:20:52 2011
</name>
<styleUrl>
#styleMap_TLP_Normal
</styleUrl>
<Point>
<coordinates>
121.9218140,25.0713902,8.55
</coordinates>
</Point>
</Placemark>
<Placemark>
<name>
Sat Apr 30 10:20:57 2011
</name>
<styleUrl>
#styleMap_TLP_Normal
</styleUrl>
<Point>
<coordinates>
121.9220200,25.0712585,9.42
</coordinates>
</Point>
</Placemark>
<Placemark>
<name>
Sat Apr 30 10:21:02 2011
</name>
<styleUrl>
#styleMap_TLP_Normal
</styleUrl>
<Point>
<coordinates>
121.9221725,25.0711174,9.24
</coordinates>
</Point>
</Placemark>
<Placemark>
<name>
Sat Apr 30 10:21:07 2011
</name>
<styleUrl>
#styleMap_TLP_Normal
</styleUrl>
<Point>
<coordinates>
121.9223022,25.0709782,10.37
</coordinates>
</Point>
</Placemark>
<Placemark>
<name>
Sat Apr 30 10:21:12 2011
</name>
<styleUrl>
#styleMap_TLP_Normal
</styleUrl>
<Point>
<coordinates>
121.9223938,25.0708561,12.26
</coordinates>
</Point>
</Placemark>
<Placemark>
<name>
Sat Apr 30 10:21:17 2011
</name>
<styleUrl>
#styleMap_TLP_Normal
</styleUrl>
<Point>
<coordinates>
121.9224472,25.0707073,14.38
</coordinates>
</Point>
</Placemark>
<Placemark>
<name>
Sat Apr 30 10:21:22 2011
</name>
<styleUrl>
#styleMap_TLP_Normal
</styleUrl>
<Point>
<coordinates>
121.9225159,25.0705433,16.21
</coordinates>
</Point>
</Placemark>
<Placemark>
<name>
Sat Apr 30 10:21:27 2011
</name>
<styleUrl>
#styleMap_TLP_Normal
</styleUrl>
<Point>
<coordinates>
121.9225693,25.0703773,17.77
</coordinates>
</Point>
</Placemark>
<Placemark>
<name>
Sat Apr 30 10:21:32 2011
</name>
<styleUrl>
#styleMap_TLP_Normal
</styleUrl>
<Point>
<coordinates>
121.9226532,25.0702190,18.84
</coordinates>
</Point>
</Placemark>
<Placemark>
<name>
Sat Apr 30 10:21:37 2011
</name>
<styleUrl>
#styleMap_TLP_Normal
</styleUrl>
<Point>
<coordinates>
121.9227829,25.0700550,20.17
</coordinates>
</Point>
</Placemark>
<Placemark>
<name>
Sat Apr 30 10:21:42 2011
</name>
<styleUrl>
#styleMap_TLP_Normal
</styleUrl>
<Point>
<coordinates>
121.9229202,25.0698872,19.44
</coordinates>
</Point>
</Placemark>
<Placemark>
<name>
Sat Apr 30 10:21:47 2011
</name>
<styleUrl>
#styleMap_TLP_Normal
</styleUrl>
<Point>
<coordinates>
121.9230423,25.0696487,20.32
</coordinates>
</Point>
</Placemark>
<Placemark>
<name>
Sat Apr 30 10:21:52 2011
</name>
<styleUrl>
#styleMap_TLP_Normal
</styleUrl>
<Point>
<coordinates>
121.9231415,25.0694656,21.19
</coordinates>
</Point>
</Placemark>
<Placemark>
<name>
Sat Apr 30 10:21:57 2011
</name>
<styleUrl>
#styleMap_TLP_Normal
</styleUrl>
<Point>
<coordinates>
121.9232025,25.0693092,20.99
</coordinates>
</Point>
</Placemark>
<Placemark>
<name>
Sat Apr 30 10:22:02 2011
</name>
<styleUrl>
#styleMap_TLP_Normal
</styleUrl>
<Point>
<coordinates>
121.9232330,25.0691109,20.29
</coordinates>
</Point>
</Placemark>
<Placemark>
<name>
Sat Apr 30 10:22:07 2011
</name>
<styleUrl>
#styleMap_TLP_Normal
</styleUrl>
<Point>
<coordinates>
121.9232788,25.0689087,19.84
</coordinates>
</Point>
</Placemark>
<Placemark>
<name>
Sat Apr 30 10:22:12 2011
</name>
<styleUrl>
#styleMap_TLP_Normal
</styleUrl>
<Point>
<coordinates>
121.9233322,25.0687046,18.94
</coordinates>
</Point>
</Placemark>
<Placemark>
<name>
Sat Apr 30 10:22:17 2011
</name>
<styleUrl>
#styleMap_TLP_Normal
</styleUrl>
<Point>
<coordinates>
121.9234161,25.0684948,19.02
</coordinates>
</Point>
</Placemark>
<Placemark>
<name>
Sat Apr 30 10:22:22 2011
</name>
<styleUrl>
#styleMap_TLP_Normal
</styleUrl>
<Point>
<coordinates>
121.9235153,25.0683060,20.33
</coordinates>
</Point>
</Placemark>
<Placemark>
<name>
Sat Apr 30 10:22:27 2011
</name>
<styleUrl>
#styleMap_TLP_Normal
</styleUrl>
<Point>
<coordinates>
121.9236298,25.0681381,22.76
</coordinates>
</Point>
</Placemark>
<Placemark>
<name>
Sat Apr 30 10:22:32 2011
</name>
<styleUrl>
#styleMap_TLP_Normal
</styleUrl>
<Point>
<coordinates>
121.9237442,25.0679569,24.08
</coordinates>
</Point>
</Placemark>
<Placemark>
<name>
Sat Apr 30 10:22:37 2011
</name>
<styleUrl>
#styleMap_TLP_Normal
</styleUrl>
<Point>
<coordinates>
121.9239044,25.0678444,24.33
</coordinates>
</Point>
</Placemark>
<Placemark>
<name>
Sat Apr 30 10:22:42 2011
</name>
<styleUrl>
#styleMap_TLP_Normal
</styleUrl>
<Point>
<coordinates>
121.9240417,25.0677109,23.77
</coordinates>
</Point>
</Placemark>
<Placemark>
<name>
Sat Apr 30 10:22:47 2011
</name>
<styleUrl>
#styleMap_TLP_Normal
</styleUrl>
<Point>
<coordinates>
121.9240875,25.0675678,22.67
</coordinates>
</Point>
</Placemark>
<Placemark>
<name>
Sat Apr 30 10:22:52 2011
</name>
<styleUrl>
#styleMap_TLP_Normal
</styleUrl>
<Point>
<coordinates>
121.9240952,25.0674095,21.74
</coordinates>
</Point>
</Placemark>
<Placemark>
<name>
Sat Apr 30 10:22:57 2011
</name>
<styleUrl>
#styleMap_TLP_Normal
</styleUrl>
<Point>
<coordinates>
121.9241028,25.0672340,20.52
</coordinates>
</Point>
</Placemark>
<Placemark>
<name>
Sat Apr 30 10:23:02 2011
</name>
<styleUrl>
#styleMap_TLP_Normal
</styleUrl>
<Point>
<coordinates>
121.9241028,25.0670528,21.45
</coordinates>
</Point>
</Placemark>
<Placemark>
<name>
Sat Apr 30 10:23:07 2011
</name>
<styleUrl>
#styleMap_TLP_Normal
</styleUrl>
<Point>
<coordinates>
121.9241257,25.0669022,21.63
</coordinates>
</Point>
</Placemark>
<Placemark>
<name>
Sat Apr 30 10:23:12 2011
</name>
<styleUrl>
#styleMap_TLP_Normal
</styleUrl>
<Point>
<coordinates>
121.9241486,25.0667477,21.75
</coordinates>
</Point>
</Placemark>
<Placemark>
<name>
Sat Apr 30 10:23:17 2011
</name>
<styleUrl>
#styleMap_TLP_Normal
</styleUrl>
<Point>
<coordinates>
121.9242096,25.0666142,22.41
</coordinates>
</Point>
</Placemark>
<Placemark>
<name>
Sat Apr 30 10:23:22 2011
</name>
<styleUrl>
#styleMap_TLP_Normal
</styleUrl>
<Point>
<coordinates>
121.9243088,25.0664463,22.32
</coordinates>
</Point>
</Placemark>
<Placemark>
<name>
Sat Apr 30 10:23:27 2011
</name>
<styleUrl>
#styleMap_TLP_Normal
</styleUrl>
<Point>
<coordinates>
121.9244385,25.0662975,21.99
</coordinates>
</Point>
</Placemark>
<Placemark>
<name>
Sat Apr 30 10:23:32 2011
</name>
<styleUrl>
#styleMap_TLP_Normal
</styleUrl>
<Point>
<coordinates>
121.9246063,25.0661564,21.47
</coordinates>
</Point>
</Placemark>
<Placemark>
<name>
Sat Apr 30 10:23:37 2011
</name>
<styleUrl>
#styleMap_TLP_Normal
</styleUrl>
<Point>
<coordinates>
121.9248123,25.0660706,19.93
</coordinates>
</Point>
</Placemark>
<Placemark>
<name>
Sat Apr 30 10:23:42 2011
</name>
<styleUrl>
#styleMap_TLP_Normal
</styleUrl>
<Point>
<coordinates>
121.9250793,25.0660095,18.56
</coordinates>
</Point>
</Placemark>
<Placemark>
<name>
Sat Apr 30 10:23:47 2011
</name>
<styleUrl>
#styleMap_TLP_Normal
</styleUrl>
<Point>
<coordinates>
121.9253540,25.0659389,18.39
</coordinates>
</Point>
</Placemark>
<Placemark>
<name>
Sat Apr 30 10:23:52 2011
</name>
<styleUrl>
#styleMap_TLP_Normal
</styleUrl>
<Point>
<coordinates>
121.9256363,25.0658741,18.99
</coordinates>
</Point>
</Placemark>
<Placemark>
<name>
Sat Apr 30 10:23:57 2011
</name>
<styleUrl>
#styleMap_TLP_Normal
</styleUrl>
<Point>
<coordinates>
121.9259033,25.0657616,18.69
</coordinates>
</Point>
</Placemark>
<Placemark>
<name>
Sat Apr 30 10:24:02 2011
</name>
<styleUrl>
#styleMap_TLP_Normal
</styleUrl>
<Point>
<coordinates>
121.9261246,25.0655899,17.95
</coordinates>
</Point>
</Placemark>
<Placemark>
<name>
Sat Apr 30 10:24:07 2011
</name>
<styleUrl>
#styleMap_TLP_Normal
</styleUrl>
<Point>
<coordinates>
121.9263382,25.0654049,17.76
</coordinates>
</Point>
</Placemark>
<Placemark>
<name>
Sat Apr 30 10:24:12 2011
</name>
<styleUrl>
#styleMap_TLP_Normal
</styleUrl>
<Point>
<coordinates>
121.9265289,25.0652237,17.13
</coordinates>
</Point>
</Placemark>
<Placemark>
<name>
Sat Apr 30 10:24:17 2011
</name>
<styleUrl>
#styleMap_TLP_Normal
</styleUrl>
<Point>
<coordinates>
121.9267120,25.0650635,16.59
</coordinates>
</Point>
</Placemark>
<Placemark>
<name>
Sat Apr 30 10:24:22 2011
</name>
<styleUrl>
#styleMap_TLP_Normal
</styleUrl>
<Point>
<coordinates>
121.9268723,25.0648994,16.56
</coordinates>
</Point>
</Placemark>
<Placemark>
<name>
Sat Apr 30 10:24:27 2011
</name>
<styleUrl>
#styleMap_TLP_Normal
</styleUrl>
<Point>
<coordinates>
121.9270172,25.0647335,16.25
</coordinates>
</Point>
</Placemark>
<Placemark>
<name>
Sat Apr 30 10:24:32 2011
</name>
<styleUrl>
#styleMap_TLP_Normal
</styleUrl>
<Point>
<coordinates>
121.9271774,25.0645885,16.47
</coordinates>
</Point>
</Placemark>
<Placemark>
<name>
Sat Apr 30 10:24:37 2011
</name>
<styleUrl>
#styleMap_TLP_Normal
</styleUrl>
<Point>
<coordinates>
121.9273376,25.0644283,15.99
</coordinates>
</Point>
</Placemark>
<Placemark>
<name>
Sat Apr 30 10:24:42 2011
</name>
<styleUrl>
#styleMap_TLP_Normal
</styleUrl>
<Point>
<coordinates>
121.9275131,25.0642662,15.24
</coordinates>
</Point>
</Placemark>
<Placemark>
<name>
Sat Apr 30 10:24:47 2011
</name>
<styleUrl>
#styleMap_TLP_Normal
</styleUrl>
<Point>
<coordinates>
121.9276886,25.0640984,16.44
</coordinates>
</Point>
</Placemark>
<Placemark>
<name>
Sat Apr 30 10:24:52 2011
</name>
<styleUrl>
#styleMap_TLP_Normal
</styleUrl>
<Point>
<coordinates>
121.9278641,25.0639343,16.58
</coordinates>
</Point>
</Placemark>
<Placemark>
<name>
Sat Apr 30 10:24:57 2011
</name>
<styleUrl>
#styleMap_TLP_Normal
</styleUrl>
<Point>
<coordinates>
121.9280396,25.0637474,15.20
</coordinates>
</Point>
</Placemark>
<Placemark>
<name>
Sat Apr 30 10:25:02 2011
</name>
<styleUrl>
#styleMap_TLP_Normal
</styleUrl>
<Point>
<coordinates>
121.9282227,25.0635757,15.86
</coordinates>
</Point>
</Placemark>
<Placemark>
<name>
Sat Apr 30 10:25:07 2011
</name>
<styleUrl>
#styleMap_TLP_Normal
</styleUrl>
<Point>
<coordinates>
121.9284058,25.0634022,15.28
</coordinates>
</Point>
</Placemark>
<Placemark>
<name>
Sat Apr 30 10:25:12 2011
</name>
<styleUrl>
#styleMap_TLP_Normal
</styleUrl>
<Point>
<coordinates>
121.9286041,25.0632420,15.50
</coordinates>
</Point>
</Placemark>
<Placemark>
<name>
Sat Apr 30 10:25:17 2011
</name>
<styleUrl>
#styleMap_TLP_Normal
</styleUrl>
<Point>
<coordinates>
121.9288330,25.0631161,16.94
</coordinates>
</Point>
</Placemark>
<Placemark>
<name>
Sat Apr 30 10:25:22 2011
</name>
<styleUrl>
#styleMap_TLP_Normal
</styleUrl>
<Point>
<coordinates>
121.9290771,25.0629807,17.15
</coordinates>
</Point>
</Placemark>
<Placemark>
<name>
Sat Apr 30 10:25:27 2011
</name>
<styleUrl>
#styleMap_TLP_Normal
</styleUrl>
<Point>
<coordinates>
121.9293289,25.0628395,16.89
</coordinates>
</Point>
</Placemark>
<Placemark>
<name>
Sat Apr 30 10:25:32 2011
</name>
<styleUrl>
#styleMap_TLP_Normal
</styleUrl>
<Point>
<coordinates>
121.9295502,25.0626984,17.25
</coordinates>
</Point>
</Placemark>
<Placemark>
<name>
Sat Apr 30 10:25:37 2011
</name>
<styleUrl>
#styleMap_TLP_Normal
</styleUrl>
<Point>
<coordinates>
121.9296646,25.0624886,16.85
</coordinates>
</Point>
</Placemark>
<Placemark>
<name>
Sat Apr 30 10:25:42 2011
</name>
<styleUrl>
#styleMap_TLP_Normal
</styleUrl>
<Point>
<coordinates>
121.9297104,25.0622730,17.95
</coordinates>
</Point>
</Placemark>
<Placemark>
<name>
Sat Apr 30 10:25:47 2011
</name>
<styleUrl>
#styleMap_TLP_Normal
</styleUrl>
<Point>
<coordinates>
121.9296722,25.0620899,18.77
</coordinates>
</Point>
</Placemark>
<Placemark>
<name>
Sat Apr 30 10:25:52 2011
</name>
<styleUrl>
#styleMap_TLP_Normal
</styleUrl>
<Point>
<coordinates>
121.9295425,25.0619087,19.34
</coordinates>
</Point>
</Placemark>
<Placemark>
<name>
Sat Apr 30 10:25:57 2011
</name>
<styleUrl>
#styleMap_TLP_Normal
</styleUrl>
<Point>
<coordinates>
121.9293747,25.0617485,19.45
</coordinates>
</Point>
</Placemark>
<Placemark>
<name>
Sat Apr 30 10:26:02 2011
</name>
<styleUrl>
#styleMap_TLP_Normal
</styleUrl>
<Point>
<coordinates>
121.9291916,25.0615997,19.31
</coordinates>
</Point>
</Placemark>
<Placemark>
<name>
Sat Apr 30 10:26:07 2011
</name>
<styleUrl>
#styleMap_TLP_Normal
</styleUrl>
<Point>
<coordinates>
121.9290161,25.0614433,19.71
</coordinates>
</Point>
</Placemark>
<Placemark>
<name>
Sat Apr 30 10:26:12 2011
</name>
<styleUrl>
#styleMap_TLP_Normal
</styleUrl>
<Point>
<coordinates>
121.9288635,25.0612984,20.41
</coordinates>
</Point>
</Placemark>
<Placemark>
<name>
Sat Apr 30 10:26:17 2011
</name>
<styleUrl>
#styleMap_TLP_Normal
</styleUrl>
<Point>
<coordinates>
121.9287338,25.0611668,21.09
</coordinates>
</Point>
</Placemark>
<Placemark>
<name>
Sat Apr 30 10:26:22 2011
</name>
<styleUrl>
#styleMap_TLP_Normal
</styleUrl>
<Point>
<coordinates>
121.9286041,25.0610371,20.50
</coordinates>
</Point>
</Placemark>
<Placemark>
<name>
Sat Apr 30 10:26:27 2011
</name>
<styleUrl>
#styleMap_TLP_Normal
</styleUrl>
<Point>
<coordinates>
121.9284515,25.0609131,20.41
</coordinates>
</Point>
</Placemark>
<Placemark>
<name>
Sat Apr 30 10:26:32 2011
</name>
<styleUrl>
#styleMap_TLP_Normal
</styleUrl>
<Point>
<coordinates>
121.9282913,25.0607738,19.77
</coordinates>
</Point>
</Placemark>
<Placemark>
<name>
Sat Apr 30 10:26:37 2011
</name>
<styleUrl>
#styleMap_TLP_Normal
</styleUrl>
<Point>
<coordinates>
121.9281235,25.0606003,19.54
</coordinates>
</Point>
</Placemark>
<Placemark>
<name>
Sat Apr 30 10:26:42 2011
</name>
<styleUrl>
#styleMap_TLP_Normal
</styleUrl>
<Point>
<coordinates>
121.9279099,25.0604324,19.84
</coordinates>
</Point>
</Placemark>
<Placemark>
<name>
Sat Apr 30 10:26:47 2011
</name>
<styleUrl>
#styleMap_TLP_Normal
</styleUrl>
<Point>
<coordinates>
121.9277039,25.0602703,18.76
</coordinates>
</Point>
</Placemark>
<Placemark>
<name>
Sat Apr 30 10:26:52 2011
</name>
<styleUrl>
#styleMap_TLP_Normal
</styleUrl>
<Point>
<coordinates>
121.9274445,25.0600815,16.26
</coordinates>
</Point>
</Placemark>
<Placemark>
<name>
Sat Apr 30 10:26:57 2011
</name>
<styleUrl>
#styleMap_TLP_Normal
</styleUrl>
<Point>
<coordinates>
121.9271927,25.0598621,14.39
</coordinates>
</Point>
</Placemark>
<Placemark>
<name>
Sat Apr 30 10:27:02 2011
</name>
<styleUrl>
#styleMap_TLP_Normal
</styleUrl>
<Point>
<coordinates>
121.9268494,25.0597610,11.52
</coordinates>
</Point>
</Placemark>
<Placemark>
<name>
Sat Apr 30 10:27:07 2011
</name>
<styleUrl>
#styleMap_TLP_Normal
</styleUrl>
<Point>
<coordinates>
121.9264679,25.0597553,9.21
</coordinates>
</Point>
</Placemark>
<Placemark>
<name>
Sat Apr 30 10:27:12 2011
</name>
<styleUrl>
#styleMap_TLP_Normal
</styleUrl>
<Point>
<coordinates>
121.9261093,25.0597172,6.60
</coordinates>
</Point>
</Placemark>
<Placemark>
<name>
Sat Apr 30 10:27:17 2011
</name>
<styleUrl>
#styleMap_TLP_Normal
</styleUrl>
<Point>
<coordinates>
121.9258270,25.0596066,5.35
</coordinates>
</Point>
</Placemark>
<Placemark>
<name>
Sat Apr 30 10:27:22 2011
</name>
<styleUrl>
#styleMap_TLP_Normal
</styleUrl>
<Point>
<coordinates>
121.9256134,25.0594387,3.78
</coordinates>
</Point>
</Placemark>
<Placemark>
<name>
Sat Apr 30 10:27:27 2011
</name>
<styleUrl>
#styleMap_TLP_Normal
</styleUrl>
<Point>
<coordinates>
121.9254074,25.0592403,3.27
</coordinates>
</Point>
</Placemark>
<Placemark>
<name>
Sat Apr 30 10:27:32 2011
</name>
<styleUrl>
#styleMap_TLP_Normal
</styleUrl>
<Point>
<coordinates>
121.9252701,25.0590324,3.67
</coordinates>
</Point>
</Placemark>
<Placemark>
<name>
Sat Apr 30 10:27:37 2011
</name>
<styleUrl>
#styleMap_TLP_Normal
</styleUrl>
<Point>
<coordinates>
121.9251556,25.0588131,3.80
</coordinates>
</Point>
</Placemark>
<Placemark>
<name>
Sat Apr 30 10:27:42 2011
</name>
<styleUrl>
#styleMap_TLP_Normal
</styleUrl>
<Point>
<coordinates>
121.9251099,25.0585594,4.36
</coordinates>
</Point>
</Placemark>
<Placemark>
<name>
Sat Apr 30 10:27:47 2011
</name>
<styleUrl>
#styleMap_TLP_Normal
</styleUrl>
<Point>
<coordinates>
121.9250870,25.0582771,4.85
</coordinates>
</Point>
</Placemark>
<Placemark>
<name>
Sat Apr 30 10:27:52 2011
</name>
<styleUrl>
#styleMap_TLP_Normal
</styleUrl>
<Point>
<coordinates>
121.9250793,25.0580273,5.25
</coordinates>
</Point>
</Placemark>
<Placemark>
<name>
Sat Apr 30 10:27:57 2011
</name>
<styleUrl>
#styleMap_TLP_Normal
</styleUrl>
<Point>
<coordinates>
121.9250259,25.0578232,6.00
</coordinates>
</Point>
</Placemark>
<Placemark>
<name>
Sat Apr 30 10:28:02 2011
</name>
<styleUrl>
#styleMap_TLP_Normal
</styleUrl>
<Point>
<coordinates>
121.9249039,25.0576382,5.89
</coordinates>
</Point>
</Placemark>
<Placemark>
<name>
Sat Apr 30 10:28:07 2011
</name>
<styleUrl>
#styleMap_TLP_Normal
</styleUrl>
<Point>
<coordinates>
121.9247742,25.0574360,5.31
</coordinates>
</Point>
</Placemark>
<Placemark>
<name>
Sat Apr 30 10:28:12 2011
</name>
<styleUrl>
#styleMap_TLP_Normal
</styleUrl>
<Point>
<coordinates>
121.9246368,25.0572548,5.32
</coordinates>
</Point>
</Placemark>
<Placemark>
<name>
Sat Apr 30 10:28:17 2011
</name>
<styleUrl>
#styleMap_TLP_Normal
</styleUrl>
<Point>
<coordinates>
121.9245834,25.0570221,5.61
</coordinates>
</Point>
</Placemark>
<Placemark>
<name>
Sat Apr 30 10:28:22 2011
</name>
<styleUrl>
#styleMap_TLP_Normal
</styleUrl>
<Point>
<coordinates>
121.9244843,25.0568542,6.61
</coordinates>
</Point>
</Placemark>
<Placemark>
<name>
Sat Apr 30 10:28:27 2011
</name>
<styleUrl>
#styleMap_TLP_Normal
</styleUrl>
<Point>
<coordinates>
121.9244232,25.0566978,8.52
</coordinates>
</Point>
</Placemark>
<Placemark>
<name>
Sat Apr 30 10:28:32 2011
</name>
<styleUrl>
#styleMap_TLP_Normal
</styleUrl>
<Point>
<coordinates>
121.9243469,25.0565529,8.80
</coordinates>
</Point>
</Placemark>
<Placemark>
<name>
Sat Apr 30 10:28:37 2011
</name>
<styleUrl>
#styleMap_TLP_Normal
</styleUrl>
<Point>
<coordinates>
121.9243622,25.0564022,9.61
</coordinates>
</Point>
</Placemark>
<Placemark>
<name>
Sat Apr 30 10:28:42 2011
</name>
<styleUrl>
#styleMap_TLP_Normal
</styleUrl>
<Point>
<coordinates>
121.9243774,25.0563087,10.39
</coordinates>
</Point>
</Placemark>
<Placemark>
<name>
Sat Apr 30 10:28:47 2011
</name>
<styleUrl>
#styleMap_TLP_Normal
</styleUrl>
<Point>
<coordinates>
121.9244232,25.0561981,11.75
</coordinates>
</Point>
</Placemark>
<Placemark>
<name>
Sat Apr 30 10:28:52 2011
</name>
<styleUrl>
#styleMap_TLP_Normal
</styleUrl>
<Point>
<coordinates>
121.9244614,25.0561104,11.95
</coordinates>
</Point>
</Placemark>
<Placemark>
<name>
Sat Apr 30 10:28:57 2011
</name>
<styleUrl>
#styleMap_TLP_Normal
</styleUrl>
<Point>
<coordinates>
121.9244995,25.0559845,13.10
</coordinates>
</Point>
</Placemark>
<Placemark>
<name>
Sat Apr 30 10:29:02 2011
</name>
<styleUrl>
#styleMap_TLP_Normal
</styleUrl>
<Point>
<coordinates>
121.9245377,25.0558758,14.62
</coordinates>
</Point>
</Placemark>
<Placemark>
<name>
Sat Apr 30 10:29:07 2011
</name>
<styleUrl>
#styleMap_TLP_Normal
</styleUrl>
<Point>
<coordinates>
121.9245911,25.0558662,19.21
</coordinates>
</Point>
</Placemark>
<Placemark>
<name>
Sat Apr 30 10:29:12 2011
</name>
<styleUrl>
#styleMap_TLP_Normal
</styleUrl>
<Point>
<coordinates>
121.9246063,25.0558453,21.11
</coordinates>
</Point>
</Placemark>
<Placemark>
<name>
Sat Apr 30 10:29:17 2011
</name>
<styleUrl>
#styleMap_TLP_Normal
</styleUrl>
<Point>
<coordinates>
121.9247513,25.0557728,23.61
</coordinates>
</Point>
</Placemark>
<Placemark>
<name>
Sat Apr 30 10:29:22 2011
</name>
<styleUrl>
#styleMap_TLP_Normal
</styleUrl>
<Point>
<coordinates>
121.9246521,25.0555973,21.57
</coordinates>
</Point>
</Placemark>
<Placemark>
<name>
Sat Apr 30 10:29:27 2011
</name>
<styleUrl>
#styleMap_TLP_Normal
</styleUrl>
<Point>
<coordinates>
121.9245911,25.0555420,20.83
</coordinates>
</Point>
</Placemark>
<Placemark>
<name>
Sat Apr 30 10:29:32 2011
</name>
<styleUrl>
#styleMap_TLP_Normal
</styleUrl>
<Point>
<coordinates>
121.9245529,25.0555019,20.81
</coordinates>
</Point>
</Placemark>
<Placemark>
<name>
Sat Apr 30 10:29:37 2011
</name>
<styleUrl>
#styleMap_TLP_Normal
</styleUrl>
<Point>
<coordinates>
121.9245834,25.0555000,21.32
</coordinates>
</Point>
</Placemark>
<Placemark>
<name>
Sat Apr 30 10:29:42 2011
</name>
<styleUrl>
#styleMap_TLP_Normal
</styleUrl>
<Point>
<coordinates>
121.9245987,25.0555172,22.29
</coordinates>
</Point>
</Placemark>
<Placemark>
<name>
Sat Apr 30 10:29:47 2011
</name>
<styleUrl>
#styleMap_TLP_Normal
</styleUrl>
<Point>
<coordinates>
121.9246750,25.0555153,23.69
</coordinates>
</Point>
</Placemark>
<Placemark>
<name>
Sat Apr 30 10:29:52 2011
</name>
<styleUrl>
#styleMap_TLP_Normal
</styleUrl>
<Point>
<coordinates>
121.9246750,25.0555058,23.89
</coordinates>
</Point>
</Placemark>
<Placemark>
<name>
Sat Apr 30 10:29:57 2011
</name>
<styleUrl>
#styleMap_TLP_Finish
</styleUrl>
<Point>
<coordinates>
121.9246826,25.0554943,24.00
</coordinates>
</Point>
</Placemark>
</Folder>
</Document>
</kml>
