<?xml version="1.0" encoding="UTF-8"?>
<kml xmlns="http://earth.google.com/kml/2.1">
<Document>
<Style id="normalState_TLP_Start">
<IconStyle>
<scale>1.0</scale>
<Icon>
<href>http://maps.google.com/mapfiles/kml/pal4/icon15.png</href>
</Icon>
</IconStyle>
<LabelStyle>
<scale>1.0</scale>
</LabelStyle>
</Style>
<Style id="highlightState_TLP_Start">
<IconStyle>
<scale>1.1</scale>
<Icon>
<href>http://maps.google.com/mapfiles/kml/pal4/icon7.png</href>
</Icon>
</IconStyle>
<LabelStyle>
<scale>1.1</scale>
<color>ff0000ff</color>
</LabelStyle>
</Style>
<StyleMap id="styleMap_TLP_Start">
<Pair>
<key>normal</key>
<styleUrl>#normalState_TLP_Start</styleUrl>
</Pair>
<Pair>
<key>highlight</key>
<styleUrl>#highlightState_TLP_Start</styleUrl>
</Pair>
</StyleMap>
<Style id="normalState_TLP_Finish">
<IconStyle>
<scale>1.0</scale>
<Icon>
<href>http://maps.google.com/mapfiles/kml/pal4/icon15.png</href>
</Icon>
</IconStyle>
<LabelStyle>
<scale>1.0</scale>
</LabelStyle>
</Style>
<Style id="highlightState_TLP_Finish">
<IconStyle>
<scale>1.1</scale>
<Icon>
<href>http://maps.google.com/mapfiles/kml/pal4/icon7.png</href>
</Icon>
</IconStyle>
<LabelStyle>
<scale>1.1</scale>
<color>ff0000ff</color>
</LabelStyle>
</Style>
<StyleMap id="styleMap_TLP_Finish">
<Pair>
<key>normal</key>
<styleUrl>#normalState_TLP_Finish</styleUrl>
</Pair>
<Pair>
<key>highlight</key>
<styleUrl>#highlightState_TLP_Finish</styleUrl>
</Pair>
</StyleMap>
<Style id="normalState_TLP_Normal">
<IconStyle>
<scale>1.0</scale>
<Icon>
<href>http://maps.google.com/mapfiles/kml/pal4/icon31.png</href>
</Icon>
</IconStyle>
<LabelStyle>
<scale>1.0</scale>
</LabelStyle>
</Style>
<Style id="highlightState_TLP_Normal">
<IconStyle>
<scale>1.1</scale>
<Icon>
<href>http://maps.google.com/mapfiles/kml/pal4/icon23.png</href>
</Icon>
</IconStyle>
<LabelStyle>
<scale>1.1</scale>
<color>ff0000ff</color>
</LabelStyle>
</Style>
<StyleMap id="styleMap_TLP_Normal">
<Pair>
<key>normal</key>
<styleUrl>#normalState_TLP_Normal</styleUrl>
</Pair>
<Pair>
<key>highlight</key>
<styleUrl>#highlightState_TLP_Normal</styleUrl>
</Pair>
</StyleMap>
<Style id="normalState_TLP_Photo">
<IconStyle>
<scale>1.0</scale>
<Icon>
<href>http://maps.google.com/mapfiles/kml/pal4/icon46.png</href>
</Icon>
</IconStyle>
<LabelStyle>
<scale>1.0</scale>
</LabelStyle>
</Style>
<Style id="highlightState_TLP_Photo">
<IconStyle>
<scale>1.1</scale>
<Icon>
<href>http://maps.google.com/mapfiles/kml/pal4/icon38.png</href>
</Icon>
</IconStyle>
<LabelStyle>
<scale>1.1</scale>
<color>ff0000ff</color>
</LabelStyle>
</Style>
<StyleMap id="styleMap_TLP_Photo">
<Pair>
<key>normal</key>
<styleUrl>#normalState_TLP_Photo</styleUrl>
</Pair>
<Pair>
<key>highlight</key>
<styleUrl>#highlightState_TLP_Photo</styleUrl>
</Pair>
</StyleMap>
<Style id="roadStyle">
<LineStyle>
<color>ffffff00</color>
<width>6</width>
</LineStyle>
</Style>
<Open>1</Open>
<description>Route</description>
<name>Track Log</name>
<Placemark>
<name>Route</name>
<styleUrl>#roadStyle</styleUrl>
<MultiGeometry>
<LineString>
<coordinates>
121.7384186,24.7516899,52.30 121.7384262,24.7516022,50.50 121.7384186,24.7515850,49.82 121.7384262,24.7515411,49.52 121.7384338,24.7515144,49.21 121.7384567,24.7514687,48.45 121.7384644,24.7514114,48.37 121.7384415,24.7514343,47.63 121.7384415,24.7514687,46.99 121.7383957,24.7515049,45.38 121.7383957,24.7515049,45.13 121.7383881,24.7515049,45.00 121.7383881,24.7515049,44.96 121.7383728,24.7515030,44.80 121.7382965,24.7514534,44.32 121.7381744,24.7513809,44.18 121.7380524,24.7513542,44.39 121.7378540,24.7512646,43.97 121.7376938,24.7511253,43.39 121.7375412,24.7509918,43.61 121.7373657,24.7508793,41.88 121.7371445,24.7508011,39.07 121.7369308,24.7506905,37.63 121.7367172,24.7505703,36.14 121.7364883,24.7504368,34.04 121.7362595,24.7503147,30.33 121.7360458,24.7502499,25.51 121.7358246,24.7501583,21.98 121.7356033,24.7500381,19.04 121.7353745,24.7499199,17.34 121.7351685,24.7497940,16.69 121.7349930,24.7496071,18.24 121.7347107,24.7495003,19.10 121.7344589,24.7493954,20.25 121.7342072,24.7492867,20.23 121.7339783,24.7492123,19.54 121.7337494,24.7491188,18.84 121.7334824,24.7490082,19.87 121.7332458,24.7488976,19.45 121.7330093,24.7488098,18.18 121.7327271,24.7486954,17.97 121.7324829,24.7485943,17.89 121.7323532,24.7485561,14.58 121.7323074,24.7485447,15.13 121.7322998,24.7485485,16.10 121.7322998,24.7485485,15.99 121.7322998,24.7485485,15.99 121.7322998,24.7485466,16.01 121.7322922,24.7485485,16.05 121.7322998,24.7485485,16.08 121.7322998,24.7485485,16.08 121.7322998,24.7485504,16.09 121.7322998,24.7485504,16.09 121.7322998,24.7485504,16.07 121.7322998,24.7485485,16.07 121.7322998,24.7485485,16.08 121.7322998,24.7485485,16.08 121.7322998,24.7485485,16.06 121.7322998,24.7485466,16.05 121.7322998,24.7485485,16.06 121.7322998,24.7485485,16.08 121.7322998,24.7485485,16.11 121.7322311,24.7485180,17.17 121.7321167,24.7484455,16.74 121.7319412,24.7483368,17.74 121.7317200,24.7482052,20.66 121.7315063,24.7480850,22.71 121.7312775,24.7479763,23.43 121.7310562,24.7478523,25.11 121.7308426,24.7477551,23.97 121.7306519,24.7476501,19.75 121.7304153,24.7475243,19.54 121.7302017,24.7473965,22.26 121.7299652,24.7472801,21.61 121.7298050,24.7471733,20.88 121.7296066,24.7470551,22.21 121.7294235,24.7469540,28.03 121.7292023,24.7468414,31.07 121.7289810,24.7467384,36.19 121.7287979,24.7466049,37.81 121.7285843,24.7464466,40.68 121.7283936,24.7462978,42.15 121.7281876,24.7461452,42.51 121.7279816,24.7459564,47.36 121.7277756,24.7458496,55.46 121.7275772,24.7457275,59.03 121.7273865,24.7456188,60.72 121.7271423,24.7455482,58.08 121.7269440,24.7454185,63.91 121.7267380,24.7452888,66.05 121.7264862,24.7451916,59.94 121.7262955,24.7450409,57.13 121.7260742,24.7448750,56.58 121.7258835,24.7447567,53.72 121.7256699,24.7446651,51.73 121.7254257,24.7445431,49.74 121.7251968,24.7444153,45.77 121.7249756,24.7442684,44.06 121.7247849,24.7441158,45.01 121.7246170,24.7440586,40.42 121.7245712,24.7440510,36.77 121.7245636,24.7440491,36.99 121.7245636,24.7440491,37.02 121.7245636,24.7440491,37.05 121.7245483,24.7440586,37.08 121.7245483,24.7440586,37.05 121.7245483,24.7440586,37.02 121.7245483,24.7440605,37.01 121.7245483,24.7440605,37.00 121.7245102,24.7440414,36.81 121.7243652,24.7439365,38.40 121.7242126,24.7438259,40.99 121.7240372,24.7436714,46.38 121.7238693,24.7435169,48.09 121.7236862,24.7433739,46.32 121.7235031,24.7432404,47.75 121.7233276,24.7431221,48.52 121.7231445,24.7429562,49.03 121.7229919,24.7427654,51.71 121.7228241,24.7425747,52.06 121.7226181,24.7424049,52.28 121.7223969,24.7422543,46.33 121.7222061,24.7420654,42.81 121.7220306,24.7418842,38.66 121.7219086,24.7416821,36.36 121.7218170,24.7414932,35.35 121.7217331,24.7412910,38.90 121.7216415,24.7410774,41.58 121.7215576,24.7408676,46.47 121.7214737,24.7406483,49.87 121.7213974,24.7404423,51.53 121.7213058,24.7402420,50.89 121.7212448,24.7400322,49.86 121.7211838,24.7398205,51.68 121.7211151,24.7395992,53.39 121.7210617,24.7393761,57.75 121.7210007,24.7391567,58.96 121.7209015,24.7389679,61.53 121.7207794,24.7387886,63.59 121.7206421,24.7386456,67.37 121.7205505,24.7385864,65.07 121.7205505,24.7385826,64.36 121.7205582,24.7385826,64.34 121.7205582,24.7385826,64.15 121.7205582,24.7385826,63.88 121.7205582,24.7385826,63.72 121.7205582,24.7385826,63.58 121.7205505,24.7385788,63.54 121.7205505,24.7385750,63.53 121.7205353,24.7385654,63.47 121.7204514,24.7384987,63.15 121.7203445,24.7384052,62.18 121.7202072,24.7382870,56.57 121.7200623,24.7381706,51.59 121.7198792,24.7380352,46.96 121.7196960,24.7378922,42.92 121.7195511,24.7377644,39.85 121.7194214,24.7376461,39.61 121.7192688,24.7374935,41.53 121.7191010,24.7373466,44.70 121.7189331,24.7371769,45.00 121.7187347,24.7370472,46.98 121.7185440,24.7369022,41.92 121.7183533,24.7367706,34.62 121.7181625,24.7365990,30.55 121.7179718,24.7364235,29.24 121.7177505,24.7362728,26.78 121.7175369,24.7361164,25.96 121.7173309,24.7359486,24.76 121.7171478,24.7357674,24.87 121.7169800,24.7356339,24.67 121.7168274,24.7355156,29.23 121.7166519,24.7353554,27.42 121.7165375,24.7351685,27.64 121.7164764,24.7349186,32.02 121.7164459,24.7346592,34.28 121.7164307,24.7343903,35.23 121.7164154,24.7341099,35.78 121.7164078,24.7338238,38.04 121.7164001,24.7335396,36.25 121.7163925,24.7332745,35.33 121.7163773,24.7330017,36.64 121.7163544,24.7327499,38.21 121.7163239,24.7325058,37.51 121.7163086,24.7322330,35.48 121.7163010,24.7319565,33.10 121.7162933,24.7317200,34.65 121.7162857,24.7314835,35.14 121.7162628,24.7312260,35.27 121.7162476,24.7309628,36.87 121.7162399,24.7306767,37.82 121.7162170,24.7304077,39.02 121.7161942,24.7301559,42.78 121.7161942,24.7299271,45.36 121.7161789,24.7297115,48.32 121.7161636,24.7294674,47.67 121.7161102,24.7292023,47.26 121.7159729,24.7289734,44.70 121.7157822,24.7287979,44.62 121.7155762,24.7286396,43.38 121.7153549,24.7284698,41.92 121.7151489,24.7282810,38.54 121.7149429,24.7280960,35.60 121.7147598,24.7279491,36.22 121.7145615,24.7278118,39.54 121.7143784,24.7277431,46.82 121.7141800,24.7276077,45.49 121.7140045,24.7274990,44.90 121.7138062,24.7273846,40.64 121.7135925,24.7272587,36.97 121.7133865,24.7271519,37.24 121.7131882,24.7270298,37.30 121.7130051,24.7269039,37.92 121.7127991,24.7267628,38.18 121.7126389,24.7266045,39.02 121.7124634,24.7264175,39.78 121.7122803,24.7262230,38.54 121.7120895,24.7260361,35.59 121.7118988,24.7258472,33.68 121.7117462,24.7256813,33.29 121.7116470,24.7255745,33.35 121.7115402,24.7254810,33.42 121.7114029,24.7253456,34.91 121.7112427,24.7251835,34.39 121.7110825,24.7250137,33.39 121.7109299,24.7248306,32.00 121.7107697,24.7246628,33.34 121.7106018,24.7244797,34.31 121.7104263,24.7242889,33.97 121.7102356,24.7241116,32.79 121.7100677,24.7239590,36.54 121.7098846,24.7238026,37.55 121.7096863,24.7236404,39.48 121.7095184,24.7234974,36.40 121.7093735,24.7233639,35.56 121.7092209,24.7232475,36.52 121.7091751,24.7232342,38.34 121.7091751,24.7232342,38.57 121.7091827,24.7232342,38.67 121.7091827,24.7232361,38.68 121.7091827,24.7232361,38.69 121.7091827,24.7232361,38.71 121.7091827,24.7232361,38.74 121.7091827,24.7232361,38.76 121.7091217,24.7231941,37.75 121.7089996,24.7230968,37.41 121.7088776,24.7229977,38.34 121.7087173,24.7228909,39.58 121.7085571,24.7228012,42.79 121.7083893,24.7226849,42.81 121.7082291,24.7225628,42.11 121.7080688,24.7224426,42.45 121.7079239,24.7223301,44.80 121.7077789,24.7221832,46.19 121.7076492,24.7220364,50.15 121.7075272,24.7218494,54.64 121.7073822,24.7216702,54.55 121.7072067,24.7215099,50.26 121.7070236,24.7213459,49.51 121.7068329,24.7211971,47.23 121.7066422,24.7210712,48.45 121.7064667,24.7209206,47.30 121.7062683,24.7207775,47.73 121.7060471,24.7206688,49.35 121.7058182,24.7205791,46.90 121.7056274,24.7204933,46.27 121.7054825,24.7204304,46.98 121.7053299,24.7203732,43.62 121.7053146,24.7202473,42.84 121.7053757,24.7200985,42.79 121.7054138,24.7199097,38.88 121.7054825,24.7197113,35.09 121.7055359,24.7195339,33.44 121.7055969,24.7193413,36.37 121.7056580,24.7191734,40.57 121.7057114,24.7190037,43.30 121.7058105,24.7188263,43.58 121.7059326,24.7186546,49.13 121.7060394,24.7184925,52.73 121.7061386,24.7183323,53.52 121.7062454,24.7181435,51.25 121.7063599,24.7179585,50.31 121.7064667,24.7177963,58.02 121.7065811,24.7176056,58.33 121.7067032,24.7174263,60.50 121.7068176,24.7172489,62.52 121.7069092,24.7170811,63.76 121.7070084,24.7169037,64.22 121.7071075,24.7167320,65.67 121.7072144,24.7165775,67.11 121.7072830,24.7164307,69.33 121.7071304,24.7163410,63.36 121.7069321,24.7162590,57.24 121.7067108,24.7161636,51.39 121.7065125,24.7160759,46.00 121.7063370,24.7160072,41.63 121.7061615,24.7159157,38.63 121.7059937,24.7158394,34.92 121.7058334,24.7157650,34.22 121.7056656,24.7156830,33.01 121.7054901,24.7155914,31.34 121.7053223,24.7154961,28.78 121.7051392,24.7154102,27.91 121.7049637,24.7153225,27.74 121.7047729,24.7152367,28.14 121.7045822,24.7151413,28.38 121.7043915,24.7150536,27.37 121.7041931,24.7149544,28.13 121.7040253,24.7148705,27.88 121.7038422,24.7147884,26.76 121.7036896,24.7146969,27.89 121.7035065,24.7145996,27.55 121.7033081,24.7145004,26.31 121.7031021,24.7143841,25.34 121.7028961,24.7142754,25.74 121.7026978,24.7141457,27.76 121.7025528,24.7140141,27.98 121.7026062,24.7138081,29.76 121.7026825,24.7135925,30.83 121.7027740,24.7133961,31.63 121.7028351,24.7132053,31.03 121.7026901,24.7130852,30.51 121.7024918,24.7129784,29.26 121.7022858,24.7128735,29.44 121.7021713,24.7128143,35.04 121.7020569,24.7129040,39.24 121.7020111,24.7129288,40.35 121.7020035,24.7129326,41.13 121.7019958,24.7129364,41.35 121.7020035,24.7129364,41.45 121.7020035,24.7129326,41.54 121.7020111,24.7129307,41.59 121.7020187,24.7129269,41.63 121.7020264,24.7129211,41.68 121.7020264,24.7129211,41.73 121.7020340,24.7129192,41.79 121.7020340,24.7129173,41.87 121.7020340,24.7129173,41.91 121.7020340,24.7129173,41.94 121.7020493,24.7129097,41.97 121.7020493,24.7129040,42.00 121.7020645,24.7128963,42.02 121.7020721,24.7128887,42.05 121.7020798,24.7128849,42.07 121.7020798,24.7128830,42.09 121.7020798,24.7128811,42.10 121.7020874,24.7128792,42.12 121.7020874,24.7128773,42.14 121.7020874,24.7128792,42.15 121.7020874,24.7128792,42.17 121.7020874,24.7128754,42.24 121.7020874,24.7128735,42.31 121.7020874,24.7128735,42.34 121.7020874,24.7128735,42.36 121.7020874,24.7128735,42.38 121.7020874,24.7128716,42.40 121.7020874,24.7128716,42.40 121.7020950,24.7128716,42.41 121.7020874,24.7128716,42.42 121.7020874,24.7128696,42.45 121.7020874,24.7128696,42.49 121.7020874,24.7128696,42.53 121.7020874,24.7128696,42.52 121.7020874,24.7128696,42.50 121.7020874,24.7128696,42.49 121.7020874,24.7128696,42.49 121.7020874,24.7128696,42.49 121.7020950,24.7128716,42.49 121.7021027,24.7128830,42.49 </coordinates>
</LineString>
</MultiGeometry>
</Placemark>
<Folder>
<name>waypoints</name>
<Placemark>
<name>
Sat Apr 30 15:48:17 2011
</name>
<styleUrl>
#styleMap_TLP_Start
</styleUrl>
<Point>
<coordinates>
121.7384186,24.7516899,52.30
</coordinates>
</Point>
</Placemark>
<Placemark>
<name>
Sat Apr 30 15:48:22 2011
</name>
<styleUrl>
#styleMap_TLP_Normal
</styleUrl>
<Point>
<coordinates>
121.7384262,24.7516022,50.50
</coordinates>
</Point>
</Placemark>
<Placemark>
<name>
Sat Apr 30 15:48:27 2011
</name>
<styleUrl>
#styleMap_TLP_Normal
</styleUrl>
<Point>
<coordinates>
121.7384186,24.7515850,49.82
</coordinates>
</Point>
</Placemark>
<Placemark>
<name>
Sat Apr 30 15:48:32 2011
</name>
<styleUrl>
#styleMap_TLP_Normal
</styleUrl>
<Point>
<coordinates>
121.7384262,24.7515411,49.52
</coordinates>
</Point>
</Placemark>
<Placemark>
<name>
Sat Apr 30 15:48:37 2011
</name>
<styleUrl>
#styleMap_TLP_Normal
</styleUrl>
<Point>
<coordinates>
121.7384338,24.7515144,49.21
</coordinates>
</Point>
</Placemark>
<Placemark>
<name>
Sat Apr 30 15:48:42 2011
</name>
<styleUrl>
#styleMap_TLP_Normal
</styleUrl>
<Point>
<coordinates>
121.7384567,24.7514687,48.45
</coordinates>
</Point>
</Placemark>
<Placemark>
<name>
Sat Apr 30 15:48:47 2011
</name>
<styleUrl>
#styleMap_TLP_Normal
</styleUrl>
<Point>
<coordinates>
121.7384644,24.7514114,48.37
</coordinates>
</Point>
</Placemark>
<Placemark>
<name>
Sat Apr 30 15:48:52 2011
</name>
<styleUrl>
#styleMap_TLP_Normal
</styleUrl>
<Point>
<coordinates>
121.7384415,24.7514343,47.63
</coordinates>
</Point>
</Placemark>
<Placemark>
<name>
Sat Apr 30 15:48:57 2011
</name>
<styleUrl>
#styleMap_TLP_Normal
</styleUrl>
<Point>
<coordinates>
121.7384415,24.7514687,46.99
</coordinates>
</Point>
</Placemark>
<Placemark>
<name>
Sat Apr 30 15:49:02 2011
</name>
<styleUrl>
#styleMap_TLP_Normal
</styleUrl>
<Point>
<coordinates>
121.7383957,24.7515049,45.38
</coordinates>
</Point>
</Placemark>
<Placemark>
<name>
Sat Apr 30 15:49:07 2011
</name>
<styleUrl>
#styleMap_TLP_Normal
</styleUrl>
<Point>
<coordinates>
121.7383957,24.7515049,45.13
</coordinates>
</Point>
</Placemark>
<Placemark>
<name>
Sat Apr 30 15:49:12 2011
</name>
<styleUrl>
#styleMap_TLP_Normal
</styleUrl>
<Point>
<coordinates>
121.7383881,24.7515049,45.00
</coordinates>
</Point>
</Placemark>
<Placemark>
<name>
Sat Apr 30 15:49:17 2011
</name>
<styleUrl>
#styleMap_TLP_Normal
</styleUrl>
<Point>
<coordinates>
121.7383881,24.7515049,44.96
</coordinates>
</Point>
</Placemark>
<Placemark>
<name>
Sat Apr 30 15:49:22 2011
</name>
<styleUrl>
#styleMap_TLP_Normal
</styleUrl>
<Point>
<coordinates>
121.7383728,24.7515030,44.80
</coordinates>
</Point>
</Placemark>
<Placemark>
<name>
Sat Apr 30 15:49:27 2011
</name>
<styleUrl>
#styleMap_TLP_Normal
</styleUrl>
<Point>
<coordinates>
121.7382965,24.7514534,44.32
</coordinates>
</Point>
</Placemark>
<Placemark>
<name>
Sat Apr 30 15:49:32 2011
</name>
<styleUrl>
#styleMap_TLP_Normal
</styleUrl>
<Point>
<coordinates>
121.7381744,24.7513809,44.18
</coordinates>
</Point>
</Placemark>
<Placemark>
<name>
Sat Apr 30 15:49:37 2011
</name>
<styleUrl>
#styleMap_TLP_Normal
</styleUrl>
<Point>
<coordinates>
121.7380524,24.7513542,44.39
</coordinates>
</Point>
</Placemark>
<Placemark>
<name>
Sat Apr 30 15:49:42 2011
</name>
<styleUrl>
#styleMap_TLP_Normal
</styleUrl>
<Point>
<coordinates>
121.7378540,24.7512646,43.97
</coordinates>
</Point>
</Placemark>
<Placemark>
<name>
Sat Apr 30 15:49:47 2011
</name>
<styleUrl>
#styleMap_TLP_Normal
</styleUrl>
<Point>
<coordinates>
121.7376938,24.7511253,43.39
</coordinates>
</Point>
</Placemark>
<Placemark>
<name>
Sat Apr 30 15:49:52 2011
</name>
<styleUrl>
#styleMap_TLP_Normal
</styleUrl>
<Point>
<coordinates>
121.7375412,24.7509918,43.61
</coordinates>
</Point>
</Placemark>
<Placemark>
<name>
Sat Apr 30 15:49:57 2011
</name>
<styleUrl>
#styleMap_TLP_Normal
</styleUrl>
<Point>
<coordinates>
121.7373657,24.7508793,41.88
</coordinates>
</Point>
</Placemark>
<Placemark>
<name>
Sat Apr 30 15:50:02 2011
</name>
<styleUrl>
#styleMap_TLP_Normal
</styleUrl>
<Point>
<coordinates>
121.7371445,24.7508011,39.07
</coordinates>
</Point>
</Placemark>
<Placemark>
<name>
Sat Apr 30 15:50:07 2011
</name>
<styleUrl>
#styleMap_TLP_Normal
</styleUrl>
<Point>
<coordinates>
121.7369308,24.7506905,37.63
</coordinates>
</Point>
</Placemark>
<Placemark>
<name>
Sat Apr 30 15:50:12 2011
</name>
<styleUrl>
#styleMap_TLP_Normal
</styleUrl>
<Point>
<coordinates>
121.7367172,24.7505703,36.14
</coordinates>
</Point>
</Placemark>
<Placemark>
<name>
Sat Apr 30 15:50:17 2011
</name>
<styleUrl>
#styleMap_TLP_Normal
</styleUrl>
<Point>
<coordinates>
121.7364883,24.7504368,34.04
</coordinates>
</Point>
</Placemark>
<Placemark>
<name>
Sat Apr 30 15:50:22 2011
</name>
<styleUrl>
#styleMap_TLP_Normal
</styleUrl>
<Point>
<coordinates>
121.7362595,24.7503147,30.33
</coordinates>
</Point>
</Placemark>
<Placemark>
<name>
Sat Apr 30 15:50:27 2011
</name>
<styleUrl>
#styleMap_TLP_Normal
</styleUrl>
<Point>
<coordinates>
121.7360458,24.7502499,25.51
</coordinates>
</Point>
</Placemark>
<Placemark>
<name>
Sat Apr 30 15:50:32 2011
</name>
<styleUrl>
#styleMap_TLP_Normal
</styleUrl>
<Point>
<coordinates>
121.7358246,24.7501583,21.98
</coordinates>
</Point>
</Placemark>
<Placemark>
<name>
Sat Apr 30 15:50:37 2011
</name>
<styleUrl>
#styleMap_TLP_Normal
</styleUrl>
<Point>
<coordinates>
121.7356033,24.7500381,19.04
</coordinates>
</Point>
</Placemark>
<Placemark>
<name>
Sat Apr 30 15:50:42 2011
</name>
<styleUrl>
#styleMap_TLP_Normal
</styleUrl>
<Point>
<coordinates>
121.7353745,24.7499199,17.34
</coordinates>
</Point>
</Placemark>
<Placemark>
<name>
Sat Apr 30 15:50:47 2011
</name>
<styleUrl>
#styleMap_TLP_Normal
</styleUrl>
<Point>
<coordinates>
121.7351685,24.7497940,16.69
</coordinates>
</Point>
</Placemark>
<Placemark>
<name>
Sat Apr 30 15:50:52 2011
</name>
<styleUrl>
#styleMap_TLP_Normal
</styleUrl>
<Point>
<coordinates>
121.7349930,24.7496071,18.24
</coordinates>
</Point>
</Placemark>
<Placemark>
<name>
Sat Apr 30 15:50:57 2011
</name>
<styleUrl>
#styleMap_TLP_Normal
</styleUrl>
<Point>
<coordinates>
121.7347107,24.7495003,19.10
</coordinates>
</Point>
</Placemark>
<Placemark>
<name>
Sat Apr 30 15:51:02 2011
</name>
<styleUrl>
#styleMap_TLP_Normal
</styleUrl>
<Point>
<coordinates>
121.7344589,24.7493954,20.25
</coordinates>
</Point>
</Placemark>
<Placemark>
<name>
Sat Apr 30 15:51:07 2011
</name>
<styleUrl>
#styleMap_TLP_Normal
</styleUrl>
<Point>
<coordinates>
121.7342072,24.7492867,20.23
</coordinates>
</Point>
</Placemark>
<Placemark>
<name>
Sat Apr 30 15:51:12 2011
</name>
<styleUrl>
#styleMap_TLP_Normal
</styleUrl>
<Point>
<coordinates>
121.7339783,24.7492123,19.54
</coordinates>
</Point>
</Placemark>
<Placemark>
<name>
Sat Apr 30 15:51:17 2011
</name>
<styleUrl>
#styleMap_TLP_Normal
</styleUrl>
<Point>
<coordinates>
121.7337494,24.7491188,18.84
</coordinates>
</Point>
</Placemark>
<Placemark>
<name>
Sat Apr 30 15:51:22 2011
</name>
<styleUrl>
#styleMap_TLP_Normal
</styleUrl>
<Point>
<coordinates>
121.7334824,24.7490082,19.87
</coordinates>
</Point>
</Placemark>
<Placemark>
<name>
Sat Apr 30 15:51:27 2011
</name>
<styleUrl>
#styleMap_TLP_Normal
</styleUrl>
<Point>
<coordinates>
121.7332458,24.7488976,19.45
</coordinates>
</Point>
</Placemark>
<Placemark>
<name>
Sat Apr 30 15:51:32 2011
</name>
<styleUrl>
#styleMap_TLP_Normal
</styleUrl>
<Point>
<coordinates>
121.7330093,24.7488098,18.18
</coordinates>
</Point>
</Placemark>
<Placemark>
<name>
Sat Apr 30 15:51:37 2011
</name>
<styleUrl>
#styleMap_TLP_Normal
</styleUrl>
<Point>
<coordinates>
121.7327271,24.7486954,17.97
</coordinates>
</Point>
</Placemark>
<Placemark>
<name>
Sat Apr 30 15:51:42 2011
</name>
<styleUrl>
#styleMap_TLP_Normal
</styleUrl>
<Point>
<coordinates>
121.7324829,24.7485943,17.89
</coordinates>
</Point>
</Placemark>
<Placemark>
<name>
Sat Apr 30 15:51:47 2011
</name>
<styleUrl>
#styleMap_TLP_Normal
</styleUrl>
<Point>
<coordinates>
121.7323532,24.7485561,14.58
</coordinates>
</Point>
</Placemark>
<Placemark>
<name>
Sat Apr 30 15:51:52 2011
</name>
<styleUrl>
#styleMap_TLP_Normal
</styleUrl>
<Point>
<coordinates>
121.7323074,24.7485447,15.13
</coordinates>
</Point>
</Placemark>
<Placemark>
<name>
Sat Apr 30 15:51:57 2011
</name>
<styleUrl>
#styleMap_TLP_Normal
</styleUrl>
<Point>
<coordinates>
121.7322998,24.7485485,16.10
</coordinates>
</Point>
</Placemark>
<Placemark>
<name>
Sat Apr 30 15:52:02 2011
</name>
<styleUrl>
#styleMap_TLP_Normal
</styleUrl>
<Point>
<coordinates>
121.7322998,24.7485485,15.99
</coordinates>
</Point>
</Placemark>
<Placemark>
<name>
Sat Apr 30 15:52:07 2011
</name>
<styleUrl>
#styleMap_TLP_Normal
</styleUrl>
<Point>
<coordinates>
121.7322998,24.7485485,15.99
</coordinates>
</Point>
</Placemark>
<Placemark>
<name>
Sat Apr 30 15:52:12 2011
</name>
<styleUrl>
#styleMap_TLP_Normal
</styleUrl>
<Point>
<coordinates>
121.7322998,24.7485466,16.01
</coordinates>
</Point>
</Placemark>
<Placemark>
<name>
Sat Apr 30 15:52:17 2011
</name>
<styleUrl>
#styleMap_TLP_Normal
</styleUrl>
<Point>
<coordinates>
121.7322922,24.7485485,16.05
</coordinates>
</Point>
</Placemark>
<Placemark>
<name>
Sat Apr 30 15:52:22 2011
</name>
<styleUrl>
#styleMap_TLP_Normal
</styleUrl>
<Point>
<coordinates>
121.7322998,24.7485485,16.08
</coordinates>
</Point>
</Placemark>
<Placemark>
<name>
Sat Apr 30 15:52:27 2011
</name>
<styleUrl>
#styleMap_TLP_Normal
</styleUrl>
<Point>
<coordinates>
121.7322998,24.7485485,16.08
</coordinates>
</Point>
</Placemark>
<Placemark>
<name>
Sat Apr 30 15:52:32 2011
</name>
<styleUrl>
#styleMap_TLP_Normal
</styleUrl>
<Point>
<coordinates>
121.7322998,24.7485504,16.09
</coordinates>
</Point>
</Placemark>
<Placemark>
<name>
Sat Apr 30 15:52:37 2011
</name>
<styleUrl>
#styleMap_TLP_Normal
</styleUrl>
<Point>
<coordinates>
121.7322998,24.7485504,16.09
</coordinates>
</Point>
</Placemark>
<Placemark>
<name>
Sat Apr 30 15:52:42 2011
</name>
<styleUrl>
#styleMap_TLP_Normal
</styleUrl>
<Point>
<coordinates>
121.7322998,24.7485504,16.07
</coordinates>
</Point>
</Placemark>
<Placemark>
<name>
Sat Apr 30 15:52:47 2011
</name>
<styleUrl>
#styleMap_TLP_Normal
</styleUrl>
<Point>
<coordinates>
121.7322998,24.7485485,16.07
</coordinates>
</Point>
</Placemark>
<Placemark>
<name>
Sat Apr 30 15:52:52 2011
</name>
<styleUrl>
#styleMap_TLP_Normal
</styleUrl>
<Point>
<coordinates>
121.7322998,24.7485485,16.08
</coordinates>
</Point>
</Placemark>
<Placemark>
<name>
Sat Apr 30 15:52:57 2011
</name>
<styleUrl>
#styleMap_TLP_Normal
</styleUrl>
<Point>
<coordinates>
121.7322998,24.7485485,16.08
</coordinates>
</Point>
</Placemark>
<Placemark>
<name>
Sat Apr 30 15:53:02 2011
</name>
<styleUrl>
#styleMap_TLP_Normal
</styleUrl>
<Point>
<coordinates>
121.7322998,24.7485485,16.06
</coordinates>
</Point>
</Placemark>
<Placemark>
<name>
Sat Apr 30 15:53:07 2011
</name>
<styleUrl>
#styleMap_TLP_Normal
</styleUrl>
<Point>
<coordinates>
121.7322998,24.7485466,16.05
</coordinates>
</Point>
</Placemark>
<Placemark>
<name>
Sat Apr 30 15:53:12 2011
</name>
<styleUrl>
#styleMap_TLP_Normal
</styleUrl>
<Point>
<coordinates>
121.7322998,24.7485485,16.06
</coordinates>
</Point>
</Placemark>
<Placemark>
<name>
Sat Apr 30 15:53:17 2011
</name>
<styleUrl>
#styleMap_TLP_Normal
</styleUrl>
<Point>
<coordinates>
121.7322998,24.7485485,16.08
</coordinates>
</Point>
</Placemark>
<Placemark>
<name>
Sat Apr 30 15:53:22 2011
</name>
<styleUrl>
#styleMap_TLP_Normal
</styleUrl>
<Point>
<coordinates>
121.7322998,24.7485485,16.11
</coordinates>
</Point>
</Placemark>
<Placemark>
<name>
Sat Apr 30 15:53:27 2011
</name>
<styleUrl>
#styleMap_TLP_Normal
</styleUrl>
<Point>
<coordinates>
121.7322311,24.7485180,17.17
</coordinates>
</Point>
</Placemark>
<Placemark>
<name>
Sat Apr 30 15:53:32 2011
</name>
<styleUrl>
#styleMap_TLP_Normal
</styleUrl>
<Point>
<coordinates>
121.7321167,24.7484455,16.74
</coordinates>
</Point>
</Placemark>
<Placemark>
<name>
Sat Apr 30 15:53:37 2011
</name>
<styleUrl>
#styleMap_TLP_Normal
</styleUrl>
<Point>
<coordinates>
121.7319412,24.7483368,17.74
</coordinates>
</Point>
</Placemark>
<Placemark>
<name>
Sat Apr 30 15:53:42 2011
</name>
<styleUrl>
#styleMap_TLP_Normal
</styleUrl>
<Point>
<coordinates>
121.7317200,24.7482052,20.66
</coordinates>
</Point>
</Placemark>
<Placemark>
<name>
Sat Apr 30 15:53:47 2011
</name>
<styleUrl>
#styleMap_TLP_Normal
</styleUrl>
<Point>
<coordinates>
121.7315063,24.7480850,22.71
</coordinates>
</Point>
</Placemark>
<Placemark>
<name>
Sat Apr 30 15:53:52 2011
</name>
<styleUrl>
#styleMap_TLP_Normal
</styleUrl>
<Point>
<coordinates>
121.7312775,24.7479763,23.43
</coordinates>
</Point>
</Placemark>
<Placemark>
<name>
Sat Apr 30 15:53:57 2011
</name>
<styleUrl>
#styleMap_TLP_Normal
</styleUrl>
<Point>
<coordinates>
121.7310562,24.7478523,25.11
</coordinates>
</Point>
</Placemark>
<Placemark>
<name>
Sat Apr 30 15:54:02 2011
</name>
<styleUrl>
#styleMap_TLP_Normal
</styleUrl>
<Point>
<coordinates>
121.7308426,24.7477551,23.97
</coordinates>
</Point>
</Placemark>
<Placemark>
<name>
Sat Apr 30 15:54:07 2011
</name>
<styleUrl>
#styleMap_TLP_Normal
</styleUrl>
<Point>
<coordinates>
121.7306519,24.7476501,19.75
</coordinates>
</Point>
</Placemark>
<Placemark>
<name>
Sat Apr 30 15:54:12 2011
</name>
<styleUrl>
#styleMap_TLP_Normal
</styleUrl>
<Point>
<coordinates>
121.7304153,24.7475243,19.54
</coordinates>
</Point>
</Placemark>
<Placemark>
<name>
Sat Apr 30 15:54:17 2011
</name>
<styleUrl>
#styleMap_TLP_Normal
</styleUrl>
<Point>
<coordinates>
121.7302017,24.7473965,22.26
</coordinates>
</Point>
</Placemark>
<Placemark>
<name>
Sat Apr 30 15:54:22 2011
</name>
<styleUrl>
#styleMap_TLP_Normal
</styleUrl>
<Point>
<coordinates>
121.7299652,24.7472801,21.61
</coordinates>
</Point>
</Placemark>
<Placemark>
<name>
Sat Apr 30 15:54:27 2011
</name>
<styleUrl>
#styleMap_TLP_Normal
</styleUrl>
<Point>
<coordinates>
121.7298050,24.7471733,20.88
</coordinates>
</Point>
</Placemark>
<Placemark>
<name>
Sat Apr 30 15:54:32 2011
</name>
<styleUrl>
#styleMap_TLP_Normal
</styleUrl>
<Point>
<coordinates>
121.7296066,24.7470551,22.21
</coordinates>
</Point>
</Placemark>
<Placemark>
<name>
Sat Apr 30 15:54:37 2011
</name>
<styleUrl>
#styleMap_TLP_Normal
</styleUrl>
<Point>
<coordinates>
121.7294235,24.7469540,28.03
</coordinates>
</Point>
</Placemark>
<Placemark>
<name>
Sat Apr 30 15:54:42 2011
</name>
<styleUrl>
#styleMap_TLP_Normal
</styleUrl>
<Point>
<coordinates>
121.7292023,24.7468414,31.07
</coordinates>
</Point>
</Placemark>
<Placemark>
<name>
Sat Apr 30 15:54:47 2011
</name>
<styleUrl>
#styleMap_TLP_Normal
</styleUrl>
<Point>
<coordinates>
121.7289810,24.7467384,36.19
</coordinates>
</Point>
</Placemark>
<Placemark>
<name>
Sat Apr 30 15:54:52 2011
</name>
<styleUrl>
#styleMap_TLP_Normal
</styleUrl>
<Point>
<coordinates>
121.7287979,24.7466049,37.81
</coordinates>
</Point>
</Placemark>
<Placemark>
<name>
Sat Apr 30 15:54:57 2011
</name>
<styleUrl>
#styleMap_TLP_Normal
</styleUrl>
<Point>
<coordinates>
121.7285843,24.7464466,40.68
</coordinates>
</Point>
</Placemark>
<Placemark>
<name>
Sat Apr 30 15:55:02 2011
</name>
<styleUrl>
#styleMap_TLP_Normal
</styleUrl>
<Point>
<coordinates>
121.7283936,24.7462978,42.15
</coordinates>
</Point>
</Placemark>
<Placemark>
<name>
Sat Apr 30 15:55:07 2011
</name>
<styleUrl>
#styleMap_TLP_Normal
</styleUrl>
<Point>
<coordinates>
121.7281876,24.7461452,42.51
</coordinates>
</Point>
</Placemark>
<Placemark>
<name>
Sat Apr 30 15:55:12 2011
</name>
<styleUrl>
#styleMap_TLP_Normal
</styleUrl>
<Point>
<coordinates>
121.7279816,24.7459564,47.36
</coordinates>
</Point>
</Placemark>
<Placemark>
<name>
Sat Apr 30 15:55:17 2011
</name>
<styleUrl>
#styleMap_TLP_Normal
</styleUrl>
<Point>
<coordinates>
121.7277756,24.7458496,55.46
</coordinates>
</Point>
</Placemark>
<Placemark>
<name>
Sat Apr 30 15:55:22 2011
</name>
<styleUrl>
#styleMap_TLP_Normal
</styleUrl>
<Point>
<coordinates>
121.7275772,24.7457275,59.03
</coordinates>
</Point>
</Placemark>
<Placemark>
<name>
Sat Apr 30 15:55:27 2011
</name>
<styleUrl>
#styleMap_TLP_Normal
</styleUrl>
<Point>
<coordinates>
121.7273865,24.7456188,60.72
</coordinates>
</Point>
</Placemark>
<Placemark>
<name>
Sat Apr 30 15:55:32 2011
</name>
<styleUrl>
#styleMap_TLP_Normal
</styleUrl>
<Point>
<coordinates>
121.7271423,24.7455482,58.08
</coordinates>
</Point>
</Placemark>
<Placemark>
<name>
Sat Apr 30 15:55:37 2011
</name>
<styleUrl>
#styleMap_TLP_Normal
</styleUrl>
<Point>
<coordinates>
121.7269440,24.7454185,63.91
</coordinates>
</Point>
</Placemark>
<Placemark>
<name>
Sat Apr 30 15:55:42 2011
</name>
<styleUrl>
#styleMap_TLP_Normal
</styleUrl>
<Point>
<coordinates>
121.7267380,24.7452888,66.05
</coordinates>
</Point>
</Placemark>
<Placemark>
<name>
Sat Apr 30 15:55:47 2011
</name>
<styleUrl>
#styleMap_TLP_Normal
</styleUrl>
<Point>
<coordinates>
121.7264862,24.7451916,59.94
</coordinates>
</Point>
</Placemark>
<Placemark>
<name>
Sat Apr 30 15:55:52 2011
</name>
<styleUrl>
#styleMap_TLP_Normal
</styleUrl>
<Point>
<coordinates>
121.7262955,24.7450409,57.13
</coordinates>
</Point>
</Placemark>
<Placemark>
<name>
Sat Apr 30 15:55:57 2011
</name>
<styleUrl>
#styleMap_TLP_Normal
</styleUrl>
<Point>
<coordinates>
121.7260742,24.7448750,56.58
</coordinates>
</Point>
</Placemark>
<Placemark>
<name>
Sat Apr 30 15:56:02 2011
</name>
<styleUrl>
#styleMap_TLP_Normal
</styleUrl>
<Point>
<coordinates>
121.7258835,24.7447567,53.72
</coordinates>
</Point>
</Placemark>
<Placemark>
<name>
Sat Apr 30 15:56:07 2011
</name>
<styleUrl>
#styleMap_TLP_Normal
</styleUrl>
<Point>
<coordinates>
121.7256699,24.7446651,51.73
</coordinates>
</Point>
</Placemark>
<Placemark>
<name>
Sat Apr 30 15:56:12 2011
</name>
<styleUrl>
#styleMap_TLP_Normal
</styleUrl>
<Point>
<coordinates>
121.7254257,24.7445431,49.74
</coordinates>
</Point>
</Placemark>
<Placemark>
<name>
Sat Apr 30 15:56:17 2011
</name>
<styleUrl>
#styleMap_TLP_Normal
</styleUrl>
<Point>
<coordinates>
121.7251968,24.7444153,45.77
</coordinates>
</Point>
</Placemark>
<Placemark>
<name>
Sat Apr 30 15:56:22 2011
</name>
<styleUrl>
#styleMap_TLP_Normal
</styleUrl>
<Point>
<coordinates>
121.7249756,24.7442684,44.06
</coordinates>
</Point>
</Placemark>
<Placemark>
<name>
Sat Apr 30 15:56:27 2011
</name>
<styleUrl>
#styleMap_TLP_Normal
</styleUrl>
<Point>
<coordinates>
121.7247849,24.7441158,45.01
</coordinates>
</Point>
</Placemark>
<Placemark>
<name>
Sat Apr 30 15:56:32 2011
</name>
<styleUrl>
#styleMap_TLP_Normal
</styleUrl>
<Point>
<coordinates>
121.7246170,24.7440586,40.42
</coordinates>
</Point>
</Placemark>
<Placemark>
<name>
Sat Apr 30 15:56:37 2011
</name>
<styleUrl>
#styleMap_TLP_Normal
</styleUrl>
<Point>
<coordinates>
121.7245712,24.7440510,36.77
</coordinates>
</Point>
</Placemark>
<Placemark>
<name>
Sat Apr 30 15:56:42 2011
</name>
<styleUrl>
#styleMap_TLP_Normal
</styleUrl>
<Point>
<coordinates>
121.7245636,24.7440491,36.99
</coordinates>
</Point>
</Placemark>
<Placemark>
<name>
Sat Apr 30 15:56:47 2011
</name>
<styleUrl>
#styleMap_TLP_Normal
</styleUrl>
<Point>
<coordinates>
121.7245636,24.7440491,37.02
</coordinates>
</Point>
</Placemark>
<Placemark>
<name>
Sat Apr 30 15:56:52 2011
</name>
<styleUrl>
#styleMap_TLP_Normal
</styleUrl>
<Point>
<coordinates>
121.7245636,24.7440491,37.05
</coordinates>
</Point>
</Placemark>
<Placemark>
<name>
Sat Apr 30 15:56:57 2011
</name>
<styleUrl>
#styleMap_TLP_Normal
</styleUrl>
<Point>
<coordinates>
121.7245483,24.7440586,37.08
</coordinates>
</Point>
</Placemark>
<Placemark>
<name>
Sat Apr 30 15:57:02 2011
</name>
<styleUrl>
#styleMap_TLP_Normal
</styleUrl>
<Point>
<coordinates>
121.7245483,24.7440586,37.05
</coordinates>
</Point>
</Placemark>
<Placemark>
<name>
Sat Apr 30 15:57:07 2011
</name>
<styleUrl>
#styleMap_TLP_Normal
</styleUrl>
<Point>
<coordinates>
121.7245483,24.7440586,37.02
</coordinates>
</Point>
</Placemark>
<Placemark>
<name>
Sat Apr 30 15:57:12 2011
</name>
<styleUrl>
#styleMap_TLP_Normal
</styleUrl>
<Point>
<coordinates>
121.7245483,24.7440605,37.01
</coordinates>
</Point>
</Placemark>
<Placemark>
<name>
Sat Apr 30 15:57:17 2011
</name>
<styleUrl>
#styleMap_TLP_Normal
</styleUrl>
<Point>
<coordinates>
121.7245483,24.7440605,37.00
</coordinates>
</Point>
</Placemark>
<Placemark>
<name>
Sat Apr 30 15:57:22 2011
</name>
<styleUrl>
#styleMap_TLP_Normal
</styleUrl>
<Point>
<coordinates>
121.7245102,24.7440414,36.81
</coordinates>
</Point>
</Placemark>
<Placemark>
<name>
Sat Apr 30 15:57:27 2011
</name>
<styleUrl>
#styleMap_TLP_Normal
</styleUrl>
<Point>
<coordinates>
121.7243652,24.7439365,38.40
</coordinates>
</Point>
</Placemark>
<Placemark>
<name>
Sat Apr 30 15:57:32 2011
</name>
<styleUrl>
#styleMap_TLP_Normal
</styleUrl>
<Point>
<coordinates>
121.7242126,24.7438259,40.99
</coordinates>
</Point>
</Placemark>
<Placemark>
<name>
Sat Apr 30 15:57:37 2011
</name>
<styleUrl>
#styleMap_TLP_Normal
</styleUrl>
<Point>
<coordinates>
121.7240372,24.7436714,46.38
</coordinates>
</Point>
</Placemark>
<Placemark>
<name>
Sat Apr 30 15:57:42 2011
</name>
<styleUrl>
#styleMap_TLP_Normal
</styleUrl>
<Point>
<coordinates>
121.7238693,24.7435169,48.09
</coordinates>
</Point>
</Placemark>
<Placemark>
<name>
Sat Apr 30 15:57:47 2011
</name>
<styleUrl>
#styleMap_TLP_Normal
</styleUrl>
<Point>
<coordinates>
121.7236862,24.7433739,46.32
</coordinates>
</Point>
</Placemark>
<Placemark>
<name>
Sat Apr 30 15:57:52 2011
</name>
<styleUrl>
#styleMap_TLP_Normal
</styleUrl>
<Point>
<coordinates>
121.7235031,24.7432404,47.75
</coordinates>
</Point>
</Placemark>
<Placemark>
<name>
Sat Apr 30 15:57:57 2011
</name>
<styleUrl>
#styleMap_TLP_Normal
</styleUrl>
<Point>
<coordinates>
121.7233276,24.7431221,48.52
</coordinates>
</Point>
</Placemark>
<Placemark>
<name>
Sat Apr 30 15:58:02 2011
</name>
<styleUrl>
#styleMap_TLP_Normal
</styleUrl>
<Point>
<coordinates>
121.7231445,24.7429562,49.03
</coordinates>
</Point>
</Placemark>
<Placemark>
<name>
Sat Apr 30 15:58:07 2011
</name>
<styleUrl>
#styleMap_TLP_Normal
</styleUrl>
<Point>
<coordinates>
121.7229919,24.7427654,51.71
</coordinates>
</Point>
</Placemark>
<Placemark>
<name>
Sat Apr 30 15:58:12 2011
</name>
<styleUrl>
#styleMap_TLP_Normal
</styleUrl>
<Point>
<coordinates>
121.7228241,24.7425747,52.06
</coordinates>
</Point>
</Placemark>
<Placemark>
<name>
Sat Apr 30 15:58:17 2011
</name>
<styleUrl>
#styleMap_TLP_Normal
</styleUrl>
<Point>
<coordinates>
121.7226181,24.7424049,52.28
</coordinates>
</Point>
</Placemark>
<Placemark>
<name>
Sat Apr 30 15:58:22 2011
</name>
<styleUrl>
#styleMap_TLP_Normal
</styleUrl>
<Point>
<coordinates>
121.7223969,24.7422543,46.33
</coordinates>
</Point>
</Placemark>
<Placemark>
<name>
Sat Apr 30 15:58:27 2011
</name>
<styleUrl>
#styleMap_TLP_Normal
</styleUrl>
<Point>
<coordinates>
121.7222061,24.7420654,42.81
</coordinates>
</Point>
</Placemark>
<Placemark>
<name>
Sat Apr 30 15:58:32 2011
</name>
<styleUrl>
#styleMap_TLP_Normal
</styleUrl>
<Point>
<coordinates>
121.7220306,24.7418842,38.66
</coordinates>
</Point>
</Placemark>
<Placemark>
<name>
Sat Apr 30 15:58:37 2011
</name>
<styleUrl>
#styleMap_TLP_Normal
</styleUrl>
<Point>
<coordinates>
121.7219086,24.7416821,36.36
</coordinates>
</Point>
</Placemark>
<Placemark>
<name>
Sat Apr 30 15:58:42 2011
</name>
<styleUrl>
#styleMap_TLP_Normal
</styleUrl>
<Point>
<coordinates>
121.7218170,24.7414932,35.35
</coordinates>
</Point>
</Placemark>
<Placemark>
<name>
Sat Apr 30 15:58:47 2011
</name>
<styleUrl>
#styleMap_TLP_Normal
</styleUrl>
<Point>
<coordinates>
121.7217331,24.7412910,38.90
</coordinates>
</Point>
</Placemark>
<Placemark>
<name>
Sat Apr 30 15:58:52 2011
</name>
<styleUrl>
#styleMap_TLP_Normal
</styleUrl>
<Point>
<coordinates>
121.7216415,24.7410774,41.58
</coordinates>
</Point>
</Placemark>
<Placemark>
<name>
Sat Apr 30 15:58:57 2011
</name>
<styleUrl>
#styleMap_TLP_Normal
</styleUrl>
<Point>
<coordinates>
121.7215576,24.7408676,46.47
</coordinates>
</Point>
</Placemark>
<Placemark>
<name>
Sat Apr 30 15:59:02 2011
</name>
<styleUrl>
#styleMap_TLP_Normal
</styleUrl>
<Point>
<coordinates>
121.7214737,24.7406483,49.87
</coordinates>
</Point>
</Placemark>
<Placemark>
<name>
Sat Apr 30 15:59:07 2011
</name>
<styleUrl>
#styleMap_TLP_Normal
</styleUrl>
<Point>
<coordinates>
121.7213974,24.7404423,51.53
</coordinates>
</Point>
</Placemark>
<Placemark>
<name>
Sat Apr 30 15:59:12 2011
</name>
<styleUrl>
#styleMap_TLP_Normal
</styleUrl>
<Point>
<coordinates>
121.7213058,24.7402420,50.89
</coordinates>
</Point>
</Placemark>
<Placemark>
<name>
Sat Apr 30 15:59:17 2011
</name>
<styleUrl>
#styleMap_TLP_Normal
</styleUrl>
<Point>
<coordinates>
121.7212448,24.7400322,49.86
</coordinates>
</Point>
</Placemark>
<Placemark>
<name>
Sat Apr 30 15:59:22 2011
</name>
<styleUrl>
#styleMap_TLP_Normal
</styleUrl>
<Point>
<coordinates>
121.7211838,24.7398205,51.68
</coordinates>
</Point>
</Placemark>
<Placemark>
<name>
Sat Apr 30 15:59:27 2011
</name>
<styleUrl>
#styleMap_TLP_Normal
</styleUrl>
<Point>
<coordinates>
121.7211151,24.7395992,53.39
</coordinates>
</Point>
</Placemark>
<Placemark>
<name>
Sat Apr 30 15:59:32 2011
</name>
<styleUrl>
#styleMap_TLP_Normal
</styleUrl>
<Point>
<coordinates>
121.7210617,24.7393761,57.75
</coordinates>
</Point>
</Placemark>
<Placemark>
<name>
Sat Apr 30 15:59:37 2011
</name>
<styleUrl>
#styleMap_TLP_Normal
</styleUrl>
<Point>
<coordinates>
121.7210007,24.7391567,58.96
</coordinates>
</Point>
</Placemark>
<Placemark>
<name>
Sat Apr 30 15:59:42 2011
</name>
<styleUrl>
#styleMap_TLP_Normal
</styleUrl>
<Point>
<coordinates>
121.7209015,24.7389679,61.53
</coordinates>
</Point>
</Placemark>
<Placemark>
<name>
Sat Apr 30 15:59:47 2011
</name>
<styleUrl>
#styleMap_TLP_Normal
</styleUrl>
<Point>
<coordinates>
121.7207794,24.7387886,63.59
</coordinates>
</Point>
</Placemark>
<Placemark>
<name>
Sat Apr 30 15:59:52 2011
</name>
<styleUrl>
#styleMap_TLP_Normal
</styleUrl>
<Point>
<coordinates>
121.7206421,24.7386456,67.37
</coordinates>
</Point>
</Placemark>
<Placemark>
<name>
Sat Apr 30 15:59:57 2011
</name>
<styleUrl>
#styleMap_TLP_Normal
</styleUrl>
<Point>
<coordinates>
121.7205505,24.7385864,65.07
</coordinates>
</Point>
</Placemark>
<Placemark>
<name>
Sat Apr 30 16:00:02 2011
</name>
<styleUrl>
#styleMap_TLP_Normal
</styleUrl>
<Point>
<coordinates>
121.7205505,24.7385826,64.36
</coordinates>
</Point>
</Placemark>
<Placemark>
<name>
Sat Apr 30 16:00:07 2011
</name>
<styleUrl>
#styleMap_TLP_Normal
</styleUrl>
<Point>
<coordinates>
121.7205582,24.7385826,64.34
</coordinates>
</Point>
</Placemark>
<Placemark>
<name>
Sat Apr 30 16:00:12 2011
</name>
<styleUrl>
#styleMap_TLP_Normal
</styleUrl>
<Point>
<coordinates>
121.7205582,24.7385826,64.15
</coordinates>
</Point>
</Placemark>
<Placemark>
<name>
Sat Apr 30 16:00:17 2011
</name>
<styleUrl>
#styleMap_TLP_Normal
</styleUrl>
<Point>
<coordinates>
121.7205582,24.7385826,63.88
</coordinates>
</Point>
</Placemark>
<Placemark>
<name>
Sat Apr 30 16:00:22 2011
</name>
<styleUrl>
#styleMap_TLP_Normal
</styleUrl>
<Point>
<coordinates>
121.7205582,24.7385826,63.72
</coordinates>
</Point>
</Placemark>
<Placemark>
<name>
Sat Apr 30 16:00:27 2011
</name>
<styleUrl>
#styleMap_TLP_Normal
</styleUrl>
<Point>
<coordinates>
121.7205582,24.7385826,63.58
</coordinates>
</Point>
</Placemark>
<Placemark>
<name>
Sat Apr 30 16:00:32 2011
</name>
<styleUrl>
#styleMap_TLP_Normal
</styleUrl>
<Point>
<coordinates>
121.7205505,24.7385788,63.54
</coordinates>
</Point>
</Placemark>
<Placemark>
<name>
Sat Apr 30 16:00:37 2011
</name>
<styleUrl>
#styleMap_TLP_Normal
</styleUrl>
<Point>
<coordinates>
121.7205505,24.7385750,63.53
</coordinates>
</Point>
</Placemark>
<Placemark>
<name>
Sat Apr 30 16:00:42 2011
</name>
<styleUrl>
#styleMap_TLP_Normal
</styleUrl>
<Point>
<coordinates>
121.7205353,24.7385654,63.47
</coordinates>
</Point>
</Placemark>
<Placemark>
<name>
Sat Apr 30 16:00:47 2011
</name>
<styleUrl>
#styleMap_TLP_Normal
</styleUrl>
<Point>
<coordinates>
121.7204514,24.7384987,63.15
</coordinates>
</Point>
</Placemark>
<Placemark>
<name>
Sat Apr 30 16:00:52 2011
</name>
<styleUrl>
#styleMap_TLP_Normal
</styleUrl>
<Point>
<coordinates>
121.7203445,24.7384052,62.18
</coordinates>
</Point>
</Placemark>
<Placemark>
<name>
Sat Apr 30 16:00:57 2011
</name>
<styleUrl>
#styleMap_TLP_Normal
</styleUrl>
<Point>
<coordinates>
121.7202072,24.7382870,56.57
</coordinates>
</Point>
</Placemark>
<Placemark>
<name>
Sat Apr 30 16:01:02 2011
</name>
<styleUrl>
#styleMap_TLP_Normal
</styleUrl>
<Point>
<coordinates>
121.7200623,24.7381706,51.59
</coordinates>
</Point>
</Placemark>
<Placemark>
<name>
Sat Apr 30 16:01:07 2011
</name>
<styleUrl>
#styleMap_TLP_Normal
</styleUrl>
<Point>
<coordinates>
121.7198792,24.7380352,46.96
</coordinates>
</Point>
</Placemark>
<Placemark>
<name>
Sat Apr 30 16:01:12 2011
</name>
<styleUrl>
#styleMap_TLP_Normal
</styleUrl>
<Point>
<coordinates>
121.7196960,24.7378922,42.92
</coordinates>
</Point>
</Placemark>
<Placemark>
<name>
Sat Apr 30 16:01:17 2011
</name>
<styleUrl>
#styleMap_TLP_Normal
</styleUrl>
<Point>
<coordinates>
121.7195511,24.7377644,39.85
</coordinates>
</Point>
</Placemark>
<Placemark>
<name>
Sat Apr 30 16:01:22 2011
</name>
<styleUrl>
#styleMap_TLP_Normal
</styleUrl>
<Point>
<coordinates>
121.7194214,24.7376461,39.61
</coordinates>
</Point>
</Placemark>
<Placemark>
<name>
Sat Apr 30 16:01:27 2011
</name>
<styleUrl>
#styleMap_TLP_Normal
</styleUrl>
<Point>
<coordinates>
121.7192688,24.7374935,41.53
</coordinates>
</Point>
</Placemark>
<Placemark>
<name>
Sat Apr 30 16:01:32 2011
</name>
<styleUrl>
#styleMap_TLP_Normal
</styleUrl>
<Point>
<coordinates>
121.7191010,24.7373466,44.70
</coordinates>
</Point>
</Placemark>
<Placemark>
<name>
Sat Apr 30 16:01:37 2011
</name>
<styleUrl>
#styleMap_TLP_Normal
</styleUrl>
<Point>
<coordinates>
121.7189331,24.7371769,45.00
</coordinates>
</Point>
</Placemark>
<Placemark>
<name>
Sat Apr 30 16:01:42 2011
</name>
<styleUrl>
#styleMap_TLP_Normal
</styleUrl>
<Point>
<coordinates>
121.7187347,24.7370472,46.98
</coordinates>
</Point>
</Placemark>
<Placemark>
<name>
Sat Apr 30 16:01:47 2011
</name>
<styleUrl>
#styleMap_TLP_Normal
</styleUrl>
<Point>
<coordinates>
121.7185440,24.7369022,41.92
</coordinates>
</Point>
</Placemark>
<Placemark>
<name>
Sat Apr 30 16:01:52 2011
</name>
<styleUrl>
#styleMap_TLP_Normal
</styleUrl>
<Point>
<coordinates>
121.7183533,24.7367706,34.62
</coordinates>
</Point>
</Placemark>
<Placemark>
<name>
Sat Apr 30 16:01:57 2011
</name>
<styleUrl>
#styleMap_TLP_Normal
</styleUrl>
<Point>
<coordinates>
121.7181625,24.7365990,30.55
</coordinates>
</Point>
</Placemark>
<Placemark>
<name>
Sat Apr 30 16:02:02 2011
</name>
<styleUrl>
#styleMap_TLP_Normal
</styleUrl>
<Point>
<coordinates>
121.7179718,24.7364235,29.24
</coordinates>
</Point>
</Placemark>
<Placemark>
<name>
Sat Apr 30 16:02:07 2011
</name>
<styleUrl>
#styleMap_TLP_Normal
</styleUrl>
<Point>
<coordinates>
121.7177505,24.7362728,26.78
</coordinates>
</Point>
</Placemark>
<Placemark>
<name>
Sat Apr 30 16:02:12 2011
</name>
<styleUrl>
#styleMap_TLP_Normal
</styleUrl>
<Point>
<coordinates>
121.7175369,24.7361164,25.96
</coordinates>
</Point>
</Placemark>
<Placemark>
<name>
Sat Apr 30 16:02:17 2011
</name>
<styleUrl>
#styleMap_TLP_Normal
</styleUrl>
<Point>
<coordinates>
121.7173309,24.7359486,24.76
</coordinates>
</Point>
</Placemark>
<Placemark>
<name>
Sat Apr 30 16:02:22 2011
</name>
<styleUrl>
#styleMap_TLP_Normal
</styleUrl>
<Point>
<coordinates>
121.7171478,24.7357674,24.87
</coordinates>
</Point>
</Placemark>
<Placemark>
<name>
Sat Apr 30 16:02:27 2011
</name>
<styleUrl>
#styleMap_TLP_Normal
</styleUrl>
<Point>
<coordinates>
121.7169800,24.7356339,24.67
</coordinates>
</Point>
</Placemark>
<Placemark>
<name>
Sat Apr 30 16:02:32 2011
</name>
<styleUrl>
#styleMap_TLP_Normal
</styleUrl>
<Point>
<coordinates>
121.7168274,24.7355156,29.23
</coordinates>
</Point>
</Placemark>
<Placemark>
<name>
Sat Apr 30 16:02:37 2011
</name>
<styleUrl>
#styleMap_TLP_Normal
</styleUrl>
<Point>
<coordinates>
121.7166519,24.7353554,27.42
</coordinates>
</Point>
</Placemark>
<Placemark>
<name>
Sat Apr 30 16:02:42 2011
</name>
<styleUrl>
#styleMap_TLP_Normal
</styleUrl>
<Point>
<coordinates>
121.7165375,24.7351685,27.64
</coordinates>
</Point>
</Placemark>
<Placemark>
<name>
Sat Apr 30 16:02:47 2011
</name>
<styleUrl>
#styleMap_TLP_Normal
</styleUrl>
<Point>
<coordinates>
121.7164764,24.7349186,32.02
</coordinates>
</Point>
</Placemark>
<Placemark>
<name>
Sat Apr 30 16:02:52 2011
</name>
<styleUrl>
#styleMap_TLP_Normal
</styleUrl>
<Point>
<coordinates>
121.7164459,24.7346592,34.28
</coordinates>
</Point>
</Placemark>
<Placemark>
<name>
Sat Apr 30 16:02:57 2011
</name>
<styleUrl>
#styleMap_TLP_Normal
</styleUrl>
<Point>
<coordinates>
121.7164307,24.7343903,35.23
</coordinates>
</Point>
</Placemark>
<Placemark>
<name>
Sat Apr 30 16:03:02 2011
</name>
<styleUrl>
#styleMap_TLP_Normal
</styleUrl>
<Point>
<coordinates>
121.7164154,24.7341099,35.78
</coordinates>
</Point>
</Placemark>
<Placemark>
<name>
Sat Apr 30 16:03:07 2011
</name>
<styleUrl>
#styleMap_TLP_Normal
</styleUrl>
<Point>
<coordinates>
121.7164078,24.7338238,38.04
</coordinates>
</Point>
</Placemark>
<Placemark>
<name>
Sat Apr 30 16:03:12 2011
</name>
<styleUrl>
#styleMap_TLP_Normal
</styleUrl>
<Point>
<coordinates>
121.7164001,24.7335396,36.25
</coordinates>
</Point>
</Placemark>
<Placemark>
<name>
Sat Apr 30 16:03:17 2011
</name>
<styleUrl>
#styleMap_TLP_Normal
</styleUrl>
<Point>
<coordinates>
121.7163925,24.7332745,35.33
</coordinates>
</Point>
</Placemark>
<Placemark>
<name>
Sat Apr 30 16:03:22 2011
</name>
<styleUrl>
#styleMap_TLP_Normal
</styleUrl>
<Point>
<coordinates>
121.7163773,24.7330017,36.64
</coordinates>
</Point>
</Placemark>
<Placemark>
<name>
Sat Apr 30 16:03:27 2011
</name>
<styleUrl>
#styleMap_TLP_Normal
</styleUrl>
<Point>
<coordinates>
121.7163544,24.7327499,38.21
</coordinates>
</Point>
</Placemark>
<Placemark>
<name>
Sat Apr 30 16:03:32 2011
</name>
<styleUrl>
#styleMap_TLP_Normal
</styleUrl>
<Point>
<coordinates>
121.7163239,24.7325058,37.51
</coordinates>
</Point>
</Placemark>
<Placemark>
<name>
Sat Apr 30 16:03:37 2011
</name>
<styleUrl>
#styleMap_TLP_Normal
</styleUrl>
<Point>
<coordinates>
121.7163086,24.7322330,35.48
</coordinates>
</Point>
</Placemark>
<Placemark>
<name>
Sat Apr 30 16:03:42 2011
</name>
<styleUrl>
#styleMap_TLP_Normal
</styleUrl>
<Point>
<coordinates>
121.7163010,24.7319565,33.10
</coordinates>
</Point>
</Placemark>
<Placemark>
<name>
Sat Apr 30 16:03:47 2011
</name>
<styleUrl>
#styleMap_TLP_Normal
</styleUrl>
<Point>
<coordinates>
121.7162933,24.7317200,34.65
</coordinates>
</Point>
</Placemark>
<Placemark>
<name>
Sat Apr 30 16:03:52 2011
</name>
<styleUrl>
#styleMap_TLP_Normal
</styleUrl>
<Point>
<coordinates>
121.7162857,24.7314835,35.14
</coordinates>
</Point>
</Placemark>
<Placemark>
<name>
Sat Apr 30 16:03:57 2011
</name>
<styleUrl>
#styleMap_TLP_Normal
</styleUrl>
<Point>
<coordinates>
121.7162628,24.7312260,35.27
</coordinates>
</Point>
</Placemark>
<Placemark>
<name>
Sat Apr 30 16:04:02 2011
</name>
<styleUrl>
#styleMap_TLP_Normal
</styleUrl>
<Point>
<coordinates>
121.7162476,24.7309628,36.87
</coordinates>
</Point>
</Placemark>
<Placemark>
<name>
Sat Apr 30 16:04:07 2011
</name>
<styleUrl>
#styleMap_TLP_Normal
</styleUrl>
<Point>
<coordinates>
121.7162399,24.7306767,37.82
</coordinates>
</Point>
</Placemark>
<Placemark>
<name>
Sat Apr 30 16:04:12 2011
</name>
<styleUrl>
#styleMap_TLP_Normal
</styleUrl>
<Point>
<coordinates>
121.7162170,24.7304077,39.02
</coordinates>
</Point>
</Placemark>
<Placemark>
<name>
Sat Apr 30 16:04:17 2011
</name>
<styleUrl>
#styleMap_TLP_Normal
</styleUrl>
<Point>
<coordinates>
121.7161942,24.7301559,42.78
</coordinates>
</Point>
</Placemark>
<Placemark>
<name>
Sat Apr 30 16:04:22 2011
</name>
<styleUrl>
#styleMap_TLP_Normal
</styleUrl>
<Point>
<coordinates>
121.7161942,24.7299271,45.36
</coordinates>
</Point>
</Placemark>
<Placemark>
<name>
Sat Apr 30 16:04:27 2011
</name>
<styleUrl>
#styleMap_TLP_Normal
</styleUrl>
<Point>
<coordinates>
121.7161789,24.7297115,48.32
</coordinates>
</Point>
</Placemark>
<Placemark>
<name>
Sat Apr 30 16:04:32 2011
</name>
<styleUrl>
#styleMap_TLP_Normal
</styleUrl>
<Point>
<coordinates>
121.7161636,24.7294674,47.67
</coordinates>
</Point>
</Placemark>
<Placemark>
<name>
Sat Apr 30 16:04:37 2011
</name>
<styleUrl>
#styleMap_TLP_Normal
</styleUrl>
<Point>
<coordinates>
121.7161102,24.7292023,47.26
</coordinates>
</Point>
</Placemark>
<Placemark>
<name>
Sat Apr 30 16:04:42 2011
</name>
<styleUrl>
#styleMap_TLP_Normal
</styleUrl>
<Point>
<coordinates>
121.7159729,24.7289734,44.70
</coordinates>
</Point>
</Placemark>
<Placemark>
<name>
Sat Apr 30 16:04:47 2011
</name>
<styleUrl>
#styleMap_TLP_Normal
</styleUrl>
<Point>
<coordinates>
121.7157822,24.7287979,44.62
</coordinates>
</Point>
</Placemark>
<Placemark>
<name>
Sat Apr 30 16:04:52 2011
</name>
<styleUrl>
#styleMap_TLP_Normal
</styleUrl>
<Point>
<coordinates>
121.7155762,24.7286396,43.38
</coordinates>
</Point>
</Placemark>
<Placemark>
<name>
Sat Apr 30 16:04:57 2011
</name>
<styleUrl>
#styleMap_TLP_Normal
</styleUrl>
<Point>
<coordinates>
121.7153549,24.7284698,41.92
</coordinates>
</Point>
</Placemark>
<Placemark>
<name>
Sat Apr 30 16:05:02 2011
</name>
<styleUrl>
#styleMap_TLP_Normal
</styleUrl>
<Point>
<coordinates>
121.7151489,24.7282810,38.54
</coordinates>
</Point>
</Placemark>
<Placemark>
<name>
Sat Apr 30 16:05:07 2011
</name>
<styleUrl>
#styleMap_TLP_Normal
</styleUrl>
<Point>
<coordinates>
121.7149429,24.7280960,35.60
</coordinates>
</Point>
</Placemark>
<Placemark>
<name>
Sat Apr 30 16:05:12 2011
</name>
<styleUrl>
#styleMap_TLP_Normal
</styleUrl>
<Point>
<coordinates>
121.7147598,24.7279491,36.22
</coordinates>
</Point>
</Placemark>
<Placemark>
<name>
Sat Apr 30 16:05:17 2011
</name>
<styleUrl>
#styleMap_TLP_Normal
</styleUrl>
<Point>
<coordinates>
121.7145615,24.7278118,39.54
</coordinates>
</Point>
</Placemark>
<Placemark>
<name>
Sat Apr 30 16:05:22 2011
</name>
<styleUrl>
#styleMap_TLP_Normal
</styleUrl>
<Point>
<coordinates>
121.7143784,24.7277431,46.82
</coordinates>
</Point>
</Placemark>
<Placemark>
<name>
Sat Apr 30 16:05:27 2011
</name>
<styleUrl>
#styleMap_TLP_Normal
</styleUrl>
<Point>
<coordinates>
121.7141800,24.7276077,45.49
</coordinates>
</Point>
</Placemark>
<Placemark>
<name>
Sat Apr 30 16:05:32 2011
</name>
<styleUrl>
#styleMap_TLP_Normal
</styleUrl>
<Point>
<coordinates>
121.7140045,24.7274990,44.90
</coordinates>
</Point>
</Placemark>
<Placemark>
<name>
Sat Apr 30 16:05:37 2011
</name>
<styleUrl>
#styleMap_TLP_Normal
</styleUrl>
<Point>
<coordinates>
121.7138062,24.7273846,40.64
</coordinates>
</Point>
</Placemark>
<Placemark>
<name>
Sat Apr 30 16:05:42 2011
</name>
<styleUrl>
#styleMap_TLP_Normal
</styleUrl>
<Point>
<coordinates>
121.7135925,24.7272587,36.97
</coordinates>
</Point>
</Placemark>
<Placemark>
<name>
Sat Apr 30 16:05:47 2011
</name>
<styleUrl>
#styleMap_TLP_Normal
</styleUrl>
<Point>
<coordinates>
121.7133865,24.7271519,37.24
</coordinates>
</Point>
</Placemark>
<Placemark>
<name>
Sat Apr 30 16:05:52 2011
</name>
<styleUrl>
#styleMap_TLP_Normal
</styleUrl>
<Point>
<coordinates>
121.7131882,24.7270298,37.30
</coordinates>
</Point>
</Placemark>
<Placemark>
<name>
Sat Apr 30 16:05:57 2011
</name>
<styleUrl>
#styleMap_TLP_Normal
</styleUrl>
<Point>
<coordinates>
121.7130051,24.7269039,37.92
</coordinates>
</Point>
</Placemark>
<Placemark>
<name>
Sat Apr 30 16:06:02 2011
</name>
<styleUrl>
#styleMap_TLP_Normal
</styleUrl>
<Point>
<coordinates>
121.7127991,24.7267628,38.18
</coordinates>
</Point>
</Placemark>
<Placemark>
<name>
Sat Apr 30 16:06:07 2011
</name>
<styleUrl>
#styleMap_TLP_Normal
</styleUrl>
<Point>
<coordinates>
121.7126389,24.7266045,39.02
</coordinates>
</Point>
</Placemark>
<Placemark>
<name>
Sat Apr 30 16:06:12 2011
</name>
<styleUrl>
#styleMap_TLP_Normal
</styleUrl>
<Point>
<coordinates>
121.7124634,24.7264175,39.78
</coordinates>
</Point>
</Placemark>
<Placemark>
<name>
Sat Apr 30 16:06:17 2011
</name>
<styleUrl>
#styleMap_TLP_Normal
</styleUrl>
<Point>
<coordinates>
121.7122803,24.7262230,38.54
</coordinates>
</Point>
</Placemark>
<Placemark>
<name>
Sat Apr 30 16:06:22 2011
</name>
<styleUrl>
#styleMap_TLP_Normal
</styleUrl>
<Point>
<coordinates>
121.7120895,24.7260361,35.59
</coordinates>
</Point>
</Placemark>
<Placemark>
<name>
Sat Apr 30 16:06:27 2011
</name>
<styleUrl>
#styleMap_TLP_Normal
</styleUrl>
<Point>
<coordinates>
121.7118988,24.7258472,33.68
</coordinates>
</Point>
</Placemark>
<Placemark>
<name>
Sat Apr 30 16:06:32 2011
</name>
<styleUrl>
#styleMap_TLP_Normal
</styleUrl>
<Point>
<coordinates>
121.7117462,24.7256813,33.29
</coordinates>
</Point>
</Placemark>
<Placemark>
<name>
Sat Apr 30 16:06:37 2011
</name>
<styleUrl>
#styleMap_TLP_Normal
</styleUrl>
<Point>
<coordinates>
121.7116470,24.7255745,33.35
</coordinates>
</Point>
</Placemark>
<Placemark>
<name>
Sat Apr 30 16:06:42 2011
</name>
<styleUrl>
#styleMap_TLP_Normal
</styleUrl>
<Point>
<coordinates>
121.7115402,24.7254810,33.42
</coordinates>
</Point>
</Placemark>
<Placemark>
<name>
Sat Apr 30 16:06:47 2011
</name>
<styleUrl>
#styleMap_TLP_Normal
</styleUrl>
<Point>
<coordinates>
121.7114029,24.7253456,34.91
</coordinates>
</Point>
</Placemark>
<Placemark>
<name>
Sat Apr 30 16:06:52 2011
</name>
<styleUrl>
#styleMap_TLP_Normal
</styleUrl>
<Point>
<coordinates>
121.7112427,24.7251835,34.39
</coordinates>
</Point>
</Placemark>
<Placemark>
<name>
Sat Apr 30 16:06:57 2011
</name>
<styleUrl>
#styleMap_TLP_Normal
</styleUrl>
<Point>
<coordinates>
121.7110825,24.7250137,33.39
</coordinates>
</Point>
</Placemark>
<Placemark>
<name>
Sat Apr 30 16:07:02 2011
</name>
<styleUrl>
#styleMap_TLP_Normal
</styleUrl>
<Point>
<coordinates>
121.7109299,24.7248306,32.00
</coordinates>
</Point>
</Placemark>
<Placemark>
<name>
Sat Apr 30 16:07:07 2011
</name>
<styleUrl>
#styleMap_TLP_Normal
</styleUrl>
<Point>
<coordinates>
121.7107697,24.7246628,33.34
</coordinates>
</Point>
</Placemark>
<Placemark>
<name>
Sat Apr 30 16:07:12 2011
</name>
<styleUrl>
#styleMap_TLP_Normal
</styleUrl>
<Point>
<coordinates>
121.7106018,24.7244797,34.31
</coordinates>
</Point>
</Placemark>
<Placemark>
<name>
Sat Apr 30 16:07:17 2011
</name>
<styleUrl>
#styleMap_TLP_Normal
</styleUrl>
<Point>
<coordinates>
121.7104263,24.7242889,33.97
</coordinates>
</Point>
</Placemark>
<Placemark>
<name>
Sat Apr 30 16:07:22 2011
</name>
<styleUrl>
#styleMap_TLP_Normal
</styleUrl>
<Point>
<coordinates>
121.7102356,24.7241116,32.79
</coordinates>
</Point>
</Placemark>
<Placemark>
<name>
Sat Apr 30 16:07:27 2011
</name>
<styleUrl>
#styleMap_TLP_Normal
</styleUrl>
<Point>
<coordinates>
121.7100677,24.7239590,36.54
</coordinates>
</Point>
</Placemark>
<Placemark>
<name>
Sat Apr 30 16:07:32 2011
</name>
<styleUrl>
#styleMap_TLP_Normal
</styleUrl>
<Point>
<coordinates>
121.7098846,24.7238026,37.55
</coordinates>
</Point>
</Placemark>
<Placemark>
<name>
Sat Apr 30 16:07:37 2011
</name>
<styleUrl>
#styleMap_TLP_Normal
</styleUrl>
<Point>
<coordinates>
121.7096863,24.7236404,39.48
</coordinates>
</Point>
</Placemark>
<Placemark>
<name>
Sat Apr 30 16:07:42 2011
</name>
<styleUrl>
#styleMap_TLP_Normal
</styleUrl>
<Point>
<coordinates>
121.7095184,24.7234974,36.40
</coordinates>
</Point>
</Placemark>
<Placemark>
<name>
Sat Apr 30 16:07:47 2011
</name>
<styleUrl>
#styleMap_TLP_Normal
</styleUrl>
<Point>
<coordinates>
121.7093735,24.7233639,35.56
</coordinates>
</Point>
</Placemark>
<Placemark>
<name>
Sat Apr 30 16:07:52 2011
</name>
<styleUrl>
#styleMap_TLP_Normal
</styleUrl>
<Point>
<coordinates>
121.7092209,24.7232475,36.52
</coordinates>
</Point>
</Placemark>
<Placemark>
<name>
Sat Apr 30 16:07:57 2011
</name>
<styleUrl>
#styleMap_TLP_Normal
</styleUrl>
<Point>
<coordinates>
121.7091751,24.7232342,38.34
</coordinates>
</Point>
</Placemark>
<Placemark>
<name>
Sat Apr 30 16:08:02 2011
</name>
<styleUrl>
#styleMap_TLP_Normal
</styleUrl>
<Point>
<coordinates>
121.7091751,24.7232342,38.57
</coordinates>
</Point>
</Placemark>
<Placemark>
<name>
Sat Apr 30 16:08:07 2011
</name>
<styleUrl>
#styleMap_TLP_Normal
</styleUrl>
<Point>
<coordinates>
121.7091827,24.7232342,38.67
</coordinates>
</Point>
</Placemark>
<Placemark>
<name>
Sat Apr 30 16:08:12 2011
</name>
<styleUrl>
#styleMap_TLP_Normal
</styleUrl>
<Point>
<coordinates>
121.7091827,24.7232361,38.68
</coordinates>
</Point>
</Placemark>
<Placemark>
<name>
Sat Apr 30 16:08:17 2011
</name>
<styleUrl>
#styleMap_TLP_Normal
</styleUrl>
<Point>
<coordinates>
121.7091827,24.7232361,38.69
</coordinates>
</Point>
</Placemark>
<Placemark>
<name>
Sat Apr 30 16:08:22 2011
</name>
<styleUrl>
#styleMap_TLP_Normal
</styleUrl>
<Point>
<coordinates>
121.7091827,24.7232361,38.71
</coordinates>
</Point>
</Placemark>
<Placemark>
<name>
Sat Apr 30 16:08:27 2011
</name>
<styleUrl>
#styleMap_TLP_Normal
</styleUrl>
<Point>
<coordinates>
121.7091827,24.7232361,38.74
</coordinates>
</Point>
</Placemark>
<Placemark>
<name>
Sat Apr 30 16:08:32 2011
</name>
<styleUrl>
#styleMap_TLP_Normal
</styleUrl>
<Point>
<coordinates>
121.7091827,24.7232361,38.76
</coordinates>
</Point>
</Placemark>
<Placemark>
<name>
Sat Apr 30 16:08:37 2011
</name>
<styleUrl>
#styleMap_TLP_Normal
</styleUrl>
<Point>
<coordinates>
121.7091217,24.7231941,37.75
</coordinates>
</Point>
</Placemark>
<Placemark>
<name>
Sat Apr 30 16:08:42 2011
</name>
<styleUrl>
#styleMap_TLP_Normal
</styleUrl>
<Point>
<coordinates>
121.7089996,24.7230968,37.41
</coordinates>
</Point>
</Placemark>
<Placemark>
<name>
Sat Apr 30 16:08:47 2011
</name>
<styleUrl>
#styleMap_TLP_Normal
</styleUrl>
<Point>
<coordinates>
121.7088776,24.7229977,38.34
</coordinates>
</Point>
</Placemark>
<Placemark>
<name>
Sat Apr 30 16:08:52 2011
</name>
<styleUrl>
#styleMap_TLP_Normal
</styleUrl>
<Point>
<coordinates>
121.7087173,24.7228909,39.58
</coordinates>
</Point>
</Placemark>
<Placemark>
<name>
Sat Apr 30 16:08:57 2011
</name>
<styleUrl>
#styleMap_TLP_Normal
</styleUrl>
<Point>
<coordinates>
121.7085571,24.7228012,42.79
</coordinates>
</Point>
</Placemark>
<Placemark>
<name>
Sat Apr 30 16:09:02 2011
</name>
<styleUrl>
#styleMap_TLP_Normal
</styleUrl>
<Point>
<coordinates>
121.7083893,24.7226849,42.81
</coordinates>
</Point>
</Placemark>
<Placemark>
<name>
Sat Apr 30 16:09:07 2011
</name>
<styleUrl>
#styleMap_TLP_Normal
</styleUrl>
<Point>
<coordinates>
121.7082291,24.7225628,42.11
</coordinates>
</Point>
</Placemark>
<Placemark>
<name>
Sat Apr 30 16:09:12 2011
</name>
<styleUrl>
#styleMap_TLP_Normal
</styleUrl>
<Point>
<coordinates>
121.7080688,24.7224426,42.45
</coordinates>
</Point>
</Placemark>
<Placemark>
<name>
Sat Apr 30 16:09:17 2011
</name>
<styleUrl>
#styleMap_TLP_Normal
</styleUrl>
<Point>
<coordinates>
121.7079239,24.7223301,44.80
</coordinates>
</Point>
</Placemark>
<Placemark>
<name>
Sat Apr 30 16:09:22 2011
</name>
<styleUrl>
#styleMap_TLP_Normal
</styleUrl>
<Point>
<coordinates>
121.7077789,24.7221832,46.19
</coordinates>
</Point>
</Placemark>
<Placemark>
<name>
Sat Apr 30 16:09:27 2011
</name>
<styleUrl>
#styleMap_TLP_Normal
</styleUrl>
<Point>
<coordinates>
121.7076492,24.7220364,50.15
</coordinates>
</Point>
</Placemark>
<Placemark>
<name>
Sat Apr 30 16:09:32 2011
</name>
<styleUrl>
#styleMap_TLP_Normal
</styleUrl>
<Point>
<coordinates>
121.7075272,24.7218494,54.64
</coordinates>
</Point>
</Placemark>
<Placemark>
<name>
Sat Apr 30 16:09:37 2011
</name>
<styleUrl>
#styleMap_TLP_Normal
</styleUrl>
<Point>
<coordinates>
121.7073822,24.7216702,54.55
</coordinates>
</Point>
</Placemark>
<Placemark>
<name>
Sat Apr 30 16:09:42 2011
</name>
<styleUrl>
#styleMap_TLP_Normal
</styleUrl>
<Point>
<coordinates>
121.7072067,24.7215099,50.26
</coordinates>
</Point>
</Placemark>
<Placemark>
<name>
Sat Apr 30 16:09:47 2011
</name>
<styleUrl>
#styleMap_TLP_Normal
</styleUrl>
<Point>
<coordinates>
121.7070236,24.7213459,49.51
</coordinates>
</Point>
</Placemark>
<Placemark>
<name>
Sat Apr 30 16:09:52 2011
</name>
<styleUrl>
#styleMap_TLP_Normal
</styleUrl>
<Point>
<coordinates>
121.7068329,24.7211971,47.23
</coordinates>
</Point>
</Placemark>
<Placemark>
<name>
Sat Apr 30 16:09:57 2011
</name>
<styleUrl>
#styleMap_TLP_Normal
</styleUrl>
<Point>
<coordinates>
121.7066422,24.7210712,48.45
</coordinates>
</Point>
</Placemark>
<Placemark>
<name>
Sat Apr 30 16:10:02 2011
</name>
<styleUrl>
#styleMap_TLP_Normal
</styleUrl>
<Point>
<coordinates>
121.7064667,24.7209206,47.30
</coordinates>
</Point>
</Placemark>
<Placemark>
<name>
Sat Apr 30 16:10:07 2011
</name>
<styleUrl>
#styleMap_TLP_Normal
</styleUrl>
<Point>
<coordinates>
121.7062683,24.7207775,47.73
</coordinates>
</Point>
</Placemark>
<Placemark>
<name>
Sat Apr 30 16:10:12 2011
</name>
<styleUrl>
#styleMap_TLP_Normal
</styleUrl>
<Point>
<coordinates>
121.7060471,24.7206688,49.35
</coordinates>
</Point>
</Placemark>
<Placemark>
<name>
Sat Apr 30 16:10:17 2011
</name>
<styleUrl>
#styleMap_TLP_Normal
</styleUrl>
<Point>
<coordinates>
121.7058182,24.7205791,46.90
</coordinates>
</Point>
</Placemark>
<Placemark>
<name>
Sat Apr 30 16:10:22 2011
</name>
<styleUrl>
#styleMap_TLP_Normal
</styleUrl>
<Point>
<coordinates>
121.7056274,24.7204933,46.27
</coordinates>
</Point>
</Placemark>
<Placemark>
<name>
Sat Apr 30 16:10:27 2011
</name>
<styleUrl>
#styleMap_TLP_Normal
</styleUrl>
<Point>
<coordinates>
121.7054825,24.7204304,46.98
</coordinates>
</Point>
</Placemark>
<Placemark>
<name>
Sat Apr 30 16:10:32 2011
</name>
<styleUrl>
#styleMap_TLP_Normal
</styleUrl>
<Point>
<coordinates>
121.7053299,24.7203732,43.62
</coordinates>
</Point>
</Placemark>
<Placemark>
<name>
Sat Apr 30 16:10:37 2011
</name>
<styleUrl>
#styleMap_TLP_Normal
</styleUrl>
<Point>
<coordinates>
121.7053146,24.7202473,42.84
</coordinates>
</Point>
</Placemark>
<Placemark>
<name>
Sat Apr 30 16:10:42 2011
</name>
<styleUrl>
#styleMap_TLP_Normal
</styleUrl>
<Point>
<coordinates>
121.7053757,24.7200985,42.79
</coordinates>
</Point>
</Placemark>
<Placemark>
<name>
Sat Apr 30 16:10:47 2011
</name>
<styleUrl>
#styleMap_TLP_Normal
</styleUrl>
<Point>
<coordinates>
121.7054138,24.7199097,38.88
</coordinates>
</Point>
</Placemark>
<Placemark>
<name>
Sat Apr 30 16:10:52 2011
</name>
<styleUrl>
#styleMap_TLP_Normal
</styleUrl>
<Point>
<coordinates>
121.7054825,24.7197113,35.09
</coordinates>
</Point>
</Placemark>
<Placemark>
<name>
Sat Apr 30 16:10:57 2011
</name>
<styleUrl>
#styleMap_TLP_Normal
</styleUrl>
<Point>
<coordinates>
121.7055359,24.7195339,33.44
</coordinates>
</Point>
</Placemark>
<Placemark>
<name>
Sat Apr 30 16:11:02 2011
</name>
<styleUrl>
#styleMap_TLP_Normal
</styleUrl>
<Point>
<coordinates>
121.7055969,24.7193413,36.37
</coordinates>
</Point>
</Placemark>
<Placemark>
<name>
Sat Apr 30 16:11:07 2011
</name>
<styleUrl>
#styleMap_TLP_Normal
</styleUrl>
<Point>
<coordinates>
121.7056580,24.7191734,40.57
</coordinates>
</Point>
</Placemark>
<Placemark>
<name>
Sat Apr 30 16:11:12 2011
</name>
<styleUrl>
#styleMap_TLP_Normal
</styleUrl>
<Point>
<coordinates>
121.7057114,24.7190037,43.30
</coordinates>
</Point>
</Placemark>
<Placemark>
<name>
Sat Apr 30 16:11:17 2011
</name>
<styleUrl>
#styleMap_TLP_Normal
</styleUrl>
<Point>
<coordinates>
121.7058105,24.7188263,43.58
</coordinates>
</Point>
</Placemark>
<Placemark>
<name>
Sat Apr 30 16:11:22 2011
</name>
<styleUrl>
#styleMap_TLP_Normal
</styleUrl>
<Point>
<coordinates>
121.7059326,24.7186546,49.13
</coordinates>
</Point>
</Placemark>
<Placemark>
<name>
Sat Apr 30 16:11:27 2011
</name>
<styleUrl>
#styleMap_TLP_Normal
</styleUrl>
<Point>
<coordinates>
121.7060394,24.7184925,52.73
</coordinates>
</Point>
</Placemark>
<Placemark>
<name>
Sat Apr 30 16:11:32 2011
</name>
<styleUrl>
#styleMap_TLP_Normal
</styleUrl>
<Point>
<coordinates>
121.7061386,24.7183323,53.52
</coordinates>
</Point>
</Placemark>
<Placemark>
<name>
Sat Apr 30 16:11:37 2011
</name>
<styleUrl>
#styleMap_TLP_Normal
</styleUrl>
<Point>
<coordinates>
121.7062454,24.7181435,51.25
</coordinates>
</Point>
</Placemark>
<Placemark>
<name>
Sat Apr 30 16:11:42 2011
</name>
<styleUrl>
#styleMap_TLP_Normal
</styleUrl>
<Point>
<coordinates>
121.7063599,24.7179585,50.31
</coordinates>
</Point>
</Placemark>
<Placemark>
<name>
Sat Apr 30 16:11:47 2011
</name>
<styleUrl>
#styleMap_TLP_Normal
</styleUrl>
<Point>
<coordinates>
121.7064667,24.7177963,58.02
</coordinates>
</Point>
</Placemark>
<Placemark>
<name>
Sat Apr 30 16:11:52 2011
</name>
<styleUrl>
#styleMap_TLP_Normal
</styleUrl>
<Point>
<coordinates>
121.7065811,24.7176056,58.33
</coordinates>
</Point>
</Placemark>
<Placemark>
<name>
Sat Apr 30 16:11:57 2011
</name>
<styleUrl>
#styleMap_TLP_Normal
</styleUrl>
<Point>
<coordinates>
121.7067032,24.7174263,60.50
</coordinates>
</Point>
</Placemark>
<Placemark>
<name>
Sat Apr 30 16:12:02 2011
</name>
<styleUrl>
#styleMap_TLP_Normal
</styleUrl>
<Point>
<coordinates>
121.7068176,24.7172489,62.52
</coordinates>
</Point>
</Placemark>
<Placemark>
<name>
Sat Apr 30 16:12:07 2011
</name>
<styleUrl>
#styleMap_TLP_Normal
</styleUrl>
<Point>
<coordinates>
121.7069092,24.7170811,63.76
</coordinates>
</Point>
</Placemark>
<Placemark>
<name>
Sat Apr 30 16:12:12 2011
</name>
<styleUrl>
#styleMap_TLP_Normal
</styleUrl>
<Point>
<coordinates>
121.7070084,24.7169037,64.22
</coordinates>
</Point>
</Placemark>
<Placemark>
<name>
Sat Apr 30 16:12:17 2011
</name>
<styleUrl>
#styleMap_TLP_Normal
</styleUrl>
<Point>
<coordinates>
121.7071075,24.7167320,65.67
</coordinates>
</Point>
</Placemark>
<Placemark>
<name>
Sat Apr 30 16:12:22 2011
</name>
<styleUrl>
#styleMap_TLP_Normal
</styleUrl>
<Point>
<coordinates>
121.7072144,24.7165775,67.11
</coordinates>
</Point>
</Placemark>
<Placemark>
<name>
Sat Apr 30 16:12:27 2011
</name>
<styleUrl>
#styleMap_TLP_Normal
</styleUrl>
<Point>
<coordinates>
121.7072830,24.7164307,69.33
</coordinates>
</Point>
</Placemark>
<Placemark>
<name>
Sat Apr 30 16:12:32 2011
</name>
<styleUrl>
#styleMap_TLP_Normal
</styleUrl>
<Point>
<coordinates>
121.7071304,24.7163410,63.36
</coordinates>
</Point>
</Placemark>
<Placemark>
<name>
Sat Apr 30 16:12:37 2011
</name>
<styleUrl>
#styleMap_TLP_Normal
</styleUrl>
<Point>
<coordinates>
121.7069321,24.7162590,57.24
</coordinates>
</Point>
</Placemark>
<Placemark>
<name>
Sat Apr 30 16:12:42 2011
</name>
<styleUrl>
#styleMap_TLP_Normal
</styleUrl>
<Point>
<coordinates>
121.7067108,24.7161636,51.39
</coordinates>
</Point>
</Placemark>
<Placemark>
<name>
Sat Apr 30 16:12:47 2011
</name>
<styleUrl>
#styleMap_TLP_Normal
</styleUrl>
<Point>
<coordinates>
121.7065125,24.7160759,46.00
</coordinates>
</Point>
</Placemark>
<Placemark>
<name>
Sat Apr 30 16:12:52 2011
</name>
<styleUrl>
#styleMap_TLP_Normal
</styleUrl>
<Point>
<coordinates>
121.7063370,24.7160072,41.63
</coordinates>
</Point>
</Placemark>
<Placemark>
<name>
Sat Apr 30 16:12:57 2011
</name>
<styleUrl>
#styleMap_TLP_Normal
</styleUrl>
<Point>
<coordinates>
121.7061615,24.7159157,38.63
</coordinates>
</Point>
</Placemark>
<Placemark>
<name>
Sat Apr 30 16:13:02 2011
</name>
<styleUrl>
#styleMap_TLP_Normal
</styleUrl>
<Point>
<coordinates>
121.7059937,24.7158394,34.92
</coordinates>
</Point>
</Placemark>
<Placemark>
<name>
Sat Apr 30 16:13:07 2011
</name>
<styleUrl>
#styleMap_TLP_Normal
</styleUrl>
<Point>
<coordinates>
121.7058334,24.7157650,34.22
</coordinates>
</Point>
</Placemark>
<Placemark>
<name>
Sat Apr 30 16:13:12 2011
</name>
<styleUrl>
#styleMap_TLP_Normal
</styleUrl>
<Point>
<coordinates>
121.7056656,24.7156830,33.01
</coordinates>
</Point>
</Placemark>
<Placemark>
<name>
Sat Apr 30 16:13:17 2011
</name>
<styleUrl>
#styleMap_TLP_Normal
</styleUrl>
<Point>
<coordinates>
121.7054901,24.7155914,31.34
</coordinates>
</Point>
</Placemark>
<Placemark>
<name>
Sat Apr 30 16:13:22 2011
</name>
<styleUrl>
#styleMap_TLP_Normal
</styleUrl>
<Point>
<coordinates>
121.7053223,24.7154961,28.78
</coordinates>
</Point>
</Placemark>
<Placemark>
<name>
Sat Apr 30 16:13:27 2011
</name>
<styleUrl>
#styleMap_TLP_Normal
</styleUrl>
<Point>
<coordinates>
121.7051392,24.7154102,27.91
</coordinates>
</Point>
</Placemark>
<Placemark>
<name>
Sat Apr 30 16:13:32 2011
</name>
<styleUrl>
#styleMap_TLP_Normal
</styleUrl>
<Point>
<coordinates>
121.7049637,24.7153225,27.74
</coordinates>
</Point>
</Placemark>
<Placemark>
<name>
Sat Apr 30 16:13:37 2011
</name>
<styleUrl>
#styleMap_TLP_Normal
</styleUrl>
<Point>
<coordinates>
121.7047729,24.7152367,28.14
</coordinates>
</Point>
</Placemark>
<Placemark>
<name>
Sat Apr 30 16:13:42 2011
</name>
<styleUrl>
#styleMap_TLP_Normal
</styleUrl>
<Point>
<coordinates>
121.7045822,24.7151413,28.38
</coordinates>
</Point>
</Placemark>
<Placemark>
<name>
Sat Apr 30 16:13:47 2011
</name>
<styleUrl>
#styleMap_TLP_Normal
</styleUrl>
<Point>
<coordinates>
121.7043915,24.7150536,27.37
</coordinates>
</Point>
</Placemark>
<Placemark>
<name>
Sat Apr 30 16:13:52 2011
</name>
<styleUrl>
#styleMap_TLP_Normal
</styleUrl>
<Point>
<coordinates>
121.7041931,24.7149544,28.13
</coordinates>
</Point>
</Placemark>
<Placemark>
<name>
Sat Apr 30 16:13:57 2011
</name>
<styleUrl>
#styleMap_TLP_Normal
</styleUrl>
<Point>
<coordinates>
121.7040253,24.7148705,27.88
</coordinates>
</Point>
</Placemark>
<Placemark>
<name>
Sat Apr 30 16:14:02 2011
</name>
<styleUrl>
#styleMap_TLP_Normal
</styleUrl>
<Point>
<coordinates>
121.7038422,24.7147884,26.76
</coordinates>
</Point>
</Placemark>
<Placemark>
<name>
Sat Apr 30 16:14:07 2011
</name>
<styleUrl>
#styleMap_TLP_Normal
</styleUrl>
<Point>
<coordinates>
121.7036896,24.7146969,27.89
</coordinates>
</Point>
</Placemark>
<Placemark>
<name>
Sat Apr 30 16:14:12 2011
</name>
<styleUrl>
#styleMap_TLP_Normal
</styleUrl>
<Point>
<coordinates>
121.7035065,24.7145996,27.55
</coordinates>
</Point>
</Placemark>
<Placemark>
<name>
Sat Apr 30 16:14:17 2011
</name>
<styleUrl>
#styleMap_TLP_Normal
</styleUrl>
<Point>
<coordinates>
121.7033081,24.7145004,26.31
</coordinates>
</Point>
</Placemark>
<Placemark>
<name>
Sat Apr 30 16:14:22 2011
</name>
<styleUrl>
#styleMap_TLP_Normal
</styleUrl>
<Point>
<coordinates>
121.7031021,24.7143841,25.34
</coordinates>
</Point>
</Placemark>
<Placemark>
<name>
Sat Apr 30 16:14:27 2011
</name>
<styleUrl>
#styleMap_TLP_Normal
</styleUrl>
<Point>
<coordinates>
121.7028961,24.7142754,25.74
</coordinates>
</Point>
</Placemark>
<Placemark>
<name>
Sat Apr 30 16:14:32 2011
</name>
<styleUrl>
#styleMap_TLP_Normal
</styleUrl>
<Point>
<coordinates>
121.7026978,24.7141457,27.76
</coordinates>
</Point>
</Placemark>
<Placemark>
<name>
Sat Apr 30 16:14:37 2011
</name>
<styleUrl>
#styleMap_TLP_Normal
</styleUrl>
<Point>
<coordinates>
121.7025528,24.7140141,27.98
</coordinates>
</Point>
</Placemark>
<Placemark>
<name>
Sat Apr 30 16:14:42 2011
</name>
<styleUrl>
#styleMap_TLP_Normal
</styleUrl>
<Point>
<coordinates>
121.7026062,24.7138081,29.76
</coordinates>
</Point>
</Placemark>
<Placemark>
<name>
Sat Apr 30 16:14:47 2011
</name>
<styleUrl>
#styleMap_TLP_Normal
</styleUrl>
<Point>
<coordinates>
121.7026825,24.7135925,30.83
</coordinates>
</Point>
</Placemark>
<Placemark>
<name>
Sat Apr 30 16:14:52 2011
</name>
<styleUrl>
#styleMap_TLP_Normal
</styleUrl>
<Point>
<coordinates>
121.7027740,24.7133961,31.63
</coordinates>
</Point>
</Placemark>
<Placemark>
<name>
Sat Apr 30 16:14:57 2011
</name>
<styleUrl>
#styleMap_TLP_Normal
</styleUrl>
<Point>
<coordinates>
121.7028351,24.7132053,31.03
</coordinates>
</Point>
</Placemark>
<Placemark>
<name>
Sat Apr 30 16:15:02 2011
</name>
<styleUrl>
#styleMap_TLP_Normal
</styleUrl>
<Point>
<coordinates>
121.7026901,24.7130852,30.51
</coordinates>
</Point>
</Placemark>
<Placemark>
<name>
Sat Apr 30 16:15:07 2011
</name>
<styleUrl>
#styleMap_TLP_Normal
</styleUrl>
<Point>
<coordinates>
121.7024918,24.7129784,29.26
</coordinates>
</Point>
</Placemark>
<Placemark>
<name>
Sat Apr 30 16:15:12 2011
</name>
<styleUrl>
#styleMap_TLP_Normal
</styleUrl>
<Point>
<coordinates>
121.7022858,24.7128735,29.44
</coordinates>
</Point>
</Placemark>
<Placemark>
<name>
Sat Apr 30 16:15:17 2011
</name>
<styleUrl>
#styleMap_TLP_Normal
</styleUrl>
<Point>
<coordinates>
121.7021713,24.7128143,35.04
</coordinates>
</Point>
</Placemark>
<Placemark>
<name>
Sat Apr 30 16:15:22 2011
</name>
<styleUrl>
#styleMap_TLP_Normal
</styleUrl>
<Point>
<coordinates>
121.7020569,24.7129040,39.24
</coordinates>
</Point>
</Placemark>
<Placemark>
<name>
Sat Apr 30 16:15:27 2011
</name>
<styleUrl>
#styleMap_TLP_Normal
</styleUrl>
<Point>
<coordinates>
121.7020111,24.7129288,40.35
</coordinates>
</Point>
</Placemark>
<Placemark>
<name>
Sat Apr 30 16:15:32 2011
</name>
<styleUrl>
#styleMap_TLP_Normal
</styleUrl>
<Point>
<coordinates>
121.7020035,24.7129326,41.13
</coordinates>
</Point>
</Placemark>
<Placemark>
<name>
Sat Apr 30 16:15:37 2011
</name>
<styleUrl>
#styleMap_TLP_Normal
</styleUrl>
<Point>
<coordinates>
121.7019958,24.7129364,41.35
</coordinates>
</Point>
</Placemark>
<Placemark>
<name>
Sat Apr 30 16:15:42 2011
</name>
<styleUrl>
#styleMap_TLP_Normal
</styleUrl>
<Point>
<coordinates>
121.7020035,24.7129364,41.45
</coordinates>
</Point>
</Placemark>
<Placemark>
<name>
Sat Apr 30 16:15:47 2011
</name>
<styleUrl>
#styleMap_TLP_Normal
</styleUrl>
<Point>
<coordinates>
121.7020035,24.7129326,41.54
</coordinates>
</Point>
</Placemark>
<Placemark>
<name>
Sat Apr 30 16:15:52 2011
</name>
<styleUrl>
#styleMap_TLP_Normal
</styleUrl>
<Point>
<coordinates>
121.7020111,24.7129307,41.59
</coordinates>
</Point>
</Placemark>
<Placemark>
<name>
Sat Apr 30 16:15:57 2011
</name>
<styleUrl>
#styleMap_TLP_Normal
</styleUrl>
<Point>
<coordinates>
121.7020187,24.7129269,41.63
</coordinates>
</Point>
</Placemark>
<Placemark>
<name>
Sat Apr 30 16:16:02 2011
</name>
<styleUrl>
#styleMap_TLP_Normal
</styleUrl>
<Point>
<coordinates>
121.7020264,24.7129211,41.68
</coordinates>
</Point>
</Placemark>
<Placemark>
<name>
Sat Apr 30 16:16:07 2011
</name>
<styleUrl>
#styleMap_TLP_Normal
</styleUrl>
<Point>
<coordinates>
121.7020264,24.7129211,41.73
</coordinates>
</Point>
</Placemark>
<Placemark>
<name>
Sat Apr 30 16:16:12 2011
</name>
<styleUrl>
#styleMap_TLP_Normal
</styleUrl>
<Point>
<coordinates>
121.7020340,24.7129192,41.79
</coordinates>
</Point>
</Placemark>
<Placemark>
<name>
Sat Apr 30 16:16:17 2011
</name>
<styleUrl>
#styleMap_TLP_Normal
</styleUrl>
<Point>
<coordinates>
121.7020340,24.7129173,41.87
</coordinates>
</Point>
</Placemark>
<Placemark>
<name>
Sat Apr 30 16:16:22 2011
</name>
<styleUrl>
#styleMap_TLP_Normal
</styleUrl>
<Point>
<coordinates>
121.7020340,24.7129173,41.91
</coordinates>
</Point>
</Placemark>
<Placemark>
<name>
Sat Apr 30 16:16:27 2011
</name>
<styleUrl>
#styleMap_TLP_Normal
</styleUrl>
<Point>
<coordinates>
121.7020340,24.7129173,41.94
</coordinates>
</Point>
</Placemark>
<Placemark>
<name>
Sat Apr 30 16:16:32 2011
</name>
<styleUrl>
#styleMap_TLP_Normal
</styleUrl>
<Point>
<coordinates>
121.7020493,24.7129097,41.97
</coordinates>
</Point>
</Placemark>
<Placemark>
<name>
Sat Apr 30 16:16:37 2011
</name>
<styleUrl>
#styleMap_TLP_Normal
</styleUrl>
<Point>
<coordinates>
121.7020493,24.7129040,42.00
</coordinates>
</Point>
</Placemark>
<Placemark>
<name>
Sat Apr 30 16:16:42 2011
</name>
<styleUrl>
#styleMap_TLP_Normal
</styleUrl>
<Point>
<coordinates>
121.7020645,24.7128963,42.02
</coordinates>
</Point>
</Placemark>
<Placemark>
<name>
Sat Apr 30 16:16:47 2011
</name>
<styleUrl>
#styleMap_TLP_Normal
</styleUrl>
<Point>
<coordinates>
121.7020721,24.7128887,42.05
</coordinates>
</Point>
</Placemark>
<Placemark>
<name>
Sat Apr 30 16:16:52 2011
</name>
<styleUrl>
#styleMap_TLP_Normal
</styleUrl>
<Point>
<coordinates>
121.7020798,24.7128849,42.07
</coordinates>
</Point>
</Placemark>
<Placemark>
<name>
Sat Apr 30 16:16:57 2011
</name>
<styleUrl>
#styleMap_TLP_Normal
</styleUrl>
<Point>
<coordinates>
121.7020798,24.7128830,42.09
</coordinates>
</Point>
</Placemark>
<Placemark>
<name>
Sat Apr 30 16:17:02 2011
</name>
<styleUrl>
#styleMap_TLP_Normal
</styleUrl>
<Point>
<coordinates>
121.7020798,24.7128811,42.10
</coordinates>
</Point>
</Placemark>
<Placemark>
<name>
Sat Apr 30 16:17:07 2011
</name>
<styleUrl>
#styleMap_TLP_Normal
</styleUrl>
<Point>
<coordinates>
121.7020874,24.7128792,42.12
</coordinates>
</Point>
</Placemark>
<Placemark>
<name>
Sat Apr 30 16:17:12 2011
</name>
<styleUrl>
#styleMap_TLP_Normal
</styleUrl>
<Point>
<coordinates>
121.7020874,24.7128773,42.14
</coordinates>
</Point>
</Placemark>
<Placemark>
<name>
Sat Apr 30 16:17:17 2011
</name>
<styleUrl>
#styleMap_TLP_Normal
</styleUrl>
<Point>
<coordinates>
121.7020874,24.7128792,42.15
</coordinates>
</Point>
</Placemark>
<Placemark>
<name>
Sat Apr 30 16:17:22 2011
</name>
<styleUrl>
#styleMap_TLP_Normal
</styleUrl>
<Point>
<coordinates>
121.7020874,24.7128792,42.17
</coordinates>
</Point>
</Placemark>
<Placemark>
<name>
Sat Apr 30 16:17:27 2011
</name>
<styleUrl>
#styleMap_TLP_Normal
</styleUrl>
<Point>
<coordinates>
121.7020874,24.7128754,42.24
</coordinates>
</Point>
</Placemark>
<Placemark>
<name>
Sat Apr 30 16:17:32 2011
</name>
<styleUrl>
#styleMap_TLP_Normal
</styleUrl>
<Point>
<coordinates>
121.7020874,24.7128735,42.31
</coordinates>
</Point>
</Placemark>
<Placemark>
<name>
Sat Apr 30 16:17:37 2011
</name>
<styleUrl>
#styleMap_TLP_Normal
</styleUrl>
<Point>
<coordinates>
121.7020874,24.7128735,42.34
</coordinates>
</Point>
</Placemark>
<Placemark>
<name>
Sat Apr 30 16:17:42 2011
</name>
<styleUrl>
#styleMap_TLP_Normal
</styleUrl>
<Point>
<coordinates>
121.7020874,24.7128735,42.36
</coordinates>
</Point>
</Placemark>
<Placemark>
<name>
Sat Apr 30 16:17:47 2011
</name>
<styleUrl>
#styleMap_TLP_Normal
</styleUrl>
<Point>
<coordinates>
121.7020874,24.7128735,42.38
</coordinates>
</Point>
</Placemark>
<Placemark>
<name>
Sat Apr 30 16:17:52 2011
</name>
<styleUrl>
#styleMap_TLP_Normal
</styleUrl>
<Point>
<coordinates>
121.7020874,24.7128716,42.40
</coordinates>
</Point>
</Placemark>
<Placemark>
<name>
Sat Apr 30 16:17:57 2011
</name>
<styleUrl>
#styleMap_TLP_Normal
</styleUrl>
<Point>
<coordinates>
121.7020874,24.7128716,42.40
</coordinates>
</Point>
</Placemark>
<Placemark>
<name>
Sat Apr 30 16:18:02 2011
</name>
<styleUrl>
#styleMap_TLP_Normal
</styleUrl>
<Point>
<coordinates>
121.7020950,24.7128716,42.41
</coordinates>
</Point>
</Placemark>
<Placemark>
<name>
Sat Apr 30 16:18:07 2011
</name>
<styleUrl>
#styleMap_TLP_Normal
</styleUrl>
<Point>
<coordinates>
121.7020874,24.7128716,42.42
</coordinates>
</Point>
</Placemark>
<Placemark>
<name>
Sat Apr 30 16:18:12 2011
</name>
<styleUrl>
#styleMap_TLP_Normal
</styleUrl>
<Point>
<coordinates>
121.7020874,24.7128696,42.45
</coordinates>
</Point>
</Placemark>
<Placemark>
<name>
Sat Apr 30 16:18:17 2011
</name>
<styleUrl>
#styleMap_TLP_Normal
</styleUrl>
<Point>
<coordinates>
121.7020874,24.7128696,42.49
</coordinates>
</Point>
</Placemark>
<Placemark>
<name>
Sat Apr 30 16:18:22 2011
</name>
<styleUrl>
#styleMap_TLP_Normal
</styleUrl>
<Point>
<coordinates>
121.7020874,24.7128696,42.53
</coordinates>
</Point>
</Placemark>
<Placemark>
<name>
Sat Apr 30 16:18:27 2011
</name>
<styleUrl>
#styleMap_TLP_Normal
</styleUrl>
<Point>
<coordinates>
121.7020874,24.7128696,42.52
</coordinates>
</Point>
</Placemark>
<Placemark>
<name>
Sat Apr 30 16:18:32 2011
</name>
<styleUrl>
#styleMap_TLP_Normal
</styleUrl>
<Point>
<coordinates>
121.7020874,24.7128696,42.50
</coordinates>
</Point>
</Placemark>
<Placemark>
<name>
Sat Apr 30 16:18:37 2011
</name>
<styleUrl>
#styleMap_TLP_Normal
</styleUrl>
<Point>
<coordinates>
121.7020874,24.7128696,42.49
</coordinates>
</Point>
</Placemark>
<Placemark>
<name>
Sat Apr 30 16:18:42 2011
</name>
<styleUrl>
#styleMap_TLP_Normal
</styleUrl>
<Point>
<coordinates>
121.7020874,24.7128696,42.49
</coordinates>
</Point>
</Placemark>
<Placemark>
<name>
Sat Apr 30 16:18:47 2011
</name>
<styleUrl>
#styleMap_TLP_Normal
</styleUrl>
<Point>
<coordinates>
121.7020874,24.7128696,42.49
</coordinates>
</Point>
</Placemark>
<Placemark>
<name>
Sat Apr 30 16:18:52 2011
</name>
<styleUrl>
#styleMap_TLP_Normal
</styleUrl>
<Point>
<coordinates>
121.7020950,24.7128716,42.49
</coordinates>
</Point>
</Placemark>
<Placemark>
<name>
Sat Apr 30 16:18:57 2011
</name>
<styleUrl>
#styleMap_TLP_Finish
</styleUrl>
<Point>
<coordinates>
121.7021027,24.7128830,42.49
</coordinates>
</Point>
</Placemark>
</Folder>
</Document>
</kml>
