<?xml version="1.0" encoding="UTF-8"?>
<kml xmlns="http://earth.google.com/kml/2.1">
<Document>
<Style id="normalState_TLP_Start">
<IconStyle>
<scale>1.0</scale>
<Icon>
<href>http://maps.google.com/mapfiles/kml/pal4/icon15.png</href>
</Icon>
</IconStyle>
<LabelStyle>
<scale>1.0</scale>
</LabelStyle>
</Style>
<Style id="highlightState_TLP_Start">
<IconStyle>
<scale>1.1</scale>
<Icon>
<href>http://maps.google.com/mapfiles/kml/pal4/icon7.png</href>
</Icon>
</IconStyle>
<LabelStyle>
<scale>1.1</scale>
<color>ff0000ff</color>
</LabelStyle>
</Style>
<StyleMap id="styleMap_TLP_Start">
<Pair>
<key>normal</key>
<styleUrl>#normalState_TLP_Start</styleUrl>
</Pair>
<Pair>
<key>highlight</key>
<styleUrl>#highlightState_TLP_Start</styleUrl>
</Pair>
</StyleMap>
<Style id="normalState_TLP_Finish">
<IconStyle>
<scale>1.0</scale>
<Icon>
<href>http://maps.google.com/mapfiles/kml/pal4/icon15.png</href>
</Icon>
</IconStyle>
<LabelStyle>
<scale>1.0</scale>
</LabelStyle>
</Style>
<Style id="highlightState_TLP_Finish">
<IconStyle>
<scale>1.1</scale>
<Icon>
<href>http://maps.google.com/mapfiles/kml/pal4/icon7.png</href>
</Icon>
</IconStyle>
<LabelStyle>
<scale>1.1</scale>
<color>ff0000ff</color>
</LabelStyle>
</Style>
<StyleMap id="styleMap_TLP_Finish">
<Pair>
<key>normal</key>
<styleUrl>#normalState_TLP_Finish</styleUrl>
</Pair>
<Pair>
<key>highlight</key>
<styleUrl>#highlightState_TLP_Finish</styleUrl>
</Pair>
</StyleMap>
<Style id="normalState_TLP_Normal">
<IconStyle>
<scale>1.0</scale>
<Icon>
<href>http://maps.google.com/mapfiles/kml/pal4/icon31.png</href>
</Icon>
</IconStyle>
<LabelStyle>
<scale>1.0</scale>
</LabelStyle>
</Style>
<Style id="highlightState_TLP_Normal">
<IconStyle>
<scale>1.1</scale>
<Icon>
<href>http://maps.google.com/mapfiles/kml/pal4/icon23.png</href>
</Icon>
</IconStyle>
<LabelStyle>
<scale>1.1</scale>
<color>ff0000ff</color>
</LabelStyle>
</Style>
<StyleMap id="styleMap_TLP_Normal">
<Pair>
<key>normal</key>
<styleUrl>#normalState_TLP_Normal</styleUrl>
</Pair>
<Pair>
<key>highlight</key>
<styleUrl>#highlightState_TLP_Normal</styleUrl>
</Pair>
</StyleMap>
<Style id="normalState_TLP_Photo">
<IconStyle>
<scale>1.0</scale>
<Icon>
<href>http://maps.google.com/mapfiles/kml/pal4/icon46.png</href>
</Icon>
</IconStyle>
<LabelStyle>
<scale>1.0</scale>
</LabelStyle>
</Style>
<Style id="highlightState_TLP_Photo">
<IconStyle>
<scale>1.1</scale>
<Icon>
<href>http://maps.google.com/mapfiles/kml/pal4/icon38.png</href>
</Icon>
</IconStyle>
<LabelStyle>
<scale>1.1</scale>
<color>ff0000ff</color>
</LabelStyle>
</Style>
<StyleMap id="styleMap_TLP_Photo">
<Pair>
<key>normal</key>
<styleUrl>#normalState_TLP_Photo</styleUrl>
</Pair>
<Pair>
<key>highlight</key>
<styleUrl>#highlightState_TLP_Photo</styleUrl>
</Pair>
</StyleMap>
<Style id="roadStyle">
<LineStyle>
<color>ffffff00</color>
<width>6</width>
</LineStyle>
</Style>
<Open>1</Open>
<description>Route</description>
<name>Track Log</name>
<Placemark>
<name>Route</name>
<styleUrl>#roadStyle</styleUrl>
<MultiGeometry>
<LineString>
<coordinates>
121.0898438,24.7424946,147.29 121.0897751,24.7424412,145.14 121.0897522,24.7423477,143.77 121.0899200,24.7422276,137.71 121.0900269,24.7421169,131.02 121.0900650,24.7421036,127.73 121.0900726,24.7421322,124.89 121.0900803,24.7421303,124.64 121.0900803,24.7421284,124.44 121.0900803,24.7421284,124.30 121.0901566,24.7422314,124.65 121.0901413,24.7426338,124.46 121.0898132,24.7430515,123.83 121.0892487,24.7436047,122.47 121.0886459,24.7442169,121.59 121.0880203,24.7448254,120.98 121.0875015,24.7454147,121.34 121.0870819,24.7460480,122.86 121.0864716,24.7466507,122.64 121.0857849,24.7471581,123.65 121.0851059,24.7476444,120.94 121.0842743,24.7482109,116.01 121.0834274,24.7488537,113.13 121.0826111,24.7494698,113.19 121.0818405,24.7500668,113.83 121.0810471,24.7506618,114.43 121.0802383,24.7512760,115.59 121.0794067,24.7517948,117.14 121.0785751,24.7521152,116.53 121.0779419,24.7525864,114.84 121.0776443,24.7533245,114.83 121.0773926,24.7541142,113.80 121.0769348,24.7548237,112.32 121.0762177,24.7553158,110.50 121.0753479,24.7556477,108.88 121.0744171,24.7560234,104.63 121.0735779,24.7565536,100.97 121.0729294,24.7572918,104.12 121.0724869,24.7580681,107.85 121.0720444,24.7588158,111.59 121.0715256,24.7595100,115.21 121.0708618,24.7601471,119.46 121.0700684,24.7607021,124.62 121.0691528,24.7611713,124.84 121.0681458,24.7616100,120.76 121.0670929,24.7620811,114.57 121.0661163,24.7627621,111.78 121.0653992,24.7635899,114.56 121.0649033,24.7644863,116.05 121.0645142,24.7654037,117.04 121.0641174,24.7663479,114.80 121.0637054,24.7673054,110.41 121.0633011,24.7682533,104.56 121.0629120,24.7692299,101.33 121.0624847,24.7702217,99.74 121.0620499,24.7712173,100.54 121.0616074,24.7722263,99.70 121.0611877,24.7732353,98.34 121.0607300,24.7742519,99.53 121.0601807,24.7752438,101.48 121.0595398,24.7762051,102.43 121.0589066,24.7771549,100.88 121.0583725,24.7781048,95.58 121.0579453,24.7791100,91.04 121.0575562,24.7800579,87.85 121.0571747,24.7809372,83.58 121.0567322,24.7818108,80.54 121.0562363,24.7826538,78.61 121.0556488,24.7835102,76.87 121.0549850,24.7843819,75.06 121.0542679,24.7851925,76.01 121.0535965,24.7859516,77.88 121.0528946,24.7866001,79.65 121.0521774,24.7871933,80.41 121.0514297,24.7877388,81.19 121.0506668,24.7882271,79.91 121.0498505,24.7887020,76.32 121.0489731,24.7891560,73.93 121.0480881,24.7895679,71.99 121.0471725,24.7899742,70.23 121.0462570,24.7903481,69.62 121.0453339,24.7907372,70.14 121.0444031,24.7911606,68.21 121.0434875,24.7915821,66.21 121.0426102,24.7919769,65.07 121.0417633,24.7923527,64.05 121.0408859,24.7927418,62.63 121.0399628,24.7931499,61.82 121.0390472,24.7935524,62.23 121.0381165,24.7939625,61.90 121.0371857,24.7943668,61.42 121.0362701,24.7947693,60.07 121.0353699,24.7951717,60.54 121.0344620,24.7955685,57.79 121.0335236,24.7959747,56.38 121.0325470,24.7963963,54.26 121.0315857,24.7968121,53.93 121.0306473,24.7972317,53.28 121.0297241,24.7976360,53.01 121.0287781,24.7980576,53.37 121.0278473,24.7984619,53.36 121.0269775,24.7988434,53.15 121.0261078,24.7992268,53.04 121.0252151,24.7996426,53.51 121.0243073,24.8001442,52.28 121.0233536,24.8006916,51.34 121.0224304,24.8012848,49.62 121.0214996,24.8018970,48.73 121.0206375,24.8024883,47.23 121.0197754,24.8030586,45.97 121.0189285,24.8036442,47.71 121.0182037,24.8042145,53.40 121.0174713,24.8046074,55.13 121.0166702,24.8046379,59.74 121.0160141,24.8042221,59.57 121.0154343,24.8035831,57.20 121.0147934,24.8029385,54.29 121.0142441,24.8022270,52.34 121.0138474,24.8015461,52.01 121.0136414,24.8010616,54.12 121.0135498,24.8006649,54.15 121.0134888,24.8001957,57.28 121.0134583,24.7997093,58.77 121.0134354,24.7991867,59.81 121.0134125,24.7986107,60.19 121.0133896,24.7980919,62.64 121.0133591,24.7976665,63.51 121.0133362,24.7973156,65.50 121.0133362,24.7971382,68.87 121.0133438,24.7971172,69.45 121.0133438,24.7971153,69.93 121.0133438,24.7971153,70.24 121.0133438,24.7970753,71.27 121.0133514,24.7970753,73.02 121.0133514,24.7970734,73.11 121.0133514,24.7970734,73.19 121.0133514,24.7970695,73.26 121.0133591,24.7970238,74.36 121.0133667,24.7970181,74.57 121.0133667,24.7970161,74.59 121.0133667,24.7970161,74.58 121.0133667,24.7970161,74.56 121.0133667,24.7970161,74.55 121.0133667,24.7970161,74.55 121.0133667,24.7970161,74.55 121.0133667,24.7970161,74.57 121.0133667,24.7970161,74.54 121.0133667,24.7970123,74.53 121.0133438,24.7968540,73.07 121.0132904,24.7965336,70.01 121.0132294,24.7961674,64.89 121.0131912,24.7958946,62.45 121.0131531,24.7956295,59.19 121.0131073,24.7953262,56.91 121.0130386,24.7949810,54.26 121.0130310,24.7947750,57.39 121.0130539,24.7947350,61.39 121.0130539,24.7947350,61.21 121.0130539,24.7947350,61.14 121.0130539,24.7947350,61.58 121.0130615,24.7947350,62.05 121.0130615,24.7947330,62.69 121.0130615,24.7947311,63.15 121.0130692,24.7947292,63.47 121.0130692,24.7947292,63.59 121.0130692,24.7947273,63.70 121.0130692,24.7947273,63.79 </coordinates>
</LineString>
</MultiGeometry>
</Placemark>
<Folder>
<name>waypoints</name>
<Placemark>
<name>
Sat Jul 03 16:16:04 2010
</name>
<styleUrl>
#styleMap_TLP_Start
</styleUrl>
<Point>
<coordinates>
121.0898438,24.7424946,147.29
</coordinates>
</Point>
</Placemark>
<Placemark>
<name>
Sat Jul 03 16:16:09 2010
</name>
<styleUrl>
#styleMap_TLP_Normal
</styleUrl>
<Point>
<coordinates>
121.0897751,24.7424412,145.14
</coordinates>
</Point>
</Placemark>
<Placemark>
<name>
Sat Jul 03 16:16:14 2010
</name>
<styleUrl>
#styleMap_TLP_Normal
</styleUrl>
<Point>
<coordinates>
121.0897522,24.7423477,143.77
</coordinates>
</Point>
</Placemark>
<Placemark>
<name>
Sat Jul 03 16:16:19 2010
</name>
<styleUrl>
#styleMap_TLP_Normal
</styleUrl>
<Point>
<coordinates>
121.0899200,24.7422276,137.71
</coordinates>
</Point>
</Placemark>
<Placemark>
<name>
Sat Jul 03 16:16:24 2010
</name>
<styleUrl>
#styleMap_TLP_Normal
</styleUrl>
<Point>
<coordinates>
121.0900269,24.7421169,131.02
</coordinates>
</Point>
</Placemark>
<Placemark>
<name>
Sat Jul 03 16:16:29 2010
</name>
<styleUrl>
#styleMap_TLP_Normal
</styleUrl>
<Point>
<coordinates>
121.0900650,24.7421036,127.73
</coordinates>
</Point>
</Placemark>
<Placemark>
<name>
Sat Jul 03 16:16:34 2010
</name>
<styleUrl>
#styleMap_TLP_Normal
</styleUrl>
<Point>
<coordinates>
121.0900726,24.7421322,124.89
</coordinates>
</Point>
</Placemark>
<Placemark>
<name>
Sat Jul 03 16:16:39 2010
</name>
<styleUrl>
#styleMap_TLP_Normal
</styleUrl>
<Point>
<coordinates>
121.0900803,24.7421303,124.64
</coordinates>
</Point>
</Placemark>
<Placemark>
<name>
Sat Jul 03 16:16:44 2010
</name>
<styleUrl>
#styleMap_TLP_Normal
</styleUrl>
<Point>
<coordinates>
121.0900803,24.7421284,124.44
</coordinates>
</Point>
</Placemark>
<Placemark>
<name>
Sat Jul 03 16:16:49 2010
</name>
<styleUrl>
#styleMap_TLP_Normal
</styleUrl>
<Point>
<coordinates>
121.0900803,24.7421284,124.30
</coordinates>
</Point>
</Placemark>
<Placemark>
<name>
Sat Jul 03 16:16:54 2010
</name>
<styleUrl>
#styleMap_TLP_Normal
</styleUrl>
<Point>
<coordinates>
121.0901566,24.7422314,124.65
</coordinates>
</Point>
</Placemark>
<Placemark>
<name>
Sat Jul 03 16:16:59 2010
</name>
<styleUrl>
#styleMap_TLP_Normal
</styleUrl>
<Point>
<coordinates>
121.0901413,24.7426338,124.46
</coordinates>
</Point>
</Placemark>
<Placemark>
<name>
Sat Jul 03 16:17:04 2010
</name>
<styleUrl>
#styleMap_TLP_Normal
</styleUrl>
<Point>
<coordinates>
121.0898132,24.7430515,123.83
</coordinates>
</Point>
</Placemark>
<Placemark>
<name>
Sat Jul 03 16:17:09 2010
</name>
<styleUrl>
#styleMap_TLP_Normal
</styleUrl>
<Point>
<coordinates>
121.0892487,24.7436047,122.47
</coordinates>
</Point>
</Placemark>
<Placemark>
<name>
Sat Jul 03 16:17:14 2010
</name>
<styleUrl>
#styleMap_TLP_Normal
</styleUrl>
<Point>
<coordinates>
121.0886459,24.7442169,121.59
</coordinates>
</Point>
</Placemark>
<Placemark>
<name>
Sat Jul 03 16:17:19 2010
</name>
<styleUrl>
#styleMap_TLP_Normal
</styleUrl>
<Point>
<coordinates>
121.0880203,24.7448254,120.98
</coordinates>
</Point>
</Placemark>
<Placemark>
<name>
Sat Jul 03 16:17:24 2010
</name>
<styleUrl>
#styleMap_TLP_Normal
</styleUrl>
<Point>
<coordinates>
121.0875015,24.7454147,121.34
</coordinates>
</Point>
</Placemark>
<Placemark>
<name>
Sat Jul 03 16:17:29 2010
</name>
<styleUrl>
#styleMap_TLP_Normal
</styleUrl>
<Point>
<coordinates>
121.0870819,24.7460480,122.86
</coordinates>
</Point>
</Placemark>
<Placemark>
<name>
Sat Jul 03 16:17:34 2010
</name>
<styleUrl>
#styleMap_TLP_Normal
</styleUrl>
<Point>
<coordinates>
121.0864716,24.7466507,122.64
</coordinates>
</Point>
</Placemark>
<Placemark>
<name>
Sat Jul 03 16:17:39 2010
</name>
<styleUrl>
#styleMap_TLP_Normal
</styleUrl>
<Point>
<coordinates>
121.0857849,24.7471581,123.65
</coordinates>
</Point>
</Placemark>
<Placemark>
<name>
Sat Jul 03 16:17:44 2010
</name>
<styleUrl>
#styleMap_TLP_Normal
</styleUrl>
<Point>
<coordinates>
121.0851059,24.7476444,120.94
</coordinates>
</Point>
</Placemark>
<Placemark>
<name>
Sat Jul 03 16:17:49 2010
</name>
<styleUrl>
#styleMap_TLP_Normal
</styleUrl>
<Point>
<coordinates>
121.0842743,24.7482109,116.01
</coordinates>
</Point>
</Placemark>
<Placemark>
<name>
Sat Jul 03 16:17:54 2010
</name>
<styleUrl>
#styleMap_TLP_Normal
</styleUrl>
<Point>
<coordinates>
121.0834274,24.7488537,113.13
</coordinates>
</Point>
</Placemark>
<Placemark>
<name>
Sat Jul 03 16:17:59 2010
</name>
<styleUrl>
#styleMap_TLP_Normal
</styleUrl>
<Point>
<coordinates>
121.0826111,24.7494698,113.19
</coordinates>
</Point>
</Placemark>
<Placemark>
<name>
Sat Jul 03 16:18:04 2010
</name>
<styleUrl>
#styleMap_TLP_Normal
</styleUrl>
<Point>
<coordinates>
121.0818405,24.7500668,113.83
</coordinates>
</Point>
</Placemark>
<Placemark>
<name>
Sat Jul 03 16:18:09 2010
</name>
<styleUrl>
#styleMap_TLP_Normal
</styleUrl>
<Point>
<coordinates>
121.0810471,24.7506618,114.43
</coordinates>
</Point>
</Placemark>
<Placemark>
<name>
Sat Jul 03 16:18:14 2010
</name>
<styleUrl>
#styleMap_TLP_Normal
</styleUrl>
<Point>
<coordinates>
121.0802383,24.7512760,115.59
</coordinates>
</Point>
</Placemark>
<Placemark>
<name>
Sat Jul 03 16:18:19 2010
</name>
<styleUrl>
#styleMap_TLP_Normal
</styleUrl>
<Point>
<coordinates>
121.0794067,24.7517948,117.14
</coordinates>
</Point>
</Placemark>
<Placemark>
<name>
Sat Jul 03 16:18:24 2010
</name>
<styleUrl>
#styleMap_TLP_Normal
</styleUrl>
<Point>
<coordinates>
121.0785751,24.7521152,116.53
</coordinates>
</Point>
</Placemark>
<Placemark>
<name>
Sat Jul 03 16:18:29 2010
</name>
<styleUrl>
#styleMap_TLP_Normal
</styleUrl>
<Point>
<coordinates>
121.0779419,24.7525864,114.84
</coordinates>
</Point>
</Placemark>
<Placemark>
<name>
Sat Jul 03 16:18:34 2010
</name>
<styleUrl>
#styleMap_TLP_Normal
</styleUrl>
<Point>
<coordinates>
121.0776443,24.7533245,114.83
</coordinates>
</Point>
</Placemark>
<Placemark>
<name>
Sat Jul 03 16:18:39 2010
</name>
<styleUrl>
#styleMap_TLP_Normal
</styleUrl>
<Point>
<coordinates>
121.0773926,24.7541142,113.80
</coordinates>
</Point>
</Placemark>
<Placemark>
<name>
Sat Jul 03 16:18:44 2010
</name>
<styleUrl>
#styleMap_TLP_Normal
</styleUrl>
<Point>
<coordinates>
121.0769348,24.7548237,112.32
</coordinates>
</Point>
</Placemark>
<Placemark>
<name>
Sat Jul 03 16:18:49 2010
</name>
<styleUrl>
#styleMap_TLP_Normal
</styleUrl>
<Point>
<coordinates>
121.0762177,24.7553158,110.50
</coordinates>
</Point>
</Placemark>
<Placemark>
<name>
Sat Jul 03 16:18:54 2010
</name>
<styleUrl>
#styleMap_TLP_Normal
</styleUrl>
<Point>
<coordinates>
121.0753479,24.7556477,108.88
</coordinates>
</Point>
</Placemark>
<Placemark>
<name>
Sat Jul 03 16:18:59 2010
</name>
<styleUrl>
#styleMap_TLP_Normal
</styleUrl>
<Point>
<coordinates>
121.0744171,24.7560234,104.63
</coordinates>
</Point>
</Placemark>
<Placemark>
<name>
Sat Jul 03 16:19:04 2010
</name>
<styleUrl>
#styleMap_TLP_Normal
</styleUrl>
<Point>
<coordinates>
121.0735779,24.7565536,100.97
</coordinates>
</Point>
</Placemark>
<Placemark>
<name>
Sat Jul 03 16:19:09 2010
</name>
<styleUrl>
#styleMap_TLP_Normal
</styleUrl>
<Point>
<coordinates>
121.0729294,24.7572918,104.12
</coordinates>
</Point>
</Placemark>
<Placemark>
<name>
Sat Jul 03 16:19:14 2010
</name>
<styleUrl>
#styleMap_TLP_Normal
</styleUrl>
<Point>
<coordinates>
121.0724869,24.7580681,107.85
</coordinates>
</Point>
</Placemark>
<Placemark>
<name>
Sat Jul 03 16:19:19 2010
</name>
<styleUrl>
#styleMap_TLP_Normal
</styleUrl>
<Point>
<coordinates>
121.0720444,24.7588158,111.59
</coordinates>
</Point>
</Placemark>
<Placemark>
<name>
Sat Jul 03 16:19:24 2010
</name>
<styleUrl>
#styleMap_TLP_Normal
</styleUrl>
<Point>
<coordinates>
121.0715256,24.7595100,115.21
</coordinates>
</Point>
</Placemark>
<Placemark>
<name>
Sat Jul 03 16:19:29 2010
</name>
<styleUrl>
#styleMap_TLP_Normal
</styleUrl>
<Point>
<coordinates>
121.0708618,24.7601471,119.46
</coordinates>
</Point>
</Placemark>
<Placemark>
<name>
Sat Jul 03 16:19:34 2010
</name>
<styleUrl>
#styleMap_TLP_Normal
</styleUrl>
<Point>
<coordinates>
121.0700684,24.7607021,124.62
</coordinates>
</Point>
</Placemark>
<Placemark>
<name>
Sat Jul 03 16:19:39 2010
</name>
<styleUrl>
#styleMap_TLP_Normal
</styleUrl>
<Point>
<coordinates>
121.0691528,24.7611713,124.84
</coordinates>
</Point>
</Placemark>
<Placemark>
<name>
Sat Jul 03 16:19:44 2010
</name>
<styleUrl>
#styleMap_TLP_Normal
</styleUrl>
<Point>
<coordinates>
121.0681458,24.7616100,120.76
</coordinates>
</Point>
</Placemark>
<Placemark>
<name>
Sat Jul 03 16:19:49 2010
</name>
<styleUrl>
#styleMap_TLP_Normal
</styleUrl>
<Point>
<coordinates>
121.0670929,24.7620811,114.57
</coordinates>
</Point>
</Placemark>
<Placemark>
<name>
Sat Jul 03 16:19:54 2010
</name>
<styleUrl>
#styleMap_TLP_Normal
</styleUrl>
<Point>
<coordinates>
121.0661163,24.7627621,111.78
</coordinates>
</Point>
</Placemark>
<Placemark>
<name>
Sat Jul 03 16:19:59 2010
</name>
<styleUrl>
#styleMap_TLP_Normal
</styleUrl>
<Point>
<coordinates>
121.0653992,24.7635899,114.56
</coordinates>
</Point>
</Placemark>
<Placemark>
<name>
Sat Jul 03 16:20:04 2010
</name>
<styleUrl>
#styleMap_TLP_Normal
</styleUrl>
<Point>
<coordinates>
121.0649033,24.7644863,116.05
</coordinates>
</Point>
</Placemark>
<Placemark>
<name>
Sat Jul 03 16:20:09 2010
</name>
<styleUrl>
#styleMap_TLP_Normal
</styleUrl>
<Point>
<coordinates>
121.0645142,24.7654037,117.04
</coordinates>
</Point>
</Placemark>
<Placemark>
<name>
Sat Jul 03 16:20:14 2010
</name>
<styleUrl>
#styleMap_TLP_Normal
</styleUrl>
<Point>
<coordinates>
121.0641174,24.7663479,114.80
</coordinates>
</Point>
</Placemark>
<Placemark>
<name>
Sat Jul 03 16:20:19 2010
</name>
<styleUrl>
#styleMap_TLP_Normal
</styleUrl>
<Point>
<coordinates>
121.0637054,24.7673054,110.41
</coordinates>
</Point>
</Placemark>
<Placemark>
<name>
Sat Jul 03 16:20:24 2010
</name>
<styleUrl>
#styleMap_TLP_Normal
</styleUrl>
<Point>
<coordinates>
121.0633011,24.7682533,104.56
</coordinates>
</Point>
</Placemark>
<Placemark>
<name>
Sat Jul 03 16:20:29 2010
</name>
<styleUrl>
#styleMap_TLP_Normal
</styleUrl>
<Point>
<coordinates>
121.0629120,24.7692299,101.33
</coordinates>
</Point>
</Placemark>
<Placemark>
<name>
Sat Jul 03 16:20:34 2010
</name>
<styleUrl>
#styleMap_TLP_Normal
</styleUrl>
<Point>
<coordinates>
121.0624847,24.7702217,99.74
</coordinates>
</Point>
</Placemark>
<Placemark>
<name>
Sat Jul 03 16:20:39 2010
</name>
<styleUrl>
#styleMap_TLP_Normal
</styleUrl>
<Point>
<coordinates>
121.0620499,24.7712173,100.54
</coordinates>
</Point>
</Placemark>
<Placemark>
<name>
Sat Jul 03 16:20:44 2010
</name>
<styleUrl>
#styleMap_TLP_Normal
</styleUrl>
<Point>
<coordinates>
121.0616074,24.7722263,99.70
</coordinates>
</Point>
</Placemark>
<Placemark>
<name>
Sat Jul 03 16:20:49 2010
</name>
<styleUrl>
#styleMap_TLP_Normal
</styleUrl>
<Point>
<coordinates>
121.0611877,24.7732353,98.34
</coordinates>
</Point>
</Placemark>
<Placemark>
<name>
Sat Jul 03 16:20:54 2010
</name>
<styleUrl>
#styleMap_TLP_Normal
</styleUrl>
<Point>
<coordinates>
121.0607300,24.7742519,99.53
</coordinates>
</Point>
</Placemark>
<Placemark>
<name>
Sat Jul 03 16:20:59 2010
</name>
<styleUrl>
#styleMap_TLP_Normal
</styleUrl>
<Point>
<coordinates>
121.0601807,24.7752438,101.48
</coordinates>
</Point>
</Placemark>
<Placemark>
<name>
Sat Jul 03 16:21:04 2010
</name>
<styleUrl>
#styleMap_TLP_Normal
</styleUrl>
<Point>
<coordinates>
121.0595398,24.7762051,102.43
</coordinates>
</Point>
</Placemark>
<Placemark>
<name>
Sat Jul 03 16:21:09 2010
</name>
<styleUrl>
#styleMap_TLP_Normal
</styleUrl>
<Point>
<coordinates>
121.0589066,24.7771549,100.88
</coordinates>
</Point>
</Placemark>
<Placemark>
<name>
Sat Jul 03 16:21:14 2010
</name>
<styleUrl>
#styleMap_TLP_Normal
</styleUrl>
<Point>
<coordinates>
121.0583725,24.7781048,95.58
</coordinates>
</Point>
</Placemark>
<Placemark>
<name>
Sat Jul 03 16:21:19 2010
</name>
<styleUrl>
#styleMap_TLP_Normal
</styleUrl>
<Point>
<coordinates>
121.0579453,24.7791100,91.04
</coordinates>
</Point>
</Placemark>
<Placemark>
<name>
Sat Jul 03 16:21:24 2010
</name>
<styleUrl>
#styleMap_TLP_Normal
</styleUrl>
<Point>
<coordinates>
121.0575562,24.7800579,87.85
</coordinates>
</Point>
</Placemark>
<Placemark>
<name>
Sat Jul 03 16:21:29 2010
</name>
<styleUrl>
#styleMap_TLP_Normal
</styleUrl>
<Point>
<coordinates>
121.0571747,24.7809372,83.58
</coordinates>
</Point>
</Placemark>
<Placemark>
<name>
Sat Jul 03 16:21:34 2010
</name>
<styleUrl>
#styleMap_TLP_Normal
</styleUrl>
<Point>
<coordinates>
121.0567322,24.7818108,80.54
</coordinates>
</Point>
</Placemark>
<Placemark>
<name>
Sat Jul 03 16:21:39 2010
</name>
<styleUrl>
#styleMap_TLP_Normal
</styleUrl>
<Point>
<coordinates>
121.0562363,24.7826538,78.61
</coordinates>
</Point>
</Placemark>
<Placemark>
<name>
Sat Jul 03 16:21:44 2010
</name>
<styleUrl>
#styleMap_TLP_Normal
</styleUrl>
<Point>
<coordinates>
121.0556488,24.7835102,76.87
</coordinates>
</Point>
</Placemark>
<Placemark>
<name>
Sat Jul 03 16:21:49 2010
</name>
<styleUrl>
#styleMap_TLP_Normal
</styleUrl>
<Point>
<coordinates>
121.0549850,24.7843819,75.06
</coordinates>
</Point>
</Placemark>
<Placemark>
<name>
Sat Jul 03 16:21:54 2010
</name>
<styleUrl>
#styleMap_TLP_Normal
</styleUrl>
<Point>
<coordinates>
121.0542679,24.7851925,76.01
</coordinates>
</Point>
</Placemark>
<Placemark>
<name>
Sat Jul 03 16:21:59 2010
</name>
<styleUrl>
#styleMap_TLP_Normal
</styleUrl>
<Point>
<coordinates>
121.0535965,24.7859516,77.88
</coordinates>
</Point>
</Placemark>
<Placemark>
<name>
Sat Jul 03 16:22:04 2010
</name>
<styleUrl>
#styleMap_TLP_Normal
</styleUrl>
<Point>
<coordinates>
121.0528946,24.7866001,79.65
</coordinates>
</Point>
</Placemark>
<Placemark>
<name>
Sat Jul 03 16:22:09 2010
</name>
<styleUrl>
#styleMap_TLP_Normal
</styleUrl>
<Point>
<coordinates>
121.0521774,24.7871933,80.41
</coordinates>
</Point>
</Placemark>
<Placemark>
<name>
Sat Jul 03 16:22:14 2010
</name>
<styleUrl>
#styleMap_TLP_Normal
</styleUrl>
<Point>
<coordinates>
121.0514297,24.7877388,81.19
</coordinates>
</Point>
</Placemark>
<Placemark>
<name>
Sat Jul 03 16:22:19 2010
</name>
<styleUrl>
#styleMap_TLP_Normal
</styleUrl>
<Point>
<coordinates>
121.0506668,24.7882271,79.91
</coordinates>
</Point>
</Placemark>
<Placemark>
<name>
Sat Jul 03 16:22:24 2010
</name>
<styleUrl>
#styleMap_TLP_Normal
</styleUrl>
<Point>
<coordinates>
121.0498505,24.7887020,76.32
</coordinates>
</Point>
</Placemark>
<Placemark>
<name>
Sat Jul 03 16:22:29 2010
</name>
<styleUrl>
#styleMap_TLP_Normal
</styleUrl>
<Point>
<coordinates>
121.0489731,24.7891560,73.93
</coordinates>
</Point>
</Placemark>
<Placemark>
<name>
Sat Jul 03 16:22:34 2010
</name>
<styleUrl>
#styleMap_TLP_Normal
</styleUrl>
<Point>
<coordinates>
121.0480881,24.7895679,71.99
</coordinates>
</Point>
</Placemark>
<Placemark>
<name>
Sat Jul 03 16:22:39 2010
</name>
<styleUrl>
#styleMap_TLP_Normal
</styleUrl>
<Point>
<coordinates>
121.0471725,24.7899742,70.23
</coordinates>
</Point>
</Placemark>
<Placemark>
<name>
Sat Jul 03 16:22:44 2010
</name>
<styleUrl>
#styleMap_TLP_Normal
</styleUrl>
<Point>
<coordinates>
121.0462570,24.7903481,69.62
</coordinates>
</Point>
</Placemark>
<Placemark>
<name>
Sat Jul 03 16:22:49 2010
</name>
<styleUrl>
#styleMap_TLP_Normal
</styleUrl>
<Point>
<coordinates>
121.0453339,24.7907372,70.14
</coordinates>
</Point>
</Placemark>
<Placemark>
<name>
Sat Jul 03 16:22:54 2010
</name>
<styleUrl>
#styleMap_TLP_Normal
</styleUrl>
<Point>
<coordinates>
121.0444031,24.7911606,68.21
</coordinates>
</Point>
</Placemark>
<Placemark>
<name>
Sat Jul 03 16:22:59 2010
</name>
<styleUrl>
#styleMap_TLP_Normal
</styleUrl>
<Point>
<coordinates>
121.0434875,24.7915821,66.21
</coordinates>
</Point>
</Placemark>
<Placemark>
<name>
Sat Jul 03 16:23:04 2010
</name>
<styleUrl>
#styleMap_TLP_Normal
</styleUrl>
<Point>
<coordinates>
121.0426102,24.7919769,65.07
</coordinates>
</Point>
</Placemark>
<Placemark>
<name>
Sat Jul 03 16:23:09 2010
</name>
<styleUrl>
#styleMap_TLP_Normal
</styleUrl>
<Point>
<coordinates>
121.0417633,24.7923527,64.05
</coordinates>
</Point>
</Placemark>
<Placemark>
<name>
Sat Jul 03 16:23:14 2010
</name>
<styleUrl>
#styleMap_TLP_Normal
</styleUrl>
<Point>
<coordinates>
121.0408859,24.7927418,62.63
</coordinates>
</Point>
</Placemark>
<Placemark>
<name>
Sat Jul 03 16:23:19 2010
</name>
<styleUrl>
#styleMap_TLP_Normal
</styleUrl>
<Point>
<coordinates>
121.0399628,24.7931499,61.82
</coordinates>
</Point>
</Placemark>
<Placemark>
<name>
Sat Jul 03 16:23:24 2010
</name>
<styleUrl>
#styleMap_TLP_Normal
</styleUrl>
<Point>
<coordinates>
121.0390472,24.7935524,62.23
</coordinates>
</Point>
</Placemark>
<Placemark>
<name>
Sat Jul 03 16:23:29 2010
</name>
<styleUrl>
#styleMap_TLP_Normal
</styleUrl>
<Point>
<coordinates>
121.0381165,24.7939625,61.90
</coordinates>
</Point>
</Placemark>
<Placemark>
<name>
Sat Jul 03 16:23:34 2010
</name>
<styleUrl>
#styleMap_TLP_Normal
</styleUrl>
<Point>
<coordinates>
121.0371857,24.7943668,61.42
</coordinates>
</Point>
</Placemark>
<Placemark>
<name>
Sat Jul 03 16:23:39 2010
</name>
<styleUrl>
#styleMap_TLP_Normal
</styleUrl>
<Point>
<coordinates>
121.0362701,24.7947693,60.07
</coordinates>
</Point>
</Placemark>
<Placemark>
<name>
Sat Jul 03 16:23:44 2010
</name>
<styleUrl>
#styleMap_TLP_Normal
</styleUrl>
<Point>
<coordinates>
121.0353699,24.7951717,60.54
</coordinates>
</Point>
</Placemark>
<Placemark>
<name>
Sat Jul 03 16:23:49 2010
</name>
<styleUrl>
#styleMap_TLP_Normal
</styleUrl>
<Point>
<coordinates>
121.0344620,24.7955685,57.79
</coordinates>
</Point>
</Placemark>
<Placemark>
<name>
Sat Jul 03 16:23:54 2010
</name>
<styleUrl>
#styleMap_TLP_Normal
</styleUrl>
<Point>
<coordinates>
121.0335236,24.7959747,56.38
</coordinates>
</Point>
</Placemark>
<Placemark>
<name>
Sat Jul 03 16:23:59 2010
</name>
<styleUrl>
#styleMap_TLP_Normal
</styleUrl>
<Point>
<coordinates>
121.0325470,24.7963963,54.26
</coordinates>
</Point>
</Placemark>
<Placemark>
<name>
Sat Jul 03 16:24:04 2010
</name>
<styleUrl>
#styleMap_TLP_Normal
</styleUrl>
<Point>
<coordinates>
121.0315857,24.7968121,53.93
</coordinates>
</Point>
</Placemark>
<Placemark>
<name>
Sat Jul 03 16:24:09 2010
</name>
<styleUrl>
#styleMap_TLP_Normal
</styleUrl>
<Point>
<coordinates>
121.0306473,24.7972317,53.28
</coordinates>
</Point>
</Placemark>
<Placemark>
<name>
Sat Jul 03 16:24:14 2010
</name>
<styleUrl>
#styleMap_TLP_Normal
</styleUrl>
<Point>
<coordinates>
121.0297241,24.7976360,53.01
</coordinates>
</Point>
</Placemark>
<Placemark>
<name>
Sat Jul 03 16:24:19 2010
</name>
<styleUrl>
#styleMap_TLP_Normal
</styleUrl>
<Point>
<coordinates>
121.0287781,24.7980576,53.37
</coordinates>
</Point>
</Placemark>
<Placemark>
<name>
Sat Jul 03 16:24:24 2010
</name>
<styleUrl>
#styleMap_TLP_Normal
</styleUrl>
<Point>
<coordinates>
121.0278473,24.7984619,53.36
</coordinates>
</Point>
</Placemark>
<Placemark>
<name>
Sat Jul 03 16:24:29 2010
</name>
<styleUrl>
#styleMap_TLP_Normal
</styleUrl>
<Point>
<coordinates>
121.0269775,24.7988434,53.15
</coordinates>
</Point>
</Placemark>
<Placemark>
<name>
Sat Jul 03 16:24:34 2010
</name>
<styleUrl>
#styleMap_TLP_Normal
</styleUrl>
<Point>
<coordinates>
121.0261078,24.7992268,53.04
</coordinates>
</Point>
</Placemark>
<Placemark>
<name>
Sat Jul 03 16:24:39 2010
</name>
<styleUrl>
#styleMap_TLP_Normal
</styleUrl>
<Point>
<coordinates>
121.0252151,24.7996426,53.51
</coordinates>
</Point>
</Placemark>
<Placemark>
<name>
Sat Jul 03 16:24:44 2010
</name>
<styleUrl>
#styleMap_TLP_Normal
</styleUrl>
<Point>
<coordinates>
121.0243073,24.8001442,52.28
</coordinates>
</Point>
</Placemark>
<Placemark>
<name>
Sat Jul 03 16:24:49 2010
</name>
<styleUrl>
#styleMap_TLP_Normal
</styleUrl>
<Point>
<coordinates>
121.0233536,24.8006916,51.34
</coordinates>
</Point>
</Placemark>
<Placemark>
<name>
Sat Jul 03 16:24:54 2010
</name>
<styleUrl>
#styleMap_TLP_Normal
</styleUrl>
<Point>
<coordinates>
121.0224304,24.8012848,49.62
</coordinates>
</Point>
</Placemark>
<Placemark>
<name>
Sat Jul 03 16:24:59 2010
</name>
<styleUrl>
#styleMap_TLP_Normal
</styleUrl>
<Point>
<coordinates>
121.0214996,24.8018970,48.73
</coordinates>
</Point>
</Placemark>
<Placemark>
<name>
Sat Jul 03 16:25:04 2010
</name>
<styleUrl>
#styleMap_TLP_Normal
</styleUrl>
<Point>
<coordinates>
121.0206375,24.8024883,47.23
</coordinates>
</Point>
</Placemark>
<Placemark>
<name>
Sat Jul 03 16:25:09 2010
</name>
<styleUrl>
#styleMap_TLP_Normal
</styleUrl>
<Point>
<coordinates>
121.0197754,24.8030586,45.97
</coordinates>
</Point>
</Placemark>
<Placemark>
<name>
Sat Jul 03 16:25:14 2010
</name>
<styleUrl>
#styleMap_TLP_Normal
</styleUrl>
<Point>
<coordinates>
121.0189285,24.8036442,47.71
</coordinates>
</Point>
</Placemark>
<Placemark>
<name>
Sat Jul 03 16:25:19 2010
</name>
<styleUrl>
#styleMap_TLP_Normal
</styleUrl>
<Point>
<coordinates>
121.0182037,24.8042145,53.40
</coordinates>
</Point>
</Placemark>
<Placemark>
<name>
Sat Jul 03 16:25:24 2010
</name>
<styleUrl>
#styleMap_TLP_Normal
</styleUrl>
<Point>
<coordinates>
121.0174713,24.8046074,55.13
</coordinates>
</Point>
</Placemark>
<Placemark>
<name>
Sat Jul 03 16:25:29 2010
</name>
<styleUrl>
#styleMap_TLP_Normal
</styleUrl>
<Point>
<coordinates>
121.0166702,24.8046379,59.74
</coordinates>
</Point>
</Placemark>
<Placemark>
<name>
Sat Jul 03 16:25:34 2010
</name>
<styleUrl>
#styleMap_TLP_Normal
</styleUrl>
<Point>
<coordinates>
121.0160141,24.8042221,59.57
</coordinates>
</Point>
</Placemark>
<Placemark>
<name>
Sat Jul 03 16:25:39 2010
</name>
<styleUrl>
#styleMap_TLP_Normal
</styleUrl>
<Point>
<coordinates>
121.0154343,24.8035831,57.20
</coordinates>
</Point>
</Placemark>
<Placemark>
<name>
Sat Jul 03 16:25:44 2010
</name>
<styleUrl>
#styleMap_TLP_Normal
</styleUrl>
<Point>
<coordinates>
121.0147934,24.8029385,54.29
</coordinates>
</Point>
</Placemark>
<Placemark>
<name>
Sat Jul 03 16:25:49 2010
</name>
<styleUrl>
#styleMap_TLP_Normal
</styleUrl>
<Point>
<coordinates>
121.0142441,24.8022270,52.34
</coordinates>
</Point>
</Placemark>
<Placemark>
<name>
Sat Jul 03 16:25:54 2010
</name>
<styleUrl>
#styleMap_TLP_Normal
</styleUrl>
<Point>
<coordinates>
121.0138474,24.8015461,52.01
</coordinates>
</Point>
</Placemark>
<Placemark>
<name>
Sat Jul 03 16:25:59 2010
</name>
<styleUrl>
#styleMap_TLP_Normal
</styleUrl>
<Point>
<coordinates>
121.0136414,24.8010616,54.12
</coordinates>
</Point>
</Placemark>
<Placemark>
<name>
Sat Jul 03 16:26:04 2010
</name>
<styleUrl>
#styleMap_TLP_Normal
</styleUrl>
<Point>
<coordinates>
121.0135498,24.8006649,54.15
</coordinates>
</Point>
</Placemark>
<Placemark>
<name>
Sat Jul 03 16:26:09 2010
</name>
<styleUrl>
#styleMap_TLP_Normal
</styleUrl>
<Point>
<coordinates>
121.0134888,24.8001957,57.28
</coordinates>
</Point>
</Placemark>
<Placemark>
<name>
Sat Jul 03 16:26:14 2010
</name>
<styleUrl>
#styleMap_TLP_Normal
</styleUrl>
<Point>
<coordinates>
121.0134583,24.7997093,58.77
</coordinates>
</Point>
</Placemark>
<Placemark>
<name>
Sat Jul 03 16:26:19 2010
</name>
<styleUrl>
#styleMap_TLP_Normal
</styleUrl>
<Point>
<coordinates>
121.0134354,24.7991867,59.81
</coordinates>
</Point>
</Placemark>
<Placemark>
<name>
Sat Jul 03 16:26:24 2010
</name>
<styleUrl>
#styleMap_TLP_Normal
</styleUrl>
<Point>
<coordinates>
121.0134125,24.7986107,60.19
</coordinates>
</Point>
</Placemark>
<Placemark>
<name>
Sat Jul 03 16:26:29 2010
</name>
<styleUrl>
#styleMap_TLP_Normal
</styleUrl>
<Point>
<coordinates>
121.0133896,24.7980919,62.64
</coordinates>
</Point>
</Placemark>
<Placemark>
<name>
Sat Jul 03 16:26:34 2010
</name>
<styleUrl>
#styleMap_TLP_Normal
</styleUrl>
<Point>
<coordinates>
121.0133591,24.7976665,63.51
</coordinates>
</Point>
</Placemark>
<Placemark>
<name>
Sat Jul 03 16:26:39 2010
</name>
<styleUrl>
#styleMap_TLP_Normal
</styleUrl>
<Point>
<coordinates>
121.0133362,24.7973156,65.50
</coordinates>
</Point>
</Placemark>
<Placemark>
<name>
Sat Jul 03 16:26:44 2010
</name>
<styleUrl>
#styleMap_TLP_Normal
</styleUrl>
<Point>
<coordinates>
121.0133362,24.7971382,68.87
</coordinates>
</Point>
</Placemark>
<Placemark>
<name>
Sat Jul 03 16:26:49 2010
</name>
<styleUrl>
#styleMap_TLP_Normal
</styleUrl>
<Point>
<coordinates>
121.0133438,24.7971172,69.45
</coordinates>
</Point>
</Placemark>
<Placemark>
<name>
Sat Jul 03 16:26:54 2010
</name>
<styleUrl>
#styleMap_TLP_Normal
</styleUrl>
<Point>
<coordinates>
121.0133438,24.7971153,69.93
</coordinates>
</Point>
</Placemark>
<Placemark>
<name>
Sat Jul 03 16:26:59 2010
</name>
<styleUrl>
#styleMap_TLP_Normal
</styleUrl>
<Point>
<coordinates>
121.0133438,24.7971153,70.24
</coordinates>
</Point>
</Placemark>
<Placemark>
<name>
Sat Jul 03 16:27:04 2010
</name>
<styleUrl>
#styleMap_TLP_Normal
</styleUrl>
<Point>
<coordinates>
121.0133438,24.7970753,71.27
</coordinates>
</Point>
</Placemark>
<Placemark>
<name>
Sat Jul 03 16:27:09 2010
</name>
<styleUrl>
#styleMap_TLP_Normal
</styleUrl>
<Point>
<coordinates>
121.0133514,24.7970753,73.02
</coordinates>
</Point>
</Placemark>
<Placemark>
<name>
Sat Jul 03 16:27:14 2010
</name>
<styleUrl>
#styleMap_TLP_Normal
</styleUrl>
<Point>
<coordinates>
121.0133514,24.7970734,73.11
</coordinates>
</Point>
</Placemark>
<Placemark>
<name>
Sat Jul 03 16:27:19 2010
</name>
<styleUrl>
#styleMap_TLP_Normal
</styleUrl>
<Point>
<coordinates>
121.0133514,24.7970734,73.19
</coordinates>
</Point>
</Placemark>
<Placemark>
<name>
Sat Jul 03 16:27:24 2010
</name>
<styleUrl>
#styleMap_TLP_Normal
</styleUrl>
<Point>
<coordinates>
121.0133514,24.7970695,73.26
</coordinates>
</Point>
</Placemark>
<Placemark>
<name>
Sat Jul 03 16:27:29 2010
</name>
<styleUrl>
#styleMap_TLP_Normal
</styleUrl>
<Point>
<coordinates>
121.0133591,24.7970238,74.36
</coordinates>
</Point>
</Placemark>
<Placemark>
<name>
Sat Jul 03 16:27:34 2010
</name>
<styleUrl>
#styleMap_TLP_Normal
</styleUrl>
<Point>
<coordinates>
121.0133667,24.7970181,74.57
</coordinates>
</Point>
</Placemark>
<Placemark>
<name>
Sat Jul 03 16:27:39 2010
</name>
<styleUrl>
#styleMap_TLP_Normal
</styleUrl>
<Point>
<coordinates>
121.0133667,24.7970161,74.59
</coordinates>
</Point>
</Placemark>
<Placemark>
<name>
Sat Jul 03 16:27:44 2010
</name>
<styleUrl>
#styleMap_TLP_Normal
</styleUrl>
<Point>
<coordinates>
121.0133667,24.7970161,74.58
</coordinates>
</Point>
</Placemark>
<Placemark>
<name>
Sat Jul 03 16:27:49 2010
</name>
<styleUrl>
#styleMap_TLP_Normal
</styleUrl>
<Point>
<coordinates>
121.0133667,24.7970161,74.56
</coordinates>
</Point>
</Placemark>
<Placemark>
<name>
Sat Jul 03 16:27:54 2010
</name>
<styleUrl>
#styleMap_TLP_Normal
</styleUrl>
<Point>
<coordinates>
121.0133667,24.7970161,74.55
</coordinates>
</Point>
</Placemark>
<Placemark>
<name>
Sat Jul 03 16:27:59 2010
</name>
<styleUrl>
#styleMap_TLP_Normal
</styleUrl>
<Point>
<coordinates>
121.0133667,24.7970161,74.55
</coordinates>
</Point>
</Placemark>
<Placemark>
<name>
Sat Jul 03 16:28:04 2010
</name>
<styleUrl>
#styleMap_TLP_Normal
</styleUrl>
<Point>
<coordinates>
121.0133667,24.7970161,74.55
</coordinates>
</Point>
</Placemark>
<Placemark>
<name>
Sat Jul 03 16:28:09 2010
</name>
<styleUrl>
#styleMap_TLP_Normal
</styleUrl>
<Point>
<coordinates>
121.0133667,24.7970161,74.57
</coordinates>
</Point>
</Placemark>
<Placemark>
<name>
Sat Jul 03 16:28:14 2010
</name>
<styleUrl>
#styleMap_TLP_Normal
</styleUrl>
<Point>
<coordinates>
121.0133667,24.7970161,74.54
</coordinates>
</Point>
</Placemark>
<Placemark>
<name>
Sat Jul 03 16:28:19 2010
</name>
<styleUrl>
#styleMap_TLP_Normal
</styleUrl>
<Point>
<coordinates>
121.0133667,24.7970123,74.53
</coordinates>
</Point>
</Placemark>
<Placemark>
<name>
Sat Jul 03 16:28:24 2010
</name>
<styleUrl>
#styleMap_TLP_Normal
</styleUrl>
<Point>
<coordinates>
121.0133438,24.7968540,73.07
</coordinates>
</Point>
</Placemark>
<Placemark>
<name>
Sat Jul 03 16:28:29 2010
</name>
<styleUrl>
#styleMap_TLP_Normal
</styleUrl>
<Point>
<coordinates>
121.0132904,24.7965336,70.01
</coordinates>
</Point>
</Placemark>
<Placemark>
<name>
Sat Jul 03 16:28:34 2010
</name>
<styleUrl>
#styleMap_TLP_Normal
</styleUrl>
<Point>
<coordinates>
121.0132294,24.7961674,64.89
</coordinates>
</Point>
</Placemark>
<Placemark>
<name>
Sat Jul 03 16:28:39 2010
</name>
<styleUrl>
#styleMap_TLP_Normal
</styleUrl>
<Point>
<coordinates>
121.0131912,24.7958946,62.45
</coordinates>
</Point>
</Placemark>
<Placemark>
<name>
Sat Jul 03 16:28:44 2010
</name>
<styleUrl>
#styleMap_TLP_Normal
</styleUrl>
<Point>
<coordinates>
121.0131531,24.7956295,59.19
</coordinates>
</Point>
</Placemark>
<Placemark>
<name>
Sat Jul 03 16:28:49 2010
</name>
<styleUrl>
#styleMap_TLP_Normal
</styleUrl>
<Point>
<coordinates>
121.0131073,24.7953262,56.91
</coordinates>
</Point>
</Placemark>
<Placemark>
<name>
Sat Jul 03 16:28:54 2010
</name>
<styleUrl>
#styleMap_TLP_Normal
</styleUrl>
<Point>
<coordinates>
121.0130386,24.7949810,54.26
</coordinates>
</Point>
</Placemark>
<Placemark>
<name>
Sat Jul 03 16:28:59 2010
</name>
<styleUrl>
#styleMap_TLP_Normal
</styleUrl>
<Point>
<coordinates>
121.0130310,24.7947750,57.39
</coordinates>
</Point>
</Placemark>
<Placemark>
<name>
Sat Jul 03 16:29:04 2010
</name>
<styleUrl>
#styleMap_TLP_Normal
</styleUrl>
<Point>
<coordinates>
121.0130539,24.7947350,61.39
</coordinates>
</Point>
</Placemark>
<Placemark>
<name>
Sat Jul 03 16:29:09 2010
</name>
<styleUrl>
#styleMap_TLP_Normal
</styleUrl>
<Point>
<coordinates>
121.0130539,24.7947350,61.21
</coordinates>
</Point>
</Placemark>
<Placemark>
<name>
Sat Jul 03 16:29:14 2010
</name>
<styleUrl>
#styleMap_TLP_Normal
</styleUrl>
<Point>
<coordinates>
121.0130539,24.7947350,61.14
</coordinates>
</Point>
</Placemark>
<Placemark>
<name>
Sat Jul 03 16:29:19 2010
</name>
<styleUrl>
#styleMap_TLP_Normal
</styleUrl>
<Point>
<coordinates>
121.0130539,24.7947350,61.58
</coordinates>
</Point>
</Placemark>
<Placemark>
<name>
Sat Jul 03 16:29:24 2010
</name>
<styleUrl>
#styleMap_TLP_Normal
</styleUrl>
<Point>
<coordinates>
121.0130615,24.7947350,62.05
</coordinates>
</Point>
</Placemark>
<Placemark>
<name>
Sat Jul 03 16:29:29 2010
</name>
<styleUrl>
#styleMap_TLP_Normal
</styleUrl>
<Point>
<coordinates>
121.0130615,24.7947330,62.69
</coordinates>
</Point>
</Placemark>
<Placemark>
<name>
Sat Jul 03 16:29:34 2010
</name>
<styleUrl>
#styleMap_TLP_Normal
</styleUrl>
<Point>
<coordinates>
121.0130615,24.7947311,63.15
</coordinates>
</Point>
</Placemark>
<Placemark>
<name>
Sat Jul 03 16:29:39 2010
</name>
<styleUrl>
#styleMap_TLP_Normal
</styleUrl>
<Point>
<coordinates>
121.0130692,24.7947292,63.47
</coordinates>
</Point>
</Placemark>
<Placemark>
<name>
Sat Jul 03 16:29:44 2010
</name>
<styleUrl>
#styleMap_TLP_Normal
</styleUrl>
<Point>
<coordinates>
121.0130692,24.7947292,63.59
</coordinates>
</Point>
</Placemark>
<Placemark>
<name>
Sat Jul 03 16:29:49 2010
</name>
<styleUrl>
#styleMap_TLP_Normal
</styleUrl>
<Point>
<coordinates>
121.0130692,24.7947273,63.70
</coordinates>
</Point>
</Placemark>
<Placemark>
<name>
Sat Jul 03 16:29:54 2010
</name>
<styleUrl>
#styleMap_TLP_Finish
</styleUrl>
<Point>
<coordinates>
121.0130692,24.7947273,63.79
</coordinates>
</Point>
</Placemark>
</Folder>
</Document>
</kml>
