<?xml version="1.0"?>
<gpx
version="1.0"
creator="Holux Utility"
xmlns:xsi="http://www.w3.org/2001/XMLSchema-instance"
xmlns="http://www.topografix.com/GPX/1/0"
xsi:schemaLocation="http://www.topografix.com/GPX/1/0 http://www.topografix.com/GPX/1/0/gpx.xsd">
<wpt lat="25.004732" lon="121.444420">
<time>2008-12-22T00:41:14Z</time>
<ele>130.56</ele>
<name><![CDATA[Point 0]]></name>
</wpt>
<wpt lat="25.004765" lon="121.442917">
<time>2008-12-22T00:41:19Z</time>
<ele>122.74</ele>
<name><![CDATA[Point 1]]></name>
</wpt>
<wpt lat="25.004864" lon="121.441422">
<time>2008-12-22T00:41:24Z</time>
<ele>114.48</ele>
<name><![CDATA[Point 2]]></name>
</wpt>
<wpt lat="25.004694" lon="121.440063">
<time>2008-12-22T00:41:29Z</time>
<ele>59.90</ele>
<name><![CDATA[Point 3]]></name>
</wpt>
<wpt lat="25.004713" lon="121.438431">
<time>2008-12-22T00:41:34Z</time>
<ele>49.30</ele>
<name><![CDATA[Point 4]]></name>
</wpt>
<wpt lat="25.004787" lon="121.436729">
<time>2008-12-22T00:41:39Z</time>
<ele>48.06</ele>
<name><![CDATA[Point 5]]></name>
</wpt>
<wpt lat="25.004795" lon="121.434990">
<time>2008-12-22T00:41:44Z</time>
<ele>49.18</ele>
<name><![CDATA[Point 6]]></name>
</wpt>
<wpt lat="25.004635" lon="121.433212">
<time>2008-12-22T00:41:49Z</time>
<ele>47.58</ele>
<name><![CDATA[Point 7]]></name>
</wpt>
<wpt lat="25.004332" lon="121.431389">
<time>2008-12-22T00:41:54Z</time>
<ele>47.25</ele>
<name><![CDATA[Point 8]]></name>
</wpt>
<wpt lat="25.004005" lon="121.429489">
<time>2008-12-22T00:41:59Z</time>
<ele>46.24</ele>
<name><![CDATA[Point 9]]></name>
</wpt>
<wpt lat="25.003780" lon="121.427490">
<time>2008-12-22T00:42:04Z</time>
<ele>43.25</ele>
<name><![CDATA[Point 10]]></name>
</wpt>
<wpt lat="25.003681" lon="121.425385">
<time>2008-12-22T00:42:09Z</time>
<ele>39.41</ele>
<name><![CDATA[Point 11]]></name>
</wpt>
<wpt lat="25.003740" lon="121.423187">
<time>2008-12-22T00:42:14Z</time>
<ele>40.24</ele>
<name><![CDATA[Point 12]]></name>
</wpt>
<wpt lat="25.003954" lon="121.420921">
<time>2008-12-22T00:42:19Z</time>
<ele>41.71</ele>
<name><![CDATA[Point 13]]></name>
</wpt>
<wpt lat="25.004280" lon="121.418633">
<time>2008-12-22T00:42:24Z</time>
<ele>42.66</ele>
<name><![CDATA[Point 14]]></name>
</wpt>
<wpt lat="25.004637" lon="121.416283">
<time>2008-12-22T00:42:29Z</time>
<ele>43.29</ele>
<name><![CDATA[Point 15]]></name>
</wpt>
<wpt lat="25.005020" lon="121.413872">
<time>2008-12-22T00:42:34Z</time>
<ele>45.09</ele>
<name><![CDATA[Point 16]]></name>
</wpt>
<wpt lat="25.005396" lon="121.411415">
<time>2008-12-22T00:42:39Z</time>
<ele>49.66</ele>
<name><![CDATA[Point 17]]></name>
</wpt>
<wpt lat="25.005823" lon="121.408966">
<time>2008-12-22T00:42:44Z</time>
<ele>52.75</ele>
<name><![CDATA[Point 18]]></name>
</wpt>
<wpt lat="25.011499" lon="121.389526">
<time>2008-12-22T00:43:22Z</time>
<ele>71.64</ele>
<name><![CDATA[Point 19]]></name>
</wpt>
<wpt lat="25.012690" lon="121.387138">
<time>2008-12-22T00:43:27Z</time>
<ele>85.94</ele>
<name><![CDATA[Point 20]]></name>
</wpt>
<wpt lat="25.044336" lon="121.330750">
<time>2008-12-22T00:45:36Z</time>
<ele>163.68</ele>
<name><![CDATA[Point 21]]></name>
</wpt>
<wpt lat="25.045773" lon="121.328186">
<time>2008-12-22T00:45:41Z</time>
<ele>160.30</ele>
<name><![CDATA[Point 22]]></name>
</wpt>
<wpt lat="25.048147" lon="121.323997">
<time>2008-12-22T00:45:49Z</time>
<ele>149.22</ele>
<name><![CDATA[Point 23]]></name>
</wpt>
<wpt lat="25.049742" lon="121.321220">
<time>2008-12-22T00:45:54Z</time>
<ele>155.64</ele>
<name><![CDATA[Point 24]]></name>
</wpt>
<wpt lat="25.054207" lon="121.312622">
<time>2008-12-22T00:46:09Z</time>
<ele>137.58</ele>
<name><![CDATA[Point 25]]></name>
</wpt>
<wpt lat="25.055601" lon="121.309509">
<time>2008-12-22T00:46:14Z</time>
<ele>141.88</ele>
<name><![CDATA[Point 26]]></name>
</wpt>
<wpt lat="25.056749" lon="121.306206">
<time>2008-12-22T00:46:19Z</time>
<ele>130.39</ele>
<name><![CDATA[Point 27]]></name>
</wpt>
<wpt lat="25.058527" lon="121.297707">
<time>2008-12-22T00:46:31Z</time>
<ele>95.93</ele>
<name><![CDATA[Point 28]]></name>
</wpt>
<wpt lat="25.059294" lon="121.293945">
<time>2008-12-22T00:46:36Z</time>
<ele>101.89</ele>
<name><![CDATA[Point 29]]></name>
</wpt>
<wpt lat="25.059511" lon="121.290176">
<time>2008-12-22T00:46:41Z</time>
<ele>101.44</ele>
<name><![CDATA[Point 30]]></name>
</wpt>
<wpt lat="25.059546" lon="121.286385">
<time>2008-12-22T00:46:46Z</time>
<ele>87.84</ele>
<name><![CDATA[Point 31]]></name>
</wpt>
<wpt lat="25.059391" lon="121.282562">
<time>2008-12-22T00:46:51Z</time>
<ele>83.29</ele>
<name><![CDATA[Point 32]]></name>
</wpt>
<wpt lat="25.058981" lon="121.278770">
<time>2008-12-22T00:46:56Z</time>
<ele>82.27</ele>
<name><![CDATA[Point 33]]></name>
</wpt>
<wpt lat="25.058346" lon="121.275055">
<time>2008-12-22T00:47:01Z</time>
<ele>82.44</ele>
<name><![CDATA[Point 34]]></name>
</wpt>
<wpt lat="25.057465" lon="121.271439">
<time>2008-12-22T00:47:06Z</time>
<ele>78.93</ele>
<name><![CDATA[Point 35]]></name>
</wpt>
<wpt lat="25.056358" lon="121.267906">
<time>2008-12-22T00:47:11Z</time>
<ele>74.44</ele>
<name><![CDATA[Point 36]]></name>
</wpt>
<wpt lat="25.055092" lon="121.264481">
<time>2008-12-22T00:47:16Z</time>
<ele>73.36</ele>
<name><![CDATA[Point 37]]></name>
</wpt>
<wpt lat="25.053637" lon="121.261185">
<time>2008-12-22T00:47:21Z</time>
<ele>72.32</ele>
<name><![CDATA[Point 38]]></name>
</wpt>
<wpt lat="25.051991" lon="121.258034">
<time>2008-12-22T00:47:26Z</time>
<ele>72.17</ele>
<name><![CDATA[Point 39]]></name>
</wpt>
<wpt lat="25.050148" lon="121.255005">
<time>2008-12-22T00:47:31Z</time>
<ele>70.08</ele>
<name><![CDATA[Point 40]]></name>
</wpt>
<wpt lat="25.048199" lon="121.252182">
<time>2008-12-22T00:47:36Z</time>
<ele>70.70</ele>
<name><![CDATA[Point 41]]></name>
</wpt>
<wpt lat="25.046137" lon="121.249550">
<time>2008-12-22T00:47:41Z</time>
<ele>70.21</ele>
<name><![CDATA[Point 42]]></name>
</wpt>
<wpt lat="25.044024" lon="121.247116">
<time>2008-12-22T00:47:46Z</time>
<ele>71.81</ele>
<name><![CDATA[Point 43]]></name>
</wpt>
<wpt lat="25.041914" lon="121.244820">
<time>2008-12-22T00:47:51Z</time>
<ele>70.43</ele>
<name><![CDATA[Point 44]]></name>
</wpt>
<wpt lat="25.039881" lon="121.242607">
<time>2008-12-22T00:47:56Z</time>
<ele>72.28</ele>
<name><![CDATA[Point 45]]></name>
</wpt>
<wpt lat="25.037952" lon="121.240494">
<time>2008-12-22T00:48:01Z</time>
<ele>73.55</ele>
<name><![CDATA[Point 46]]></name>
</wpt>
<wpt lat="25.036118" lon="121.238472">
<time>2008-12-22T00:48:06Z</time>
<ele>76.41</ele>
<name><![CDATA[Point 47]]></name>
</wpt>
<wpt lat="25.034372" lon="121.236565">
<time>2008-12-22T00:48:11Z</time>
<ele>81.29</ele>
<name><![CDATA[Point 48]]></name>
</wpt>
<wpt lat="25.032707" lon="121.234787">
<time>2008-12-22T00:48:16Z</time>
<ele>84.67</ele>
<name><![CDATA[Point 49]]></name>
</wpt>
<wpt lat="25.031134" lon="121.233116">
<time>2008-12-22T00:48:21Z</time>
<ele>89.12</ele>
<name><![CDATA[Point 50]]></name>
</wpt>
<wpt lat="25.029638" lon="121.231567">
<time>2008-12-22T00:48:26Z</time>
<ele>90.96</ele>
<name><![CDATA[Point 51]]></name>
</wpt>
<wpt lat="25.028214" lon="121.230103">
<time>2008-12-22T00:48:31Z</time>
<ele>91.26</ele>
<name><![CDATA[Point 52]]></name>
</wpt>
<wpt lat="25.026863" lon="121.228760">
<time>2008-12-22T00:48:36Z</time>
<ele>89.76</ele>
<name><![CDATA[Point 53]]></name>
</wpt>
<wpt lat="25.025604" lon="121.227486">
<time>2008-12-22T00:48:41Z</time>
<ele>90.15</ele>
<name><![CDATA[Point 54]]></name>
</wpt>
<wpt lat="25.024446" lon="121.226311">
<time>2008-12-22T00:48:46Z</time>
<ele>89.51</ele>
<name><![CDATA[Point 55]]></name>
</wpt>
<wpt lat="25.023357" lon="121.225212">
<time>2008-12-22T00:48:51Z</time>
<ele>87.79</ele>
<name><![CDATA[Point 56]]></name>
</wpt>
<wpt lat="25.022293" lon="121.224152">
<time>2008-12-22T00:48:56Z</time>
<ele>85.96</ele>
<name><![CDATA[Point 57]]></name>
</wpt>
<wpt lat="25.021242" lon="121.223099">
<time>2008-12-22T00:49:01Z</time>
<ele>86.51</ele>
<name><![CDATA[Point 58]]></name>
</wpt>
<wpt lat="25.020195" lon="121.222054">
<time>2008-12-22T00:49:06Z</time>
<ele>83.97</ele>
<name><![CDATA[Point 59]]></name>
</wpt>
<wpt lat="25.019184" lon="121.221024">
<time>2008-12-22T00:49:11Z</time>
<ele>83.83</ele>
<name><![CDATA[Point 60]]></name>
</wpt>
<wpt lat="25.018223" lon="121.220047">
<time>2008-12-22T00:49:16Z</time>
<ele>83.38</ele>
<name><![CDATA[Point 61]]></name>
</wpt>
<wpt lat="25.017336" lon="121.219177">
<time>2008-12-22T00:49:21Z</time>
<ele>82.65</ele>
<name><![CDATA[Point 62]]></name>
</wpt>
<wpt lat="25.016520" lon="121.218391">
<time>2008-12-22T00:49:26Z</time>
<ele>82.14</ele>
<name><![CDATA[Point 63]]></name>
</wpt>
<wpt lat="25.015665" lon="121.217606">
<time>2008-12-22T00:49:31Z</time>
<ele>81.61</ele>
<name><![CDATA[Point 64]]></name>
</wpt>
<wpt lat="24.998676" lon="121.200516">
<time>2008-12-22T00:53:55Z</time>
<ele>93.82</ele>
<name><![CDATA[Point 65]]></name>
</wpt>
<wpt lat="24.997665" lon="121.199448">
<time>2008-12-22T00:54:00Z</time>
<ele>92.70</ele>
<name><![CDATA[Point 66]]></name>
</wpt>
<wpt lat="24.996616" lon="121.198341">
<time>2008-12-22T00:54:05Z</time>
<ele>102.26</ele>
<name><![CDATA[Point 67]]></name>
</wpt>
<wpt lat="24.995569" lon="121.197266">
<time>2008-12-22T00:54:10Z</time>
<ele>110.51</ele>
<name><![CDATA[Point 68]]></name>
</wpt>
<wpt lat="24.994490" lon="121.196152">
<time>2008-12-22T00:54:15Z</time>
<ele>115.06</ele>
<name><![CDATA[Point 69]]></name>
</wpt>
<wpt lat="24.993364" lon="121.195061">
<time>2008-12-22T00:54:20Z</time>
<ele>118.82</ele>
<name><![CDATA[Point 70]]></name>
</wpt>
<wpt lat="24.992178" lon="121.193893">
<time>2008-12-22T00:54:25Z</time>
<ele>119.01</ele>
<name><![CDATA[Point 71]]></name>
</wpt>
<wpt lat="24.990936" lon="121.192650">
<time>2008-12-22T00:54:30Z</time>
<ele>120.48</ele>
<name><![CDATA[Point 72]]></name>
</wpt>
<wpt lat="24.989637" lon="121.191338">
<time>2008-12-22T00:54:35Z</time>
<ele>120.62</ele>
<name><![CDATA[Point 73]]></name>
</wpt>
<wpt lat="24.988264" lon="121.189964">
<time>2008-12-22T00:54:40Z</time>
<ele>121.33</ele>
<name><![CDATA[Point 74]]></name>
</wpt>
<wpt lat="24.986839" lon="121.188538">
<time>2008-12-22T00:54:45Z</time>
<ele>123.09</ele>
<name><![CDATA[Point 75]]></name>
</wpt>
<wpt lat="24.985350" lon="121.187050">
<time>2008-12-22T00:54:50Z</time>
<ele>123.45</ele>
<name><![CDATA[Point 76]]></name>
</wpt>
<wpt lat="24.983801" lon="121.185524">
<time>2008-12-22T00:54:55Z</time>
<ele>124.29</ele>
<name><![CDATA[Point 77]]></name>
</wpt>
<wpt lat="24.982199" lon="121.183968">
<time>2008-12-22T00:55:00Z</time>
<ele>124.74</ele>
<name><![CDATA[Point 78]]></name>
</wpt>
<wpt lat="24.980549" lon="121.182419">
<time>2008-12-22T00:55:05Z</time>
<ele>125.81</ele>
<name><![CDATA[Point 79]]></name>
</wpt>
<wpt lat="24.978861" lon="121.180809">
<time>2008-12-22T00:55:10Z</time>
<ele>130.02</ele>
<name><![CDATA[Point 80]]></name>
</wpt>
<wpt lat="24.977165" lon="121.179176">
<time>2008-12-22T00:55:15Z</time>
<ele>135.38</ele>
<name><![CDATA[Point 81]]></name>
</wpt>
<wpt lat="24.975454" lon="121.177544">
<time>2008-12-22T00:55:20Z</time>
<ele>141.30</ele>
<name><![CDATA[Point 82]]></name>
</wpt>
<wpt lat="24.973686" lon="121.175858">
<time>2008-12-22T00:55:25Z</time>
<ele>140.43</ele>
<name><![CDATA[Point 83]]></name>
</wpt>
<wpt lat="24.971867" lon="121.174126">
<time>2008-12-22T00:55:30Z</time>
<ele>138.95</ele>
<name><![CDATA[Point 84]]></name>
</wpt>
<wpt lat="24.970026" lon="121.172348">
<time>2008-12-22T00:55:35Z</time>
<ele>140.50</ele>
<name><![CDATA[Point 85]]></name>
</wpt>
<wpt lat="24.968191" lon="121.170441">
<time>2008-12-22T00:55:40Z</time>
<ele>142.34</ele>
<name><![CDATA[Point 86]]></name>
</wpt>
<wpt lat="24.966391" lon="121.168404">
<time>2008-12-22T00:55:45Z</time>
<ele>143.66</ele>
<name><![CDATA[Point 87]]></name>
</wpt>
<wpt lat="24.964642" lon="121.166229">
<time>2008-12-22T00:55:50Z</time>
<ele>143.91</ele>
<name><![CDATA[Point 88]]></name>
</wpt>
<wpt lat="24.962963" lon="121.163918">
<time>2008-12-22T00:55:55Z</time>
<ele>145.50</ele>
<name><![CDATA[Point 89]]></name>
</wpt>
<wpt lat="24.961344" lon="121.161499">
<time>2008-12-22T00:56:00Z</time>
<ele>143.92</ele>
<name><![CDATA[Point 90]]></name>
</wpt>
<wpt lat="24.959780" lon="121.158905">
<time>2008-12-22T00:56:05Z</time>
<ele>138.62</ele>
<name><![CDATA[Point 91]]></name>
</wpt>
<wpt lat="24.958326" lon="121.156166">
<time>2008-12-22T00:56:10Z</time>
<ele>135.47</ele>
<name><![CDATA[Point 92]]></name>
</wpt>
<wpt lat="24.956989" lon="121.153305">
<time>2008-12-22T00:56:15Z</time>
<ele>137.16</ele>
<name><![CDATA[Point 93]]></name>
</wpt>
<wpt lat="24.955704" lon="121.150375">
<time>2008-12-22T00:56:20Z</time>
<ele>139.08</ele>
<name><![CDATA[Point 94]]></name>
</wpt>
<wpt lat="24.954407" lon="121.147400">
<time>2008-12-22T00:56:25Z</time>
<ele>138.61</ele>
<name><![CDATA[Point 95]]></name>
</wpt>
<wpt lat="24.953079" lon="121.144363">
<time>2008-12-22T00:56:30Z</time>
<ele>136.07</ele>
<name><![CDATA[Point 96]]></name>
</wpt>
<wpt lat="24.951735" lon="121.141273">
<time>2008-12-22T00:56:35Z</time>
<ele>136.15</ele>
<name><![CDATA[Point 97]]></name>
</wpt>
<wpt lat="24.950357" lon="121.138123">
<time>2008-12-22T00:56:40Z</time>
<ele>131.38</ele>
<name><![CDATA[Point 98]]></name>
</wpt>
<wpt lat="24.948956" lon="121.134918">
<time>2008-12-22T00:56:45Z</time>
<ele>126.44</ele>
<name><![CDATA[Point 99]]></name>
</wpt>
<wpt lat="24.947527" lon="121.131660">
<time>2008-12-22T00:56:50Z</time>
<ele>121.52</ele>
<name><![CDATA[Point 100]]></name>
</wpt>
<wpt lat="24.946054" lon="121.128349">
<time>2008-12-22T00:56:55Z</time>
<ele>115.19</ele>
<name><![CDATA[Point 101]]></name>
</wpt>
<wpt lat="24.944597" lon="121.125031">
<time>2008-12-22T00:57:00Z</time>
<ele>115.91</ele>
<name><![CDATA[Point 102]]></name>
</wpt>
<wpt lat="24.943134" lon="121.121689">
<time>2008-12-22T00:57:05Z</time>
<ele>117.67</ele>
<name><![CDATA[Point 103]]></name>
</wpt>
<wpt lat="24.941624" lon="121.118332">
<time>2008-12-22T00:57:10Z</time>
<ele>121.88</ele>
<name><![CDATA[Point 104]]></name>
</wpt>
<wpt lat="24.939943" lon="121.115051">
<time>2008-12-22T00:57:15Z</time>
<ele>124.09</ele>
<name><![CDATA[Point 105]]></name>
</wpt>
<wpt lat="24.938080" lon="121.111832">
<time>2008-12-22T00:57:20Z</time>
<ele>121.95</ele>
<name><![CDATA[Point 106]]></name>
</wpt>
<wpt lat="24.936010" lon="121.108749">
<time>2008-12-22T00:57:25Z</time>
<ele>120.41</ele>
<name><![CDATA[Point 107]]></name>
</wpt>
<wpt lat="24.933748" lon="121.105827">
<time>2008-12-22T00:57:30Z</time>
<ele>123.74</ele>
<name><![CDATA[Point 108]]></name>
</wpt>
<wpt lat="24.931332" lon="121.103073">
<time>2008-12-22T00:57:35Z</time>
<ele>133.03</ele>
<name><![CDATA[Point 109]]></name>
</wpt>
<wpt lat="24.928799" lon="121.100510">
<time>2008-12-22T00:57:40Z</time>
<ele>143.65</ele>
<name><![CDATA[Point 110]]></name>
</wpt>
<wpt lat="24.926130" lon="121.098129">
<time>2008-12-22T00:57:45Z</time>
<ele>151.30</ele>
<name><![CDATA[Point 111]]></name>
</wpt>
<wpt lat="24.923338" lon="121.095901">
<time>2008-12-22T00:57:50Z</time>
<ele>154.72</ele>
<name><![CDATA[Point 112]]></name>
</wpt>
<wpt lat="24.920420" lon="121.093849">
<time>2008-12-22T00:57:55Z</time>
<ele>157.17</ele>
<name><![CDATA[Point 113]]></name>
</wpt>
<wpt lat="24.917383" lon="121.091988">
<time>2008-12-22T00:58:00Z</time>
<ele>158.32</ele>
<name><![CDATA[Point 114]]></name>
</wpt>
<wpt lat="24.914284" lon="121.090172">
<time>2008-12-22T00:58:05Z</time>
<ele>159.70</ele>
<name><![CDATA[Point 115]]></name>
</wpt>
<wpt lat="24.911152" lon="121.088356">
<time>2008-12-22T00:58:10Z</time>
<ele>156.48</ele>
<name><![CDATA[Point 116]]></name>
</wpt>
<wpt lat="24.907980" lon="121.086510">
<time>2008-12-22T00:58:15Z</time>
<ele>153.02</ele>
<name><![CDATA[Point 117]]></name>
</wpt>
<wpt lat="24.904827" lon="121.084518">
<time>2008-12-22T00:58:20Z</time>
<ele>149.20</ele>
<name><![CDATA[Point 118]]></name>
</wpt>
<wpt lat="24.901682" lon="121.082466">
<time>2008-12-22T00:58:25Z</time>
<ele>144.08</ele>
<name><![CDATA[Point 119]]></name>
</wpt>
<wpt lat="24.898510" lon="121.080330">
<time>2008-12-22T00:58:30Z</time>
<ele>140.46</ele>
<name><![CDATA[Point 120]]></name>
</wpt>
<wpt lat="24.895313" lon="121.078201">
<time>2008-12-22T00:58:35Z</time>
<ele>142.19</ele>
<name><![CDATA[Point 121]]></name>
</wpt>
<wpt lat="24.892118" lon="121.076080">
<time>2008-12-22T00:58:40Z</time>
<ele>144.48</ele>
<name><![CDATA[Point 122]]></name>
</wpt>
<wpt lat="24.888947" lon="121.073990">
<time>2008-12-22T00:58:45Z</time>
<ele>144.38</ele>
<name><![CDATA[Point 123]]></name>
</wpt>
<wpt lat="24.885798" lon="121.071915">
<time>2008-12-22T00:58:50Z</time>
<ele>140.98</ele>
<name><![CDATA[Point 124]]></name>
</wpt>
<wpt lat="24.882669" lon="121.069878">
<time>2008-12-22T00:58:55Z</time>
<ele>145.77</ele>
<name><![CDATA[Point 125]]></name>
</wpt>
<wpt lat="24.879595" lon="121.067879">
<time>2008-12-22T00:59:00Z</time>
<ele>150.43</ele>
<name><![CDATA[Point 126]]></name>
</wpt>
<wpt lat="24.876541" lon="121.065903">
<time>2008-12-22T00:59:05Z</time>
<ele>148.55</ele>
<name><![CDATA[Point 127]]></name>
</wpt>
<wpt lat="24.838968" lon="121.048065">
<time>2008-12-22T01:00:09Z</time>
<ele>58.33</ele>
<name><![CDATA[Point 128]]></name>
</wpt>
<wpt lat="24.836353" lon="121.047386">
<time>2008-12-22T01:00:14Z</time>
<ele>61.26</ele>
<name><![CDATA[Point 129]]></name>
</wpt>
<wpt lat="24.833822" lon="121.046707">
<time>2008-12-22T01:00:19Z</time>
<ele>60.56</ele>
<name><![CDATA[Point 130]]></name>
</wpt>
<wpt lat="24.831371" lon="121.045967">
<time>2008-12-22T01:00:24Z</time>
<ele>69.13</ele>
<name><![CDATA[Point 131]]></name>
</wpt>
<wpt lat="24.829086" lon="121.045418">
<time>2008-12-22T01:00:29Z</time>
<ele>67.09</ele>
<name><![CDATA[Point 132]]></name>
</wpt>
<wpt lat="24.826895" lon="121.044838">
<time>2008-12-22T01:00:34Z</time>
<ele>69.31</ele>
<name><![CDATA[Point 133]]></name>
</wpt>
<wpt lat="24.824837" lon="121.044365">
<time>2008-12-22T01:00:39Z</time>
<ele>70.00</ele>
<name><![CDATA[Point 134]]></name>
</wpt>
<wpt lat="24.819807" lon="121.043022">
<time>2008-12-22T01:00:53Z</time>
<ele>75.25</ele>
<name><![CDATA[Point 135]]></name>
</wpt>
<wpt lat="24.818213" lon="121.042702">
<time>2008-12-22T01:00:58Z</time>
<ele>71.49</ele>
<name><![CDATA[Point 136]]></name>
</wpt>
<wpt lat="24.816767" lon="121.042320">
<time>2008-12-22T01:01:03Z</time>
<ele>70.12</ele>
<name><![CDATA[Point 137]]></name>
</wpt>
<wpt lat="24.815443" lon="121.042023">
<time>2008-12-22T01:01:08Z</time>
<ele>69.18</ele>
<name><![CDATA[Point 138]]></name>
</wpt>
<wpt lat="24.814219" lon="121.041702">
<time>2008-12-22T01:01:13Z</time>
<ele>68.57</ele>
<name><![CDATA[Point 139]]></name>
</wpt>
<wpt lat="24.813131" lon="121.041428">
<time>2008-12-22T01:01:18Z</time>
<ele>66.23</ele>
<name><![CDATA[Point 140]]></name>
</wpt>
<wpt lat="24.812172" lon="121.041145">
<time>2008-12-22T01:01:23Z</time>
<ele>66.39</ele>
<name><![CDATA[Point 141]]></name>
</wpt>
<wpt lat="24.811388" lon="121.040977">
<time>2008-12-22T01:01:28Z</time>
<ele>67.14</ele>
<name><![CDATA[Point 142]]></name>
</wpt>
<wpt lat="24.810732" lon="121.040840">
<time>2008-12-22T01:01:33Z</time>
<ele>69.22</ele>
<name><![CDATA[Point 143]]></name>
</wpt>
<wpt lat="24.810228" lon="121.040695">
<time>2008-12-22T01:01:38Z</time>
<ele>73.38</ele>
<name><![CDATA[Point 144]]></name>
</wpt>
<wpt lat="24.809851" lon="121.040627">
<time>2008-12-22T01:01:43Z</time>
<ele>72.42</ele>
<name><![CDATA[Point 145]]></name>
</wpt>
<wpt lat="24.809536" lon="121.040573">
<time>2008-12-22T01:01:48Z</time>
<ele>71.51</ele>
<name><![CDATA[Point 146]]></name>
</wpt>
<wpt lat="24.809225" lon="121.040489">
<time>2008-12-22T01:01:53Z</time>
<ele>70.31</ele>
<name><![CDATA[Point 147]]></name>
</wpt>
<wpt lat="24.808945" lon="121.040428">
<time>2008-12-22T01:01:58Z</time>
<ele>68.67</ele>
<name><![CDATA[Point 148]]></name>
</wpt>
<wpt lat="24.808769" lon="121.040382">
<time>2008-12-22T01:02:03Z</time>
<ele>68.39</ele>
<name><![CDATA[Point 149]]></name>
</wpt>
<wpt lat="24.808701" lon="121.040382">
<time>2008-12-22T01:02:08Z</time>
<ele>68.76</ele>
<name><![CDATA[Point 150]]></name>
</wpt>
<rte>
<name>Route</name>
<rtept lat="25.004732" lon="121.444420">
<time>2008-12-22T00:41:14Z</time>
<ele>130.56</ele>
<name><![CDATA[Point 0]]></name>
</rtept>
<rtept lat="25.004765" lon="121.442917">
<time>2008-12-22T00:41:19Z</time>
<ele>122.74</ele>
<name><![CDATA[Point 1]]></name>
</rtept>
<rtept lat="25.004864" lon="121.441422">
<time>2008-12-22T00:41:24Z</time>
<ele>114.48</ele>
<name><![CDATA[Point 2]]></name>
</rtept>
<rtept lat="25.004694" lon="121.440063">
<time>2008-12-22T00:41:29Z</time>
<ele>59.90</ele>
<name><![CDATA[Point 3]]></name>
</rtept>
<rtept lat="25.004713" lon="121.438431">
<time>2008-12-22T00:41:34Z</time>
<ele>49.30</ele>
<name><![CDATA[Point 4]]></name>
</rtept>
<rtept lat="25.004787" lon="121.436729">
<time>2008-12-22T00:41:39Z</time>
<ele>48.06</ele>
<name><![CDATA[Point 5]]></name>
</rtept>
<rtept lat="25.004795" lon="121.434990">
<time>2008-12-22T00:41:44Z</time>
<ele>49.18</ele>
<name><![CDATA[Point 6]]></name>
</rtept>
<rtept lat="25.004635" lon="121.433212">
<time>2008-12-22T00:41:49Z</time>
<ele>47.58</ele>
<name><![CDATA[Point 7]]></name>
</rtept>
<rtept lat="25.004332" lon="121.431389">
<time>2008-12-22T00:41:54Z</time>
<ele>47.25</ele>
<name><![CDATA[Point 8]]></name>
</rtept>
<rtept lat="25.004005" lon="121.429489">
<time>2008-12-22T00:41:59Z</time>
<ele>46.24</ele>
<name><![CDATA[Point 9]]></name>
</rtept>
<rtept lat="25.003780" lon="121.427490">
<time>2008-12-22T00:42:04Z</time>
<ele>43.25</ele>
<name><![CDATA[Point 10]]></name>
</rtept>
<rtept lat="25.003681" lon="121.425385">
<time>2008-12-22T00:42:09Z</time>
<ele>39.41</ele>
<name><![CDATA[Point 11]]></name>
</rtept>
<rtept lat="25.003740" lon="121.423187">
<time>2008-12-22T00:42:14Z</time>
<ele>40.24</ele>
<name><![CDATA[Point 12]]></name>
</rtept>
<rtept lat="25.003954" lon="121.420921">
<time>2008-12-22T00:42:19Z</time>
<ele>41.71</ele>
<name><![CDATA[Point 13]]></name>
</rtept>
<rtept lat="25.004280" lon="121.418633">
<time>2008-12-22T00:42:24Z</time>
<ele>42.66</ele>
<name><![CDATA[Point 14]]></name>
</rtept>
<rtept lat="25.004637" lon="121.416283">
<time>2008-12-22T00:42:29Z</time>
<ele>43.29</ele>
<name><![CDATA[Point 15]]></name>
</rtept>
<rtept lat="25.005020" lon="121.413872">
<time>2008-12-22T00:42:34Z</time>
<ele>45.09</ele>
<name><![CDATA[Point 16]]></name>
</rtept>
<rtept lat="25.005396" lon="121.411415">
<time>2008-12-22T00:42:39Z</time>
<ele>49.66</ele>
<name><![CDATA[Point 17]]></name>
</rtept>
<rtept lat="25.005823" lon="121.408966">
<time>2008-12-22T00:42:44Z</time>
<ele>52.75</ele>
<name><![CDATA[Point 18]]></name>
</rtept>
<rtept lat="25.011499" lon="121.389526">
<time>2008-12-22T00:43:22Z</time>
<ele>71.64</ele>
<name><![CDATA[Point 19]]></name>
</rtept>
<rtept lat="25.012690" lon="121.387138">
<time>2008-12-22T00:43:27Z</time>
<ele>85.94</ele>
<name><![CDATA[Point 20]]></name>
</rtept>
<rtept lat="25.044336" lon="121.330750">
<time>2008-12-22T00:45:36Z</time>
<ele>163.68</ele>
<name><![CDATA[Point 21]]></name>
</rtept>
<rtept lat="25.045773" lon="121.328186">
<time>2008-12-22T00:45:41Z</time>
<ele>160.30</ele>
<name><![CDATA[Point 22]]></name>
</rtept>
<rtept lat="25.048147" lon="121.323997">
<time>2008-12-22T00:45:49Z</time>
<ele>149.22</ele>
<name><![CDATA[Point 23]]></name>
</rtept>
<rtept lat="25.049742" lon="121.321220">
<time>2008-12-22T00:45:54Z</time>
<ele>155.64</ele>
<name><![CDATA[Point 24]]></name>
</rtept>
<rtept lat="25.054207" lon="121.312622">
<time>2008-12-22T00:46:09Z</time>
<ele>137.58</ele>
<name><![CDATA[Point 25]]></name>
</rtept>
<rtept lat="25.055601" lon="121.309509">
<time>2008-12-22T00:46:14Z</time>
<ele>141.88</ele>
<name><![CDATA[Point 26]]></name>
</rtept>
<rtept lat="25.056749" lon="121.306206">
<time>2008-12-22T00:46:19Z</time>
<ele>130.39</ele>
<name><![CDATA[Point 27]]></name>
</rtept>
<rtept lat="25.058527" lon="121.297707">
<time>2008-12-22T00:46:31Z</time>
<ele>95.93</ele>
<name><![CDATA[Point 28]]></name>
</rtept>
<rtept lat="25.059294" lon="121.293945">
<time>2008-12-22T00:46:36Z</time>
<ele>101.89</ele>
<name><![CDATA[Point 29]]></name>
</rtept>
<rtept lat="25.059511" lon="121.290176">
<time>2008-12-22T00:46:41Z</time>
<ele>101.44</ele>
<name><![CDATA[Point 30]]></name>
</rtept>
<rtept lat="25.059546" lon="121.286385">
<time>2008-12-22T00:46:46Z</time>
<ele>87.84</ele>
<name><![CDATA[Point 31]]></name>
</rtept>
<rtept lat="25.059391" lon="121.282562">
<time>2008-12-22T00:46:51Z</time>
<ele>83.29</ele>
<name><![CDATA[Point 32]]></name>
</rtept>
<rtept lat="25.058981" lon="121.278770">
<time>2008-12-22T00:46:56Z</time>
<ele>82.27</ele>
<name><![CDATA[Point 33]]></name>
</rtept>
<rtept lat="25.058346" lon="121.275055">
<time>2008-12-22T00:47:01Z</time>
<ele>82.44</ele>
<name><![CDATA[Point 34]]></name>
</rtept>
<rtept lat="25.057465" lon="121.271439">
<time>2008-12-22T00:47:06Z</time>
<ele>78.93</ele>
<name><![CDATA[Point 35]]></name>
</rtept>
<rtept lat="25.056358" lon="121.267906">
<time>2008-12-22T00:47:11Z</time>
<ele>74.44</ele>
<name><![CDATA[Point 36]]></name>
</rtept>
<rtept lat="25.055092" lon="121.264481">
<time>2008-12-22T00:47:16Z</time>
<ele>73.36</ele>
<name><![CDATA[Point 37]]></name>
</rtept>
<rtept lat="25.053637" lon="121.261185">
<time>2008-12-22T00:47:21Z</time>
<ele>72.32</ele>
<name><![CDATA[Point 38]]></name>
</rtept>
<rtept lat="25.051991" lon="121.258034">
<time>2008-12-22T00:47:26Z</time>
<ele>72.17</ele>
<name><![CDATA[Point 39]]></name>
</rtept>
<rtept lat="25.050148" lon="121.255005">
<time>2008-12-22T00:47:31Z</time>
<ele>70.08</ele>
<name><![CDATA[Point 40]]></name>
</rtept>
<rtept lat="25.048199" lon="121.252182">
<time>2008-12-22T00:47:36Z</time>
<ele>70.70</ele>
<name><![CDATA[Point 41]]></name>
</rtept>
<rtept lat="25.046137" lon="121.249550">
<time>2008-12-22T00:47:41Z</time>
<ele>70.21</ele>
<name><![CDATA[Point 42]]></name>
</rtept>
<rtept lat="25.044024" lon="121.247116">
<time>2008-12-22T00:47:46Z</time>
<ele>71.81</ele>
<name><![CDATA[Point 43]]></name>
</rtept>
<rtept lat="25.041914" lon="121.244820">
<time>2008-12-22T00:47:51Z</time>
<ele>70.43</ele>
<name><![CDATA[Point 44]]></name>
</rtept>
<rtept lat="25.039881" lon="121.242607">
<time>2008-12-22T00:47:56Z</time>
<ele>72.28</ele>
<name><![CDATA[Point 45]]></name>
</rtept>
<rtept lat="25.037952" lon="121.240494">
<time>2008-12-22T00:48:01Z</time>
<ele>73.55</ele>
<name><![CDATA[Point 46]]></name>
</rtept>
<rtept lat="25.036118" lon="121.238472">
<time>2008-12-22T00:48:06Z</time>
<ele>76.41</ele>
<name><![CDATA[Point 47]]></name>
</rtept>
<rtept lat="25.034372" lon="121.236565">
<time>2008-12-22T00:48:11Z</time>
<ele>81.29</ele>
<name><![CDATA[Point 48]]></name>
</rtept>
<rtept lat="25.032707" lon="121.234787">
<time>2008-12-22T00:48:16Z</time>
<ele>84.67</ele>
<name><![CDATA[Point 49]]></name>
</rtept>
<rtept lat="25.031134" lon="121.233116">
<time>2008-12-22T00:48:21Z</time>
<ele>89.12</ele>
<name><![CDATA[Point 50]]></name>
</rtept>
<rtept lat="25.029638" lon="121.231567">
<time>2008-12-22T00:48:26Z</time>
<ele>90.96</ele>
<name><![CDATA[Point 51]]></name>
</rtept>
<rtept lat="25.028214" lon="121.230103">
<time>2008-12-22T00:48:31Z</time>
<ele>91.26</ele>
<name><![CDATA[Point 52]]></name>
</rtept>
<rtept lat="25.026863" lon="121.228760">
<time>2008-12-22T00:48:36Z</time>
<ele>89.76</ele>
<name><![CDATA[Point 53]]></name>
</rtept>
<rtept lat="25.025604" lon="121.227486">
<time>2008-12-22T00:48:41Z</time>
<ele>90.15</ele>
<name><![CDATA[Point 54]]></name>
</rtept>
<rtept lat="25.024446" lon="121.226311">
<time>2008-12-22T00:48:46Z</time>
<ele>89.51</ele>
<name><![CDATA[Point 55]]></name>
</rtept>
<rtept lat="25.023357" lon="121.225212">
<time>2008-12-22T00:48:51Z</time>
<ele>87.79</ele>
<name><![CDATA[Point 56]]></name>
</rtept>
<rtept lat="25.022293" lon="121.224152">
<time>2008-12-22T00:48:56Z</time>
<ele>85.96</ele>
<name><![CDATA[Point 57]]></name>
</rtept>
<rtept lat="25.021242" lon="121.223099">
<time>2008-12-22T00:49:01Z</time>
<ele>86.51</ele>
<name><![CDATA[Point 58]]></name>
</rtept>
<rtept lat="25.020195" lon="121.222054">
<time>2008-12-22T00:49:06Z</time>
<ele>83.97</ele>
<name><![CDATA[Point 59]]></name>
</rtept>
<rtept lat="25.019184" lon="121.221024">
<time>2008-12-22T00:49:11Z</time>
<ele>83.83</ele>
<name><![CDATA[Point 60]]></name>
</rtept>
<rtept lat="25.018223" lon="121.220047">
<time>2008-12-22T00:49:16Z</time>
<ele>83.38</ele>
<name><![CDATA[Point 61]]></name>
</rtept>
<rtept lat="25.017336" lon="121.219177">
<time>2008-12-22T00:49:21Z</time>
<ele>82.65</ele>
<name><![CDATA[Point 62]]></name>
</rtept>
<rtept lat="25.016520" lon="121.218391">
<time>2008-12-22T00:49:26Z</time>
<ele>82.14</ele>
<name><![CDATA[Point 63]]></name>
</rtept>
<rtept lat="25.015665" lon="121.217606">
<time>2008-12-22T00:49:31Z</time>
<ele>81.61</ele>
<name><![CDATA[Point 64]]></name>
</rtept>
<rtept lat="24.998676" lon="121.200516">
<time>2008-12-22T00:53:55Z</time>
<ele>93.82</ele>
<name><![CDATA[Point 65]]></name>
</rtept>
<rtept lat="24.997665" lon="121.199448">
<time>2008-12-22T00:54:00Z</time>
<ele>92.70</ele>
<name><![CDATA[Point 66]]></name>
</rtept>
<rtept lat="24.996616" lon="121.198341">
<time>2008-12-22T00:54:05Z</time>
<ele>102.26</ele>
<name><![CDATA[Point 67]]></name>
</rtept>
<rtept lat="24.995569" lon="121.197266">
<time>2008-12-22T00:54:10Z</time>
<ele>110.51</ele>
<name><![CDATA[Point 68]]></name>
</rtept>
<rtept lat="24.994490" lon="121.196152">
<time>2008-12-22T00:54:15Z</time>
<ele>115.06</ele>
<name><![CDATA[Point 69]]></name>
</rtept>
<rtept lat="24.993364" lon="121.195061">
<time>2008-12-22T00:54:20Z</time>
<ele>118.82</ele>
<name><![CDATA[Point 70]]></name>
</rtept>
<rtept lat="24.992178" lon="121.193893">
<time>2008-12-22T00:54:25Z</time>
<ele>119.01</ele>
<name><![CDATA[Point 71]]></name>
</rtept>
<rtept lat="24.990936" lon="121.192650">
<time>2008-12-22T00:54:30Z</time>
<ele>120.48</ele>
<name><![CDATA[Point 72]]></name>
</rtept>
<rtept lat="24.989637" lon="121.191338">
<time>2008-12-22T00:54:35Z</time>
<ele>120.62</ele>
<name><![CDATA[Point 73]]></name>
</rtept>
<rtept lat="24.988264" lon="121.189964">
<time>2008-12-22T00:54:40Z</time>
<ele>121.33</ele>
<name><![CDATA[Point 74]]></name>
</rtept>
<rtept lat="24.986839" lon="121.188538">
<time>2008-12-22T00:54:45Z</time>
<ele>123.09</ele>
<name><![CDATA[Point 75]]></name>
</rtept>
<rtept lat="24.985350" lon="121.187050">
<time>2008-12-22T00:54:50Z</time>
<ele>123.45</ele>
<name><![CDATA[Point 76]]></name>
</rtept>
<rtept lat="24.983801" lon="121.185524">
<time>2008-12-22T00:54:55Z</time>
<ele>124.29</ele>
<name><![CDATA[Point 77]]></name>
</rtept>
<rtept lat="24.982199" lon="121.183968">
<time>2008-12-22T00:55:00Z</time>
<ele>124.74</ele>
<name><![CDATA[Point 78]]></name>
</rtept>
<rtept lat="24.980549" lon="121.182419">
<time>2008-12-22T00:55:05Z</time>
<ele>125.81</ele>
<name><![CDATA[Point 79]]></name>
</rtept>
<rtept lat="24.978861" lon="121.180809">
<time>2008-12-22T00:55:10Z</time>
<ele>130.02</ele>
<name><![CDATA[Point 80]]></name>
</rtept>
<rtept lat="24.977165" lon="121.179176">
<time>2008-12-22T00:55:15Z</time>
<ele>135.38</ele>
<name><![CDATA[Point 81]]></name>
</rtept>
<rtept lat="24.975454" lon="121.177544">
<time>2008-12-22T00:55:20Z</time>
<ele>141.30</ele>
<name><![CDATA[Point 82]]></name>
</rtept>
<rtept lat="24.973686" lon="121.175858">
<time>2008-12-22T00:55:25Z</time>
<ele>140.43</ele>
<name><![CDATA[Point 83]]></name>
</rtept>
<rtept lat="24.971867" lon="121.174126">
<time>2008-12-22T00:55:30Z</time>
<ele>138.95</ele>
<name><![CDATA[Point 84]]></name>
</rtept>
<rtept lat="24.970026" lon="121.172348">
<time>2008-12-22T00:55:35Z</time>
<ele>140.50</ele>
<name><![CDATA[Point 85]]></name>
</rtept>
<rtept lat="24.968191" lon="121.170441">
<time>2008-12-22T00:55:40Z</time>
<ele>142.34</ele>
<name><![CDATA[Point 86]]></name>
</rtept>
<rtept lat="24.966391" lon="121.168404">
<time>2008-12-22T00:55:45Z</time>
<ele>143.66</ele>
<name><![CDATA[Point 87]]></name>
</rtept>
<rtept lat="24.964642" lon="121.166229">
<time>2008-12-22T00:55:50Z</time>
<ele>143.91</ele>
<name><![CDATA[Point 88]]></name>
</rtept>
<rtept lat="24.962963" lon="121.163918">
<time>2008-12-22T00:55:55Z</time>
<ele>145.50</ele>
<name><![CDATA[Point 89]]></name>
</rtept>
<rtept lat="24.961344" lon="121.161499">
<time>2008-12-22T00:56:00Z</time>
<ele>143.92</ele>
<name><![CDATA[Point 90]]></name>
</rtept>
<rtept lat="24.959780" lon="121.158905">
<time>2008-12-22T00:56:05Z</time>
<ele>138.62</ele>
<name><![CDATA[Point 91]]></name>
</rtept>
<rtept lat="24.958326" lon="121.156166">
<time>2008-12-22T00:56:10Z</time>
<ele>135.47</ele>
<name><![CDATA[Point 92]]></name>
</rtept>
<rtept lat="24.956989" lon="121.153305">
<time>2008-12-22T00:56:15Z</time>
<ele>137.16</ele>
<name><![CDATA[Point 93]]></name>
</rtept>
<rtept lat="24.955704" lon="121.150375">
<time>2008-12-22T00:56:20Z</time>
<ele>139.08</ele>
<name><![CDATA[Point 94]]></name>
</rtept>
<rtept lat="24.954407" lon="121.147400">
<time>2008-12-22T00:56:25Z</time>
<ele>138.61</ele>
<name><![CDATA[Point 95]]></name>
</rtept>
<rtept lat="24.953079" lon="121.144363">
<time>2008-12-22T00:56:30Z</time>
<ele>136.07</ele>
<name><![CDATA[Point 96]]></name>
</rtept>
<rtept lat="24.951735" lon="121.141273">
<time>2008-12-22T00:56:35Z</time>
<ele>136.15</ele>
<name><![CDATA[Point 97]]></name>
</rtept>
<rtept lat="24.950357" lon="121.138123">
<time>2008-12-22T00:56:40Z</time>
<ele>131.38</ele>
<name><![CDATA[Point 98]]></name>
</rtept>
<rtept lat="24.948956" lon="121.134918">
<time>2008-12-22T00:56:45Z</time>
<ele>126.44</ele>
<name><![CDATA[Point 99]]></name>
</rtept>
<rtept lat="24.947527" lon="121.131660">
<time>2008-12-22T00:56:50Z</time>
<ele>121.52</ele>
<name><![CDATA[Point 100]]></name>
</rtept>
<rtept lat="24.946054" lon="121.128349">
<time>2008-12-22T00:56:55Z</time>
<ele>115.19</ele>
<name><![CDATA[Point 101]]></name>
</rtept>
<rtept lat="24.944597" lon="121.125031">
<time>2008-12-22T00:57:00Z</time>
<ele>115.91</ele>
<name><![CDATA[Point 102]]></name>
</rtept>
<rtept lat="24.943134" lon="121.121689">
<time>2008-12-22T00:57:05Z</time>
<ele>117.67</ele>
<name><![CDATA[Point 103]]></name>
</rtept>
<rtept lat="24.941624" lon="121.118332">
<time>2008-12-22T00:57:10Z</time>
<ele>121.88</ele>
<name><![CDATA[Point 104]]></name>
</rtept>
<rtept lat="24.939943" lon="121.115051">
<time>2008-12-22T00:57:15Z</time>
<ele>124.09</ele>
<name><![CDATA[Point 105]]></name>
</rtept>
<rtept lat="24.938080" lon="121.111832">
<time>2008-12-22T00:57:20Z</time>
<ele>121.95</ele>
<name><![CDATA[Point 106]]></name>
</rtept>
<rtept lat="24.936010" lon="121.108749">
<time>2008-12-22T00:57:25Z</time>
<ele>120.41</ele>
<name><![CDATA[Point 107]]></name>
</rtept>
<rtept lat="24.933748" lon="121.105827">
<time>2008-12-22T00:57:30Z</time>
<ele>123.74</ele>
<name><![CDATA[Point 108]]></name>
</rtept>
<rtept lat="24.931332" lon="121.103073">
<time>2008-12-22T00:57:35Z</time>
<ele>133.03</ele>
<name><![CDATA[Point 109]]></name>
</rtept>
<rtept lat="24.928799" lon="121.100510">
<time>2008-12-22T00:57:40Z</time>
<ele>143.65</ele>
<name><![CDATA[Point 110]]></name>
</rtept>
<rtept lat="24.926130" lon="121.098129">
<time>2008-12-22T00:57:45Z</time>
<ele>151.30</ele>
<name><![CDATA[Point 111]]></name>
</rtept>
<rtept lat="24.923338" lon="121.095901">
<time>2008-12-22T00:57:50Z</time>
<ele>154.72</ele>
<name><![CDATA[Point 112]]></name>
</rtept>
<rtept lat="24.920420" lon="121.093849">
<time>2008-12-22T00:57:55Z</time>
<ele>157.17</ele>
<name><![CDATA[Point 113]]></name>
</rtept>
<rtept lat="24.917383" lon="121.091988">
<time>2008-12-22T00:58:00Z</time>
<ele>158.32</ele>
<name><![CDATA[Point 114]]></name>
</rtept>
<rtept lat="24.914284" lon="121.090172">
<time>2008-12-22T00:58:05Z</time>
<ele>159.70</ele>
<name><![CDATA[Point 115]]></name>
</rtept>
<rtept lat="24.911152" lon="121.088356">
<time>2008-12-22T00:58:10Z</time>
<ele>156.48</ele>
<name><![CDATA[Point 116]]></name>
</rtept>
<rtept lat="24.907980" lon="121.086510">
<time>2008-12-22T00:58:15Z</time>
<ele>153.02</ele>
<name><![CDATA[Point 117]]></name>
</rtept>
<rtept lat="24.904827" lon="121.084518">
<time>2008-12-22T00:58:20Z</time>
<ele>149.20</ele>
<name><![CDATA[Point 118]]></name>
</rtept>
<rtept lat="24.901682" lon="121.082466">
<time>2008-12-22T00:58:25Z</time>
<ele>144.08</ele>
<name><![CDATA[Point 119]]></name>
</rtept>
<rtept lat="24.898510" lon="121.080330">
<time>2008-12-22T00:58:30Z</time>
<ele>140.46</ele>
<name><![CDATA[Point 120]]></name>
</rtept>
<rtept lat="24.895313" lon="121.078201">
<time>2008-12-22T00:58:35Z</time>
<ele>142.19</ele>
<name><![CDATA[Point 121]]></name>
</rtept>
<rtept lat="24.892118" lon="121.076080">
<time>2008-12-22T00:58:40Z</time>
<ele>144.48</ele>
<name><![CDATA[Point 122]]></name>
</rtept>
<rtept lat="24.888947" lon="121.073990">
<time>2008-12-22T00:58:45Z</time>
<ele>144.38</ele>
<name><![CDATA[Point 123]]></name>
</rtept>
<rtept lat="24.885798" lon="121.071915">
<time>2008-12-22T00:58:50Z</time>
<ele>140.98</ele>
<name><![CDATA[Point 124]]></name>
</rtept>
<rtept lat="24.882669" lon="121.069878">
<time>2008-12-22T00:58:55Z</time>
<ele>145.77</ele>
<name><![CDATA[Point 125]]></name>
</rtept>
<rtept lat="24.879595" lon="121.067879">
<time>2008-12-22T00:59:00Z</time>
<ele>150.43</ele>
<name><![CDATA[Point 126]]></name>
</rtept>
<rtept lat="24.876541" lon="121.065903">
<time>2008-12-22T00:59:05Z</time>
<ele>148.55</ele>
<name><![CDATA[Point 127]]></name>
</rtept>
<rtept lat="24.838968" lon="121.048065">
<time>2008-12-22T01:00:09Z</time>
<ele>58.33</ele>
<name><![CDATA[Point 128]]></name>
</rtept>
<rtept lat="24.836353" lon="121.047386">
<time>2008-12-22T01:00:14Z</time>
<ele>61.26</ele>
<name><![CDATA[Point 129]]></name>
</rtept>
<rtept lat="24.833822" lon="121.046707">
<time>2008-12-22T01:00:19Z</time>
<ele>60.56</ele>
<name><![CDATA[Point 130]]></name>
</rtept>
<rtept lat="24.831371" lon="121.045967">
<time>2008-12-22T01:00:24Z</time>
<ele>69.13</ele>
<name><![CDATA[Point 131]]></name>
</rtept>
<rtept lat="24.829086" lon="121.045418">
<time>2008-12-22T01:00:29Z</time>
<ele>67.09</ele>
<name><![CDATA[Point 132]]></name>
</rtept>
<rtept lat="24.826895" lon="121.044838">
<time>2008-12-22T01:00:34Z</time>
<ele>69.31</ele>
<name><![CDATA[Point 133]]></name>
</rtept>
<rtept lat="24.824837" lon="121.044365">
<time>2008-12-22T01:00:39Z</time>
<ele>70.00</ele>
<name><![CDATA[Point 134]]></name>
</rtept>
<rtept lat="24.819807" lon="121.043022">
<time>2008-12-22T01:00:53Z</time>
<ele>75.25</ele>
<name><![CDATA[Point 135]]></name>
</rtept>
<rtept lat="24.818213" lon="121.042702">
<time>2008-12-22T01:00:58Z</time>
<ele>71.49</ele>
<name><![CDATA[Point 136]]></name>
</rtept>
<rtept lat="24.816767" lon="121.042320">
<time>2008-12-22T01:01:03Z</time>
<ele>70.12</ele>
<name><![CDATA[Point 137]]></name>
</rtept>
<rtept lat="24.815443" lon="121.042023">
<time>2008-12-22T01:01:08Z</time>
<ele>69.18</ele>
<name><![CDATA[Point 138]]></name>
</rtept>
<rtept lat="24.814219" lon="121.041702">
<time>2008-12-22T01:01:13Z</time>
<ele>68.57</ele>
<name><![CDATA[Point 139]]></name>
</rtept>
<rtept lat="24.813131" lon="121.041428">
<time>2008-12-22T01:01:18Z</time>
<ele>66.23</ele>
<name><![CDATA[Point 140]]></name>
</rtept>
<rtept lat="24.812172" lon="121.041145">
<time>2008-12-22T01:01:23Z</time>
<ele>66.39</ele>
<name><![CDATA[Point 141]]></name>
</rtept>
<rtept lat="24.811388" lon="121.040977">
<time>2008-12-22T01:01:28Z</time>
<ele>67.14</ele>
<name><![CDATA[Point 142]]></name>
</rtept>
<rtept lat="24.810732" lon="121.040840">
<time>2008-12-22T01:01:33Z</time>
<ele>69.22</ele>
<name><![CDATA[Point 143]]></name>
</rtept>
<rtept lat="24.810228" lon="121.040695">
<time>2008-12-22T01:01:38Z</time>
<ele>73.38</ele>
<name><![CDATA[Point 144]]></name>
</rtept>
<rtept lat="24.809851" lon="121.040627">
<time>2008-12-22T01:01:43Z</time>
<ele>72.42</ele>
<name><![CDATA[Point 145]]></name>
</rtept>
<rtept lat="24.809536" lon="121.040573">
<time>2008-12-22T01:01:48Z</time>
<ele>71.51</ele>
<name><![CDATA[Point 146]]></name>
</rtept>
<rtept lat="24.809225" lon="121.040489">
<time>2008-12-22T01:01:53Z</time>
<ele>70.31</ele>
<name><![CDATA[Point 147]]></name>
</rtept>
<rtept lat="24.808945" lon="121.040428">
<time>2008-12-22T01:01:58Z</time>
<ele>68.67</ele>
<name><![CDATA[Point 148]]></name>
</rtept>
<rtept lat="24.808769" lon="121.040382">
<time>2008-12-22T01:02:03Z</time>
<ele>68.39</ele>
<name><![CDATA[Point 149]]></name>
</rtept>
<rtept lat="24.808701" lon="121.040382">
<time>2008-12-22T01:02:08Z</time>
<ele>68.76</ele>
<name><![CDATA[Point 150]]></name>
</rtept>
</rte>
</gpx>
