<?xml version="1.0"?>
<gpx
version="1.0"
creator="Holux Utility"
xmlns:xsi="http://www.w3.org/2001/XMLSchema-instance"
xmlns="http://www.topografix.com/GPX/1/0"
xsi:schemaLocation="http://www.topografix.com/GPX/1/0 http://www.topografix.com/GPX/1/0/gpx.xsd">
<wpt lat="25.021961" lon="121.527161">
<time>2008-12-21T23:40:24Z</time>
<ele>-7.62</ele>
<name><![CDATA[Point 0]]></name>
</wpt>
<wpt lat="25.021996" lon="121.527191">
<time>2008-12-21T23:40:29Z</time>
<ele>-11.36</ele>
<name><![CDATA[Point 1]]></name>
</wpt>
<wpt lat="25.021999" lon="121.527199">
<time>2008-12-21T23:40:34Z</time>
<ele>-21.34</ele>
<name><![CDATA[Point 2]]></name>
</wpt>
<wpt lat="25.022028" lon="121.527214">
<time>2008-12-21T23:40:39Z</time>
<ele>-26.61</ele>
<name><![CDATA[Point 3]]></name>
</wpt>
<wpt lat="25.022017" lon="121.527161">
<time>2008-12-21T23:40:44Z</time>
<ele>-16.34</ele>
<name><![CDATA[Point 4]]></name>
</wpt>
<wpt lat="25.022165" lon="121.527016">
<time>2008-12-21T23:40:49Z</time>
<ele>-8.42</ele>
<name><![CDATA[Point 5]]></name>
</wpt>
<wpt lat="25.022337" lon="121.526840">
<time>2008-12-21T23:40:54Z</time>
<ele>-6.29</ele>
<name><![CDATA[Point 6]]></name>
</wpt>
<wpt lat="25.022434" lon="121.526695">
<time>2008-12-21T23:40:59Z</time>
<ele>-3.57</ele>
<name><![CDATA[Point 7]]></name>
</wpt>
<wpt lat="25.022552" lon="121.526543">
<time>2008-12-21T23:41:04Z</time>
<ele>-3.66</ele>
<name><![CDATA[Point 8]]></name>
</wpt>
<wpt lat="25.022617" lon="121.526550">
<time>2008-12-21T23:41:09Z</time>
<ele>-4.38</ele>
<name><![CDATA[Point 9]]></name>
</wpt>
<wpt lat="25.022861" lon="121.526382">
<time>2008-12-21T23:41:14Z</time>
<ele>-4.93</ele>
<name><![CDATA[Point 10]]></name>
</wpt>
<wpt lat="25.022968" lon="121.525620">
<time>2008-12-21T23:41:19Z</time>
<ele>-5.10</ele>
<name><![CDATA[Point 11]]></name>
</wpt>
<wpt lat="25.023211" lon="121.525337">
<time>2008-12-21T23:41:24Z</time>
<ele>6.80</ele>
<name><![CDATA[Point 12]]></name>
</wpt>
<wpt lat="25.023521" lon="121.525177">
<time>2008-12-21T23:41:29Z</time>
<ele>10.19</ele>
<name><![CDATA[Point 13]]></name>
</wpt>
<wpt lat="25.023787" lon="121.524918">
<time>2008-12-21T23:41:34Z</time>
<ele>11.27</ele>
<name><![CDATA[Point 14]]></name>
</wpt>
<wpt lat="25.024164" lon="121.524490">
<time>2008-12-21T23:41:39Z</time>
<ele>17.25</ele>
<name><![CDATA[Point 15]]></name>
</wpt>
<wpt lat="25.024458" lon="121.524269">
<time>2008-12-21T23:41:44Z</time>
<ele>19.62</ele>
<name><![CDATA[Point 16]]></name>
</wpt>
<wpt lat="25.024837" lon="121.524002">
<time>2008-12-21T23:41:49Z</time>
<ele>22.18</ele>
<name><![CDATA[Point 17]]></name>
</wpt>
<wpt lat="25.025110" lon="121.523750">
<time>2008-12-21T23:41:54Z</time>
<ele>23.66</ele>
<name><![CDATA[Point 18]]></name>
</wpt>
<wpt lat="25.025398" lon="121.523376">
<time>2008-12-21T23:41:59Z</time>
<ele>27.14</ele>
<name><![CDATA[Point 19]]></name>
</wpt>
<wpt lat="25.025690" lon="121.523293">
<time>2008-12-21T23:42:04Z</time>
<ele>34.91</ele>
<name><![CDATA[Point 20]]></name>
</wpt>
<wpt lat="25.026020" lon="121.523285">
<time>2008-12-21T23:42:09Z</time>
<ele>36.91</ele>
<name><![CDATA[Point 21]]></name>
</wpt>
<wpt lat="25.026318" lon="121.523079">
<time>2008-12-21T23:42:14Z</time>
<ele>36.77</ele>
<name><![CDATA[Point 22]]></name>
</wpt>
<wpt lat="25.026655" lon="121.522858">
<time>2008-12-21T23:42:19Z</time>
<ele>35.96</ele>
<name><![CDATA[Point 23]]></name>
</wpt>
<wpt lat="25.026882" lon="121.522614">
<time>2008-12-21T23:42:24Z</time>
<ele>34.78</ele>
<name><![CDATA[Point 24]]></name>
</wpt>
<wpt lat="25.027153" lon="121.522438">
<time>2008-12-21T23:42:29Z</time>
<ele>34.14</ele>
<name><![CDATA[Point 25]]></name>
</wpt>
<wpt lat="25.027313" lon="121.522270">
<time>2008-12-21T23:42:34Z</time>
<ele>33.84</ele>
<name><![CDATA[Point 26]]></name>
</wpt>
<wpt lat="25.027344" lon="121.522224">
<time>2008-12-21T23:42:39Z</time>
<ele>34.50</ele>
<name><![CDATA[Point 27]]></name>
</wpt>
<wpt lat="25.027332" lon="121.522224">
<time>2008-12-21T23:42:44Z</time>
<ele>34.10</ele>
<name><![CDATA[Point 28]]></name>
</wpt>
<wpt lat="25.027328" lon="121.522224">
<time>2008-12-21T23:42:49Z</time>
<ele>34.02</ele>
<name><![CDATA[Point 29]]></name>
</wpt>
<wpt lat="25.027327" lon="121.522224">
<time>2008-12-21T23:42:54Z</time>
<ele>33.99</ele>
<name><![CDATA[Point 30]]></name>
</wpt>
<wpt lat="25.027321" lon="121.522224">
<time>2008-12-21T23:42:59Z</time>
<ele>33.96</ele>
<name><![CDATA[Point 31]]></name>
</wpt>
<wpt lat="25.027317" lon="121.522224">
<time>2008-12-21T23:43:04Z</time>
<ele>33.95</ele>
<name><![CDATA[Point 32]]></name>
</wpt>
<wpt lat="25.027317" lon="121.522224">
<time>2008-12-21T23:43:09Z</time>
<ele>33.96</ele>
<name><![CDATA[Point 33]]></name>
</wpt>
<wpt lat="25.027321" lon="121.522224">
<time>2008-12-21T23:43:14Z</time>
<ele>33.97</ele>
<name><![CDATA[Point 34]]></name>
</wpt>
<wpt lat="25.027325" lon="121.522224">
<time>2008-12-21T23:43:19Z</time>
<ele>33.99</ele>
<name><![CDATA[Point 35]]></name>
</wpt>
<wpt lat="25.027306" lon="121.522179">
<time>2008-12-21T23:43:24Z</time>
<ele>34.08</ele>
<name><![CDATA[Point 36]]></name>
</wpt>
<wpt lat="25.027212" lon="121.522026">
<time>2008-12-21T23:43:29Z</time>
<ele>33.83</ele>
<name><![CDATA[Point 37]]></name>
</wpt>
<wpt lat="25.026983" lon="121.521835">
<time>2008-12-21T23:43:34Z</time>
<ele>32.23</ele>
<name><![CDATA[Point 38]]></name>
</wpt>
<wpt lat="25.026917" lon="121.521515">
<time>2008-12-21T23:43:39Z</time>
<ele>31.58</ele>
<name><![CDATA[Point 39]]></name>
</wpt>
<wpt lat="25.026869" lon="121.521225">
<time>2008-12-21T23:43:44Z</time>
<ele>30.57</ele>
<name><![CDATA[Point 40]]></name>
</wpt>
<wpt lat="25.026793" lon="121.520950">
<time>2008-12-21T23:43:49Z</time>
<ele>29.83</ele>
<name><![CDATA[Point 41]]></name>
</wpt>
<wpt lat="25.026762" lon="121.520607">
<time>2008-12-21T23:43:54Z</time>
<ele>28.68</ele>
<name><![CDATA[Point 42]]></name>
</wpt>
<wpt lat="25.026669" lon="121.520248">
<time>2008-12-21T23:43:59Z</time>
<ele>27.37</ele>
<name><![CDATA[Point 43]]></name>
</wpt>
<wpt lat="25.026596" lon="121.519920">
<time>2008-12-21T23:44:04Z</time>
<ele>26.18</ele>
<name><![CDATA[Point 44]]></name>
</wpt>
<wpt lat="25.026499" lon="121.519608">
<time>2008-12-21T23:44:09Z</time>
<ele>27.32</ele>
<name><![CDATA[Point 45]]></name>
</wpt>
<wpt lat="25.026501" lon="121.519173">
<time>2008-12-21T23:44:14Z</time>
<ele>28.80</ele>
<name><![CDATA[Point 46]]></name>
</wpt>
<wpt lat="25.026659" lon="121.518936">
<time>2008-12-21T23:44:19Z</time>
<ele>23.37</ele>
<name><![CDATA[Point 47]]></name>
</wpt>
<wpt lat="25.026783" lon="121.518646">
<time>2008-12-21T23:44:24Z</time>
<ele>24.33</ele>
<name><![CDATA[Point 48]]></name>
</wpt>
<wpt lat="25.026892" lon="121.518288">
<time>2008-12-21T23:44:29Z</time>
<ele>25.48</ele>
<name><![CDATA[Point 49]]></name>
</wpt>
<wpt lat="25.027033" lon="121.517960">
<time>2008-12-21T23:44:34Z</time>
<ele>26.47</ele>
<name><![CDATA[Point 50]]></name>
</wpt>
<wpt lat="25.027079" lon="121.517632">
<time>2008-12-21T23:44:39Z</time>
<ele>27.13</ele>
<name><![CDATA[Point 51]]></name>
</wpt>
<wpt lat="25.027109" lon="121.517349">
<time>2008-12-21T23:44:44Z</time>
<ele>26.07</ele>
<name><![CDATA[Point 52]]></name>
</wpt>
<wpt lat="25.027193" lon="121.516998">
<time>2008-12-21T23:44:49Z</time>
<ele>25.25</ele>
<name><![CDATA[Point 53]]></name>
</wpt>
<wpt lat="25.027296" lon="121.516739">
<time>2008-12-21T23:44:54Z</time>
<ele>26.08</ele>
<name><![CDATA[Point 54]]></name>
</wpt>
<wpt lat="25.027319" lon="121.516518">
<time>2008-12-21T23:44:59Z</time>
<ele>28.92</ele>
<name><![CDATA[Point 55]]></name>
</wpt>
<wpt lat="25.027300" lon="121.516403">
<time>2008-12-21T23:45:04Z</time>
<ele>30.08</ele>
<name><![CDATA[Point 56]]></name>
</wpt>
<wpt lat="25.027288" lon="121.516380">
<time>2008-12-21T23:45:09Z</time>
<ele>30.54</ele>
<name><![CDATA[Point 57]]></name>
</wpt>
<wpt lat="25.027288" lon="121.516380">
<time>2008-12-21T23:45:14Z</time>
<ele>31.05</ele>
<name><![CDATA[Point 58]]></name>
</wpt>
<wpt lat="25.027287" lon="121.516388">
<time>2008-12-21T23:45:19Z</time>
<ele>31.22</ele>
<name><![CDATA[Point 59]]></name>
</wpt>
<wpt lat="25.027285" lon="121.516388">
<time>2008-12-21T23:45:24Z</time>
<ele>31.31</ele>
<name><![CDATA[Point 60]]></name>
</wpt>
<wpt lat="25.027285" lon="121.516388">
<time>2008-12-21T23:45:29Z</time>
<ele>31.36</ele>
<name><![CDATA[Point 61]]></name>
</wpt>
<wpt lat="25.027283" lon="121.516388">
<time>2008-12-21T23:45:34Z</time>
<ele>31.39</ele>
<name><![CDATA[Point 62]]></name>
</wpt>
<wpt lat="25.027277" lon="121.516403">
<time>2008-12-21T23:45:39Z</time>
<ele>31.43</ele>
<name><![CDATA[Point 63]]></name>
</wpt>
<wpt lat="25.027275" lon="121.516403">
<time>2008-12-21T23:45:44Z</time>
<ele>31.46</ele>
<name><![CDATA[Point 64]]></name>
</wpt>
<wpt lat="25.027273" lon="121.516403">
<time>2008-12-21T23:45:49Z</time>
<ele>31.47</ele>
<name><![CDATA[Point 65]]></name>
</wpt>
<wpt lat="25.027273" lon="121.516396">
<time>2008-12-21T23:45:54Z</time>
<ele>31.51</ele>
<name><![CDATA[Point 66]]></name>
</wpt>
<wpt lat="25.027273" lon="121.516396">
<time>2008-12-21T23:45:59Z</time>
<ele>31.59</ele>
<name><![CDATA[Point 67]]></name>
</wpt>
<wpt lat="25.027273" lon="121.516396">
<time>2008-12-21T23:46:04Z</time>
<ele>31.66</ele>
<name><![CDATA[Point 68]]></name>
</wpt>
<wpt lat="25.027273" lon="121.516388">
<time>2008-12-21T23:46:09Z</time>
<ele>31.75</ele>
<name><![CDATA[Point 69]]></name>
</wpt>
<wpt lat="25.027275" lon="121.516388">
<time>2008-12-21T23:46:14Z</time>
<ele>31.87</ele>
<name><![CDATA[Point 70]]></name>
</wpt>
<wpt lat="25.027275" lon="121.516380">
<time>2008-12-21T23:46:19Z</time>
<ele>32.05</ele>
<name><![CDATA[Point 71]]></name>
</wpt>
<wpt lat="25.027275" lon="121.516373">
<time>2008-12-21T23:46:24Z</time>
<ele>32.18</ele>
<name><![CDATA[Point 72]]></name>
</wpt>
<wpt lat="25.027275" lon="121.516373">
<time>2008-12-21T23:46:29Z</time>
<ele>32.21</ele>
<name><![CDATA[Point 73]]></name>
</wpt>
<wpt lat="25.027275" lon="121.516373">
<time>2008-12-21T23:46:34Z</time>
<ele>32.18</ele>
<name><![CDATA[Point 74]]></name>
</wpt>
<wpt lat="25.027279" lon="121.516365">
<time>2008-12-21T23:46:39Z</time>
<ele>32.11</ele>
<name><![CDATA[Point 75]]></name>
</wpt>
<wpt lat="25.027348" lon="121.516266">
<time>2008-12-21T23:46:44Z</time>
<ele>32.20</ele>
<name><![CDATA[Point 76]]></name>
</wpt>
<wpt lat="25.027452" lon="121.516060">
<time>2008-12-21T23:46:49Z</time>
<ele>31.41</ele>
<name><![CDATA[Point 77]]></name>
</wpt>
<wpt lat="25.027660" lon="121.516006">
<time>2008-12-21T23:46:54Z</time>
<ele>31.11</ele>
<name><![CDATA[Point 78]]></name>
</wpt>
<wpt lat="25.027937" lon="121.515915">
<time>2008-12-21T23:46:59Z</time>
<ele>30.49</ele>
<name><![CDATA[Point 79]]></name>
</wpt>
<wpt lat="25.028194" lon="121.515793">
<time>2008-12-21T23:47:04Z</time>
<ele>30.81</ele>
<name><![CDATA[Point 80]]></name>
</wpt>
<wpt lat="25.028473" lon="121.515717">
<time>2008-12-21T23:47:09Z</time>
<ele>30.43</ele>
<name><![CDATA[Point 81]]></name>
</wpt>
<wpt lat="25.028740" lon="121.515602">
<time>2008-12-21T23:47:14Z</time>
<ele>30.56</ele>
<name><![CDATA[Point 82]]></name>
</wpt>
<wpt lat="25.028999" lon="121.515503">
<time>2008-12-21T23:47:19Z</time>
<ele>30.78</ele>
<name><![CDATA[Point 83]]></name>
</wpt>
<wpt lat="25.029202" lon="121.515411">
<time>2008-12-21T23:47:24Z</time>
<ele>30.61</ele>
<name><![CDATA[Point 84]]></name>
</wpt>
<wpt lat="25.029354" lon="121.515366">
<time>2008-12-21T23:47:29Z</time>
<ele>30.40</ele>
<name><![CDATA[Point 85]]></name>
</wpt>
<wpt lat="25.029533" lon="121.515366">
<time>2008-12-21T23:47:34Z</time>
<ele>30.69</ele>
<name><![CDATA[Point 86]]></name>
</wpt>
<wpt lat="25.029724" lon="121.515312">
<time>2008-12-21T23:47:39Z</time>
<ele>24.37</ele>
<name><![CDATA[Point 87]]></name>
</wpt>
<wpt lat="25.029768" lon="121.515266">
<time>2008-12-21T23:47:44Z</time>
<ele>26.14</ele>
<name><![CDATA[Point 88]]></name>
</wpt>
<wpt lat="25.029772" lon="121.515266">
<time>2008-12-21T23:47:49Z</time>
<ele>26.14</ele>
<name><![CDATA[Point 89]]></name>
</wpt>
<wpt lat="25.029776" lon="121.515266">
<time>2008-12-21T23:47:54Z</time>
<ele>26.11</ele>
<name><![CDATA[Point 90]]></name>
</wpt>
<wpt lat="25.029795" lon="121.515251">
<time>2008-12-21T23:47:59Z</time>
<ele>26.00</ele>
<name><![CDATA[Point 91]]></name>
</wpt>
<wpt lat="25.029926" lon="121.515251">
<time>2008-12-21T23:48:04Z</time>
<ele>25.47</ele>
<name><![CDATA[Point 92]]></name>
</wpt>
<wpt lat="25.030123" lon="121.515175">
<time>2008-12-21T23:48:09Z</time>
<ele>25.14</ele>
<name><![CDATA[Point 93]]></name>
</wpt>
<wpt lat="25.030371" lon="121.515099">
<time>2008-12-21T23:48:14Z</time>
<ele>21.56</ele>
<name><![CDATA[Point 94]]></name>
</wpt>
<wpt lat="25.030582" lon="121.514992">
<time>2008-12-21T23:48:19Z</time>
<ele>20.47</ele>
<name><![CDATA[Point 95]]></name>
</wpt>
<wpt lat="25.030855" lon="121.514946">
<time>2008-12-21T23:48:24Z</time>
<ele>18.63</ele>
<name><![CDATA[Point 96]]></name>
</wpt>
<wpt lat="25.031078" lon="121.514870">
<time>2008-12-21T23:48:29Z</time>
<ele>16.82</ele>
<name><![CDATA[Point 97]]></name>
</wpt>
<wpt lat="25.031279" lon="121.514740">
<time>2008-12-21T23:48:34Z</time>
<ele>15.61</ele>
<name><![CDATA[Point 98]]></name>
</wpt>
<wpt lat="25.031504" lon="121.514603">
<time>2008-12-21T23:48:39Z</time>
<ele>14.49</ele>
<name><![CDATA[Point 99]]></name>
</wpt>
<wpt lat="25.031815" lon="121.514465">
<time>2008-12-21T23:48:44Z</time>
<ele>13.77</ele>
<name><![CDATA[Point 100]]></name>
</wpt>
<wpt lat="25.032156" lon="121.514267">
<time>2008-12-21T23:48:49Z</time>
<ele>14.28</ele>
<name><![CDATA[Point 101]]></name>
</wpt>
<wpt lat="25.032509" lon="121.514038">
<time>2008-12-21T23:48:54Z</time>
<ele>16.15</ele>
<name><![CDATA[Point 102]]></name>
</wpt>
<wpt lat="25.032835" lon="121.513817">
<time>2008-12-21T23:48:59Z</time>
<ele>15.05</ele>
<name><![CDATA[Point 103]]></name>
</wpt>
<wpt lat="25.033115" lon="121.513710">
<time>2008-12-21T23:49:04Z</time>
<ele>15.12</ele>
<name><![CDATA[Point 104]]></name>
</wpt>
<wpt lat="25.033342" lon="121.513611">
<time>2008-12-21T23:49:09Z</time>
<ele>12.99</ele>
<name><![CDATA[Point 105]]></name>
</wpt>
<wpt lat="25.033628" lon="121.513412">
<time>2008-12-21T23:49:14Z</time>
<ele>13.12</ele>
<name><![CDATA[Point 106]]></name>
</wpt>
<wpt lat="25.033928" lon="121.513237">
<time>2008-12-21T23:49:19Z</time>
<ele>12.45</ele>
<name><![CDATA[Point 107]]></name>
</wpt>
<wpt lat="25.034212" lon="121.513069">
<time>2008-12-21T23:49:24Z</time>
<ele>11.49</ele>
<name><![CDATA[Point 108]]></name>
</wpt>
<wpt lat="25.034533" lon="121.512878">
<time>2008-12-21T23:49:29Z</time>
<ele>11.37</ele>
<name><![CDATA[Point 109]]></name>
</wpt>
<wpt lat="25.034906" lon="121.512657">
<time>2008-12-21T23:49:34Z</time>
<ele>10.36</ele>
<name><![CDATA[Point 110]]></name>
</wpt>
<wpt lat="25.035341" lon="121.512543">
<time>2008-12-21T23:49:39Z</time>
<ele>10.26</ele>
<name><![CDATA[Point 111]]></name>
</wpt>
<wpt lat="25.035748" lon="121.512566">
<time>2008-12-21T23:49:44Z</time>
<ele>11.05</ele>
<name><![CDATA[Point 112]]></name>
</wpt>
<wpt lat="25.036102" lon="121.512604">
<time>2008-12-21T23:49:49Z</time>
<ele>12.02</ele>
<name><![CDATA[Point 113]]></name>
</wpt>
<wpt lat="25.036413" lon="121.512627">
<time>2008-12-21T23:49:54Z</time>
<ele>17.51</ele>
<name><![CDATA[Point 114]]></name>
</wpt>
<wpt lat="25.036682" lon="121.512596">
<time>2008-12-21T23:49:59Z</time>
<ele>24.33</ele>
<name><![CDATA[Point 115]]></name>
</wpt>
<wpt lat="25.036932" lon="121.512543">
<time>2008-12-21T23:50:04Z</time>
<ele>30.76</ele>
<name><![CDATA[Point 116]]></name>
</wpt>
<wpt lat="25.037178" lon="121.512573">
<time>2008-12-21T23:50:09Z</time>
<ele>40.39</ele>
<name><![CDATA[Point 117]]></name>
</wpt>
<wpt lat="25.037397" lon="121.512566">
<time>2008-12-21T23:50:14Z</time>
<ele>45.47</ele>
<name><![CDATA[Point 118]]></name>
</wpt>
<wpt lat="25.037617" lon="121.512558">
<time>2008-12-21T23:50:19Z</time>
<ele>42.70</ele>
<name><![CDATA[Point 119]]></name>
</wpt>
<wpt lat="25.037912" lon="121.512726">
<time>2008-12-21T23:50:24Z</time>
<ele>23.69</ele>
<name><![CDATA[Point 120]]></name>
</wpt>
<wpt lat="25.038061" lon="121.512741">
<time>2008-12-21T23:50:29Z</time>
<ele>27.26</ele>
<name><![CDATA[Point 121]]></name>
</wpt>
<wpt lat="25.038187" lon="121.512764">
<time>2008-12-21T23:50:34Z</time>
<ele>24.39</ele>
<name><![CDATA[Point 122]]></name>
</wpt>
<wpt lat="25.038198" lon="121.512802">
<time>2008-12-21T23:50:39Z</time>
<ele>21.03</ele>
<name><![CDATA[Point 123]]></name>
</wpt>
<wpt lat="25.038200" lon="121.512802">
<time>2008-12-21T23:50:44Z</time>
<ele>19.48</ele>
<name><![CDATA[Point 124]]></name>
</wpt>
<wpt lat="25.038202" lon="121.512802">
<time>2008-12-21T23:50:49Z</time>
<ele>17.44</ele>
<name><![CDATA[Point 125]]></name>
</wpt>
<wpt lat="25.038206" lon="121.512802">
<time>2008-12-21T23:50:54Z</time>
<ele>14.89</ele>
<name><![CDATA[Point 126]]></name>
</wpt>
<wpt lat="25.038214" lon="121.512802">
<time>2008-12-21T23:50:59Z</time>
<ele>11.28</ele>
<name><![CDATA[Point 127]]></name>
</wpt>
<wpt lat="25.038221" lon="121.512802">
<time>2008-12-21T23:51:04Z</time>
<ele>5.88</ele>
<name><![CDATA[Point 128]]></name>
</wpt>
<wpt lat="25.038225" lon="121.512802">
<time>2008-12-21T23:51:09Z</time>
<ele>1.38</ele>
<name><![CDATA[Point 129]]></name>
</wpt>
<wpt lat="25.038330" lon="121.512794">
<time>2008-12-21T23:51:14Z</time>
<ele>0.49</ele>
<name><![CDATA[Point 130]]></name>
</wpt>
<wpt lat="25.038586" lon="121.512817">
<time>2008-12-21T23:51:19Z</time>
<ele>-1.01</ele>
<name><![CDATA[Point 131]]></name>
</wpt>
<wpt lat="25.038881" lon="121.512886">
<time>2008-12-21T23:51:24Z</time>
<ele>-3.31</ele>
<name><![CDATA[Point 132]]></name>
</wpt>
<wpt lat="25.039268" lon="121.512917">
<time>2008-12-21T23:51:29Z</time>
<ele>-1.81</ele>
<name><![CDATA[Point 133]]></name>
</wpt>
<wpt lat="25.039690" lon="121.512947">
<time>2008-12-21T23:51:34Z</time>
<ele>0.99</ele>
<name><![CDATA[Point 134]]></name>
</wpt>
<wpt lat="25.040127" lon="121.513031">
<time>2008-12-21T23:51:39Z</time>
<ele>3.77</ele>
<name><![CDATA[Point 135]]></name>
</wpt>
<wpt lat="25.040552" lon="121.513062">
<time>2008-12-21T23:51:44Z</time>
<ele>7.34</ele>
<name><![CDATA[Point 136]]></name>
</wpt>
<wpt lat="25.040972" lon="121.513115">
<time>2008-12-21T23:51:49Z</time>
<ele>10.55</ele>
<name><![CDATA[Point 137]]></name>
</wpt>
<wpt lat="25.041348" lon="121.513138">
<time>2008-12-21T23:51:54Z</time>
<ele>12.01</ele>
<name><![CDATA[Point 138]]></name>
</wpt>
<wpt lat="25.041681" lon="121.513123">
<time>2008-12-21T23:51:59Z</time>
<ele>17.30</ele>
<name><![CDATA[Point 139]]></name>
</wpt>
<wpt lat="25.041981" lon="121.513145">
<time>2008-12-21T23:52:04Z</time>
<ele>22.79</ele>
<name><![CDATA[Point 140]]></name>
</wpt>
<wpt lat="25.042242" lon="121.513237">
<time>2008-12-21T23:52:09Z</time>
<ele>23.79</ele>
<name><![CDATA[Point 141]]></name>
</wpt>
<wpt lat="25.042423" lon="121.513138">
<time>2008-12-21T23:52:14Z</time>
<ele>32.85</ele>
<name><![CDATA[Point 142]]></name>
</wpt>
<wpt lat="25.042715" lon="121.513130">
<time>2008-12-21T23:52:19Z</time>
<ele>41.34</ele>
<name><![CDATA[Point 143]]></name>
</wpt>
<wpt lat="25.043016" lon="121.513145">
<time>2008-12-21T23:52:24Z</time>
<ele>49.29</ele>
<name><![CDATA[Point 144]]></name>
</wpt>
<wpt lat="25.043278" lon="121.513237">
<time>2008-12-21T23:52:29Z</time>
<ele>50.42</ele>
<name><![CDATA[Point 145]]></name>
</wpt>
<wpt lat="25.043318" lon="121.513519">
<time>2008-12-21T23:52:34Z</time>
<ele>37.57</ele>
<name><![CDATA[Point 146]]></name>
</wpt>
<wpt lat="25.043331" lon="121.513855">
<time>2008-12-21T23:52:39Z</time>
<ele>30.78</ele>
<name><![CDATA[Point 147]]></name>
</wpt>
<wpt lat="25.043299" lon="121.514198">
<time>2008-12-21T23:52:44Z</time>
<ele>26.30</ele>
<name><![CDATA[Point 148]]></name>
</wpt>
<wpt lat="25.043293" lon="121.514519">
<time>2008-12-21T23:52:49Z</time>
<ele>20.98</ele>
<name><![CDATA[Point 149]]></name>
</wpt>
<wpt lat="25.043318" lon="121.514816">
<time>2008-12-21T23:52:54Z</time>
<ele>17.69</ele>
<name><![CDATA[Point 150]]></name>
</wpt>
<wpt lat="25.043398" lon="121.515053">
<time>2008-12-21T23:52:59Z</time>
<ele>13.35</ele>
<name><![CDATA[Point 151]]></name>
</wpt>
<wpt lat="25.043694" lon="121.515060">
<time>2008-12-21T23:53:04Z</time>
<ele>12.88</ele>
<name><![CDATA[Point 152]]></name>
</wpt>
<wpt lat="25.044048" lon="121.515007">
<time>2008-12-21T23:53:09Z</time>
<ele>11.82</ele>
<name><![CDATA[Point 153]]></name>
</wpt>
<wpt lat="25.044420" lon="121.514946">
<time>2008-12-21T23:53:14Z</time>
<ele>13.36</ele>
<name><![CDATA[Point 154]]></name>
</wpt>
<wpt lat="25.044672" lon="121.514900">
<time>2008-12-21T23:53:19Z</time>
<ele>13.71</ele>
<name><![CDATA[Point 155]]></name>
</wpt>
<wpt lat="25.044880" lon="121.514740">
<time>2008-12-21T23:53:24Z</time>
<ele>15.06</ele>
<name><![CDATA[Point 156]]></name>
</wpt>
<wpt lat="25.044949" lon="121.514671">
<time>2008-12-21T23:53:29Z</time>
<ele>19.17</ele>
<name><![CDATA[Point 157]]></name>
</wpt>
<wpt lat="25.044949" lon="121.514671">
<time>2008-12-21T23:53:34Z</time>
<ele>20.90</ele>
<name><![CDATA[Point 158]]></name>
</wpt>
<wpt lat="25.044952" lon="121.514671">
<time>2008-12-21T23:53:39Z</time>
<ele>20.96</ele>
<name><![CDATA[Point 159]]></name>
</wpt>
<wpt lat="25.044950" lon="121.514671">
<time>2008-12-21T23:53:44Z</time>
<ele>21.01</ele>
<name><![CDATA[Point 160]]></name>
</wpt>
<wpt lat="25.044945" lon="121.514664">
<time>2008-12-21T23:53:49Z</time>
<ele>21.10</ele>
<name><![CDATA[Point 161]]></name>
</wpt>
<wpt lat="25.044964" lon="121.514671">
<time>2008-12-21T23:53:54Z</time>
<ele>21.19</ele>
<name><![CDATA[Point 162]]></name>
</wpt>
<wpt lat="25.045134" lon="121.514709">
<time>2008-12-21T23:53:59Z</time>
<ele>22.54</ele>
<name><![CDATA[Point 163]]></name>
</wpt>
<wpt lat="25.045240" lon="121.514824">
<time>2008-12-21T23:54:04Z</time>
<ele>30.42</ele>
<name><![CDATA[Point 164]]></name>
</wpt>
<wpt lat="25.045315" lon="121.515007">
<time>2008-12-21T23:54:09Z</time>
<ele>28.27</ele>
<name><![CDATA[Point 165]]></name>
</wpt>
<wpt lat="25.045357" lon="121.514999">
<time>2008-12-21T23:54:14Z</time>
<ele>28.33</ele>
<name><![CDATA[Point 166]]></name>
</wpt>
<wpt lat="25.045410" lon="121.515015">
<time>2008-12-21T23:54:19Z</time>
<ele>29.42</ele>
<name><![CDATA[Point 167]]></name>
</wpt>
<wpt lat="25.045614" lon="121.515038">
<time>2008-12-21T23:54:24Z</time>
<ele>32.53</ele>
<name><![CDATA[Point 168]]></name>
</wpt>
<wpt lat="25.045889" lon="121.515121">
<time>2008-12-21T23:54:29Z</time>
<ele>36.22</ele>
<name><![CDATA[Point 169]]></name>
</wpt>
<wpt lat="25.046213" lon="121.515236">
<time>2008-12-21T23:54:34Z</time>
<ele>41.56</ele>
<name><![CDATA[Point 170]]></name>
</wpt>
<wpt lat="25.046295" lon="121.515251">
<time>2008-12-21T23:54:39Z</time>
<ele>45.41</ele>
<name><![CDATA[Point 171]]></name>
</wpt>
<wpt lat="25.046326" lon="121.515236">
<time>2008-12-21T23:54:44Z</time>
<ele>46.15</ele>
<name><![CDATA[Point 172]]></name>
</wpt>
<wpt lat="25.046328" lon="121.515228">
<time>2008-12-21T23:54:49Z</time>
<ele>46.47</ele>
<name><![CDATA[Point 173]]></name>
</wpt>
<wpt lat="25.046328" lon="121.515228">
<time>2008-12-21T23:54:54Z</time>
<ele>46.50</ele>
<name><![CDATA[Point 174]]></name>
</wpt>
<wpt lat="25.046329" lon="121.515228">
<time>2008-12-21T23:54:59Z</time>
<ele>46.54</ele>
<name><![CDATA[Point 175]]></name>
</wpt>
<wpt lat="25.046329" lon="121.515228">
<time>2008-12-21T23:55:04Z</time>
<ele>46.55</ele>
<name><![CDATA[Point 176]]></name>
</wpt>
<wpt lat="25.046331" lon="121.515228">
<time>2008-12-21T23:55:09Z</time>
<ele>46.52</ele>
<name><![CDATA[Point 177]]></name>
</wpt>
<wpt lat="25.046331" lon="121.515228">
<time>2008-12-21T23:55:14Z</time>
<ele>46.52</ele>
<name><![CDATA[Point 178]]></name>
</wpt>
<wpt lat="25.046331" lon="121.515228">
<time>2008-12-21T23:55:19Z</time>
<ele>46.57</ele>
<name><![CDATA[Point 179]]></name>
</wpt>
<wpt lat="25.046331" lon="121.515228">
<time>2008-12-21T23:55:24Z</time>
<ele>46.59</ele>
<name><![CDATA[Point 180]]></name>
</wpt>
<wpt lat="25.046333" lon="121.515228">
<time>2008-12-21T23:55:29Z</time>
<ele>46.75</ele>
<name><![CDATA[Point 181]]></name>
</wpt>
<wpt lat="25.046337" lon="121.515228">
<time>2008-12-21T23:55:34Z</time>
<ele>47.08</ele>
<name><![CDATA[Point 182]]></name>
</wpt>
<wpt lat="25.046343" lon="121.515221">
<time>2008-12-21T23:55:39Z</time>
<ele>47.51</ele>
<name><![CDATA[Point 183]]></name>
</wpt>
<wpt lat="25.046354" lon="121.515228">
<time>2008-12-21T23:55:44Z</time>
<ele>47.69</ele>
<name><![CDATA[Point 184]]></name>
</wpt>
<wpt lat="25.046400" lon="121.515205">
<time>2008-12-21T23:55:49Z</time>
<ele>48.41</ele>
<name><![CDATA[Point 185]]></name>
</wpt>
<wpt lat="25.046621" lon="121.515205">
<time>2008-12-21T23:55:54Z</time>
<ele>51.26</ele>
<name><![CDATA[Point 186]]></name>
</wpt>
<wpt lat="25.046892" lon="121.515114">
<time>2008-12-21T23:55:59Z</time>
<ele>52.84</ele>
<name><![CDATA[Point 187]]></name>
</wpt>
<wpt lat="25.047092" lon="121.515053">
<time>2008-12-21T23:56:04Z</time>
<ele>51.71</ele>
<name><![CDATA[Point 188]]></name>
</wpt>
<wpt lat="25.047293" lon="121.515099">
<time>2008-12-21T23:56:09Z</time>
<ele>49.67</ele>
<name><![CDATA[Point 189]]></name>
</wpt>
<wpt lat="25.047455" lon="121.515221">
<time>2008-12-21T23:56:14Z</time>
<ele>36.53</ele>
<name><![CDATA[Point 190]]></name>
</wpt>
<wpt lat="25.047438" lon="121.515419">
<time>2008-12-21T23:56:19Z</time>
<ele>28.54</ele>
<name><![CDATA[Point 191]]></name>
</wpt>
<wpt lat="25.047417" lon="121.515663">
<time>2008-12-21T23:56:24Z</time>
<ele>27.15</ele>
<name><![CDATA[Point 192]]></name>
</wpt>
<wpt lat="25.047401" lon="121.515938">
<time>2008-12-21T23:56:29Z</time>
<ele>23.60</ele>
<name><![CDATA[Point 193]]></name>
</wpt>
<wpt lat="25.047411" lon="121.516090">
<time>2008-12-21T23:56:34Z</time>
<ele>21.22</ele>
<name><![CDATA[Point 194]]></name>
</wpt>
<wpt lat="25.047411" lon="121.516121">
<time>2008-12-21T23:56:39Z</time>
<ele>21.16</ele>
<name><![CDATA[Point 195]]></name>
</wpt>
<wpt lat="25.047432" lon="121.516159">
<time>2008-12-21T23:56:44Z</time>
<ele>21.57</ele>
<name><![CDATA[Point 196]]></name>
</wpt>
<wpt lat="25.047392" lon="121.516235">
<time>2008-12-21T23:56:49Z</time>
<ele>20.01</ele>
<name><![CDATA[Point 197]]></name>
</wpt>
<wpt lat="25.047318" lon="121.516258">
<time>2008-12-21T23:56:54Z</time>
<ele>18.79</ele>
<name><![CDATA[Point 198]]></name>
</wpt>
<wpt lat="25.047302" lon="121.516319">
<time>2008-12-21T23:56:59Z</time>
<ele>18.37</ele>
<name><![CDATA[Point 199]]></name>
</wpt>
<wpt lat="25.047283" lon="121.516396">
<time>2008-12-21T23:57:04Z</time>
<ele>18.17</ele>
<name><![CDATA[Point 200]]></name>
</wpt>
<wpt lat="25.047285" lon="121.516411">
<time>2008-12-21T23:57:09Z</time>
<ele>18.04</ele>
<name><![CDATA[Point 201]]></name>
</wpt>
<wpt lat="25.047272" lon="121.516396">
<time>2008-12-21T23:57:14Z</time>
<ele>17.92</ele>
<name><![CDATA[Point 202]]></name>
</wpt>
<wpt lat="25.047270" lon="121.516396">
<time>2008-12-21T23:57:19Z</time>
<ele>17.87</ele>
<name><![CDATA[Point 203]]></name>
</wpt>
<wpt lat="25.047272" lon="121.516388">
<time>2008-12-21T23:57:24Z</time>
<ele>17.84</ele>
<name><![CDATA[Point 204]]></name>
</wpt>
<wpt lat="25.047270" lon="121.516373">
<time>2008-12-21T23:57:29Z</time>
<ele>17.86</ele>
<name><![CDATA[Point 205]]></name>
</wpt>
<wpt lat="25.047270" lon="121.516365">
<time>2008-12-21T23:57:34Z</time>
<ele>17.84</ele>
<name><![CDATA[Point 206]]></name>
</wpt>
<wpt lat="25.047270" lon="121.516365">
<time>2008-12-21T23:57:39Z</time>
<ele>17.84</ele>
<name><![CDATA[Point 207]]></name>
</wpt>
<wpt lat="25.047272" lon="121.516357">
<time>2008-12-21T23:57:44Z</time>
<ele>17.84</ele>
<name><![CDATA[Point 208]]></name>
</wpt>
<wpt lat="25.047272" lon="121.516357">
<time>2008-12-21T23:57:49Z</time>
<ele>17.84</ele>
<name><![CDATA[Point 209]]></name>
</wpt>
<wpt lat="25.047272" lon="121.516357">
<time>2008-12-21T23:57:54Z</time>
<ele>17.84</ele>
<name><![CDATA[Point 210]]></name>
</wpt>
<wpt lat="25.047272" lon="121.516350">
<time>2008-12-21T23:57:59Z</time>
<ele>17.84</ele>
<name><![CDATA[Point 211]]></name>
</wpt>
<wpt lat="25.047264" lon="121.516350">
<time>2008-12-21T23:58:04Z</time>
<ele>17.85</ele>
<name><![CDATA[Point 212]]></name>
</wpt>
<wpt lat="25.047264" lon="121.516350">
<time>2008-12-21T23:58:09Z</time>
<ele>17.84</ele>
<name><![CDATA[Point 213]]></name>
</wpt>
<wpt lat="25.047264" lon="121.516342">
<time>2008-12-21T23:58:14Z</time>
<ele>17.83</ele>
<name><![CDATA[Point 214]]></name>
</wpt>
<wpt lat="25.047266" lon="121.516335">
<time>2008-12-21T23:58:19Z</time>
<ele>17.81</ele>
<name><![CDATA[Point 215]]></name>
</wpt>
<rte>
<name>Route</name>
<rtept lat="25.021961" lon="121.527161">
<time>2008-12-21T23:40:24Z</time>
<ele>-7.62</ele>
<name><![CDATA[Point 0]]></name>
</rtept>
<rtept lat="25.021996" lon="121.527191">
<time>2008-12-21T23:40:29Z</time>
<ele>-11.36</ele>
<name><![CDATA[Point 1]]></name>
</rtept>
<rtept lat="25.021999" lon="121.527199">
<time>2008-12-21T23:40:34Z</time>
<ele>-21.34</ele>
<name><![CDATA[Point 2]]></name>
</rtept>
<rtept lat="25.022028" lon="121.527214">
<time>2008-12-21T23:40:39Z</time>
<ele>-26.61</ele>
<name><![CDATA[Point 3]]></name>
</rtept>
<rtept lat="25.022017" lon="121.527161">
<time>2008-12-21T23:40:44Z</time>
<ele>-16.34</ele>
<name><![CDATA[Point 4]]></name>
</rtept>
<rtept lat="25.022165" lon="121.527016">
<time>2008-12-21T23:40:49Z</time>
<ele>-8.42</ele>
<name><![CDATA[Point 5]]></name>
</rtept>
<rtept lat="25.022337" lon="121.526840">
<time>2008-12-21T23:40:54Z</time>
<ele>-6.29</ele>
<name><![CDATA[Point 6]]></name>
</rtept>
<rtept lat="25.022434" lon="121.526695">
<time>2008-12-21T23:40:59Z</time>
<ele>-3.57</ele>
<name><![CDATA[Point 7]]></name>
</rtept>
<rtept lat="25.022552" lon="121.526543">
<time>2008-12-21T23:41:04Z</time>
<ele>-3.66</ele>
<name><![CDATA[Point 8]]></name>
</rtept>
<rtept lat="25.022617" lon="121.526550">
<time>2008-12-21T23:41:09Z</time>
<ele>-4.38</ele>
<name><![CDATA[Point 9]]></name>
</rtept>
<rtept lat="25.022861" lon="121.526382">
<time>2008-12-21T23:41:14Z</time>
<ele>-4.93</ele>
<name><![CDATA[Point 10]]></name>
</rtept>
<rtept lat="25.022968" lon="121.525620">
<time>2008-12-21T23:41:19Z</time>
<ele>-5.10</ele>
<name><![CDATA[Point 11]]></name>
</rtept>
<rtept lat="25.023211" lon="121.525337">
<time>2008-12-21T23:41:24Z</time>
<ele>6.80</ele>
<name><![CDATA[Point 12]]></name>
</rtept>
<rtept lat="25.023521" lon="121.525177">
<time>2008-12-21T23:41:29Z</time>
<ele>10.19</ele>
<name><![CDATA[Point 13]]></name>
</rtept>
<rtept lat="25.023787" lon="121.524918">
<time>2008-12-21T23:41:34Z</time>
<ele>11.27</ele>
<name><![CDATA[Point 14]]></name>
</rtept>
<rtept lat="25.024164" lon="121.524490">
<time>2008-12-21T23:41:39Z</time>
<ele>17.25</ele>
<name><![CDATA[Point 15]]></name>
</rtept>
<rtept lat="25.024458" lon="121.524269">
<time>2008-12-21T23:41:44Z</time>
<ele>19.62</ele>
<name><![CDATA[Point 16]]></name>
</rtept>
<rtept lat="25.024837" lon="121.524002">
<time>2008-12-21T23:41:49Z</time>
<ele>22.18</ele>
<name><![CDATA[Point 17]]></name>
</rtept>
<rtept lat="25.025110" lon="121.523750">
<time>2008-12-21T23:41:54Z</time>
<ele>23.66</ele>
<name><![CDATA[Point 18]]></name>
</rtept>
<rtept lat="25.025398" lon="121.523376">
<time>2008-12-21T23:41:59Z</time>
<ele>27.14</ele>
<name><![CDATA[Point 19]]></name>
</rtept>
<rtept lat="25.025690" lon="121.523293">
<time>2008-12-21T23:42:04Z</time>
<ele>34.91</ele>
<name><![CDATA[Point 20]]></name>
</rtept>
<rtept lat="25.026020" lon="121.523285">
<time>2008-12-21T23:42:09Z</time>
<ele>36.91</ele>
<name><![CDATA[Point 21]]></name>
</rtept>
<rtept lat="25.026318" lon="121.523079">
<time>2008-12-21T23:42:14Z</time>
<ele>36.77</ele>
<name><![CDATA[Point 22]]></name>
</rtept>
<rtept lat="25.026655" lon="121.522858">
<time>2008-12-21T23:42:19Z</time>
<ele>35.96</ele>
<name><![CDATA[Point 23]]></name>
</rtept>
<rtept lat="25.026882" lon="121.522614">
<time>2008-12-21T23:42:24Z</time>
<ele>34.78</ele>
<name><![CDATA[Point 24]]></name>
</rtept>
<rtept lat="25.027153" lon="121.522438">
<time>2008-12-21T23:42:29Z</time>
<ele>34.14</ele>
<name><![CDATA[Point 25]]></name>
</rtept>
<rtept lat="25.027313" lon="121.522270">
<time>2008-12-21T23:42:34Z</time>
<ele>33.84</ele>
<name><![CDATA[Point 26]]></name>
</rtept>
<rtept lat="25.027344" lon="121.522224">
<time>2008-12-21T23:42:39Z</time>
<ele>34.50</ele>
<name><![CDATA[Point 27]]></name>
</rtept>
<rtept lat="25.027332" lon="121.522224">
<time>2008-12-21T23:42:44Z</time>
<ele>34.10</ele>
<name><![CDATA[Point 28]]></name>
</rtept>
<rtept lat="25.027328" lon="121.522224">
<time>2008-12-21T23:42:49Z</time>
<ele>34.02</ele>
<name><![CDATA[Point 29]]></name>
</rtept>
<rtept lat="25.027327" lon="121.522224">
<time>2008-12-21T23:42:54Z</time>
<ele>33.99</ele>
<name><![CDATA[Point 30]]></name>
</rtept>
<rtept lat="25.027321" lon="121.522224">
<time>2008-12-21T23:42:59Z</time>
<ele>33.96</ele>
<name><![CDATA[Point 31]]></name>
</rtept>
<rtept lat="25.027317" lon="121.522224">
<time>2008-12-21T23:43:04Z</time>
<ele>33.95</ele>
<name><![CDATA[Point 32]]></name>
</rtept>
<rtept lat="25.027317" lon="121.522224">
<time>2008-12-21T23:43:09Z</time>
<ele>33.96</ele>
<name><![CDATA[Point 33]]></name>
</rtept>
<rtept lat="25.027321" lon="121.522224">
<time>2008-12-21T23:43:14Z</time>
<ele>33.97</ele>
<name><![CDATA[Point 34]]></name>
</rtept>
<rtept lat="25.027325" lon="121.522224">
<time>2008-12-21T23:43:19Z</time>
<ele>33.99</ele>
<name><![CDATA[Point 35]]></name>
</rtept>
<rtept lat="25.027306" lon="121.522179">
<time>2008-12-21T23:43:24Z</time>
<ele>34.08</ele>
<name><![CDATA[Point 36]]></name>
</rtept>
<rtept lat="25.027212" lon="121.522026">
<time>2008-12-21T23:43:29Z</time>
<ele>33.83</ele>
<name><![CDATA[Point 37]]></name>
</rtept>
<rtept lat="25.026983" lon="121.521835">
<time>2008-12-21T23:43:34Z</time>
<ele>32.23</ele>
<name><![CDATA[Point 38]]></name>
</rtept>
<rtept lat="25.026917" lon="121.521515">
<time>2008-12-21T23:43:39Z</time>
<ele>31.58</ele>
<name><![CDATA[Point 39]]></name>
</rtept>
<rtept lat="25.026869" lon="121.521225">
<time>2008-12-21T23:43:44Z</time>
<ele>30.57</ele>
<name><![CDATA[Point 40]]></name>
</rtept>
<rtept lat="25.026793" lon="121.520950">
<time>2008-12-21T23:43:49Z</time>
<ele>29.83</ele>
<name><![CDATA[Point 41]]></name>
</rtept>
<rtept lat="25.026762" lon="121.520607">
<time>2008-12-21T23:43:54Z</time>
<ele>28.68</ele>
<name><![CDATA[Point 42]]></name>
</rtept>
<rtept lat="25.026669" lon="121.520248">
<time>2008-12-21T23:43:59Z</time>
<ele>27.37</ele>
<name><![CDATA[Point 43]]></name>
</rtept>
<rtept lat="25.026596" lon="121.519920">
<time>2008-12-21T23:44:04Z</time>
<ele>26.18</ele>
<name><![CDATA[Point 44]]></name>
</rtept>
<rtept lat="25.026499" lon="121.519608">
<time>2008-12-21T23:44:09Z</time>
<ele>27.32</ele>
<name><![CDATA[Point 45]]></name>
</rtept>
<rtept lat="25.026501" lon="121.519173">
<time>2008-12-21T23:44:14Z</time>
<ele>28.80</ele>
<name><![CDATA[Point 46]]></name>
</rtept>
<rtept lat="25.026659" lon="121.518936">
<time>2008-12-21T23:44:19Z</time>
<ele>23.37</ele>
<name><![CDATA[Point 47]]></name>
</rtept>
<rtept lat="25.026783" lon="121.518646">
<time>2008-12-21T23:44:24Z</time>
<ele>24.33</ele>
<name><![CDATA[Point 48]]></name>
</rtept>
<rtept lat="25.026892" lon="121.518288">
<time>2008-12-21T23:44:29Z</time>
<ele>25.48</ele>
<name><![CDATA[Point 49]]></name>
</rtept>
<rtept lat="25.027033" lon="121.517960">
<time>2008-12-21T23:44:34Z</time>
<ele>26.47</ele>
<name><![CDATA[Point 50]]></name>
</rtept>
<rtept lat="25.027079" lon="121.517632">
<time>2008-12-21T23:44:39Z</time>
<ele>27.13</ele>
<name><![CDATA[Point 51]]></name>
</rtept>
<rtept lat="25.027109" lon="121.517349">
<time>2008-12-21T23:44:44Z</time>
<ele>26.07</ele>
<name><![CDATA[Point 52]]></name>
</rtept>
<rtept lat="25.027193" lon="121.516998">
<time>2008-12-21T23:44:49Z</time>
<ele>25.25</ele>
<name><![CDATA[Point 53]]></name>
</rtept>
<rtept lat="25.027296" lon="121.516739">
<time>2008-12-21T23:44:54Z</time>
<ele>26.08</ele>
<name><![CDATA[Point 54]]></name>
</rtept>
<rtept lat="25.027319" lon="121.516518">
<time>2008-12-21T23:44:59Z</time>
<ele>28.92</ele>
<name><![CDATA[Point 55]]></name>
</rtept>
<rtept lat="25.027300" lon="121.516403">
<time>2008-12-21T23:45:04Z</time>
<ele>30.08</ele>
<name><![CDATA[Point 56]]></name>
</rtept>
<rtept lat="25.027288" lon="121.516380">
<time>2008-12-21T23:45:09Z</time>
<ele>30.54</ele>
<name><![CDATA[Point 57]]></name>
</rtept>
<rtept lat="25.027288" lon="121.516380">
<time>2008-12-21T23:45:14Z</time>
<ele>31.05</ele>
<name><![CDATA[Point 58]]></name>
</rtept>
<rtept lat="25.027287" lon="121.516388">
<time>2008-12-21T23:45:19Z</time>
<ele>31.22</ele>
<name><![CDATA[Point 59]]></name>
</rtept>
<rtept lat="25.027285" lon="121.516388">
<time>2008-12-21T23:45:24Z</time>
<ele>31.31</ele>
<name><![CDATA[Point 60]]></name>
</rtept>
<rtept lat="25.027285" lon="121.516388">
<time>2008-12-21T23:45:29Z</time>
<ele>31.36</ele>
<name><![CDATA[Point 61]]></name>
</rtept>
<rtept lat="25.027283" lon="121.516388">
<time>2008-12-21T23:45:34Z</time>
<ele>31.39</ele>
<name><![CDATA[Point 62]]></name>
</rtept>
<rtept lat="25.027277" lon="121.516403">
<time>2008-12-21T23:45:39Z</time>
<ele>31.43</ele>
<name><![CDATA[Point 63]]></name>
</rtept>
<rtept lat="25.027275" lon="121.516403">
<time>2008-12-21T23:45:44Z</time>
<ele>31.46</ele>
<name><![CDATA[Point 64]]></name>
</rtept>
<rtept lat="25.027273" lon="121.516403">
<time>2008-12-21T23:45:49Z</time>
<ele>31.47</ele>
<name><![CDATA[Point 65]]></name>
</rtept>
<rtept lat="25.027273" lon="121.516396">
<time>2008-12-21T23:45:54Z</time>
<ele>31.51</ele>
<name><![CDATA[Point 66]]></name>
</rtept>
<rtept lat="25.027273" lon="121.516396">
<time>2008-12-21T23:45:59Z</time>
<ele>31.59</ele>
<name><![CDATA[Point 67]]></name>
</rtept>
<rtept lat="25.027273" lon="121.516396">
<time>2008-12-21T23:46:04Z</time>
<ele>31.66</ele>
<name><![CDATA[Point 68]]></name>
</rtept>
<rtept lat="25.027273" lon="121.516388">
<time>2008-12-21T23:46:09Z</time>
<ele>31.75</ele>
<name><![CDATA[Point 69]]></name>
</rtept>
<rtept lat="25.027275" lon="121.516388">
<time>2008-12-21T23:46:14Z</time>
<ele>31.87</ele>
<name><![CDATA[Point 70]]></name>
</rtept>
<rtept lat="25.027275" lon="121.516380">
<time>2008-12-21T23:46:19Z</time>
<ele>32.05</ele>
<name><![CDATA[Point 71]]></name>
</rtept>
<rtept lat="25.027275" lon="121.516373">
<time>2008-12-21T23:46:24Z</time>
<ele>32.18</ele>
<name><![CDATA[Point 72]]></name>
</rtept>
<rtept lat="25.027275" lon="121.516373">
<time>2008-12-21T23:46:29Z</time>
<ele>32.21</ele>
<name><![CDATA[Point 73]]></name>
</rtept>
<rtept lat="25.027275" lon="121.516373">
<time>2008-12-21T23:46:34Z</time>
<ele>32.18</ele>
<name><![CDATA[Point 74]]></name>
</rtept>
<rtept lat="25.027279" lon="121.516365">
<time>2008-12-21T23:46:39Z</time>
<ele>32.11</ele>
<name><![CDATA[Point 75]]></name>
</rtept>
<rtept lat="25.027348" lon="121.516266">
<time>2008-12-21T23:46:44Z</time>
<ele>32.20</ele>
<name><![CDATA[Point 76]]></name>
</rtept>
<rtept lat="25.027452" lon="121.516060">
<time>2008-12-21T23:46:49Z</time>
<ele>31.41</ele>
<name><![CDATA[Point 77]]></name>
</rtept>
<rtept lat="25.027660" lon="121.516006">
<time>2008-12-21T23:46:54Z</time>
<ele>31.11</ele>
<name><![CDATA[Point 78]]></name>
</rtept>
<rtept lat="25.027937" lon="121.515915">
<time>2008-12-21T23:46:59Z</time>
<ele>30.49</ele>
<name><![CDATA[Point 79]]></name>
</rtept>
<rtept lat="25.028194" lon="121.515793">
<time>2008-12-21T23:47:04Z</time>
<ele>30.81</ele>
<name><![CDATA[Point 80]]></name>
</rtept>
<rtept lat="25.028473" lon="121.515717">
<time>2008-12-21T23:47:09Z</time>
<ele>30.43</ele>
<name><![CDATA[Point 81]]></name>
</rtept>
<rtept lat="25.028740" lon="121.515602">
<time>2008-12-21T23:47:14Z</time>
<ele>30.56</ele>
<name><![CDATA[Point 82]]></name>
</rtept>
<rtept lat="25.028999" lon="121.515503">
<time>2008-12-21T23:47:19Z</time>
<ele>30.78</ele>
<name><![CDATA[Point 83]]></name>
</rtept>
<rtept lat="25.029202" lon="121.515411">
<time>2008-12-21T23:47:24Z</time>
<ele>30.61</ele>
<name><![CDATA[Point 84]]></name>
</rtept>
<rtept lat="25.029354" lon="121.515366">
<time>2008-12-21T23:47:29Z</time>
<ele>30.40</ele>
<name><![CDATA[Point 85]]></name>
</rtept>
<rtept lat="25.029533" lon="121.515366">
<time>2008-12-21T23:47:34Z</time>
<ele>30.69</ele>
<name><![CDATA[Point 86]]></name>
</rtept>
<rtept lat="25.029724" lon="121.515312">
<time>2008-12-21T23:47:39Z</time>
<ele>24.37</ele>
<name><![CDATA[Point 87]]></name>
</rtept>
<rtept lat="25.029768" lon="121.515266">
<time>2008-12-21T23:47:44Z</time>
<ele>26.14</ele>
<name><![CDATA[Point 88]]></name>
</rtept>
<rtept lat="25.029772" lon="121.515266">
<time>2008-12-21T23:47:49Z</time>
<ele>26.14</ele>
<name><![CDATA[Point 89]]></name>
</rtept>
<rtept lat="25.029776" lon="121.515266">
<time>2008-12-21T23:47:54Z</time>
<ele>26.11</ele>
<name><![CDATA[Point 90]]></name>
</rtept>
<rtept lat="25.029795" lon="121.515251">
<time>2008-12-21T23:47:59Z</time>
<ele>26.00</ele>
<name><![CDATA[Point 91]]></name>
</rtept>
<rtept lat="25.029926" lon="121.515251">
<time>2008-12-21T23:48:04Z</time>
<ele>25.47</ele>
<name><![CDATA[Point 92]]></name>
</rtept>
<rtept lat="25.030123" lon="121.515175">
<time>2008-12-21T23:48:09Z</time>
<ele>25.14</ele>
<name><![CDATA[Point 93]]></name>
</rtept>
<rtept lat="25.030371" lon="121.515099">
<time>2008-12-21T23:48:14Z</time>
<ele>21.56</ele>
<name><![CDATA[Point 94]]></name>
</rtept>
<rtept lat="25.030582" lon="121.514992">
<time>2008-12-21T23:48:19Z</time>
<ele>20.47</ele>
<name><![CDATA[Point 95]]></name>
</rtept>
<rtept lat="25.030855" lon="121.514946">
<time>2008-12-21T23:48:24Z</time>
<ele>18.63</ele>
<name><![CDATA[Point 96]]></name>
</rtept>
<rtept lat="25.031078" lon="121.514870">
<time>2008-12-21T23:48:29Z</time>
<ele>16.82</ele>
<name><![CDATA[Point 97]]></name>
</rtept>
<rtept lat="25.031279" lon="121.514740">
<time>2008-12-21T23:48:34Z</time>
<ele>15.61</ele>
<name><![CDATA[Point 98]]></name>
</rtept>
<rtept lat="25.031504" lon="121.514603">
<time>2008-12-21T23:48:39Z</time>
<ele>14.49</ele>
<name><![CDATA[Point 99]]></name>
</rtept>
<rtept lat="25.031815" lon="121.514465">
<time>2008-12-21T23:48:44Z</time>
<ele>13.77</ele>
<name><![CDATA[Point 100]]></name>
</rtept>
<rtept lat="25.032156" lon="121.514267">
<time>2008-12-21T23:48:49Z</time>
<ele>14.28</ele>
<name><![CDATA[Point 101]]></name>
</rtept>
<rtept lat="25.032509" lon="121.514038">
<time>2008-12-21T23:48:54Z</time>
<ele>16.15</ele>
<name><![CDATA[Point 102]]></name>
</rtept>
<rtept lat="25.032835" lon="121.513817">
<time>2008-12-21T23:48:59Z</time>
<ele>15.05</ele>
<name><![CDATA[Point 103]]></name>
</rtept>
<rtept lat="25.033115" lon="121.513710">
<time>2008-12-21T23:49:04Z</time>
<ele>15.12</ele>
<name><![CDATA[Point 104]]></name>
</rtept>
<rtept lat="25.033342" lon="121.513611">
<time>2008-12-21T23:49:09Z</time>
<ele>12.99</ele>
<name><![CDATA[Point 105]]></name>
</rtept>
<rtept lat="25.033628" lon="121.513412">
<time>2008-12-21T23:49:14Z</time>
<ele>13.12</ele>
<name><![CDATA[Point 106]]></name>
</rtept>
<rtept lat="25.033928" lon="121.513237">
<time>2008-12-21T23:49:19Z</time>
<ele>12.45</ele>
<name><![CDATA[Point 107]]></name>
</rtept>
<rtept lat="25.034212" lon="121.513069">
<time>2008-12-21T23:49:24Z</time>
<ele>11.49</ele>
<name><![CDATA[Point 108]]></name>
</rtept>
<rtept lat="25.034533" lon="121.512878">
<time>2008-12-21T23:49:29Z</time>
<ele>11.37</ele>
<name><![CDATA[Point 109]]></name>
</rtept>
<rtept lat="25.034906" lon="121.512657">
<time>2008-12-21T23:49:34Z</time>
<ele>10.36</ele>
<name><![CDATA[Point 110]]></name>
</rtept>
<rtept lat="25.035341" lon="121.512543">
<time>2008-12-21T23:49:39Z</time>
<ele>10.26</ele>
<name><![CDATA[Point 111]]></name>
</rtept>
<rtept lat="25.035748" lon="121.512566">
<time>2008-12-21T23:49:44Z</time>
<ele>11.05</ele>
<name><![CDATA[Point 112]]></name>
</rtept>
<rtept lat="25.036102" lon="121.512604">
<time>2008-12-21T23:49:49Z</time>
<ele>12.02</ele>
<name><![CDATA[Point 113]]></name>
</rtept>
<rtept lat="25.036413" lon="121.512627">
<time>2008-12-21T23:49:54Z</time>
<ele>17.51</ele>
<name><![CDATA[Point 114]]></name>
</rtept>
<rtept lat="25.036682" lon="121.512596">
<time>2008-12-21T23:49:59Z</time>
<ele>24.33</ele>
<name><![CDATA[Point 115]]></name>
</rtept>
<rtept lat="25.036932" lon="121.512543">
<time>2008-12-21T23:50:04Z</time>
<ele>30.76</ele>
<name><![CDATA[Point 116]]></name>
</rtept>
<rtept lat="25.037178" lon="121.512573">
<time>2008-12-21T23:50:09Z</time>
<ele>40.39</ele>
<name><![CDATA[Point 117]]></name>
</rtept>
<rtept lat="25.037397" lon="121.512566">
<time>2008-12-21T23:50:14Z</time>
<ele>45.47</ele>
<name><![CDATA[Point 118]]></name>
</rtept>
<rtept lat="25.037617" lon="121.512558">
<time>2008-12-21T23:50:19Z</time>
<ele>42.70</ele>
<name><![CDATA[Point 119]]></name>
</rtept>
<rtept lat="25.037912" lon="121.512726">
<time>2008-12-21T23:50:24Z</time>
<ele>23.69</ele>
<name><![CDATA[Point 120]]></name>
</rtept>
<rtept lat="25.038061" lon="121.512741">
<time>2008-12-21T23:50:29Z</time>
<ele>27.26</ele>
<name><![CDATA[Point 121]]></name>
</rtept>
<rtept lat="25.038187" lon="121.512764">
<time>2008-12-21T23:50:34Z</time>
<ele>24.39</ele>
<name><![CDATA[Point 122]]></name>
</rtept>
<rtept lat="25.038198" lon="121.512802">
<time>2008-12-21T23:50:39Z</time>
<ele>21.03</ele>
<name><![CDATA[Point 123]]></name>
</rtept>
<rtept lat="25.038200" lon="121.512802">
<time>2008-12-21T23:50:44Z</time>
<ele>19.48</ele>
<name><![CDATA[Point 124]]></name>
</rtept>
<rtept lat="25.038202" lon="121.512802">
<time>2008-12-21T23:50:49Z</time>
<ele>17.44</ele>
<name><![CDATA[Point 125]]></name>
</rtept>
<rtept lat="25.038206" lon="121.512802">
<time>2008-12-21T23:50:54Z</time>
<ele>14.89</ele>
<name><![CDATA[Point 126]]></name>
</rtept>
<rtept lat="25.038214" lon="121.512802">
<time>2008-12-21T23:50:59Z</time>
<ele>11.28</ele>
<name><![CDATA[Point 127]]></name>
</rtept>
<rtept lat="25.038221" lon="121.512802">
<time>2008-12-21T23:51:04Z</time>
<ele>5.88</ele>
<name><![CDATA[Point 128]]></name>
</rtept>
<rtept lat="25.038225" lon="121.512802">
<time>2008-12-21T23:51:09Z</time>
<ele>1.38</ele>
<name><![CDATA[Point 129]]></name>
</rtept>
<rtept lat="25.038330" lon="121.512794">
<time>2008-12-21T23:51:14Z</time>
<ele>0.49</ele>
<name><![CDATA[Point 130]]></name>
</rtept>
<rtept lat="25.038586" lon="121.512817">
<time>2008-12-21T23:51:19Z</time>
<ele>-1.01</ele>
<name><![CDATA[Point 131]]></name>
</rtept>
<rtept lat="25.038881" lon="121.512886">
<time>2008-12-21T23:51:24Z</time>
<ele>-3.31</ele>
<name><![CDATA[Point 132]]></name>
</rtept>
<rtept lat="25.039268" lon="121.512917">
<time>2008-12-21T23:51:29Z</time>
<ele>-1.81</ele>
<name><![CDATA[Point 133]]></name>
</rtept>
<rtept lat="25.039690" lon="121.512947">
<time>2008-12-21T23:51:34Z</time>
<ele>0.99</ele>
<name><![CDATA[Point 134]]></name>
</rtept>
<rtept lat="25.040127" lon="121.513031">
<time>2008-12-21T23:51:39Z</time>
<ele>3.77</ele>
<name><![CDATA[Point 135]]></name>
</rtept>
<rtept lat="25.040552" lon="121.513062">
<time>2008-12-21T23:51:44Z</time>
<ele>7.34</ele>
<name><![CDATA[Point 136]]></name>
</rtept>
<rtept lat="25.040972" lon="121.513115">
<time>2008-12-21T23:51:49Z</time>
<ele>10.55</ele>
<name><![CDATA[Point 137]]></name>
</rtept>
<rtept lat="25.041348" lon="121.513138">
<time>2008-12-21T23:51:54Z</time>
<ele>12.01</ele>
<name><![CDATA[Point 138]]></name>
</rtept>
<rtept lat="25.041681" lon="121.513123">
<time>2008-12-21T23:51:59Z</time>
<ele>17.30</ele>
<name><![CDATA[Point 139]]></name>
</rtept>
<rtept lat="25.041981" lon="121.513145">
<time>2008-12-21T23:52:04Z</time>
<ele>22.79</ele>
<name><![CDATA[Point 140]]></name>
</rtept>
<rtept lat="25.042242" lon="121.513237">
<time>2008-12-21T23:52:09Z</time>
<ele>23.79</ele>
<name><![CDATA[Point 141]]></name>
</rtept>
<rtept lat="25.042423" lon="121.513138">
<time>2008-12-21T23:52:14Z</time>
<ele>32.85</ele>
<name><![CDATA[Point 142]]></name>
</rtept>
<rtept lat="25.042715" lon="121.513130">
<time>2008-12-21T23:52:19Z</time>
<ele>41.34</ele>
<name><![CDATA[Point 143]]></name>
</rtept>
<rtept lat="25.043016" lon="121.513145">
<time>2008-12-21T23:52:24Z</time>
<ele>49.29</ele>
<name><![CDATA[Point 144]]></name>
</rtept>
<rtept lat="25.043278" lon="121.513237">
<time>2008-12-21T23:52:29Z</time>
<ele>50.42</ele>
<name><![CDATA[Point 145]]></name>
</rtept>
<rtept lat="25.043318" lon="121.513519">
<time>2008-12-21T23:52:34Z</time>
<ele>37.57</ele>
<name><![CDATA[Point 146]]></name>
</rtept>
<rtept lat="25.043331" lon="121.513855">
<time>2008-12-21T23:52:39Z</time>
<ele>30.78</ele>
<name><![CDATA[Point 147]]></name>
</rtept>
<rtept lat="25.043299" lon="121.514198">
<time>2008-12-21T23:52:44Z</time>
<ele>26.30</ele>
<name><![CDATA[Point 148]]></name>
</rtept>
<rtept lat="25.043293" lon="121.514519">
<time>2008-12-21T23:52:49Z</time>
<ele>20.98</ele>
<name><![CDATA[Point 149]]></name>
</rtept>
<rtept lat="25.043318" lon="121.514816">
<time>2008-12-21T23:52:54Z</time>
<ele>17.69</ele>
<name><![CDATA[Point 150]]></name>
</rtept>
<rtept lat="25.043398" lon="121.515053">
<time>2008-12-21T23:52:59Z</time>
<ele>13.35</ele>
<name><![CDATA[Point 151]]></name>
</rtept>
<rtept lat="25.043694" lon="121.515060">
<time>2008-12-21T23:53:04Z</time>
<ele>12.88</ele>
<name><![CDATA[Point 152]]></name>
</rtept>
<rtept lat="25.044048" lon="121.515007">
<time>2008-12-21T23:53:09Z</time>
<ele>11.82</ele>
<name><![CDATA[Point 153]]></name>
</rtept>
<rtept lat="25.044420" lon="121.514946">
<time>2008-12-21T23:53:14Z</time>
<ele>13.36</ele>
<name><![CDATA[Point 154]]></name>
</rtept>
<rtept lat="25.044672" lon="121.514900">
<time>2008-12-21T23:53:19Z</time>
<ele>13.71</ele>
<name><![CDATA[Point 155]]></name>
</rtept>
<rtept lat="25.044880" lon="121.514740">
<time>2008-12-21T23:53:24Z</time>
<ele>15.06</ele>
<name><![CDATA[Point 156]]></name>
</rtept>
<rtept lat="25.044949" lon="121.514671">
<time>2008-12-21T23:53:29Z</time>
<ele>19.17</ele>
<name><![CDATA[Point 157]]></name>
</rtept>
<rtept lat="25.044949" lon="121.514671">
<time>2008-12-21T23:53:34Z</time>
<ele>20.90</ele>
<name><![CDATA[Point 158]]></name>
</rtept>
<rtept lat="25.044952" lon="121.514671">
<time>2008-12-21T23:53:39Z</time>
<ele>20.96</ele>
<name><![CDATA[Point 159]]></name>
</rtept>
<rtept lat="25.044950" lon="121.514671">
<time>2008-12-21T23:53:44Z</time>
<ele>21.01</ele>
<name><![CDATA[Point 160]]></name>
</rtept>
<rtept lat="25.044945" lon="121.514664">
<time>2008-12-21T23:53:49Z</time>
<ele>21.10</ele>
<name><![CDATA[Point 161]]></name>
</rtept>
<rtept lat="25.044964" lon="121.514671">
<time>2008-12-21T23:53:54Z</time>
<ele>21.19</ele>
<name><![CDATA[Point 162]]></name>
</rtept>
<rtept lat="25.045134" lon="121.514709">
<time>2008-12-21T23:53:59Z</time>
<ele>22.54</ele>
<name><![CDATA[Point 163]]></name>
</rtept>
<rtept lat="25.045240" lon="121.514824">
<time>2008-12-21T23:54:04Z</time>
<ele>30.42</ele>
<name><![CDATA[Point 164]]></name>
</rtept>
<rtept lat="25.045315" lon="121.515007">
<time>2008-12-21T23:54:09Z</time>
<ele>28.27</ele>
<name><![CDATA[Point 165]]></name>
</rtept>
<rtept lat="25.045357" lon="121.514999">
<time>2008-12-21T23:54:14Z</time>
<ele>28.33</ele>
<name><![CDATA[Point 166]]></name>
</rtept>
<rtept lat="25.045410" lon="121.515015">
<time>2008-12-21T23:54:19Z</time>
<ele>29.42</ele>
<name><![CDATA[Point 167]]></name>
</rtept>
<rtept lat="25.045614" lon="121.515038">
<time>2008-12-21T23:54:24Z</time>
<ele>32.53</ele>
<name><![CDATA[Point 168]]></name>
</rtept>
<rtept lat="25.045889" lon="121.515121">
<time>2008-12-21T23:54:29Z</time>
<ele>36.22</ele>
<name><![CDATA[Point 169]]></name>
</rtept>
<rtept lat="25.046213" lon="121.515236">
<time>2008-12-21T23:54:34Z</time>
<ele>41.56</ele>
<name><![CDATA[Point 170]]></name>
</rtept>
<rtept lat="25.046295" lon="121.515251">
<time>2008-12-21T23:54:39Z</time>
<ele>45.41</ele>
<name><![CDATA[Point 171]]></name>
</rtept>
<rtept lat="25.046326" lon="121.515236">
<time>2008-12-21T23:54:44Z</time>
<ele>46.15</ele>
<name><![CDATA[Point 172]]></name>
</rtept>
<rtept lat="25.046328" lon="121.515228">
<time>2008-12-21T23:54:49Z</time>
<ele>46.47</ele>
<name><![CDATA[Point 173]]></name>
</rtept>
<rtept lat="25.046328" lon="121.515228">
<time>2008-12-21T23:54:54Z</time>
<ele>46.50</ele>
<name><![CDATA[Point 174]]></name>
</rtept>
<rtept lat="25.046329" lon="121.515228">
<time>2008-12-21T23:54:59Z</time>
<ele>46.54</ele>
<name><![CDATA[Point 175]]></name>
</rtept>
<rtept lat="25.046329" lon="121.515228">
<time>2008-12-21T23:55:04Z</time>
<ele>46.55</ele>
<name><![CDATA[Point 176]]></name>
</rtept>
<rtept lat="25.046331" lon="121.515228">
<time>2008-12-21T23:55:09Z</time>
<ele>46.52</ele>
<name><![CDATA[Point 177]]></name>
</rtept>
<rtept lat="25.046331" lon="121.515228">
<time>2008-12-21T23:55:14Z</time>
<ele>46.52</ele>
<name><![CDATA[Point 178]]></name>
</rtept>
<rtept lat="25.046331" lon="121.515228">
<time>2008-12-21T23:55:19Z</time>
<ele>46.57</ele>
<name><![CDATA[Point 179]]></name>
</rtept>
<rtept lat="25.046331" lon="121.515228">
<time>2008-12-21T23:55:24Z</time>
<ele>46.59</ele>
<name><![CDATA[Point 180]]></name>
</rtept>
<rtept lat="25.046333" lon="121.515228">
<time>2008-12-21T23:55:29Z</time>
<ele>46.75</ele>
<name><![CDATA[Point 181]]></name>
</rtept>
<rtept lat="25.046337" lon="121.515228">
<time>2008-12-21T23:55:34Z</time>
<ele>47.08</ele>
<name><![CDATA[Point 182]]></name>
</rtept>
<rtept lat="25.046343" lon="121.515221">
<time>2008-12-21T23:55:39Z</time>
<ele>47.51</ele>
<name><![CDATA[Point 183]]></name>
</rtept>
<rtept lat="25.046354" lon="121.515228">
<time>2008-12-21T23:55:44Z</time>
<ele>47.69</ele>
<name><![CDATA[Point 184]]></name>
</rtept>
<rtept lat="25.046400" lon="121.515205">
<time>2008-12-21T23:55:49Z</time>
<ele>48.41</ele>
<name><![CDATA[Point 185]]></name>
</rtept>
<rtept lat="25.046621" lon="121.515205">
<time>2008-12-21T23:55:54Z</time>
<ele>51.26</ele>
<name><![CDATA[Point 186]]></name>
</rtept>
<rtept lat="25.046892" lon="121.515114">
<time>2008-12-21T23:55:59Z</time>
<ele>52.84</ele>
<name><![CDATA[Point 187]]></name>
</rtept>
<rtept lat="25.047092" lon="121.515053">
<time>2008-12-21T23:56:04Z</time>
<ele>51.71</ele>
<name><![CDATA[Point 188]]></name>
</rtept>
<rtept lat="25.047293" lon="121.515099">
<time>2008-12-21T23:56:09Z</time>
<ele>49.67</ele>
<name><![CDATA[Point 189]]></name>
</rtept>
<rtept lat="25.047455" lon="121.515221">
<time>2008-12-21T23:56:14Z</time>
<ele>36.53</ele>
<name><![CDATA[Point 190]]></name>
</rtept>
<rtept lat="25.047438" lon="121.515419">
<time>2008-12-21T23:56:19Z</time>
<ele>28.54</ele>
<name><![CDATA[Point 191]]></name>
</rtept>
<rtept lat="25.047417" lon="121.515663">
<time>2008-12-21T23:56:24Z</time>
<ele>27.15</ele>
<name><![CDATA[Point 192]]></name>
</rtept>
<rtept lat="25.047401" lon="121.515938">
<time>2008-12-21T23:56:29Z</time>
<ele>23.60</ele>
<name><![CDATA[Point 193]]></name>
</rtept>
<rtept lat="25.047411" lon="121.516090">
<time>2008-12-21T23:56:34Z</time>
<ele>21.22</ele>
<name><![CDATA[Point 194]]></name>
</rtept>
<rtept lat="25.047411" lon="121.516121">
<time>2008-12-21T23:56:39Z</time>
<ele>21.16</ele>
<name><![CDATA[Point 195]]></name>
</rtept>
<rtept lat="25.047432" lon="121.516159">
<time>2008-12-21T23:56:44Z</time>
<ele>21.57</ele>
<name><![CDATA[Point 196]]></name>
</rtept>
<rtept lat="25.047392" lon="121.516235">
<time>2008-12-21T23:56:49Z</time>
<ele>20.01</ele>
<name><![CDATA[Point 197]]></name>
</rtept>
<rtept lat="25.047318" lon="121.516258">
<time>2008-12-21T23:56:54Z</time>
<ele>18.79</ele>
<name><![CDATA[Point 198]]></name>
</rtept>
<rtept lat="25.047302" lon="121.516319">
<time>2008-12-21T23:56:59Z</time>
<ele>18.37</ele>
<name><![CDATA[Point 199]]></name>
</rtept>
<rtept lat="25.047283" lon="121.516396">
<time>2008-12-21T23:57:04Z</time>
<ele>18.17</ele>
<name><![CDATA[Point 200]]></name>
</rtept>
<rtept lat="25.047285" lon="121.516411">
<time>2008-12-21T23:57:09Z</time>
<ele>18.04</ele>
<name><![CDATA[Point 201]]></name>
</rtept>
<rtept lat="25.047272" lon="121.516396">
<time>2008-12-21T23:57:14Z</time>
<ele>17.92</ele>
<name><![CDATA[Point 202]]></name>
</rtept>
<rtept lat="25.047270" lon="121.516396">
<time>2008-12-21T23:57:19Z</time>
<ele>17.87</ele>
<name><![CDATA[Point 203]]></name>
</rtept>
<rtept lat="25.047272" lon="121.516388">
<time>2008-12-21T23:57:24Z</time>
<ele>17.84</ele>
<name><![CDATA[Point 204]]></name>
</rtept>
<rtept lat="25.047270" lon="121.516373">
<time>2008-12-21T23:57:29Z</time>
<ele>17.86</ele>
<name><![CDATA[Point 205]]></name>
</rtept>
<rtept lat="25.047270" lon="121.516365">
<time>2008-12-21T23:57:34Z</time>
<ele>17.84</ele>
<name><![CDATA[Point 206]]></name>
</rtept>
<rtept lat="25.047270" lon="121.516365">
<time>2008-12-21T23:57:39Z</time>
<ele>17.84</ele>
<name><![CDATA[Point 207]]></name>
</rtept>
<rtept lat="25.047272" lon="121.516357">
<time>2008-12-21T23:57:44Z</time>
<ele>17.84</ele>
<name><![CDATA[Point 208]]></name>
</rtept>
<rtept lat="25.047272" lon="121.516357">
<time>2008-12-21T23:57:49Z</time>
<ele>17.84</ele>
<name><![CDATA[Point 209]]></name>
</rtept>
<rtept lat="25.047272" lon="121.516357">
<time>2008-12-21T23:57:54Z</time>
<ele>17.84</ele>
<name><![CDATA[Point 210]]></name>
</rtept>
<rtept lat="25.047272" lon="121.516350">
<time>2008-12-21T23:57:59Z</time>
<ele>17.84</ele>
<name><![CDATA[Point 211]]></name>
</rtept>
<rtept lat="25.047264" lon="121.516350">
<time>2008-12-21T23:58:04Z</time>
<ele>17.85</ele>
<name><![CDATA[Point 212]]></name>
</rtept>
<rtept lat="25.047264" lon="121.516350">
<time>2008-12-21T23:58:09Z</time>
<ele>17.84</ele>
<name><![CDATA[Point 213]]></name>
</rtept>
<rtept lat="25.047264" lon="121.516342">
<time>2008-12-21T23:58:14Z</time>
<ele>17.83</ele>
<name><![CDATA[Point 214]]></name>
</rtept>
<rtept lat="25.047266" lon="121.516335">
<time>2008-12-21T23:58:19Z</time>
<ele>17.81</ele>
<name><![CDATA[Point 215]]></name>
</rtept>
</rte>
</gpx>
