<?xml version="1.0" encoding="UTF-8"?>
<gpx
  version="1.0"
  creator="GPSBabel - http://www.gpsbabel.org"
  xmlns:xsi="http://www.w3.org/2001/XMLSchema-instance"
  xmlns="http://www.topografix.com/GPX/1/0"
  xsi:schemaLocation="http://www.topografix.com/GPX/1/0 http://www.topografix.com/GPX/1/0/gpx.xsd">
<time>2009-01-20T09:50:05Z</time>
<bounds minlat="24.791496000" minlon="120.967522000" maxlat="24.814150000" maxlon="121.005493000"/>
<trk>
<trkseg>
<trkpt lat="24.791567000" lon="121.005493000">
  <ele>181.720000</ele>
  <time>2009-01-19T10:53:23Z</time>
  <name>Point 0</name>
  <cmt>Point 0</cmt>
  <desc>Point 0</desc>
</trkpt>
<trkpt lat="24.791550000" lon="121.005493000">
  <ele>173.340000</ele>
  <time>2009-01-19T10:53:28Z</time>
  <name>Point 1</name>
  <cmt>Point 1</cmt>
  <desc>Point 1</desc>
</trkpt>
<trkpt lat="24.791557000" lon="121.005493000">
  <ele>173.410000</ele>
  <time>2009-01-19T10:53:33Z</time>
  <name>Point 2</name>
  <cmt>Point 2</cmt>
  <desc>Point 2</desc>
</trkpt>
<trkpt lat="24.791534000" lon="121.005478000">
  <ele>174.550000</ele>
  <time>2009-01-19T10:53:38Z</time>
  <name>Point 3</name>
  <cmt>Point 3</cmt>
  <desc>Point 3</desc>
</trkpt>
<trkpt lat="24.791506000" lon="121.005486000">
  <ele>178.390000</ele>
  <time>2009-01-19T10:53:43Z</time>
  <name>Point 4</name>
  <cmt>Point 4</cmt>
  <desc>Point 4</desc>
</trkpt>
<trkpt lat="24.791496000" lon="121.005447000">
  <ele>177.340000</ele>
  <time>2009-01-19T10:53:48Z</time>
  <name>Point 5</name>
  <cmt>Point 5</cmt>
  <desc>Point 5</desc>
</trkpt>
<trkpt lat="24.791531000" lon="121.005287000">
  <ele>174.230000</ele>
  <time>2009-01-19T10:53:53Z</time>
  <name>Point 6</name>
  <cmt>Point 6</cmt>
  <desc>Point 6</desc>
</trkpt>
<trkpt lat="24.791662000" lon="121.005074000">
  <ele>171.000000</ele>
  <time>2009-01-19T10:53:58Z</time>
  <name>Point 7</name>
  <cmt>Point 7</cmt>
  <desc>Point 7</desc>
</trkpt>
<trkpt lat="24.791811000" lon="121.004860000">
  <ele>165.530000</ele>
  <time>2009-01-19T10:54:03Z</time>
  <name>Point 8</name>
  <cmt>Point 8</cmt>
  <desc>Point 8</desc>
</trkpt>
<trkpt lat="24.791906000" lon="121.004700000">
  <ele>162.300000</ele>
  <time>2009-01-19T10:54:08Z</time>
  <name>Point 9</name>
  <cmt>Point 9</cmt>
  <desc>Point 9</desc>
</trkpt>
<trkpt lat="24.791958000" lon="121.004616000">
  <ele>159.390000</ele>
  <time>2009-01-19T10:54:13Z</time>
  <name>Point 10</name>
  <cmt>Point 10</cmt>
  <desc>Point 10</desc>
</trkpt>
<trkpt lat="24.792021000" lon="121.004501000">
  <ele>156.950000</ele>
  <time>2009-01-19T10:54:18Z</time>
  <name>Point 11</name>
  <cmt>Point 11</cmt>
  <desc>Point 11</desc>
</trkpt>
<trkpt lat="24.792025000" lon="121.004387000">
  <ele>154.120000</ele>
  <time>2009-01-19T10:54:23Z</time>
  <name>Point 12</name>
  <cmt>Point 12</cmt>
  <desc>Point 12</desc>
</trkpt>
<trkpt lat="24.792028000" lon="121.004318000">
  <ele>151.970000</ele>
  <time>2009-01-19T10:54:28Z</time>
  <name>Point 13</name>
  <cmt>Point 13</cmt>
  <desc>Point 13</desc>
</trkpt>
<trkpt lat="24.792040000" lon="121.004295000">
  <ele>150.580000</ele>
  <time>2009-01-19T10:54:33Z</time>
  <name>Point 14</name>
  <cmt>Point 14</cmt>
  <desc>Point 14</desc>
</trkpt>
<trkpt lat="24.792051000" lon="121.004257000">
  <ele>149.090000</ele>
  <time>2009-01-19T10:54:38Z</time>
  <name>Point 15</name>
  <cmt>Point 15</cmt>
  <desc>Point 15</desc>
</trkpt>
<trkpt lat="24.792068000" lon="121.004089000">
  <ele>146.600000</ele>
  <time>2009-01-19T10:54:43Z</time>
  <name>Point 16</name>
  <cmt>Point 16</cmt>
  <desc>Point 16</desc>
</trkpt>
<trkpt lat="24.792164000" lon="121.003983000">
  <ele>144.000000</ele>
  <time>2009-01-19T10:54:48Z</time>
  <name>Point 17</name>
  <cmt>Point 17</cmt>
  <desc>Point 17</desc>
</trkpt>
<trkpt lat="24.792223000" lon="121.003906000">
  <ele>142.850000</ele>
  <time>2009-01-19T10:54:53Z</time>
  <name>Point 18</name>
  <cmt>Point 18</cmt>
  <desc>Point 18</desc>
</trkpt>
<trkpt lat="24.792294000" lon="121.003860000">
  <ele>141.230000</ele>
  <time>2009-01-19T10:54:58Z</time>
  <name>Point 19</name>
  <cmt>Point 19</cmt>
  <desc>Point 19</desc>
</trkpt>
<trkpt lat="24.792400000" lon="121.003761000">
  <ele>139.480000</ele>
  <time>2009-01-19T10:55:03Z</time>
  <name>Point 20</name>
  <cmt>Point 20</cmt>
  <desc>Point 20</desc>
</trkpt>
<trkpt lat="24.792442000" lon="121.003716000">
  <ele>138.860000</ele>
  <time>2009-01-19T10:55:08Z</time>
  <name>Point 21</name>
  <cmt>Point 21</cmt>
  <desc>Point 21</desc>
</trkpt>
<trkpt lat="24.792547000" lon="121.003624000">
  <ele>137.820000</ele>
  <time>2009-01-19T10:55:13Z</time>
  <name>Point 22</name>
  <cmt>Point 22</cmt>
  <desc>Point 22</desc>
</trkpt>
<trkpt lat="24.792576000" lon="121.003319000">
  <ele>136.040000</ele>
  <time>2009-01-19T10:55:18Z</time>
  <name>Point 23</name>
  <cmt>Point 23</cmt>
  <desc>Point 23</desc>
</trkpt>
<trkpt lat="24.792641000" lon="121.002960000">
  <ele>132.580000</ele>
  <time>2009-01-19T10:55:23Z</time>
  <name>Point 24</name>
  <cmt>Point 24</cmt>
  <desc>Point 24</desc>
</trkpt>
<trkpt lat="24.792690000" lon="121.002724000">
  <ele>127.860000</ele>
  <time>2009-01-19T10:55:28Z</time>
  <name>Point 25</name>
  <cmt>Point 25</cmt>
  <desc>Point 25</desc>
</trkpt>
<trkpt lat="24.792700000" lon="121.002502000">
  <ele>118.490000</ele>
  <time>2009-01-19T10:55:33Z</time>
  <name>Point 26</name>
  <cmt>Point 26</cmt>
  <desc>Point 26</desc>
</trkpt>
<trkpt lat="24.792711000" lon="121.002396000">
  <ele>97.240000</ele>
  <time>2009-01-19T10:55:38Z</time>
  <name>Point 27</name>
  <cmt>Point 27</cmt>
  <desc>Point 27</desc>
</trkpt>
<trkpt lat="24.792786000" lon="121.002243000">
  <ele>88.910000</ele>
  <time>2009-01-19T10:55:43Z</time>
  <name>Point 28</name>
  <cmt>Point 28</cmt>
  <desc>Point 28</desc>
</trkpt>
<trkpt lat="24.792862000" lon="121.002144000">
  <ele>85.350000</ele>
  <time>2009-01-19T10:55:48Z</time>
  <name>Point 29</name>
  <cmt>Point 29</cmt>
  <desc>Point 29</desc>
</trkpt>
<trkpt lat="24.792946000" lon="121.002014000">
  <ele>80.180000</ele>
  <time>2009-01-19T10:55:53Z</time>
  <name>Point 30</name>
  <cmt>Point 30</cmt>
  <desc>Point 30</desc>
</trkpt>
<trkpt lat="24.792992000" lon="121.001968000">
  <ele>77.130000</ele>
  <time>2009-01-19T10:55:58Z</time>
  <name>Point 31</name>
  <cmt>Point 31</cmt>
  <desc>Point 31</desc>
</trkpt>
<trkpt lat="24.793020000" lon="121.001938000">
  <ele>74.470000</ele>
  <time>2009-01-19T10:56:03Z</time>
  <name>Point 32</name>
  <cmt>Point 32</cmt>
  <desc>Point 32</desc>
</trkpt>
<trkpt lat="24.793045000" lon="121.001900000">
  <ele>72.400000</ele>
  <time>2009-01-19T10:56:08Z</time>
  <name>Point 33</name>
  <cmt>Point 33</cmt>
  <desc>Point 33</desc>
</trkpt>
<trkpt lat="24.793112000" lon="121.001808000">
  <ele>69.370000</ele>
  <time>2009-01-19T10:56:13Z</time>
  <name>Point 34</name>
  <cmt>Point 34</cmt>
  <desc>Point 34</desc>
</trkpt>
<trkpt lat="24.793137000" lon="121.001770000">
  <ele>67.310000</ele>
  <time>2009-01-19T10:56:18Z</time>
  <name>Point 35</name>
  <cmt>Point 35</cmt>
  <desc>Point 35</desc>
</trkpt>
<trkpt lat="24.793188000" lon="121.001709000">
  <ele>65.870000</ele>
  <time>2009-01-19T10:56:23Z</time>
  <name>Point 36</name>
  <cmt>Point 36</cmt>
  <desc>Point 36</desc>
</trkpt>
<trkpt lat="24.793310000" lon="121.001579000">
  <ele>63.180000</ele>
  <time>2009-01-19T10:56:28Z</time>
  <name>Point 37</name>
  <cmt>Point 37</cmt>
  <desc>Point 37</desc>
</trkpt>
<trkpt lat="24.793362000" lon="121.001534000">
  <ele>61.860000</ele>
  <time>2009-01-19T10:56:33Z</time>
  <name>Point 38</name>
  <cmt>Point 38</cmt>
  <desc>Point 38</desc>
</trkpt>
<trkpt lat="24.793367000" lon="121.001511000">
  <ele>61.810000</ele>
  <time>2009-01-19T10:56:38Z</time>
  <name>Point 39</name>
  <cmt>Point 39</cmt>
  <desc>Point 39</desc>
</trkpt>
<trkpt lat="24.793369000" lon="121.001511000">
  <ele>61.620000</ele>
  <time>2009-01-19T10:56:43Z</time>
  <name>Point 40</name>
  <cmt>Point 40</cmt>
  <desc>Point 40</desc>
</trkpt>
<trkpt lat="24.793369000" lon="121.001511000">
  <ele>61.580000</ele>
  <time>2009-01-19T10:56:48Z</time>
  <name>Point 41</name>
  <cmt>Point 41</cmt>
  <desc>Point 41</desc>
</trkpt>
<trkpt lat="24.793367000" lon="121.001511000">
  <ele>61.510000</ele>
  <time>2009-01-19T10:56:53Z</time>
  <name>Point 42</name>
  <cmt>Point 42</cmt>
  <desc>Point 42</desc>
</trkpt>
<trkpt lat="24.793385000" lon="121.001465000">
  <ele>61.540000</ele>
  <time>2009-01-19T10:56:58Z</time>
  <name>Point 43</name>
  <cmt>Point 43</cmt>
  <desc>Point 43</desc>
</trkpt>
<trkpt lat="24.793491000" lon="121.001343000">
  <ele>59.750000</ele>
  <time>2009-01-19T10:57:03Z</time>
  <name>Point 44</name>
  <cmt>Point 44</cmt>
  <desc>Point 44</desc>
</trkpt>
<trkpt lat="24.793594000" lon="121.001175000">
  <ele>60.090000</ele>
  <time>2009-01-19T10:57:08Z</time>
  <name>Point 45</name>
  <cmt>Point 45</cmt>
  <desc>Point 45</desc>
</trkpt>
<trkpt lat="24.793797000" lon="121.000793000">
  <ele>58.940000</ele>
  <time>2009-01-19T10:57:13Z</time>
  <name>Point 46</name>
  <cmt>Point 46</cmt>
  <desc>Point 46</desc>
</trkpt>
<trkpt lat="24.793987000" lon="121.000420000">
  <ele>56.810000</ele>
  <time>2009-01-19T10:57:18Z</time>
  <name>Point 47</name>
  <cmt>Point 47</cmt>
  <desc>Point 47</desc>
</trkpt>
<trkpt lat="24.794083000" lon="121.000290000">
  <ele>56.780000</ele>
  <time>2009-01-19T10:57:23Z</time>
  <name>Point 48</name>
  <cmt>Point 48</cmt>
  <desc>Point 48</desc>
</trkpt>
<trkpt lat="24.794210000" lon="121.000092000">
  <ele>54.570000</ele>
  <time>2009-01-19T10:57:28Z</time>
  <name>Point 49</name>
  <cmt>Point 49</cmt>
  <desc>Point 49</desc>
</trkpt>
<trkpt lat="24.794363000" lon="120.999840000">
  <ele>55.280000</ele>
  <time>2009-01-19T10:57:33Z</time>
  <name>Point 50</name>
  <cmt>Point 50</cmt>
  <desc>Point 50</desc>
</trkpt>
<trkpt lat="24.794561000" lon="120.999580000">
  <ele>49.530000</ele>
  <time>2009-01-19T10:57:38Z</time>
  <name>Point 51</name>
  <cmt>Point 51</cmt>
  <desc>Point 51</desc>
</trkpt>
<trkpt lat="24.794695000" lon="120.999420000">
  <ele>45.310000</ele>
  <time>2009-01-19T10:57:43Z</time>
  <name>Point 52</name>
  <cmt>Point 52</cmt>
  <desc>Point 52</desc>
</trkpt>
<trkpt lat="24.794788000" lon="120.999275000">
  <ele>42.510000</ele>
  <time>2009-01-19T10:57:48Z</time>
  <name>Point 53</name>
  <cmt>Point 53</cmt>
  <desc>Point 53</desc>
</trkpt>
<trkpt lat="24.794970000" lon="120.999092000">
  <ele>39.770000</ele>
  <time>2009-01-19T10:57:53Z</time>
  <name>Point 54</name>
  <cmt>Point 54</cmt>
  <desc>Point 54</desc>
</trkpt>
<trkpt lat="24.795109000" lon="120.998917000">
  <ele>37.740000</ele>
  <time>2009-01-19T10:57:58Z</time>
  <name>Point 55</name>
  <cmt>Point 55</cmt>
  <desc>Point 55</desc>
</trkpt>
<trkpt lat="24.795244000" lon="120.998589000">
  <ele>34.880000</ele>
  <time>2009-01-19T10:58:03Z</time>
  <name>Point 56</name>
  <cmt>Point 56</cmt>
  <desc>Point 56</desc>
</trkpt>
<trkpt lat="24.795431000" lon="120.998405000">
  <ele>31.930000</ele>
  <time>2009-01-19T10:58:08Z</time>
  <name>Point 57</name>
  <cmt>Point 57</cmt>
  <desc>Point 57</desc>
</trkpt>
<trkpt lat="24.795618000" lon="120.998222000">
  <ele>29.340000</ele>
  <time>2009-01-19T10:58:13Z</time>
  <name>Point 58</name>
  <cmt>Point 58</cmt>
  <desc>Point 58</desc>
</trkpt>
<trkpt lat="24.795803000" lon="120.998039000">
  <ele>27.700000</ele>
  <time>2009-01-19T10:58:18Z</time>
  <name>Point 59</name>
  <cmt>Point 59</cmt>
  <desc>Point 59</desc>
</trkpt>
<trkpt lat="24.795982000" lon="120.997849000">
  <ele>25.940000</ele>
  <time>2009-01-19T10:58:23Z</time>
  <name>Point 60</name>
  <cmt>Point 60</cmt>
  <desc>Point 60</desc>
</trkpt>
<trkpt lat="24.796074000" lon="120.997742000">
  <ele>26.210000</ele>
  <time>2009-01-19T10:58:28Z</time>
  <name>Point 61</name>
  <cmt>Point 61</cmt>
  <desc>Point 61</desc>
</trkpt>
<trkpt lat="24.796146000" lon="120.997635000">
  <ele>24.540000</ele>
  <time>2009-01-19T10:58:33Z</time>
  <name>Point 62</name>
  <cmt>Point 62</cmt>
  <desc>Point 62</desc>
</trkpt>
<trkpt lat="24.796303000" lon="120.997459000">
  <ele>21.940000</ele>
  <time>2009-01-19T10:58:38Z</time>
  <name>Point 63</name>
  <cmt>Point 63</cmt>
  <desc>Point 63</desc>
</trkpt>
<trkpt lat="24.796444000" lon="120.997223000">
  <ele>19.450000</ele>
  <time>2009-01-19T10:58:43Z</time>
  <name>Point 64</name>
  <cmt>Point 64</cmt>
  <desc>Point 64</desc>
</trkpt>
<trkpt lat="24.796608000" lon="120.996925000">
  <ele>18.390000</ele>
  <time>2009-01-19T10:58:48Z</time>
  <name>Point 65</name>
  <cmt>Point 65</cmt>
  <desc>Point 65</desc>
</trkpt>
<trkpt lat="24.796915000" lon="120.996597000">
  <ele>13.780000</ele>
  <time>2009-01-19T10:58:53Z</time>
  <name>Point 66</name>
  <cmt>Point 66</cmt>
  <desc>Point 66</desc>
</trkpt>
<trkpt lat="24.797123000" lon="120.996300000">
  <ele>11.960000</ele>
  <time>2009-01-19T10:58:58Z</time>
  <name>Point 67</name>
  <cmt>Point 67</cmt>
  <desc>Point 67</desc>
</trkpt>
<trkpt lat="24.797308000" lon="120.996040000">
  <ele>9.570000</ele>
  <time>2009-01-19T10:59:03Z</time>
  <name>Point 68</name>
  <cmt>Point 68</cmt>
  <desc>Point 68</desc>
</trkpt>
<trkpt lat="24.797419000" lon="120.995888000">
  <ele>10.090000</ele>
  <time>2009-01-19T10:59:08Z</time>
  <name>Point 69</name>
  <cmt>Point 69</cmt>
  <desc>Point 69</desc>
</trkpt>
<trkpt lat="24.797451000" lon="120.995834000">
  <ele>10.120000</ele>
  <time>2009-01-19T10:59:13Z</time>
  <name>Point 70</name>
  <cmt>Point 70</cmt>
  <desc>Point 70</desc>
</trkpt>
<trkpt lat="24.797457000" lon="120.995804000">
  <ele>8.710000</ele>
  <time>2009-01-19T10:59:18Z</time>
  <name>Point 71</name>
  <cmt>Point 71</cmt>
  <desc>Point 71</desc>
</trkpt>
<trkpt lat="24.797474000" lon="120.995819000">
  <ele>7.960000</ele>
  <time>2009-01-19T10:59:23Z</time>
  <name>Point 72</name>
  <cmt>Point 72</cmt>
  <desc>Point 72</desc>
</trkpt>
<trkpt lat="24.797474000" lon="120.995819000">
  <ele>7.730000</ele>
  <time>2009-01-19T10:59:28Z</time>
  <name>Point 73</name>
  <cmt>Point 73</cmt>
  <desc>Point 73</desc>
</trkpt>
<trkpt lat="24.797480000" lon="120.995804000">
  <ele>7.570000</ele>
  <time>2009-01-19T10:59:33Z</time>
  <name>Point 74</name>
  <cmt>Point 74</cmt>
  <desc>Point 74</desc>
</trkpt>
<trkpt lat="24.797485000" lon="120.995789000">
  <ele>7.580000</ele>
  <time>2009-01-19T10:59:38Z</time>
  <name>Point 75</name>
  <cmt>Point 75</cmt>
  <desc>Point 75</desc>
</trkpt>
<trkpt lat="24.797483000" lon="120.995781000">
  <ele>7.700000</ele>
  <time>2009-01-19T10:59:43Z</time>
  <name>Point 76</name>
  <cmt>Point 76</cmt>
  <desc>Point 76</desc>
</trkpt>
<trkpt lat="24.797491000" lon="120.995766000">
  <ele>7.760000</ele>
  <time>2009-01-19T10:59:48Z</time>
  <name>Point 77</name>
  <cmt>Point 77</cmt>
  <desc>Point 77</desc>
</trkpt>
<trkpt lat="24.797495000" lon="120.995750000">
  <ele>7.800000</ele>
  <time>2009-01-19T10:59:53Z</time>
  <name>Point 78</name>
  <cmt>Point 78</cmt>
  <desc>Point 78</desc>
</trkpt>
<trkpt lat="24.797501000" lon="120.995735000">
  <ele>7.880000</ele>
  <time>2009-01-19T10:59:58Z</time>
  <name>Point 79</name>
  <cmt>Point 79</cmt>
  <desc>Point 79</desc>
</trkpt>
<trkpt lat="24.797506000" lon="120.995728000">
  <ele>7.970000</ele>
  <time>2009-01-19T11:00:03Z</time>
  <name>Point 80</name>
  <cmt>Point 80</cmt>
  <desc>Point 80</desc>
</trkpt>
<trkpt lat="24.797512000" lon="120.995712000">
  <ele>8.090000</ele>
  <time>2009-01-19T11:00:08Z</time>
  <name>Point 81</name>
  <cmt>Point 81</cmt>
  <desc>Point 81</desc>
</trkpt>
<trkpt lat="24.797516000" lon="120.995705000">
  <ele>8.240000</ele>
  <time>2009-01-19T11:00:13Z</time>
  <name>Point 82</name>
  <cmt>Point 82</cmt>
  <desc>Point 82</desc>
</trkpt>
<trkpt lat="24.797680000" lon="120.995712000">
  <ele>10.620000</ele>
  <time>2009-01-19T11:00:18Z</time>
  <name>Point 83</name>
  <cmt>Point 83</cmt>
  <desc>Point 83</desc>
</trkpt>
<trkpt lat="24.797781000" lon="120.995560000">
  <ele>15.450000</ele>
  <time>2009-01-19T11:00:23Z</time>
  <name>Point 84</name>
  <cmt>Point 84</cmt>
  <desc>Point 84</desc>
</trkpt>
<trkpt lat="24.797764000" lon="120.995552000">
  <ele>15.940000</ele>
  <time>2009-01-19T11:00:28Z</time>
  <name>Point 85</name>
  <cmt>Point 85</cmt>
  <desc>Point 85</desc>
</trkpt>
<trkpt lat="24.797764000" lon="120.995552000">
  <ele>16.030000</ele>
  <time>2009-01-19T11:00:33Z</time>
  <name>Point 86</name>
  <cmt>Point 86</cmt>
  <desc>Point 86</desc>
</trkpt>
<trkpt lat="24.797762000" lon="120.995560000">
  <ele>16.110000</ele>
  <time>2009-01-19T11:00:38Z</time>
  <name>Point 87</name>
  <cmt>Point 87</cmt>
  <desc>Point 87</desc>
</trkpt>
<trkpt lat="24.797781000" lon="120.995537000">
  <ele>16.870000</ele>
  <time>2009-01-19T11:00:43Z</time>
  <name>Point 88</name>
  <cmt>Point 88</cmt>
  <desc>Point 88</desc>
</trkpt>
<trkpt lat="24.797840000" lon="120.995422000">
  <ele>19.110000</ele>
  <time>2009-01-19T11:00:48Z</time>
  <name>Point 89</name>
  <cmt>Point 89</cmt>
  <desc>Point 89</desc>
</trkpt>
<trkpt lat="24.797888000" lon="120.995277000">
  <ele>23.820000</ele>
  <time>2009-01-19T11:00:53Z</time>
  <name>Point 90</name>
  <cmt>Point 90</cmt>
  <desc>Point 90</desc>
</trkpt>
<trkpt lat="24.797970000" lon="120.995171000">
  <ele>27.130000</ele>
  <time>2009-01-19T11:00:58Z</time>
  <name>Point 91</name>
  <cmt>Point 91</cmt>
  <desc>Point 91</desc>
</trkpt>
<trkpt lat="24.798008000" lon="120.995003000">
  <ele>24.690000</ele>
  <time>2009-01-19T11:01:03Z</time>
  <name>Point 92</name>
  <cmt>Point 92</cmt>
  <desc>Point 92</desc>
</trkpt>
<trkpt lat="24.798054000" lon="120.994812000">
  <ele>25.050000</ele>
  <time>2009-01-19T11:01:08Z</time>
  <name>Point 93</name>
  <cmt>Point 93</cmt>
  <desc>Point 93</desc>
</trkpt>
<trkpt lat="24.798162000" lon="120.994652000">
  <ele>27.480000</ele>
  <time>2009-01-19T11:01:13Z</time>
  <name>Point 94</name>
  <cmt>Point 94</cmt>
  <desc>Point 94</desc>
</trkpt>
<trkpt lat="24.798264000" lon="120.994484000">
  <ele>27.520000</ele>
  <time>2009-01-19T11:01:18Z</time>
  <name>Point 95</name>
  <cmt>Point 95</cmt>
  <desc>Point 95</desc>
</trkpt>
<trkpt lat="24.798388000" lon="120.994347000">
  <ele>30.420000</ele>
  <time>2009-01-19T11:01:23Z</time>
  <name>Point 96</name>
  <cmt>Point 96</cmt>
  <desc>Point 96</desc>
</trkpt>
<trkpt lat="24.798529000" lon="120.994171000">
  <ele>30.640000</ele>
  <time>2009-01-19T11:01:28Z</time>
  <name>Point 97</name>
  <cmt>Point 97</cmt>
  <desc>Point 97</desc>
</trkpt>
<trkpt lat="24.798624000" lon="120.994011000">
  <ele>34.120000</ele>
  <time>2009-01-19T11:01:33Z</time>
  <name>Point 98</name>
  <cmt>Point 98</cmt>
  <desc>Point 98</desc>
</trkpt>
<trkpt lat="24.798763000" lon="120.993790000">
  <ele>34.670000</ele>
  <time>2009-01-19T11:01:38Z</time>
  <name>Point 99</name>
  <cmt>Point 99</cmt>
  <desc>Point 99</desc>
</trkpt>
<trkpt lat="24.798914000" lon="120.993507000">
  <ele>35.660000</ele>
  <time>2009-01-19T11:01:43Z</time>
  <name>Point 100</name>
  <cmt>Point 100</cmt>
  <desc>Point 100</desc>
</trkpt>
<trkpt lat="24.799013000" lon="120.993195000">
  <ele>38.360000</ele>
  <time>2009-01-19T11:01:48Z</time>
  <name>Point 101</name>
  <cmt>Point 101</cmt>
  <desc>Point 101</desc>
</trkpt>
<trkpt lat="24.799088000" lon="120.992851000">
  <ele>38.280000</ele>
  <time>2009-01-19T11:01:53Z</time>
  <name>Point 102</name>
  <cmt>Point 102</cmt>
  <desc>Point 102</desc>
</trkpt>
<trkpt lat="24.799221000" lon="120.992493000">
  <ele>33.670000</ele>
  <time>2009-01-19T11:01:58Z</time>
  <name>Point 103</name>
  <cmt>Point 103</cmt>
  <desc>Point 103</desc>
</trkpt>
<trkpt lat="24.799395000" lon="120.992149000">
  <ele>30.790000</ele>
  <time>2009-01-19T11:02:03Z</time>
  <name>Point 104</name>
  <cmt>Point 104</cmt>
  <desc>Point 104</desc>
</trkpt>
<trkpt lat="24.799486000" lon="120.991783000">
  <ele>27.780000</ele>
  <time>2009-01-19T11:02:08Z</time>
  <name>Point 105</name>
  <cmt>Point 105</cmt>
  <desc>Point 105</desc>
</trkpt>
<trkpt lat="24.799633000" lon="120.991478000">
  <ele>25.110000</ele>
  <time>2009-01-19T11:02:13Z</time>
  <name>Point 106</name>
  <cmt>Point 106</cmt>
  <desc>Point 106</desc>
</trkpt>
<trkpt lat="24.799749000" lon="120.991234000">
  <ele>21.820000</ele>
  <time>2009-01-19T11:02:18Z</time>
  <name>Point 107</name>
  <cmt>Point 107</cmt>
  <desc>Point 107</desc>
</trkpt>
<trkpt lat="24.799793000" lon="120.991142000">
  <ele>21.570000</ele>
  <time>2009-01-19T11:02:23Z</time>
  <name>Point 108</name>
  <cmt>Point 108</cmt>
  <desc>Point 108</desc>
</trkpt>
<trkpt lat="24.799795000" lon="120.991135000">
  <ele>21.120000</ele>
  <time>2009-01-19T11:02:28Z</time>
  <name>Point 109</name>
  <cmt>Point 109</cmt>
  <desc>Point 109</desc>
</trkpt>
<trkpt lat="24.799797000" lon="120.991135000">
  <ele>20.990000</ele>
  <time>2009-01-19T11:02:33Z</time>
  <name>Point 110</name>
  <cmt>Point 110</cmt>
  <desc>Point 110</desc>
</trkpt>
<trkpt lat="24.799803000" lon="120.991127000">
  <ele>21.020000</ele>
  <time>2009-01-19T11:02:38Z</time>
  <name>Point 111</name>
  <cmt>Point 111</cmt>
  <desc>Point 111</desc>
</trkpt>
<trkpt lat="24.799810000" lon="120.991112000">
  <ele>21.050000</ele>
  <time>2009-01-19T11:02:43Z</time>
  <name>Point 112</name>
  <cmt>Point 112</cmt>
  <desc>Point 112</desc>
</trkpt>
<trkpt lat="24.799822000" lon="120.991089000">
  <ele>21.900000</ele>
  <time>2009-01-19T11:02:48Z</time>
  <name>Point 113</name>
  <cmt>Point 113</cmt>
  <desc>Point 113</desc>
</trkpt>
<trkpt lat="24.799828000" lon="120.991081000">
  <ele>21.990000</ele>
  <time>2009-01-19T11:02:53Z</time>
  <name>Point 114</name>
  <cmt>Point 114</cmt>
  <desc>Point 114</desc>
</trkpt>
<trkpt lat="24.799831000" lon="120.991081000">
  <ele>22.090000</ele>
  <time>2009-01-19T11:02:58Z</time>
  <name>Point 115</name>
  <cmt>Point 115</cmt>
  <desc>Point 115</desc>
</trkpt>
<trkpt lat="24.799833000" lon="120.991074000">
  <ele>22.160000</ele>
  <time>2009-01-19T11:03:03Z</time>
  <name>Point 116</name>
  <cmt>Point 116</cmt>
  <desc>Point 116</desc>
</trkpt>
<trkpt lat="24.799841000" lon="120.991066000">
  <ele>22.220000</ele>
  <time>2009-01-19T11:03:08Z</time>
  <name>Point 117</name>
  <cmt>Point 117</cmt>
  <desc>Point 117</desc>
</trkpt>
<trkpt lat="24.799837000" lon="120.991043000">
  <ele>22.280000</ele>
  <time>2009-01-19T11:03:13Z</time>
  <name>Point 118</name>
  <cmt>Point 118</cmt>
  <desc>Point 118</desc>
</trkpt>
<trkpt lat="24.799835000" lon="120.990959000">
  <ele>22.510000</ele>
  <time>2009-01-19T11:03:18Z</time>
  <name>Point 119</name>
  <cmt>Point 119</cmt>
  <desc>Point 119</desc>
</trkpt>
<trkpt lat="24.799850000" lon="120.990723000">
  <ele>20.080000</ele>
  <time>2009-01-19T11:03:23Z</time>
  <name>Point 120</name>
  <cmt>Point 120</cmt>
  <desc>Point 120</desc>
</trkpt>
<trkpt lat="24.799931000" lon="120.990501000">
  <ele>16.760000</ele>
  <time>2009-01-19T11:03:28Z</time>
  <name>Point 121</name>
  <cmt>Point 121</cmt>
  <desc>Point 121</desc>
</trkpt>
<trkpt lat="24.800146000" lon="120.990265000">
  <ele>13.190000</ele>
  <time>2009-01-19T11:03:33Z</time>
  <name>Point 122</name>
  <cmt>Point 122</cmt>
  <desc>Point 122</desc>
</trkpt>
<trkpt lat="24.800203000" lon="120.989876000">
  <ele>13.380000</ele>
  <time>2009-01-19T11:03:38Z</time>
  <name>Point 123</name>
  <cmt>Point 123</cmt>
  <desc>Point 123</desc>
</trkpt>
<trkpt lat="24.800245000" lon="120.989700000">
  <ele>21.400000</ele>
  <time>2009-01-19T11:03:43Z</time>
  <name>Point 124</name>
  <cmt>Point 124</cmt>
  <desc>Point 124</desc>
</trkpt>
<trkpt lat="24.800230000" lon="120.989525000">
  <ele>28.420000</ele>
  <time>2009-01-19T11:03:48Z</time>
  <name>Point 125</name>
  <cmt>Point 125</cmt>
  <desc>Point 125</desc>
</trkpt>
<trkpt lat="24.800169000" lon="120.989380000">
  <ele>34.090000</ele>
  <time>2009-01-19T11:03:53Z</time>
  <name>Point 126</name>
  <cmt>Point 126</cmt>
  <desc>Point 126</desc>
</trkpt>
<trkpt lat="24.800255000" lon="120.989197000">
  <ele>41.240000</ele>
  <time>2009-01-19T11:03:58Z</time>
  <name>Point 127</name>
  <cmt>Point 127</cmt>
  <desc>Point 127</desc>
</trkpt>
<trkpt lat="24.800406000" lon="120.988876000">
  <ele>46.710000</ele>
  <time>2009-01-19T11:04:03Z</time>
  <name>Point 128</name>
  <cmt>Point 128</cmt>
  <desc>Point 128</desc>
</trkpt>
<trkpt lat="24.800556000" lon="120.988503000">
  <ele>54.080000</ele>
  <time>2009-01-19T11:04:08Z</time>
  <name>Point 129</name>
  <cmt>Point 129</cmt>
  <desc>Point 129</desc>
</trkpt>
<trkpt lat="24.800730000" lon="120.988159000">
  <ele>53.300000</ele>
  <time>2009-01-19T11:04:13Z</time>
  <name>Point 130</name>
  <cmt>Point 130</cmt>
  <desc>Point 130</desc>
</trkpt>
<trkpt lat="24.800795000" lon="120.987907000">
  <ele>53.940000</ele>
  <time>2009-01-19T11:04:18Z</time>
  <name>Point 131</name>
  <cmt>Point 131</cmt>
  <desc>Point 131</desc>
</trkpt>
<trkpt lat="24.800970000" lon="120.987396000">
  <ele>50.040000</ele>
  <time>2009-01-19T11:04:23Z</time>
  <name>Point 132</name>
  <cmt>Point 132</cmt>
  <desc>Point 132</desc>
</trkpt>
<trkpt lat="24.801163000" lon="120.986847000">
  <ele>48.160000</ele>
  <time>2009-01-19T11:04:28Z</time>
  <name>Point 133</name>
  <cmt>Point 133</cmt>
  <desc>Point 133</desc>
</trkpt>
<trkpt lat="24.801353000" lon="120.986351000">
  <ele>43.770000</ele>
  <time>2009-01-19T11:04:33Z</time>
  <name>Point 134</name>
  <cmt>Point 134</cmt>
  <desc>Point 134</desc>
</trkpt>
<trkpt lat="24.801512000" lon="120.985870000">
  <ele>40.570000</ele>
  <time>2009-01-19T11:04:38Z</time>
  <name>Point 135</name>
  <cmt>Point 135</cmt>
  <desc>Point 135</desc>
</trkpt>
<trkpt lat="24.801636000" lon="120.985413000">
  <ele>40.510000</ele>
  <time>2009-01-19T11:04:43Z</time>
  <name>Point 136</name>
  <cmt>Point 136</cmt>
  <desc>Point 136</desc>
</trkpt>
<trkpt lat="24.801777000" lon="120.984932000">
  <ele>39.240000</ele>
  <time>2009-01-19T11:04:48Z</time>
  <name>Point 137</name>
  <cmt>Point 137</cmt>
  <desc>Point 137</desc>
</trkpt>
<trkpt lat="24.801918000" lon="120.984482000">
  <ele>33.070000</ele>
  <time>2009-01-19T11:04:53Z</time>
  <name>Point 138</name>
  <cmt>Point 138</cmt>
  <desc>Point 138</desc>
</trkpt>
<trkpt lat="24.802038000" lon="120.984093000">
  <ele>29.270000</ele>
  <time>2009-01-19T11:04:58Z</time>
  <name>Point 139</name>
  <cmt>Point 139</cmt>
  <desc>Point 139</desc>
</trkpt>
<trkpt lat="24.802149000" lon="120.983772000">
  <ele>21.630000</ele>
  <time>2009-01-19T11:05:03Z</time>
  <name>Point 140</name>
  <cmt>Point 140</cmt>
  <desc>Point 140</desc>
</trkpt>
<trkpt lat="24.802254000" lon="120.983513000">
  <ele>17.070000</ele>
  <time>2009-01-19T11:05:08Z</time>
  <name>Point 141</name>
  <cmt>Point 141</cmt>
  <desc>Point 141</desc>
</trkpt>
<trkpt lat="24.802277000" lon="120.983414000">
  <ele>17.180000</ele>
  <time>2009-01-19T11:05:13Z</time>
  <name>Point 142</name>
  <cmt>Point 142</cmt>
  <desc>Point 142</desc>
</trkpt>
<trkpt lat="24.802271000" lon="120.983429000">
  <ele>17.780000</ele>
  <time>2009-01-19T11:05:18Z</time>
  <name>Point 143</name>
  <cmt>Point 143</cmt>
  <desc>Point 143</desc>
</trkpt>
<trkpt lat="24.802271000" lon="120.983429000">
  <ele>17.750000</ele>
  <time>2009-01-19T11:05:23Z</time>
  <name>Point 144</name>
  <cmt>Point 144</cmt>
  <desc>Point 144</desc>
</trkpt>
<trkpt lat="24.802269000" lon="120.983437000">
  <ele>17.670000</ele>
  <time>2009-01-19T11:05:28Z</time>
  <name>Point 145</name>
  <cmt>Point 145</cmt>
  <desc>Point 145</desc>
</trkpt>
<trkpt lat="24.802269000" lon="120.983437000">
  <ele>17.660000</ele>
  <time>2009-01-19T11:05:33Z</time>
  <name>Point 146</name>
  <cmt>Point 146</cmt>
  <desc>Point 146</desc>
</trkpt>
<trkpt lat="24.802271000" lon="120.983429000">
  <ele>17.660000</ele>
  <time>2009-01-19T11:05:38Z</time>
  <name>Point 147</name>
  <cmt>Point 147</cmt>
  <desc>Point 147</desc>
</trkpt>
<trkpt lat="24.802275000" lon="120.983429000">
  <ele>17.680000</ele>
  <time>2009-01-19T11:05:43Z</time>
  <name>Point 148</name>
  <cmt>Point 148</cmt>
  <desc>Point 148</desc>
</trkpt>
<trkpt lat="24.802277000" lon="120.983421000">
  <ele>17.700000</ele>
  <time>2009-01-19T11:05:48Z</time>
  <name>Point 149</name>
  <cmt>Point 149</cmt>
  <desc>Point 149</desc>
</trkpt>
<trkpt lat="24.802280000" lon="120.983398000">
  <ele>17.780000</ele>
  <time>2009-01-19T11:05:53Z</time>
  <name>Point 150</name>
  <cmt>Point 150</cmt>
  <desc>Point 150</desc>
</trkpt>
<trkpt lat="24.802345000" lon="120.983208000">
  <ele>23.890000</ele>
  <time>2009-01-19T11:05:58Z</time>
  <name>Point 151</name>
  <cmt>Point 151</cmt>
  <desc>Point 151</desc>
</trkpt>
<trkpt lat="24.802380000" lon="120.983009000">
  <ele>26.070000</ele>
  <time>2009-01-19T11:06:03Z</time>
  <name>Point 152</name>
  <cmt>Point 152</cmt>
  <desc>Point 152</desc>
</trkpt>
<trkpt lat="24.802429000" lon="120.982834000">
  <ele>27.100000</ele>
  <time>2009-01-19T11:06:08Z</time>
  <name>Point 153</name>
  <cmt>Point 153</cmt>
  <desc>Point 153</desc>
</trkpt>
<trkpt lat="24.802504000" lon="120.982582000">
  <ele>28.110000</ele>
  <time>2009-01-19T11:06:13Z</time>
  <name>Point 154</name>
  <cmt>Point 154</cmt>
  <desc>Point 154</desc>
</trkpt>
<trkpt lat="24.802626000" lon="120.982231000">
  <ele>29.040000</ele>
  <time>2009-01-19T11:06:18Z</time>
  <name>Point 155</name>
  <cmt>Point 155</cmt>
  <desc>Point 155</desc>
</trkpt>
<trkpt lat="24.802773000" lon="120.981819000">
  <ele>28.470000</ele>
  <time>2009-01-19T11:06:23Z</time>
  <name>Point 156</name>
  <cmt>Point 156</cmt>
  <desc>Point 156</desc>
</trkpt>
<trkpt lat="24.802885000" lon="120.981483000">
  <ele>29.010000</ele>
  <time>2009-01-19T11:06:28Z</time>
  <name>Point 157</name>
  <cmt>Point 157</cmt>
  <desc>Point 157</desc>
</trkpt>
<trkpt lat="24.802988000" lon="120.981110000">
  <ele>29.100000</ele>
  <time>2009-01-19T11:06:33Z</time>
  <name>Point 158</name>
  <cmt>Point 158</cmt>
  <desc>Point 158</desc>
</trkpt>
<trkpt lat="24.803089000" lon="120.980751000">
  <ele>28.730000</ele>
  <time>2009-01-19T11:06:38Z</time>
  <name>Point 159</name>
  <cmt>Point 159</cmt>
  <desc>Point 159</desc>
</trkpt>
<trkpt lat="24.803139000" lon="120.980614000">
  <ele>29.680000</ele>
  <time>2009-01-19T11:06:43Z</time>
  <name>Point 160</name>
  <cmt>Point 160</cmt>
  <desc>Point 160</desc>
</trkpt>
<trkpt lat="24.803167000" lon="120.980583000">
  <ele>29.900000</ele>
  <time>2009-01-19T11:06:48Z</time>
  <name>Point 161</name>
  <cmt>Point 161</cmt>
  <desc>Point 161</desc>
</trkpt>
<trkpt lat="24.803202000" lon="120.980484000">
  <ele>30.660000</ele>
  <time>2009-01-19T11:06:53Z</time>
  <name>Point 162</name>
  <cmt>Point 162</cmt>
  <desc>Point 162</desc>
</trkpt>
<trkpt lat="24.803320000" lon="120.980164000">
  <ele>27.810000</ele>
  <time>2009-01-19T11:06:58Z</time>
  <name>Point 163</name>
  <cmt>Point 163</cmt>
  <desc>Point 163</desc>
</trkpt>
<trkpt lat="24.803434000" lon="120.979774000">
  <ele>27.030000</ele>
  <time>2009-01-19T11:07:03Z</time>
  <name>Point 164</name>
  <cmt>Point 164</cmt>
  <desc>Point 164</desc>
</trkpt>
<trkpt lat="24.803514000" lon="120.979492000">
  <ele>26.470000</ele>
  <time>2009-01-19T11:07:08Z</time>
  <name>Point 165</name>
  <cmt>Point 165</cmt>
  <desc>Point 165</desc>
</trkpt>
<trkpt lat="24.803581000" lon="120.979195000">
  <ele>27.440000</ele>
  <time>2009-01-19T11:07:13Z</time>
  <name>Point 166</name>
  <cmt>Point 166</cmt>
  <desc>Point 166</desc>
</trkpt>
<trkpt lat="24.803621000" lon="120.978897000">
  <ele>28.900000</ele>
  <time>2009-01-19T11:07:18Z</time>
  <name>Point 167</name>
  <cmt>Point 167</cmt>
  <desc>Point 167</desc>
</trkpt>
<trkpt lat="24.803741000" lon="120.978722000">
  <ele>29.330000</ele>
  <time>2009-01-19T11:07:23Z</time>
  <name>Point 168</name>
  <cmt>Point 168</cmt>
  <desc>Point 168</desc>
</trkpt>
<trkpt lat="24.803921000" lon="120.978493000">
  <ele>27.080000</ele>
  <time>2009-01-19T11:07:28Z</time>
  <name>Point 169</name>
  <cmt>Point 169</cmt>
  <desc>Point 169</desc>
</trkpt>
<trkpt lat="24.804201000" lon="120.978264000">
  <ele>28.160000</ele>
  <time>2009-01-19T11:07:33Z</time>
  <name>Point 170</name>
  <cmt>Point 170</cmt>
  <desc>Point 170</desc>
</trkpt>
<trkpt lat="24.804495000" lon="120.978012000">
  <ele>30.530000</ele>
  <time>2009-01-19T11:07:38Z</time>
  <name>Point 171</name>
  <cmt>Point 171</cmt>
  <desc>Point 171</desc>
</trkpt>
<trkpt lat="24.804804000" lon="120.977760000">
  <ele>31.230000</ele>
  <time>2009-01-19T11:07:43Z</time>
  <name>Point 172</name>
  <cmt>Point 172</cmt>
  <desc>Point 172</desc>
</trkpt>
<trkpt lat="24.805164000" lon="120.977417000">
  <ele>31.330000</ele>
  <time>2009-01-19T11:07:48Z</time>
  <name>Point 173</name>
  <cmt>Point 173</cmt>
  <desc>Point 173</desc>
</trkpt>
<trkpt lat="24.805386000" lon="120.977135000">
  <ele>30.480000</ele>
  <time>2009-01-19T11:07:53Z</time>
  <name>Point 174</name>
  <cmt>Point 174</cmt>
  <desc>Point 174</desc>
</trkpt>
<trkpt lat="24.805681000" lon="120.977371000">
  <ele>28.760000</ele>
  <time>2009-01-19T11:07:58Z</time>
  <name>Point 175</name>
  <cmt>Point 175</cmt>
  <desc>Point 175</desc>
</trkpt>
<trkpt lat="24.805920000" lon="120.977715000">
  <ele>30.050000</ele>
  <time>2009-01-19T11:08:03Z</time>
  <name>Point 176</name>
  <cmt>Point 176</cmt>
  <desc>Point 176</desc>
</trkpt>
<trkpt lat="24.806023000" lon="120.978020000">
  <ele>24.340000</ele>
  <time>2009-01-19T11:08:08Z</time>
  <name>Point 177</name>
  <cmt>Point 177</cmt>
  <desc>Point 177</desc>
</trkpt>
<trkpt lat="24.806181000" lon="120.978355000">
  <ele>24.830000</ele>
  <time>2009-01-19T11:08:13Z</time>
  <name>Point 178</name>
  <cmt>Point 178</cmt>
  <desc>Point 178</desc>
</trkpt>
<trkpt lat="24.806368000" lon="120.978600000">
  <ele>26.040000</ele>
  <time>2009-01-19T11:08:18Z</time>
  <name>Point 179</name>
  <cmt>Point 179</cmt>
  <desc>Point 179</desc>
</trkpt>
<trkpt lat="24.806520000" lon="120.978737000">
  <ele>25.490000</ele>
  <time>2009-01-19T11:08:23Z</time>
  <name>Point 180</name>
  <cmt>Point 180</cmt>
  <desc>Point 180</desc>
</trkpt>
<trkpt lat="24.806660000" lon="120.978928000">
  <ele>26.460000</ele>
  <time>2009-01-19T11:08:28Z</time>
  <name>Point 181</name>
  <cmt>Point 181</cmt>
  <desc>Point 181</desc>
</trkpt>
<trkpt lat="24.806787000" lon="120.979149000">
  <ele>27.760000</ele>
  <time>2009-01-19T11:08:33Z</time>
  <name>Point 182</name>
  <cmt>Point 182</cmt>
  <desc>Point 182</desc>
</trkpt>
<trkpt lat="24.806892000" lon="120.979370000">
  <ele>30.660000</ele>
  <time>2009-01-19T11:08:38Z</time>
  <name>Point 183</name>
  <cmt>Point 183</cmt>
  <desc>Point 183</desc>
</trkpt>
<trkpt lat="24.806927000" lon="120.979431000">
  <ele>29.410000</ele>
  <time>2009-01-19T11:08:43Z</time>
  <name>Point 184</name>
  <cmt>Point 184</cmt>
  <desc>Point 184</desc>
</trkpt>
<trkpt lat="24.806953000" lon="120.979477000">
  <ele>27.120000</ele>
  <time>2009-01-19T11:08:48Z</time>
  <name>Point 185</name>
  <cmt>Point 185</cmt>
  <desc>Point 185</desc>
</trkpt>
<trkpt lat="24.806953000" lon="120.979485000">
  <ele>25.910000</ele>
  <time>2009-01-19T11:08:53Z</time>
  <name>Point 186</name>
  <cmt>Point 186</cmt>
  <desc>Point 186</desc>
</trkpt>
<trkpt lat="24.806953000" lon="120.979485000">
  <ele>25.410000</ele>
  <time>2009-01-19T11:08:58Z</time>
  <name>Point 187</name>
  <cmt>Point 187</cmt>
  <desc>Point 187</desc>
</trkpt>
<trkpt lat="24.806955000" lon="120.979485000">
  <ele>25.210000</ele>
  <time>2009-01-19T11:09:03Z</time>
  <name>Point 188</name>
  <cmt>Point 188</cmt>
  <desc>Point 188</desc>
</trkpt>
<trkpt lat="24.806955000" lon="120.979485000">
  <ele>25.100000</ele>
  <time>2009-01-19T11:09:08Z</time>
  <name>Point 189</name>
  <cmt>Point 189</cmt>
  <desc>Point 189</desc>
</trkpt>
<trkpt lat="24.806957000" lon="120.979485000">
  <ele>25.020000</ele>
  <time>2009-01-19T11:09:13Z</time>
  <name>Point 190</name>
  <cmt>Point 190</cmt>
  <desc>Point 190</desc>
</trkpt>
<trkpt lat="24.806957000" lon="120.979485000">
  <ele>24.980000</ele>
  <time>2009-01-19T11:09:18Z</time>
  <name>Point 191</name>
  <cmt>Point 191</cmt>
  <desc>Point 191</desc>
</trkpt>
<trkpt lat="24.806959000" lon="120.979485000">
  <ele>24.970000</ele>
  <time>2009-01-19T11:09:23Z</time>
  <name>Point 192</name>
  <cmt>Point 192</cmt>
  <desc>Point 192</desc>
</trkpt>
<trkpt lat="24.806961000" lon="120.979492000">
  <ele>24.950000</ele>
  <time>2009-01-19T11:09:28Z</time>
  <name>Point 193</name>
  <cmt>Point 193</cmt>
  <desc>Point 193</desc>
</trkpt>
<trkpt lat="24.806965000" lon="120.979500000">
  <ele>24.990000</ele>
  <time>2009-01-19T11:09:33Z</time>
  <name>Point 194</name>
  <cmt>Point 194</cmt>
  <desc>Point 194</desc>
</trkpt>
<trkpt lat="24.806969000" lon="120.979507000">
  <ele>25.070000</ele>
  <time>2009-01-19T11:09:38Z</time>
  <name>Point 195</name>
  <cmt>Point 195</cmt>
  <desc>Point 195</desc>
</trkpt>
<trkpt lat="24.806971000" lon="120.979507000">
  <ele>25.160000</ele>
  <time>2009-01-19T11:09:43Z</time>
  <name>Point 196</name>
  <cmt>Point 196</cmt>
  <desc>Point 196</desc>
</trkpt>
<trkpt lat="24.806973000" lon="120.979500000">
  <ele>25.240000</ele>
  <time>2009-01-19T11:09:48Z</time>
  <name>Point 197</name>
  <cmt>Point 197</cmt>
  <desc>Point 197</desc>
</trkpt>
<trkpt lat="24.806988000" lon="120.979500000">
  <ele>25.190000</ele>
  <time>2009-01-19T11:09:53Z</time>
  <name>Point 198</name>
  <cmt>Point 198</cmt>
  <desc>Point 198</desc>
</trkpt>
<trkpt lat="24.807129000" lon="120.979324000">
  <ele>24.090000</ele>
  <time>2009-01-19T11:09:58Z</time>
  <name>Point 199</name>
  <cmt>Point 199</cmt>
  <desc>Point 199</desc>
</trkpt>
<trkpt lat="24.807346000" lon="120.979248000">
  <ele>22.100000</ele>
  <time>2009-01-19T11:10:03Z</time>
  <name>Point 200</name>
  <cmt>Point 200</cmt>
  <desc>Point 200</desc>
</trkpt>
<trkpt lat="24.807587000" lon="120.979095000">
  <ele>20.200000</ele>
  <time>2009-01-19T11:10:08Z</time>
  <name>Point 201</name>
  <cmt>Point 201</cmt>
  <desc>Point 201</desc>
</trkpt>
<trkpt lat="24.807785000" lon="120.978928000">
  <ele>18.710000</ele>
  <time>2009-01-19T11:10:13Z</time>
  <name>Point 202</name>
  <cmt>Point 202</cmt>
  <desc>Point 202</desc>
</trkpt>
<trkpt lat="24.807961000" lon="120.978691000">
  <ele>16.040000</ele>
  <time>2009-01-19T11:10:18Z</time>
  <name>Point 203</name>
  <cmt>Point 203</cmt>
  <desc>Point 203</desc>
</trkpt>
<trkpt lat="24.808132000" lon="120.978455000">
  <ele>11.870000</ele>
  <time>2009-01-19T11:10:23Z</time>
  <name>Point 204</name>
  <cmt>Point 204</cmt>
  <desc>Point 204</desc>
</trkpt>
<trkpt lat="24.808298000" lon="120.978325000">
  <ele>13.010000</ele>
  <time>2009-01-19T11:10:28Z</time>
  <name>Point 205</name>
  <cmt>Point 205</cmt>
  <desc>Point 205</desc>
</trkpt>
<trkpt lat="24.808405000" lon="120.978371000">
  <ele>11.900000</ele>
  <time>2009-01-19T11:10:33Z</time>
  <name>Point 206</name>
  <cmt>Point 206</cmt>
  <desc>Point 206</desc>
</trkpt>
<trkpt lat="24.808414000" lon="120.978355000">
  <ele>9.730000</ele>
  <time>2009-01-19T11:10:38Z</time>
  <name>Point 207</name>
  <cmt>Point 207</cmt>
  <desc>Point 207</desc>
</trkpt>
<trkpt lat="24.808422000" lon="120.978355000">
  <ele>8.940000</ele>
  <time>2009-01-19T11:10:43Z</time>
  <name>Point 208</name>
  <cmt>Point 208</cmt>
  <desc>Point 208</desc>
</trkpt>
<trkpt lat="24.808434000" lon="120.978340000">
  <ele>8.670000</ele>
  <time>2009-01-19T11:10:48Z</time>
  <name>Point 209</name>
  <cmt>Point 209</cmt>
  <desc>Point 209</desc>
</trkpt>
<trkpt lat="24.808437000" lon="120.978340000">
  <ele>8.550000</ele>
  <time>2009-01-19T11:10:53Z</time>
  <name>Point 210</name>
  <cmt>Point 210</cmt>
  <desc>Point 210</desc>
</trkpt>
<trkpt lat="24.808443000" lon="120.978333000">
  <ele>8.590000</ele>
  <time>2009-01-19T11:10:58Z</time>
  <name>Point 211</name>
  <cmt>Point 211</cmt>
  <desc>Point 211</desc>
</trkpt>
<trkpt lat="24.808455000" lon="120.978325000">
  <ele>8.610000</ele>
  <time>2009-01-19T11:11:03Z</time>
  <name>Point 212</name>
  <cmt>Point 212</cmt>
  <desc>Point 212</desc>
</trkpt>
<trkpt lat="24.808472000" lon="120.978310000">
  <ele>8.670000</ele>
  <time>2009-01-19T11:11:08Z</time>
  <name>Point 213</name>
  <cmt>Point 213</cmt>
  <desc>Point 213</desc>
</trkpt>
<trkpt lat="24.808626000" lon="120.978149000">
  <ele>8.780000</ele>
  <time>2009-01-19T11:11:13Z</time>
  <name>Point 214</name>
  <cmt>Point 214</cmt>
  <desc>Point 214</desc>
</trkpt>
<trkpt lat="24.808821000" lon="120.977921000">
  <ele>9.360000</ele>
  <time>2009-01-19T11:11:18Z</time>
  <name>Point 215</name>
  <cmt>Point 215</cmt>
  <desc>Point 215</desc>
</trkpt>
<trkpt lat="24.809069000" lon="120.977760000">
  <ele>8.490000</ele>
  <time>2009-01-19T11:11:23Z</time>
  <name>Point 216</name>
  <cmt>Point 216</cmt>
  <desc>Point 216</desc>
</trkpt>
<trkpt lat="24.809345000" lon="120.977600000">
  <ele>12.130000</ele>
  <time>2009-01-19T11:11:28Z</time>
  <name>Point 217</name>
  <cmt>Point 217</cmt>
  <desc>Point 217</desc>
</trkpt>
<trkpt lat="24.809572000" lon="120.977425000">
  <ele>14.500000</ele>
  <time>2009-01-19T11:11:33Z</time>
  <name>Point 218</name>
  <cmt>Point 218</cmt>
  <desc>Point 218</desc>
</trkpt>
<trkpt lat="24.809780000" lon="120.977257000">
  <ele>13.750000</ele>
  <time>2009-01-19T11:11:38Z</time>
  <name>Point 219</name>
  <cmt>Point 219</cmt>
  <desc>Point 219</desc>
</trkpt>
<trkpt lat="24.809956000" lon="120.977051000">
  <ele>12.680000</ele>
  <time>2009-01-19T11:11:43Z</time>
  <name>Point 220</name>
  <cmt>Point 220</cmt>
  <desc>Point 220</desc>
</trkpt>
<trkpt lat="24.810139000" lon="120.976875000">
  <ele>10.280000</ele>
  <time>2009-01-19T11:11:48Z</time>
  <name>Point 221</name>
  <cmt>Point 221</cmt>
  <desc>Point 221</desc>
</trkpt>
<trkpt lat="24.810328000" lon="120.976563000">
  <ele>7.310000</ele>
  <time>2009-01-19T11:11:53Z</time>
  <name>Point 222</name>
  <cmt>Point 222</cmt>
  <desc>Point 222</desc>
</trkpt>
<trkpt lat="24.810547000" lon="120.976311000">
  <ele>4.110000</ele>
  <time>2009-01-19T11:11:58Z</time>
  <name>Point 223</name>
  <cmt>Point 223</cmt>
  <desc>Point 223</desc>
</trkpt>
<trkpt lat="24.810787000" lon="120.976120000">
  <ele>1.190000</ele>
  <time>2009-01-19T11:12:03Z</time>
  <name>Point 224</name>
  <cmt>Point 224</cmt>
  <desc>Point 224</desc>
</trkpt>
<trkpt lat="24.811045000" lon="120.975906000">
  <ele>-2.270000</ele>
  <time>2009-01-19T11:12:08Z</time>
  <name>Point 225</name>
  <cmt>Point 225</cmt>
  <desc>Point 225</desc>
</trkpt>
<trkpt lat="24.811321000" lon="120.975708000">
  <ele>-4.950000</ele>
  <time>2009-01-19T11:12:13Z</time>
  <name>Point 226</name>
  <cmt>Point 226</cmt>
  <desc>Point 226</desc>
</trkpt>
<trkpt lat="24.811602000" lon="120.975563000">
  <ele>-6.300000</ele>
  <time>2009-01-19T11:12:18Z</time>
  <name>Point 227</name>
  <cmt>Point 227</cmt>
  <desc>Point 227</desc>
</trkpt>
<trkpt lat="24.811813000" lon="120.975418000">
  <ele>-8.050000</ele>
  <time>2009-01-19T11:12:23Z</time>
  <name>Point 228</name>
  <cmt>Point 228</cmt>
  <desc>Point 228</desc>
</trkpt>
<trkpt lat="24.811996000" lon="120.975273000">
  <ele>-11.760000</ele>
  <time>2009-01-19T11:12:28Z</time>
  <name>Point 229</name>
  <cmt>Point 229</cmt>
  <desc>Point 229</desc>
</trkpt>
<trkpt lat="24.812157000" lon="120.975121000">
  <ele>-13.580000</ele>
  <time>2009-01-19T11:12:33Z</time>
  <name>Point 230</name>
  <cmt>Point 230</cmt>
  <desc>Point 230</desc>
</trkpt>
<trkpt lat="24.812452000" lon="120.974976000">
  <ele>-9.680000</ele>
  <time>2009-01-19T11:12:38Z</time>
  <name>Point 231</name>
  <cmt>Point 231</cmt>
  <desc>Point 231</desc>
</trkpt>
<trkpt lat="24.812695000" lon="120.974701000">
  <ele>-6.190000</ele>
  <time>2009-01-19T11:12:43Z</time>
  <name>Point 232</name>
  <cmt>Point 232</cmt>
  <desc>Point 232</desc>
</trkpt>
<trkpt lat="24.812998000" lon="120.974533000">
  <ele>-5.530000</ele>
  <time>2009-01-19T11:12:48Z</time>
  <name>Point 233</name>
  <cmt>Point 233</cmt>
  <desc>Point 233</desc>
</trkpt>
<trkpt lat="24.813297000" lon="120.974335000">
  <ele>-3.010000</ele>
  <time>2009-01-19T11:12:53Z</time>
  <name>Point 234</name>
  <cmt>Point 234</cmt>
  <desc>Point 234</desc>
</trkpt>
<trkpt lat="24.813515000" lon="120.974236000">
  <ele>-1.290000</ele>
  <time>2009-01-19T11:12:58Z</time>
  <name>Point 235</name>
  <cmt>Point 235</cmt>
  <desc>Point 235</desc>
</trkpt>
<trkpt lat="24.813667000" lon="120.974159000">
  <ele>-5.250000</ele>
  <time>2009-01-19T11:13:03Z</time>
  <name>Point 236</name>
  <cmt>Point 236</cmt>
  <desc>Point 236</desc>
</trkpt>
<trkpt lat="24.813837000" lon="120.974152000">
  <ele>-6.780000</ele>
  <time>2009-01-19T11:13:08Z</time>
  <name>Point 237</name>
  <cmt>Point 237</cmt>
  <desc>Point 237</desc>
</trkpt>
<trkpt lat="24.813913000" lon="120.974129000">
  <ele>-11.840000</ele>
  <time>2009-01-19T11:13:13Z</time>
  <name>Point 238</name>
  <cmt>Point 238</cmt>
  <desc>Point 238</desc>
</trkpt>
<trkpt lat="24.813986000" lon="120.974121000">
  <ele>-13.280000</ele>
  <time>2009-01-19T11:13:18Z</time>
  <name>Point 239</name>
  <cmt>Point 239</cmt>
  <desc>Point 239</desc>
</trkpt>
<trkpt lat="24.814001000" lon="120.974113000">
  <ele>-14.830000</ele>
  <time>2009-01-19T11:13:23Z</time>
  <name>Point 240</name>
  <cmt>Point 240</cmt>
  <desc>Point 240</desc>
</trkpt>
<trkpt lat="24.814011000" lon="120.974113000">
  <ele>-15.130000</ele>
  <time>2009-01-19T11:13:28Z</time>
  <name>Point 241</name>
  <cmt>Point 241</cmt>
  <desc>Point 241</desc>
</trkpt>
<trkpt lat="24.814014000" lon="120.974106000">
  <ele>-15.200000</ele>
  <time>2009-01-19T11:13:33Z</time>
  <name>Point 242</name>
  <cmt>Point 242</cmt>
  <desc>Point 242</desc>
</trkpt>
<trkpt lat="24.814020000" lon="120.974106000">
  <ele>-15.150000</ele>
  <time>2009-01-19T11:13:38Z</time>
  <name>Point 243</name>
  <cmt>Point 243</cmt>
  <desc>Point 243</desc>
</trkpt>
<trkpt lat="24.814030000" lon="120.974098000">
  <ele>-15.050000</ele>
  <time>2009-01-19T11:13:43Z</time>
  <name>Point 244</name>
  <cmt>Point 244</cmt>
  <desc>Point 244</desc>
</trkpt>
<trkpt lat="24.814039000" lon="120.974091000">
  <ele>-14.870000</ele>
  <time>2009-01-19T11:13:48Z</time>
  <name>Point 245</name>
  <cmt>Point 245</cmt>
  <desc>Point 245</desc>
</trkpt>
<trkpt lat="24.814054000" lon="120.974083000">
  <ele>-14.810000</ele>
  <time>2009-01-19T11:13:53Z</time>
  <name>Point 246</name>
  <cmt>Point 246</cmt>
  <desc>Point 246</desc>
</trkpt>
<trkpt lat="24.814077000" lon="120.974083000">
  <ele>-14.790000</ele>
  <time>2009-01-19T11:13:58Z</time>
  <name>Point 247</name>
  <cmt>Point 247</cmt>
  <desc>Point 247</desc>
</trkpt>
<trkpt lat="24.814102000" lon="120.974083000">
  <ele>-14.770000</ele>
  <time>2009-01-19T11:14:03Z</time>
  <name>Point 248</name>
  <cmt>Point 248</cmt>
  <desc>Point 248</desc>
</trkpt>
<trkpt lat="24.814108000" lon="120.974075000">
  <ele>-14.630000</ele>
  <time>2009-01-19T11:14:08Z</time>
  <name>Point 249</name>
  <cmt>Point 249</cmt>
  <desc>Point 249</desc>
</trkpt>
<trkpt lat="24.814108000" lon="120.974083000">
  <ele>-14.490000</ele>
  <time>2009-01-19T11:14:13Z</time>
  <name>Point 250</name>
  <cmt>Point 250</cmt>
  <desc>Point 250</desc>
</trkpt>
<trkpt lat="24.814110000" lon="120.974083000">
  <ele>-14.370000</ele>
  <time>2009-01-19T11:14:18Z</time>
  <name>Point 251</name>
  <cmt>Point 251</cmt>
  <desc>Point 251</desc>
</trkpt>
<trkpt lat="24.814112000" lon="120.974075000">
  <ele>-14.230000</ele>
  <time>2009-01-19T11:14:23Z</time>
  <name>Point 252</name>
  <cmt>Point 252</cmt>
  <desc>Point 252</desc>
</trkpt>
<trkpt lat="24.814117000" lon="120.974075000">
  <ele>-14.120000</ele>
  <time>2009-01-19T11:14:28Z</time>
  <name>Point 253</name>
  <cmt>Point 253</cmt>
  <desc>Point 253</desc>
</trkpt>
<trkpt lat="24.814119000" lon="120.974075000">
  <ele>-14.060000</ele>
  <time>2009-01-19T11:14:33Z</time>
  <name>Point 254</name>
  <cmt>Point 254</cmt>
  <desc>Point 254</desc>
</trkpt>
<trkpt lat="24.814121000" lon="120.974075000">
  <ele>-14.010000</ele>
  <time>2009-01-19T11:14:38Z</time>
  <name>Point 255</name>
  <cmt>Point 255</cmt>
  <desc>Point 255</desc>
</trkpt>
<trkpt lat="24.814125000" lon="120.974068000">
  <ele>-13.980000</ele>
  <time>2009-01-19T11:14:43Z</time>
  <name>Point 256</name>
  <cmt>Point 256</cmt>
  <desc>Point 256</desc>
</trkpt>
<trkpt lat="24.814150000" lon="120.974030000">
  <ele>-12.340000</ele>
  <time>2009-01-19T11:14:48Z</time>
  <name>Point 257</name>
  <cmt>Point 257</cmt>
  <desc>Point 257</desc>
</trkpt>
<trkpt lat="24.814102000" lon="120.973938000">
  <ele>-10.520000</ele>
  <time>2009-01-19T11:14:53Z</time>
  <name>Point 258</name>
  <cmt>Point 258</cmt>
  <desc>Point 258</desc>
</trkpt>
<trkpt lat="24.813879000" lon="120.973572000">
  <ele>-8.930000</ele>
  <time>2009-01-19T11:14:58Z</time>
  <name>Point 259</name>
  <cmt>Point 259</cmt>
  <desc>Point 259</desc>
</trkpt>
<trkpt lat="24.813745000" lon="120.973320000">
  <ele>-7.420000</ele>
  <time>2009-01-19T11:15:03Z</time>
  <name>Point 260</name>
  <cmt>Point 260</cmt>
  <desc>Point 260</desc>
</trkpt>
<trkpt lat="24.813944000" lon="120.973022000">
  <ele>-0.310000</ele>
  <time>2009-01-19T11:15:08Z</time>
  <name>Point 261</name>
  <cmt>Point 261</cmt>
  <desc>Point 261</desc>
</trkpt>
<trkpt lat="24.814112000" lon="120.972702000">
  <ele>5.820000</ele>
  <time>2009-01-19T11:15:13Z</time>
  <name>Point 262</name>
  <cmt>Point 262</cmt>
  <desc>Point 262</desc>
</trkpt>
<trkpt lat="24.814133000" lon="120.972450000">
  <ele>13.860000</ele>
  <time>2009-01-19T11:15:18Z</time>
  <name>Point 263</name>
  <cmt>Point 263</cmt>
  <desc>Point 263</desc>
</trkpt>
<trkpt lat="24.814116000" lon="120.972153000">
  <ele>17.200000</ele>
  <time>2009-01-19T11:15:23Z</time>
  <name>Point 264</name>
  <cmt>Point 264</cmt>
  <desc>Point 264</desc>
</trkpt>
<trkpt lat="24.814117000" lon="120.971863000">
  <ele>22.460000</ele>
  <time>2009-01-19T11:15:28Z</time>
  <name>Point 265</name>
  <cmt>Point 265</cmt>
  <desc>Point 265</desc>
</trkpt>
<trkpt lat="24.814096000" lon="120.971588000">
  <ele>27.480000</ele>
  <time>2009-01-19T11:15:33Z</time>
  <name>Point 266</name>
  <cmt>Point 266</cmt>
  <desc>Point 266</desc>
</trkpt>
<trkpt lat="24.814062000" lon="120.971268000">
  <ele>31.350000</ele>
  <time>2009-01-19T11:15:38Z</time>
  <name>Point 267</name>
  <cmt>Point 267</cmt>
  <desc>Point 267</desc>
</trkpt>
<trkpt lat="24.814049000" lon="120.970924000">
  <ele>32.410000</ele>
  <time>2009-01-19T11:15:43Z</time>
  <name>Point 268</name>
  <cmt>Point 268</cmt>
  <desc>Point 268</desc>
</trkpt>
<trkpt lat="24.814003000" lon="120.970596000">
  <ele>36.680000</ele>
  <time>2009-01-19T11:15:48Z</time>
  <name>Point 269</name>
  <cmt>Point 269</cmt>
  <desc>Point 269</desc>
</trkpt>
<trkpt lat="24.813898000" lon="120.970215000">
  <ele>41.020000</ele>
  <time>2009-01-19T11:15:53Z</time>
  <name>Point 270</name>
  <cmt>Point 270</cmt>
  <desc>Point 270</desc>
</trkpt>
<trkpt lat="24.813890000" lon="120.969994000">
  <ele>44.740000</ele>
  <time>2009-01-19T11:15:58Z</time>
  <name>Point 271</name>
  <cmt>Point 271</cmt>
  <desc>Point 271</desc>
</trkpt>
<trkpt lat="24.813862000" lon="120.969612000">
  <ele>47.980000</ele>
  <time>2009-01-19T11:16:03Z</time>
  <name>Point 272</name>
  <cmt>Point 272</cmt>
  <desc>Point 272</desc>
</trkpt>
<trkpt lat="24.813828000" lon="120.969398000">
  <ele>48.900000</ele>
  <time>2009-01-19T11:16:08Z</time>
  <name>Point 273</name>
  <cmt>Point 273</cmt>
  <desc>Point 273</desc>
</trkpt>
<trkpt lat="24.813875000" lon="120.969231000">
  <ele>53.140000</ele>
  <time>2009-01-19T11:16:13Z</time>
  <name>Point 274</name>
  <cmt>Point 274</cmt>
  <desc>Point 274</desc>
</trkpt>
<trkpt lat="24.813852000" lon="120.969055000">
  <ele>58.220000</ele>
  <time>2009-01-19T11:16:18Z</time>
  <name>Point 275</name>
  <cmt>Point 275</cmt>
  <desc>Point 275</desc>
</trkpt>
<trkpt lat="24.813885000" lon="120.968819000">
  <ele>61.270000</ele>
  <time>2009-01-19T11:16:23Z</time>
  <name>Point 276</name>
  <cmt>Point 276</cmt>
  <desc>Point 276</desc>
</trkpt>
<trkpt lat="24.813910000" lon="120.968643000">
  <ele>66.950000</ele>
  <time>2009-01-19T11:16:28Z</time>
  <name>Point 277</name>
  <cmt>Point 277</cmt>
  <desc>Point 277</desc>
</trkpt>
<trkpt lat="24.813955000" lon="120.968468000">
  <ele>68.440000</ele>
  <time>2009-01-19T11:16:33Z</time>
  <name>Point 278</name>
  <cmt>Point 278</cmt>
  <desc>Point 278</desc>
</trkpt>
<trkpt lat="24.814022000" lon="120.968323000">
  <ele>67.940000</ele>
  <time>2009-01-19T11:16:38Z</time>
  <name>Point 279</name>
  <cmt>Point 279</cmt>
  <desc>Point 279</desc>
</trkpt>
<trkpt lat="24.814066000" lon="120.968246000">
  <ele>67.470000</ele>
  <time>2009-01-19T11:16:43Z</time>
  <name>Point 280</name>
  <cmt>Point 280</cmt>
  <desc>Point 280</desc>
</trkpt>
<trkpt lat="24.814070000" lon="120.968239000">
  <ele>68.200000</ele>
  <time>2009-01-19T11:16:48Z</time>
  <name>Point 281</name>
  <cmt>Point 281</cmt>
  <desc>Point 281</desc>
</trkpt>
<trkpt lat="24.814070000" lon="120.968254000">
  <ele>68.510000</ele>
  <time>2009-01-19T11:16:53Z</time>
  <name>Point 282</name>
  <cmt>Point 282</cmt>
  <desc>Point 282</desc>
</trkpt>
<trkpt lat="24.814077000" lon="120.968277000">
  <ele>68.700000</ele>
  <time>2009-01-19T11:16:58Z</time>
  <name>Point 283</name>
  <cmt>Point 283</cmt>
  <desc>Point 283</desc>
</trkpt>
<trkpt lat="24.814074000" lon="120.968269000">
  <ele>68.830000</ele>
  <time>2009-01-19T11:17:03Z</time>
  <name>Point 284</name>
  <cmt>Point 284</cmt>
  <desc>Point 284</desc>
</trkpt>
<trkpt lat="24.814070000" lon="120.968262000">
  <ele>68.830000</ele>
  <time>2009-01-19T11:17:08Z</time>
  <name>Point 285</name>
  <cmt>Point 285</cmt>
  <desc>Point 285</desc>
</trkpt>
<trkpt lat="24.814081000" lon="120.968262000">
  <ele>68.780000</ele>
  <time>2009-01-19T11:17:13Z</time>
  <name>Point 286</name>
  <cmt>Point 286</cmt>
  <desc>Point 286</desc>
</trkpt>
<trkpt lat="24.814087000" lon="120.968262000">
  <ele>68.630000</ele>
  <time>2009-01-19T11:17:18Z</time>
  <name>Point 287</name>
  <cmt>Point 287</cmt>
  <desc>Point 287</desc>
</trkpt>
<trkpt lat="24.814083000" lon="120.968254000">
  <ele>68.540000</ele>
  <time>2009-01-19T11:17:23Z</time>
  <name>Point 288</name>
  <cmt>Point 288</cmt>
  <desc>Point 288</desc>
</trkpt>
<trkpt lat="24.814079000" lon="120.968254000">
  <ele>68.470000</ele>
  <time>2009-01-19T11:17:28Z</time>
  <name>Point 289</name>
  <cmt>Point 289</cmt>
  <desc>Point 289</desc>
</trkpt>
<trkpt lat="24.814074000" lon="120.968246000">
  <ele>68.420000</ele>
  <time>2009-01-19T11:17:33Z</time>
  <name>Point 290</name>
  <cmt>Point 290</cmt>
  <desc>Point 290</desc>
</trkpt>
<trkpt lat="24.814068000" lon="120.968246000">
  <ele>68.460000</ele>
  <time>2009-01-19T11:17:38Z</time>
  <name>Point 291</name>
  <cmt>Point 291</cmt>
  <desc>Point 291</desc>
</trkpt>
<trkpt lat="24.814060000" lon="120.968239000">
  <ele>68.530000</ele>
  <time>2009-01-19T11:17:43Z</time>
  <name>Point 292</name>
  <cmt>Point 292</cmt>
  <desc>Point 292</desc>
</trkpt>
<trkpt lat="24.814053000" lon="120.968231000">
  <ele>68.590000</ele>
  <time>2009-01-19T11:17:48Z</time>
  <name>Point 293</name>
  <cmt>Point 293</cmt>
  <desc>Point 293</desc>
</trkpt>
<trkpt lat="24.814045000" lon="120.968224000">
  <ele>68.620000</ele>
  <time>2009-01-19T11:17:53Z</time>
  <name>Point 294</name>
  <cmt>Point 294</cmt>
  <desc>Point 294</desc>
</trkpt>
<trkpt lat="24.814037000" lon="120.968216000">
  <ele>68.630000</ele>
  <time>2009-01-19T11:17:58Z</time>
  <name>Point 295</name>
  <cmt>Point 295</cmt>
  <desc>Point 295</desc>
</trkpt>
<trkpt lat="24.814030000" lon="120.968208000">
  <ele>68.720000</ele>
  <time>2009-01-19T11:18:03Z</time>
  <name>Point 296</name>
  <cmt>Point 296</cmt>
  <desc>Point 296</desc>
</trkpt>
<trkpt lat="24.814022000" lon="120.968201000">
  <ele>68.840000</ele>
  <time>2009-01-19T11:18:08Z</time>
  <name>Point 297</name>
  <cmt>Point 297</cmt>
  <desc>Point 297</desc>
</trkpt>
<trkpt lat="24.814014000" lon="120.968193000">
  <ele>68.950000</ele>
  <time>2009-01-19T11:18:13Z</time>
  <name>Point 298</name>
  <cmt>Point 298</cmt>
  <desc>Point 298</desc>
</trkpt>
<trkpt lat="24.814007000" lon="120.968193000">
  <ele>69.040000</ele>
  <time>2009-01-19T11:18:18Z</time>
  <name>Point 299</name>
  <cmt>Point 299</cmt>
  <desc>Point 299</desc>
</trkpt>
<trkpt lat="24.814007000" lon="120.968185000">
  <ele>69.150000</ele>
  <time>2009-01-19T11:18:23Z</time>
  <name>Point 300</name>
  <cmt>Point 300</cmt>
  <desc>Point 300</desc>
</trkpt>
<trkpt lat="24.814007000" lon="120.968185000">
  <ele>69.220000</ele>
  <time>2009-01-19T11:18:28Z</time>
  <name>Point 301</name>
  <cmt>Point 301</cmt>
  <desc>Point 301</desc>
</trkpt>
<trkpt lat="24.814005000" lon="120.968178000">
  <ele>69.270000</ele>
  <time>2009-01-19T11:18:33Z</time>
  <name>Point 302</name>
  <cmt>Point 302</cmt>
  <desc>Point 302</desc>
</trkpt>
<trkpt lat="24.813999000" lon="120.968178000">
  <ele>69.320000</ele>
  <time>2009-01-19T11:18:38Z</time>
  <name>Point 303</name>
  <cmt>Point 303</cmt>
  <desc>Point 303</desc>
</trkpt>
<trkpt lat="24.813992000" lon="120.968170000">
  <ele>69.340000</ele>
  <time>2009-01-19T11:18:43Z</time>
  <name>Point 304</name>
  <cmt>Point 304</cmt>
  <desc>Point 304</desc>
</trkpt>
<trkpt lat="24.813984000" lon="120.968117000">
  <ele>71.010000</ele>
  <time>2009-01-19T11:18:48Z</time>
  <name>Point 305</name>
  <cmt>Point 305</cmt>
  <desc>Point 305</desc>
</trkpt>
<trkpt lat="24.813974000" lon="120.967972000">
  <ele>76.790000</ele>
  <time>2009-01-19T11:18:53Z</time>
  <name>Point 306</name>
  <cmt>Point 306</cmt>
  <desc>Point 306</desc>
</trkpt>
<trkpt lat="24.813955000" lon="120.967873000">
  <ele>79.010000</ele>
  <time>2009-01-19T11:18:58Z</time>
  <name>Point 307</name>
  <cmt>Point 307</cmt>
  <desc>Point 307</desc>
</trkpt>
<trkpt lat="24.813923000" lon="120.967789000">
  <ele>80.890000</ele>
  <time>2009-01-19T11:19:03Z</time>
  <name>Point 308</name>
  <cmt>Point 308</cmt>
  <desc>Point 308</desc>
</trkpt>
<trkpt lat="24.813910000" lon="120.967735000">
  <ele>82.820000</ele>
  <time>2009-01-19T11:19:08Z</time>
  <name>Point 309</name>
  <cmt>Point 309</cmt>
  <desc>Point 309</desc>
</trkpt>
<trkpt lat="24.813936000" lon="120.967728000">
  <ele>83.830000</ele>
  <time>2009-01-19T11:19:13Z</time>
  <name>Point 310</name>
  <cmt>Point 310</cmt>
  <desc>Point 310</desc>
</trkpt>
<trkpt lat="24.813971000" lon="120.967743000">
  <ele>85.290000</ele>
  <time>2009-01-19T11:19:18Z</time>
  <name>Point 311</name>
  <cmt>Point 311</cmt>
  <desc>Point 311</desc>
</trkpt>
<trkpt lat="24.813951000" lon="120.967674000">
  <ele>88.330000</ele>
  <time>2009-01-19T11:19:23Z</time>
  <name>Point 312</name>
  <cmt>Point 312</cmt>
  <desc>Point 312</desc>
</trkpt>
<trkpt lat="24.813934000" lon="120.967636000">
  <ele>90.920000</ele>
  <time>2009-01-19T11:19:28Z</time>
  <name>Point 313</name>
  <cmt>Point 313</cmt>
  <desc>Point 313</desc>
</trkpt>
<trkpt lat="24.813931000" lon="120.967636000">
  <ele>91.690000</ele>
  <time>2009-01-19T11:19:33Z</time>
  <name>Point 314</name>
  <cmt>Point 314</cmt>
  <desc>Point 314</desc>
</trkpt>
<trkpt lat="24.813927000" lon="120.967636000">
  <ele>91.810000</ele>
  <time>2009-01-19T11:19:38Z</time>
  <name>Point 315</name>
  <cmt>Point 315</cmt>
  <desc>Point 315</desc>
</trkpt>
<trkpt lat="24.813929000" lon="120.967636000">
  <ele>91.890000</ele>
  <time>2009-01-19T11:19:43Z</time>
  <name>Point 316</name>
  <cmt>Point 316</cmt>
  <desc>Point 316</desc>
</trkpt>
<trkpt lat="24.813931000" lon="120.967636000">
  <ele>91.960000</ele>
  <time>2009-01-19T11:19:48Z</time>
  <name>Point 317</name>
  <cmt>Point 317</cmt>
  <desc>Point 317</desc>
</trkpt>
<trkpt lat="24.813932000" lon="120.967636000">
  <ele>92.020000</ele>
  <time>2009-01-19T11:19:53Z</time>
  <name>Point 318</name>
  <cmt>Point 318</cmt>
  <desc>Point 318</desc>
</trkpt>
<trkpt lat="24.813931000" lon="120.967636000">
  <ele>92.070000</ele>
  <time>2009-01-19T11:19:58Z</time>
  <name>Point 319</name>
  <cmt>Point 319</cmt>
  <desc>Point 319</desc>
</trkpt>
<trkpt lat="24.813931000" lon="120.967636000">
  <ele>92.090000</ele>
  <time>2009-01-19T11:20:03Z</time>
  <name>Point 320</name>
  <cmt>Point 320</cmt>
  <desc>Point 320</desc>
</trkpt>
<trkpt lat="24.813927000" lon="120.967628000">
  <ele>92.110000</ele>
  <time>2009-01-19T11:20:08Z</time>
  <name>Point 321</name>
  <cmt>Point 321</cmt>
  <desc>Point 321</desc>
</trkpt>
<trkpt lat="24.813927000" lon="120.967628000">
  <ele>92.130000</ele>
  <time>2009-01-19T11:20:13Z</time>
  <name>Point 322</name>
  <cmt>Point 322</cmt>
  <desc>Point 322</desc>
</trkpt>
<trkpt lat="24.813927000" lon="120.967628000">
  <ele>92.140000</ele>
  <time>2009-01-19T11:20:18Z</time>
  <name>Point 323</name>
  <cmt>Point 323</cmt>
  <desc>Point 323</desc>
</trkpt>
<trkpt lat="24.813927000" lon="120.967621000">
  <ele>92.140000</ele>
  <time>2009-01-19T11:20:23Z</time>
  <name>Point 324</name>
  <cmt>Point 324</cmt>
  <desc>Point 324</desc>
</trkpt>
<trkpt lat="24.813925000" lon="120.967621000">
  <ele>92.130000</ele>
  <time>2009-01-19T11:20:28Z</time>
  <name>Point 325</name>
  <cmt>Point 325</cmt>
  <desc>Point 325</desc>
</trkpt>
<trkpt lat="24.813923000" lon="120.967621000">
  <ele>92.090000</ele>
  <time>2009-01-19T11:20:33Z</time>
  <name>Point 326</name>
  <cmt>Point 326</cmt>
  <desc>Point 326</desc>
</trkpt>
<trkpt lat="24.813925000" lon="120.967621000">
  <ele>92.130000</ele>
  <time>2009-01-19T11:20:38Z</time>
  <name>Point 327</name>
  <cmt>Point 327</cmt>
  <desc>Point 327</desc>
</trkpt>
<trkpt lat="24.813923000" lon="120.967613000">
  <ele>92.170000</ele>
  <time>2009-01-19T11:20:43Z</time>
  <name>Point 328</name>
  <cmt>Point 328</cmt>
  <desc>Point 328</desc>
</trkpt>
<trkpt lat="24.813923000" lon="120.967613000">
  <ele>92.230000</ele>
  <time>2009-01-19T11:20:48Z</time>
  <name>Point 329</name>
  <cmt>Point 329</cmt>
  <desc>Point 329</desc>
</trkpt>
<trkpt lat="24.813919000" lon="120.967613000">
  <ele>92.300000</ele>
  <time>2009-01-19T11:20:53Z</time>
  <name>Point 330</name>
  <cmt>Point 330</cmt>
  <desc>Point 330</desc>
</trkpt>
<trkpt lat="24.813917000" lon="120.967613000">
  <ele>92.360000</ele>
  <time>2009-01-19T11:20:58Z</time>
  <name>Point 331</name>
  <cmt>Point 331</cmt>
  <desc>Point 331</desc>
</trkpt>
<trkpt lat="24.813921000" lon="120.967621000">
  <ele>92.420000</ele>
  <time>2009-01-19T11:21:03Z</time>
  <name>Point 332</name>
  <cmt>Point 332</cmt>
  <desc>Point 332</desc>
</trkpt>
<trkpt lat="24.813927000" lon="120.967621000">
  <ele>92.470000</ele>
  <time>2009-01-19T11:21:08Z</time>
  <name>Point 333</name>
  <cmt>Point 333</cmt>
  <desc>Point 333</desc>
</trkpt>
<trkpt lat="24.813925000" lon="120.967621000">
  <ele>92.540000</ele>
  <time>2009-01-19T11:21:13Z</time>
  <name>Point 334</name>
  <cmt>Point 334</cmt>
  <desc>Point 334</desc>
</trkpt>
<trkpt lat="24.813925000" lon="120.967621000">
  <ele>92.610000</ele>
  <time>2009-01-19T11:21:18Z</time>
  <name>Point 335</name>
  <cmt>Point 335</cmt>
  <desc>Point 335</desc>
</trkpt>
<trkpt lat="24.813923000" lon="120.967621000">
  <ele>92.720000</ele>
  <time>2009-01-19T11:21:23Z</time>
  <name>Point 336</name>
  <cmt>Point 336</cmt>
  <desc>Point 336</desc>
</trkpt>
<trkpt lat="24.813919000" lon="120.967613000">
  <ele>92.880000</ele>
  <time>2009-01-19T11:21:28Z</time>
  <name>Point 337</name>
  <cmt>Point 337</cmt>
  <desc>Point 337</desc>
</trkpt>
<trkpt lat="24.813917000" lon="120.967613000">
  <ele>92.980000</ele>
  <time>2009-01-19T11:21:33Z</time>
  <name>Point 338</name>
  <cmt>Point 338</cmt>
  <desc>Point 338</desc>
</trkpt>
<trkpt lat="24.813911000" lon="120.967613000">
  <ele>93.110000</ele>
  <time>2009-01-19T11:21:38Z</time>
  <name>Point 339</name>
  <cmt>Point 339</cmt>
  <desc>Point 339</desc>
</trkpt>
<trkpt lat="24.813906000" lon="120.967606000">
  <ele>93.220000</ele>
  <time>2009-01-19T11:21:43Z</time>
  <name>Point 340</name>
  <cmt>Point 340</cmt>
  <desc>Point 340</desc>
</trkpt>
<trkpt lat="24.813902000" lon="120.967606000">
  <ele>93.310000</ele>
  <time>2009-01-19T11:21:48Z</time>
  <name>Point 341</name>
  <cmt>Point 341</cmt>
  <desc>Point 341</desc>
</trkpt>
<trkpt lat="24.813902000" lon="120.967598000">
  <ele>93.390000</ele>
  <time>2009-01-19T11:21:53Z</time>
  <name>Point 342</name>
  <cmt>Point 342</cmt>
  <desc>Point 342</desc>
</trkpt>
<trkpt lat="24.813898000" lon="120.967598000">
  <ele>93.550000</ele>
  <time>2009-01-19T11:21:58Z</time>
  <name>Point 343</name>
  <cmt>Point 343</cmt>
  <desc>Point 343</desc>
</trkpt>
<trkpt lat="24.813896000" lon="120.967590000">
  <ele>93.690000</ele>
  <time>2009-01-19T11:22:03Z</time>
  <name>Point 344</name>
  <cmt>Point 344</cmt>
  <desc>Point 344</desc>
</trkpt>
<trkpt lat="24.813892000" lon="120.967590000">
  <ele>93.830000</ele>
  <time>2009-01-19T11:22:08Z</time>
  <name>Point 345</name>
  <cmt>Point 345</cmt>
  <desc>Point 345</desc>
</trkpt>
<trkpt lat="24.813887000" lon="120.967583000">
  <ele>94.020000</ele>
  <time>2009-01-19T11:22:13Z</time>
  <name>Point 346</name>
  <cmt>Point 346</cmt>
  <desc>Point 346</desc>
</trkpt>
<trkpt lat="24.813883000" lon="120.967583000">
  <ele>94.240000</ele>
  <time>2009-01-19T11:22:18Z</time>
  <name>Point 347</name>
  <cmt>Point 347</cmt>
  <desc>Point 347</desc>
</trkpt>
<trkpt lat="24.813885000" lon="120.967583000">
  <ele>94.410000</ele>
  <time>2009-01-19T11:22:23Z</time>
  <name>Point 348</name>
  <cmt>Point 348</cmt>
  <desc>Point 348</desc>
</trkpt>
<trkpt lat="24.813889000" lon="120.967583000">
  <ele>94.550000</ele>
  <time>2009-01-19T11:22:28Z</time>
  <name>Point 349</name>
  <cmt>Point 349</cmt>
  <desc>Point 349</desc>
</trkpt>
<trkpt lat="24.813887000" lon="120.967583000">
  <ele>94.710000</ele>
  <time>2009-01-19T11:22:33Z</time>
  <name>Point 350</name>
  <cmt>Point 350</cmt>
  <desc>Point 350</desc>
</trkpt>
<trkpt lat="24.813881000" lon="120.967575000">
  <ele>94.940000</ele>
  <time>2009-01-19T11:22:38Z</time>
  <name>Point 351</name>
  <cmt>Point 351</cmt>
  <desc>Point 351</desc>
</trkpt>
<trkpt lat="24.813879000" lon="120.967575000">
  <ele>95.100000</ele>
  <time>2009-01-19T11:22:43Z</time>
  <name>Point 352</name>
  <cmt>Point 352</cmt>
  <desc>Point 352</desc>
</trkpt>
<trkpt lat="24.813875000" lon="120.967575000">
  <ele>95.190000</ele>
  <time>2009-01-19T11:22:48Z</time>
  <name>Point 353</name>
  <cmt>Point 353</cmt>
  <desc>Point 353</desc>
</trkpt>
<trkpt lat="24.813873000" lon="120.967567000">
  <ele>95.230000</ele>
  <time>2009-01-19T11:22:53Z</time>
  <name>Point 354</name>
  <cmt>Point 354</cmt>
  <desc>Point 354</desc>
</trkpt>
<trkpt lat="24.813869000" lon="120.967567000">
  <ele>95.240000</ele>
  <time>2009-01-19T11:22:58Z</time>
  <name>Point 355</name>
  <cmt>Point 355</cmt>
  <desc>Point 355</desc>
</trkpt>
<trkpt lat="24.813869000" lon="120.967567000">
  <ele>95.220000</ele>
  <time>2009-01-19T11:23:03Z</time>
  <name>Point 356</name>
  <cmt>Point 356</cmt>
  <desc>Point 356</desc>
</trkpt>
<trkpt lat="24.813871000" lon="120.967560000">
  <ele>95.210000</ele>
  <time>2009-01-19T11:23:08Z</time>
  <name>Point 357</name>
  <cmt>Point 357</cmt>
  <desc>Point 357</desc>
</trkpt>
<trkpt lat="24.813869000" lon="120.967560000">
  <ele>95.210000</ele>
  <time>2009-01-19T11:23:13Z</time>
  <name>Point 358</name>
  <cmt>Point 358</cmt>
  <desc>Point 358</desc>
</trkpt>
<trkpt lat="24.813871000" lon="120.967560000">
  <ele>95.240000</ele>
  <time>2009-01-19T11:23:18Z</time>
  <name>Point 359</name>
  <cmt>Point 359</cmt>
  <desc>Point 359</desc>
</trkpt>
<trkpt lat="24.813873000" lon="120.967560000">
  <ele>95.290000</ele>
  <time>2009-01-19T11:23:23Z</time>
  <name>Point 360</name>
  <cmt>Point 360</cmt>
  <desc>Point 360</desc>
</trkpt>
<trkpt lat="24.813868000" lon="120.967552000">
  <ele>95.360000</ele>
  <time>2009-01-19T11:23:28Z</time>
  <name>Point 361</name>
  <cmt>Point 361</cmt>
  <desc>Point 361</desc>
</trkpt>
<trkpt lat="24.813866000" lon="120.967552000">
  <ele>95.410000</ele>
  <time>2009-01-19T11:23:33Z</time>
  <name>Point 362</name>
  <cmt>Point 362</cmt>
  <desc>Point 362</desc>
</trkpt>
<trkpt lat="24.813868000" lon="120.967552000">
  <ele>95.470000</ele>
  <time>2009-01-19T11:23:38Z</time>
  <name>Point 363</name>
  <cmt>Point 363</cmt>
  <desc>Point 363</desc>
</trkpt>
<trkpt lat="24.813866000" lon="120.967545000">
  <ele>95.520000</ele>
  <time>2009-01-19T11:23:43Z</time>
  <name>Point 364</name>
  <cmt>Point 364</cmt>
  <desc>Point 364</desc>
</trkpt>
<trkpt lat="24.813866000" lon="120.967545000">
  <ele>95.560000</ele>
  <time>2009-01-19T11:23:48Z</time>
  <name>Point 365</name>
  <cmt>Point 365</cmt>
  <desc>Point 365</desc>
</trkpt>
<trkpt lat="24.813864000" lon="120.967545000">
  <ele>95.610000</ele>
  <time>2009-01-19T11:23:53Z</time>
  <name>Point 366</name>
  <cmt>Point 366</cmt>
  <desc>Point 366</desc>
</trkpt>
<trkpt lat="24.813862000" lon="120.967537000">
  <ele>95.660000</ele>
  <time>2009-01-19T11:23:58Z</time>
  <name>Point 367</name>
  <cmt>Point 367</cmt>
  <desc>Point 367</desc>
</trkpt>
<trkpt lat="24.813858000" lon="120.967537000">
  <ele>95.720000</ele>
  <time>2009-01-19T11:24:03Z</time>
  <name>Point 368</name>
  <cmt>Point 368</cmt>
  <desc>Point 368</desc>
</trkpt>
<trkpt lat="24.813856000" lon="120.967529000">
  <ele>95.770000</ele>
  <time>2009-01-19T11:24:08Z</time>
  <name>Point 369</name>
  <cmt>Point 369</cmt>
  <desc>Point 369</desc>
</trkpt>
<trkpt lat="24.813854000" lon="120.967529000">
  <ele>95.820000</ele>
  <time>2009-01-19T11:24:13Z</time>
  <name>Point 370</name>
  <cmt>Point 370</cmt>
  <desc>Point 370</desc>
</trkpt>
<trkpt lat="24.813856000" lon="120.967529000">
  <ele>95.880000</ele>
  <time>2009-01-19T11:24:18Z</time>
  <name>Point 371</name>
  <cmt>Point 371</cmt>
  <desc>Point 371</desc>
</trkpt>
<trkpt lat="24.813858000" lon="120.967529000">
  <ele>95.920000</ele>
  <time>2009-01-19T11:24:23Z</time>
  <name>Point 372</name>
  <cmt>Point 372</cmt>
  <desc>Point 372</desc>
</trkpt>
<trkpt lat="24.813862000" lon="120.967529000">
  <ele>95.950000</ele>
  <time>2009-01-19T11:24:28Z</time>
  <name>Point 373</name>
  <cmt>Point 373</cmt>
  <desc>Point 373</desc>
</trkpt>
<trkpt lat="24.813862000" lon="120.967529000">
  <ele>95.960000</ele>
  <time>2009-01-19T11:24:33Z</time>
  <name>Point 374</name>
  <cmt>Point 374</cmt>
  <desc>Point 374</desc>
</trkpt>
<trkpt lat="24.813862000" lon="120.967529000">
  <ele>96.000000</ele>
  <time>2009-01-19T11:24:38Z</time>
  <name>Point 375</name>
  <cmt>Point 375</cmt>
  <desc>Point 375</desc>
</trkpt>
<trkpt lat="24.813860000" lon="120.967529000">
  <ele>96.070000</ele>
  <time>2009-01-19T11:24:43Z</time>
  <name>Point 376</name>
  <cmt>Point 376</cmt>
  <desc>Point 376</desc>
</trkpt>
<trkpt lat="24.813866000" lon="120.967529000">
  <ele>96.130000</ele>
  <time>2009-01-19T11:24:48Z</time>
  <name>Point 377</name>
  <cmt>Point 377</cmt>
  <desc>Point 377</desc>
</trkpt>
<trkpt lat="24.813871000" lon="120.967529000">
  <ele>96.180000</ele>
  <time>2009-01-19T11:24:53Z</time>
  <name>Point 378</name>
  <cmt>Point 378</cmt>
  <desc>Point 378</desc>
</trkpt>
<trkpt lat="24.813881000" lon="120.967537000">
  <ele>96.210000</ele>
  <time>2009-01-19T11:24:58Z</time>
  <name>Point 379</name>
  <cmt>Point 379</cmt>
  <desc>Point 379</desc>
</trkpt>
<trkpt lat="24.813881000" lon="120.967537000">
  <ele>96.350000</ele>
  <time>2009-01-19T11:25:03Z</time>
  <name>Point 380</name>
  <cmt>Point 380</cmt>
  <desc>Point 380</desc>
</trkpt>
<trkpt lat="24.813883000" lon="120.967537000">
  <ele>96.440000</ele>
  <time>2009-01-19T11:25:08Z</time>
  <name>Point 381</name>
  <cmt>Point 381</cmt>
  <desc>Point 381</desc>
</trkpt>
<trkpt lat="24.813879000" lon="120.967537000">
  <ele>96.480000</ele>
  <time>2009-01-19T11:25:13Z</time>
  <name>Point 382</name>
  <cmt>Point 382</cmt>
  <desc>Point 382</desc>
</trkpt>
<trkpt lat="24.813877000" lon="120.967537000">
  <ele>96.520000</ele>
  <time>2009-01-19T11:25:18Z</time>
  <name>Point 383</name>
  <cmt>Point 383</cmt>
  <desc>Point 383</desc>
</trkpt>
<trkpt lat="24.813873000" lon="120.967529000">
  <ele>96.570000</ele>
  <time>2009-01-19T11:25:23Z</time>
  <name>Point 384</name>
  <cmt>Point 384</cmt>
  <desc>Point 384</desc>
</trkpt>
<trkpt lat="24.813875000" lon="120.967529000">
  <ele>96.630000</ele>
  <time>2009-01-19T11:25:28Z</time>
  <name>Point 385</name>
  <cmt>Point 385</cmt>
  <desc>Point 385</desc>
</trkpt>
<trkpt lat="24.813881000" lon="120.967529000">
  <ele>96.680000</ele>
  <time>2009-01-19T11:25:33Z</time>
  <name>Point 386</name>
  <cmt>Point 386</cmt>
  <desc>Point 386</desc>
</trkpt>
<trkpt lat="24.813887000" lon="120.967537000">
  <ele>96.740000</ele>
  <time>2009-01-19T11:25:38Z</time>
  <name>Point 387</name>
  <cmt>Point 387</cmt>
  <desc>Point 387</desc>
</trkpt>
<trkpt lat="24.813894000" lon="120.967537000">
  <ele>96.750000</ele>
  <time>2009-01-19T11:25:43Z</time>
  <name>Point 388</name>
  <cmt>Point 388</cmt>
  <desc>Point 388</desc>
</trkpt>
<trkpt lat="24.813894000" lon="120.967537000">
  <ele>96.740000</ele>
  <time>2009-01-19T11:25:48Z</time>
  <name>Point 389</name>
  <cmt>Point 389</cmt>
  <desc>Point 389</desc>
</trkpt>
<trkpt lat="24.813892000" lon="120.967529000">
  <ele>96.730000</ele>
  <time>2009-01-19T11:25:53Z</time>
  <name>Point 390</name>
  <cmt>Point 390</cmt>
  <desc>Point 390</desc>
</trkpt>
<trkpt lat="24.813896000" lon="120.967529000">
  <ele>96.720000</ele>
  <time>2009-01-19T11:25:58Z</time>
  <name>Point 391</name>
  <cmt>Point 391</cmt>
  <desc>Point 391</desc>
</trkpt>
<trkpt lat="24.813896000" lon="120.967529000">
  <ele>96.670000</ele>
  <time>2009-01-19T11:26:03Z</time>
  <name>Point 392</name>
  <cmt>Point 392</cmt>
  <desc>Point 392</desc>
</trkpt>
<trkpt lat="24.813900000" lon="120.967529000">
  <ele>96.580000</ele>
  <time>2009-01-19T11:26:08Z</time>
  <name>Point 393</name>
  <cmt>Point 393</cmt>
  <desc>Point 393</desc>
</trkpt>
<trkpt lat="24.813908000" lon="120.967537000">
  <ele>96.510000</ele>
  <time>2009-01-19T11:26:13Z</time>
  <name>Point 394</name>
  <cmt>Point 394</cmt>
  <desc>Point 394</desc>
</trkpt>
<trkpt lat="24.813911000" lon="120.967537000">
  <ele>96.460000</ele>
  <time>2009-01-19T11:26:18Z</time>
  <name>Point 395</name>
  <cmt>Point 395</cmt>
  <desc>Point 395</desc>
</trkpt>
<trkpt lat="24.813915000" lon="120.967537000">
  <ele>96.400000</ele>
  <time>2009-01-19T11:26:23Z</time>
  <name>Point 396</name>
  <cmt>Point 396</cmt>
  <desc>Point 396</desc>
</trkpt>
<trkpt lat="24.813915000" lon="120.967537000">
  <ele>96.340000</ele>
  <time>2009-01-19T11:26:28Z</time>
  <name>Point 397</name>
  <cmt>Point 397</cmt>
  <desc>Point 397</desc>
</trkpt>
<trkpt lat="24.813913000" lon="120.967537000">
  <ele>96.300000</ele>
  <time>2009-01-19T11:26:33Z</time>
  <name>Point 398</name>
  <cmt>Point 398</cmt>
  <desc>Point 398</desc>
</trkpt>
<trkpt lat="24.813913000" lon="120.967529000">
  <ele>96.290000</ele>
  <time>2009-01-19T11:26:38Z</time>
  <name>Point 399</name>
  <cmt>Point 399</cmt>
  <desc>Point 399</desc>
</trkpt>
<trkpt lat="24.813915000" lon="120.967529000">
  <ele>96.300000</ele>
  <time>2009-01-19T11:26:43Z</time>
  <name>Point 400</name>
  <cmt>Point 400</cmt>
  <desc>Point 400</desc>
</trkpt>
<trkpt lat="24.813917000" lon="120.967537000">
  <ele>96.290000</ele>
  <time>2009-01-19T11:26:48Z</time>
  <name>Point 401</name>
  <cmt>Point 401</cmt>
  <desc>Point 401</desc>
</trkpt>
<trkpt lat="24.813915000" lon="120.967529000">
  <ele>96.250000</ele>
  <time>2009-01-19T11:26:53Z</time>
  <name>Point 402</name>
  <cmt>Point 402</cmt>
  <desc>Point 402</desc>
</trkpt>
<trkpt lat="24.813911000" lon="120.967529000">
  <ele>96.250000</ele>
  <time>2009-01-19T11:26:58Z</time>
  <name>Point 403</name>
  <cmt>Point 403</cmt>
  <desc>Point 403</desc>
</trkpt>
<trkpt lat="24.813913000" lon="120.967529000">
  <ele>96.240000</ele>
  <time>2009-01-19T11:27:03Z</time>
  <name>Point 404</name>
  <cmt>Point 404</cmt>
  <desc>Point 404</desc>
</trkpt>
<trkpt lat="24.813913000" lon="120.967529000">
  <ele>96.230000</ele>
  <time>2009-01-19T11:27:08Z</time>
  <name>Point 405</name>
  <cmt>Point 405</cmt>
  <desc>Point 405</desc>
</trkpt>
<trkpt lat="24.813911000" lon="120.967529000">
  <ele>96.270000</ele>
  <time>2009-01-19T11:27:13Z</time>
  <name>Point 406</name>
  <cmt>Point 406</cmt>
  <desc>Point 406</desc>
</trkpt>
<trkpt lat="24.813910000" lon="120.967522000">
  <ele>96.350000</ele>
  <time>2009-01-19T11:27:18Z</time>
  <name>Point 407</name>
  <cmt>Point 407</cmt>
  <desc>Point 407</desc>
</trkpt>
<trkpt lat="24.813910000" lon="120.967522000">
  <ele>96.450000</ele>
  <time>2009-01-19T11:27:23Z</time>
  <name>Point 408</name>
  <cmt>Point 408</cmt>
  <desc>Point 408</desc>
</trkpt>
<trkpt lat="24.813908000" lon="120.967522000">
  <ele>96.550000</ele>
  <time>2009-01-19T11:27:28Z</time>
  <name>Point 409</name>
  <cmt>Point 409</cmt>
  <desc>Point 409</desc>
</trkpt>
<trkpt lat="24.813908000" lon="120.967522000">
  <ele>96.640000</ele>
  <time>2009-01-19T11:27:33Z</time>
  <name>Point 410</name>
  <cmt>Point 410</cmt>
  <desc>Point 410</desc>
</trkpt>
</trkseg>
</trk>
</gpx>
