<?xml version="1.0"?>
<gpx
version="1.0"
creator="Holux Utility"
xmlns:xsi="http://www.w3.org/2001/XMLSchema-instance"
xmlns="http://www.topografix.com/GPX/1/0"
xsi:schemaLocation="http://www.topografix.com/GPX/1/0 http://www.topografix.com/GPX/1/0/gpx.xsd">
<wpt lat="22.468376" lon="120.445114">
<time>2010-02-22T06:32:44Z</time>
<ele>10.32</ele>
<name><![CDATA[Point 0]]></name>
</wpt>
<wpt lat="22.468390" lon="120.445114">
<time>2010-02-22T06:32:49Z</time>
<ele>9.48</ele>
<name><![CDATA[Point 1]]></name>
</wpt>
<wpt lat="22.468384" lon="120.445122">
<time>2010-02-22T06:32:54Z</time>
<ele>9.51</ele>
<name><![CDATA[Point 2]]></name>
</wpt>
<wpt lat="22.468359" lon="120.445137">
<time>2010-02-22T06:32:59Z</time>
<ele>11.38</ele>
<name><![CDATA[Point 3]]></name>
</wpt>
<wpt lat="22.468321" lon="120.445152">
<time>2010-02-22T06:33:04Z</time>
<ele>11.89</ele>
<name><![CDATA[Point 4]]></name>
</wpt>
<wpt lat="22.468365" lon="120.445274">
<time>2010-02-22T06:33:09Z</time>
<ele>11.66</ele>
<name><![CDATA[Point 5]]></name>
</wpt>
<wpt lat="22.468443" lon="120.445450">
<time>2010-02-22T06:33:14Z</time>
<ele>10.04</ele>
<name><![CDATA[Point 6]]></name>
</wpt>
<wpt lat="22.468491" lon="120.445625">
<time>2010-02-22T06:33:19Z</time>
<ele>10.98</ele>
<name><![CDATA[Point 7]]></name>
</wpt>
<wpt lat="22.468664" lon="120.446060">
<time>2010-02-22T06:33:29Z</time>
<ele>14.11</ele>
<name><![CDATA[Point 8]]></name>
</wpt>
<wpt lat="22.468750" lon="120.446304">
<time>2010-02-22T06:33:34Z</time>
<ele>16.04</ele>
<name><![CDATA[Point 9]]></name>
</wpt>
<wpt lat="22.468824" lon="120.446556">
<time>2010-02-22T06:33:39Z</time>
<ele>18.35</ele>
<name><![CDATA[Point 10]]></name>
</wpt>
<wpt lat="22.468914" lon="120.446754">
<time>2010-02-22T06:33:44Z</time>
<ele>19.77</ele>
<name><![CDATA[Point 11]]></name>
</wpt>
<wpt lat="22.468927" lon="120.446831">
<time>2010-02-22T06:33:49Z</time>
<ele>17.14</ele>
<name><![CDATA[Point 12]]></name>
</wpt>
<wpt lat="22.468922" lon="120.446838">
<time>2010-02-22T06:33:54Z</time>
<ele>15.52</ele>
<name><![CDATA[Point 13]]></name>
</wpt>
<wpt lat="22.468920" lon="120.446838">
<time>2010-02-22T06:33:59Z</time>
<ele>15.50</ele>
<name><![CDATA[Point 14]]></name>
</wpt>
<wpt lat="22.468920" lon="120.446838">
<time>2010-02-22T06:34:04Z</time>
<ele>15.45</ele>
<name><![CDATA[Point 15]]></name>
</wpt>
<wpt lat="22.468918" lon="120.446838">
<time>2010-02-22T06:34:09Z</time>
<ele>15.43</ele>
<name><![CDATA[Point 16]]></name>
</wpt>
<wpt lat="22.468918" lon="120.446831">
<time>2010-02-22T06:34:14Z</time>
<ele>15.52</ele>
<name><![CDATA[Point 17]]></name>
</wpt>
<wpt lat="22.468922" lon="120.446838">
<time>2010-02-22T06:34:19Z</time>
<ele>15.58</ele>
<name><![CDATA[Point 18]]></name>
</wpt>
<wpt lat="22.468922" lon="120.446838">
<time>2010-02-22T06:34:24Z</time>
<ele>15.55</ele>
<name><![CDATA[Point 19]]></name>
</wpt>
<wpt lat="22.468922" lon="120.446838">
<time>2010-02-22T06:34:29Z</time>
<ele>15.43</ele>
<name><![CDATA[Point 20]]></name>
</wpt>
<wpt lat="22.468922" lon="120.446838">
<time>2010-02-22T06:34:34Z</time>
<ele>15.28</ele>
<name><![CDATA[Point 21]]></name>
</wpt>
<wpt lat="22.468924" lon="120.446846">
<time>2010-02-22T06:34:39Z</time>
<ele>15.17</ele>
<name><![CDATA[Point 22]]></name>
</wpt>
<wpt lat="22.468924" lon="120.446846">
<time>2010-02-22T06:34:44Z</time>
<ele>15.05</ele>
<name><![CDATA[Point 23]]></name>
</wpt>
<wpt lat="22.468924" lon="120.446846">
<time>2010-02-22T06:34:49Z</time>
<ele>14.97</ele>
<name><![CDATA[Point 24]]></name>
</wpt>
<wpt lat="22.468924" lon="120.446846">
<time>2010-02-22T06:34:54Z</time>
<ele>14.94</ele>
<name><![CDATA[Point 25]]></name>
</wpt>
<wpt lat="22.468988" lon="120.447052">
<time>2010-02-22T06:35:04Z</time>
<ele>13.05</ele>
<name><![CDATA[Point 26]]></name>
</wpt>
<wpt lat="22.469051" lon="120.447273">
<time>2010-02-22T06:35:09Z</time>
<ele>12.04</ele>
<name><![CDATA[Point 27]]></name>
</wpt>
<wpt lat="22.469118" lon="120.447479">
<time>2010-02-22T06:35:14Z</time>
<ele>10.74</ele>
<name><![CDATA[Point 28]]></name>
</wpt>
<wpt lat="22.469179" lon="120.447678">
<time>2010-02-22T06:35:19Z</time>
<ele>9.95</ele>
<name><![CDATA[Point 29]]></name>
</wpt>
<wpt lat="22.469244" lon="120.447891">
<time>2010-02-22T06:35:24Z</time>
<ele>9.10</ele>
<name><![CDATA[Point 30]]></name>
</wpt>
<wpt lat="22.469315" lon="120.448120">
<time>2010-02-22T06:35:29Z</time>
<ele>5.64</ele>
<name><![CDATA[Point 31]]></name>
</wpt>
<wpt lat="22.469385" lon="120.448318">
<time>2010-02-22T06:35:34Z</time>
<ele>5.12</ele>
<name><![CDATA[Point 32]]></name>
</wpt>
<wpt lat="22.469398" lon="120.448502">
<time>2010-02-22T06:35:39Z</time>
<ele>4.67</ele>
<name><![CDATA[Point 33]]></name>
</wpt>
<wpt lat="22.469440" lon="120.448639">
<time>2010-02-22T06:35:44Z</time>
<ele>4.48</ele>
<name><![CDATA[Point 34]]></name>
</wpt>
<wpt lat="22.469488" lon="120.448799">
<time>2010-02-22T06:35:49Z</time>
<ele>4.63</ele>
<name><![CDATA[Point 35]]></name>
</wpt>
<wpt lat="22.469559" lon="120.449013">
<time>2010-02-22T06:35:54Z</time>
<ele>6.44</ele>
<name><![CDATA[Point 36]]></name>
</wpt>
<wpt lat="22.469604" lon="120.449242">
<time>2010-02-22T06:35:59Z</time>
<ele>7.38</ele>
<name><![CDATA[Point 37]]></name>
</wpt>
<wpt lat="22.469717" lon="120.449440">
<time>2010-02-22T06:36:04Z</time>
<ele>5.94</ele>
<name><![CDATA[Point 38]]></name>
</wpt>
<wpt lat="22.469812" lon="120.449669">
<time>2010-02-22T06:36:09Z</time>
<ele>4.30</ele>
<name><![CDATA[Point 39]]></name>
</wpt>
<wpt lat="22.469896" lon="120.449898">
<time>2010-02-22T06:36:14Z</time>
<ele>5.44</ele>
<name><![CDATA[Point 40]]></name>
</wpt>
<wpt lat="22.469978" lon="120.450150">
<time>2010-02-22T06:36:19Z</time>
<ele>4.14</ele>
<name><![CDATA[Point 41]]></name>
</wpt>
<wpt lat="22.470037" lon="120.450348">
<time>2010-02-22T06:36:24Z</time>
<ele>2.93</ele>
<name><![CDATA[Point 42]]></name>
</wpt>
<wpt lat="22.470135" lon="120.450546">
<time>2010-02-22T06:36:29Z</time>
<ele>3.21</ele>
<name><![CDATA[Point 43]]></name>
</wpt>
<wpt lat="22.470238" lon="120.450775">
<time>2010-02-22T06:36:34Z</time>
<ele>5.26</ele>
<name><![CDATA[Point 44]]></name>
</wpt>
<wpt lat="22.470350" lon="120.451012">
<time>2010-02-22T06:36:39Z</time>
<ele>4.49</ele>
<name><![CDATA[Point 45]]></name>
</wpt>
<wpt lat="22.470476" lon="120.451263">
<time>2010-02-22T06:36:44Z</time>
<ele>3.98</ele>
<name><![CDATA[Point 46]]></name>
</wpt>
<wpt lat="22.470581" lon="120.451500">
<time>2010-02-22T06:36:49Z</time>
<ele>6.10</ele>
<name><![CDATA[Point 47]]></name>
</wpt>
<wpt lat="22.470682" lon="120.451706">
<time>2010-02-22T06:36:54Z</time>
<ele>7.72</ele>
<name><![CDATA[Point 48]]></name>
</wpt>
<wpt lat="22.470753" lon="120.451897">
<time>2010-02-22T06:36:59Z</time>
<ele>7.87</ele>
<name><![CDATA[Point 49]]></name>
</wpt>
<wpt lat="22.470816" lon="120.452034">
<time>2010-02-22T06:37:04Z</time>
<ele>10.19</ele>
<name><![CDATA[Point 50]]></name>
</wpt>
<wpt lat="22.470942" lon="120.451988">
<time>2010-02-22T06:37:09Z</time>
<ele>11.05</ele>
<name><![CDATA[Point 51]]></name>
</wpt>
<wpt lat="22.471031" lon="120.452126">
<time>2010-02-22T06:37:14Z</time>
<ele>11.37</ele>
<name><![CDATA[Point 52]]></name>
</wpt>
<wpt lat="22.471128" lon="120.452339">
<time>2010-02-22T06:37:19Z</time>
<ele>8.78</ele>
<name><![CDATA[Point 53]]></name>
</wpt>
<wpt lat="22.471216" lon="120.452484">
<time>2010-02-22T06:37:24Z</time>
<ele>8.07</ele>
<name><![CDATA[Point 54]]></name>
</wpt>
<wpt lat="22.471266" lon="120.452599">
<time>2010-02-22T06:37:29Z</time>
<ele>8.77</ele>
<name><![CDATA[Point 55]]></name>
</wpt>
<wpt lat="22.471333" lon="120.452736">
<time>2010-02-22T06:37:34Z</time>
<ele>7.75</ele>
<name><![CDATA[Point 56]]></name>
</wpt>
<wpt lat="22.471355" lon="120.452774">
<time>2010-02-22T06:37:39Z</time>
<ele>7.50</ele>
<name><![CDATA[Point 57]]></name>
</wpt>
<wpt lat="22.471357" lon="120.452774">
<time>2010-02-22T06:37:44Z</time>
<ele>7.48</ele>
<name><![CDATA[Point 58]]></name>
</wpt>
<wpt lat="22.471357" lon="120.452774">
<time>2010-02-22T06:37:49Z</time>
<ele>7.42</ele>
<name><![CDATA[Point 59]]></name>
</wpt>
<wpt lat="22.471357" lon="120.452782">
<time>2010-02-22T06:37:54Z</time>
<ele>7.33</ele>
<name><![CDATA[Point 60]]></name>
</wpt>
<wpt lat="22.471357" lon="120.452782">
<time>2010-02-22T06:37:59Z</time>
<ele>7.20</ele>
<name><![CDATA[Point 61]]></name>
</wpt>
<wpt lat="22.471390" lon="120.452820">
<time>2010-02-22T06:38:04Z</time>
<ele>6.93</ele>
<name><![CDATA[Point 62]]></name>
</wpt>
<wpt lat="22.471455" lon="120.452965">
<time>2010-02-22T06:38:09Z</time>
<ele>7.06</ele>
<name><![CDATA[Point 63]]></name>
</wpt>
<wpt lat="22.471561" lon="120.453194">
<time>2010-02-22T06:38:15Z</time>
<ele>8.33</ele>
<name><![CDATA[Point 64]]></name>
</wpt>
<wpt lat="22.471649" lon="120.453377">
<time>2010-02-22T06:38:20Z</time>
<ele>10.78</ele>
<name><![CDATA[Point 65]]></name>
</wpt>
<wpt lat="22.471746" lon="120.453560">
<time>2010-02-22T06:38:25Z</time>
<ele>11.42</ele>
<name><![CDATA[Point 66]]></name>
</wpt>
<wpt lat="22.471838" lon="120.453751">
<time>2010-02-22T06:38:30Z</time>
<ele>11.91</ele>
<name><![CDATA[Point 67]]></name>
</wpt>
<wpt lat="22.471949" lon="120.453941">
<time>2010-02-22T06:38:35Z</time>
<ele>13.52</ele>
<name><![CDATA[Point 68]]></name>
</wpt>
<wpt lat="22.472063" lon="120.454117">
<time>2010-02-22T06:38:40Z</time>
<ele>15.97</ele>
<name><![CDATA[Point 69]]></name>
</wpt>
<wpt lat="22.472174" lon="120.454315">
<time>2010-02-22T06:38:45Z</time>
<ele>12.62</ele>
<name><![CDATA[Point 70]]></name>
</wpt>
<wpt lat="22.472281" lon="120.454491">
<time>2010-02-22T06:38:50Z</time>
<ele>12.42</ele>
<name><![CDATA[Point 71]]></name>
</wpt>
<wpt lat="22.472414" lon="120.454666">
<time>2010-02-22T06:38:55Z</time>
<ele>13.72</ele>
<name><![CDATA[Point 72]]></name>
</wpt>
<wpt lat="22.472553" lon="120.454849">
<time>2010-02-22T06:39:00Z</time>
<ele>15.55</ele>
<name><![CDATA[Point 73]]></name>
</wpt>
<wpt lat="22.472689" lon="120.455055">
<time>2010-02-22T06:39:05Z</time>
<ele>16.14</ele>
<name><![CDATA[Point 74]]></name>
</wpt>
<wpt lat="22.472818" lon="120.455246">
<time>2010-02-22T06:39:10Z</time>
<ele>16.74</ele>
<name><![CDATA[Point 75]]></name>
</wpt>
<wpt lat="22.472931" lon="120.455429">
<time>2010-02-22T06:39:15Z</time>
<ele>17.52</ele>
<name><![CDATA[Point 76]]></name>
</wpt>
<wpt lat="22.473043" lon="120.455612">
<time>2010-02-22T06:39:20Z</time>
<ele>16.37</ele>
<name><![CDATA[Point 77]]></name>
</wpt>
<wpt lat="22.473185" lon="120.455780">
<time>2010-02-22T06:39:25Z</time>
<ele>17.03</ele>
<name><![CDATA[Point 78]]></name>
</wpt>
<wpt lat="22.473330" lon="120.455956">
<time>2010-02-22T06:39:30Z</time>
<ele>18.25</ele>
<name><![CDATA[Point 79]]></name>
</wpt>
<wpt lat="22.473484" lon="120.456131">
<time>2010-02-22T06:39:35Z</time>
<ele>18.44</ele>
<name><![CDATA[Point 80]]></name>
</wpt>
<wpt lat="22.473589" lon="120.456322">
<time>2010-02-22T06:39:40Z</time>
<ele>17.08</ele>
<name><![CDATA[Point 81]]></name>
</wpt>
<wpt lat="22.473724" lon="120.456474">
<time>2010-02-22T06:39:45Z</time>
<ele>17.93</ele>
<name><![CDATA[Point 82]]></name>
</wpt>
<wpt lat="22.473867" lon="120.456627">
<time>2010-02-22T06:39:50Z</time>
<ele>20.50</ele>
<name><![CDATA[Point 83]]></name>
</wpt>
<wpt lat="22.473997" lon="120.456787">
<time>2010-02-22T06:39:55Z</time>
<ele>20.18</ele>
<name><![CDATA[Point 84]]></name>
</wpt>
<wpt lat="22.474140" lon="120.456985">
<time>2010-02-22T06:40:00Z</time>
<ele>17.40</ele>
<name><![CDATA[Point 85]]></name>
</wpt>
<wpt lat="22.474276" lon="120.457161">
<time>2010-02-22T06:40:05Z</time>
<ele>16.31</ele>
<name><![CDATA[Point 86]]></name>
</wpt>
<wpt lat="22.474436" lon="120.457329">
<time>2010-02-22T06:40:10Z</time>
<ele>16.21</ele>
<name><![CDATA[Point 87]]></name>
</wpt>
<wpt lat="22.474585" lon="120.457504">
<time>2010-02-22T06:40:15Z</time>
<ele>15.07</ele>
<name><![CDATA[Point 88]]></name>
</wpt>
<wpt lat="22.474726" lon="120.457680">
<time>2010-02-22T06:40:20Z</time>
<ele>15.81</ele>
<name><![CDATA[Point 89]]></name>
</wpt>
<wpt lat="22.474886" lon="120.457855">
<time>2010-02-22T06:40:25Z</time>
<ele>17.04</ele>
<name><![CDATA[Point 90]]></name>
</wpt>
<wpt lat="22.475004" lon="120.458015">
<time>2010-02-22T06:40:30Z</time>
<ele>16.18</ele>
<name><![CDATA[Point 91]]></name>
</wpt>
<wpt lat="22.475163" lon="120.458168">
<time>2010-02-22T06:40:35Z</time>
<ele>17.45</ele>
<name><![CDATA[Point 92]]></name>
</wpt>
<wpt lat="22.475302" lon="120.458328">
<time>2010-02-22T06:40:40Z</time>
<ele>17.90</ele>
<name><![CDATA[Point 93]]></name>
</wpt>
<wpt lat="22.475462" lon="120.458473">
<time>2010-02-22T06:40:45Z</time>
<ele>19.25</ele>
<name><![CDATA[Point 94]]></name>
</wpt>
<wpt lat="22.475611" lon="120.458641">
<time>2010-02-22T06:40:50Z</time>
<ele>19.11</ele>
<name><![CDATA[Point 95]]></name>
</wpt>
<wpt lat="22.475754" lon="120.458817">
<time>2010-02-22T06:40:55Z</time>
<ele>18.50</ele>
<name><![CDATA[Point 96]]></name>
</wpt>
<wpt lat="22.475908" lon="120.458992">
<time>2010-02-22T06:41:00Z</time>
<ele>17.97</ele>
<name><![CDATA[Point 97]]></name>
</wpt>
<wpt lat="22.476057" lon="120.459137">
<time>2010-02-22T06:41:05Z</time>
<ele>18.57</ele>
<name><![CDATA[Point 98]]></name>
</wpt>
<wpt lat="22.476221" lon="120.459297">
<time>2010-02-22T06:41:10Z</time>
<ele>19.35</ele>
<name><![CDATA[Point 99]]></name>
</wpt>
<wpt lat="22.476370" lon="120.459480">
<time>2010-02-22T06:41:15Z</time>
<ele>18.21</ele>
<name><![CDATA[Point 100]]></name>
</wpt>
<wpt lat="22.476507" lon="120.459648">
<time>2010-02-22T06:41:20Z</time>
<ele>16.67</ele>
<name><![CDATA[Point 101]]></name>
</wpt>
<wpt lat="22.476641" lon="120.459808">
<time>2010-02-22T06:41:25Z</time>
<ele>15.61</ele>
<name><![CDATA[Point 102]]></name>
</wpt>
<wpt lat="22.476746" lon="120.459938">
<time>2010-02-22T06:41:30Z</time>
<ele>14.48</ele>
<name><![CDATA[Point 103]]></name>
</wpt>
<wpt lat="22.476837" lon="120.460014">
<time>2010-02-22T06:41:35Z</time>
<ele>16.08</ele>
<name><![CDATA[Point 104]]></name>
</wpt>
<wpt lat="22.476908" lon="120.460121">
<time>2010-02-22T06:41:40Z</time>
<ele>16.47</ele>
<name><![CDATA[Point 105]]></name>
</wpt>
<wpt lat="22.476994" lon="120.460197">
<time>2010-02-22T06:41:45Z</time>
<ele>16.30</ele>
<name><![CDATA[Point 106]]></name>
</wpt>
<wpt lat="22.477161" lon="120.460228">
<time>2010-02-22T06:41:50Z</time>
<ele>15.85</ele>
<name><![CDATA[Point 107]]></name>
</wpt>
<wpt lat="22.477310" lon="120.460075">
<time>2010-02-22T06:41:55Z</time>
<ele>14.87</ele>
<name><![CDATA[Point 108]]></name>
</wpt>
<wpt lat="22.477468" lon="120.459908">
<time>2010-02-22T06:42:00Z</time>
<ele>13.88</ele>
<name><![CDATA[Point 109]]></name>
</wpt>
<wpt lat="22.477638" lon="120.459732">
<time>2010-02-22T06:42:05Z</time>
<ele>10.32</ele>
<name><![CDATA[Point 110]]></name>
</wpt>
<wpt lat="22.477819" lon="120.459549">
<time>2010-02-22T06:42:10Z</time>
<ele>9.53</ele>
<name><![CDATA[Point 111]]></name>
</wpt>
<wpt lat="22.478001" lon="120.459351">
<time>2010-02-22T06:42:15Z</time>
<ele>9.95</ele>
<name><![CDATA[Point 112]]></name>
</wpt>
<wpt lat="22.478193" lon="120.459160">
<time>2010-02-22T06:42:20Z</time>
<ele>9.76</ele>
<name><![CDATA[Point 113]]></name>
</wpt>
<wpt lat="22.478386" lon="120.458961">
<time>2010-02-22T06:42:25Z</time>
<ele>9.94</ele>
<name><![CDATA[Point 114]]></name>
</wpt>
<wpt lat="22.478554" lon="120.458794">
<time>2010-02-22T06:42:30Z</time>
<ele>8.87</ele>
<name><![CDATA[Point 115]]></name>
</wpt>
<wpt lat="22.478727" lon="120.458603">
<time>2010-02-22T06:42:35Z</time>
<ele>8.31</ele>
<name><![CDATA[Point 116]]></name>
</wpt>
<wpt lat="22.478895" lon="120.458427">
<time>2010-02-22T06:42:40Z</time>
<ele>5.95</ele>
<name><![CDATA[Point 117]]></name>
</wpt>
<wpt lat="22.479063" lon="120.458260">
<time>2010-02-22T06:42:45Z</time>
<ele>6.60</ele>
<name><![CDATA[Point 118]]></name>
</wpt>
<wpt lat="22.479227" lon="120.458084">
<time>2010-02-22T06:42:50Z</time>
<ele>7.36</ele>
<name><![CDATA[Point 119]]></name>
</wpt>
<wpt lat="22.479395" lon="120.457909">
<time>2010-02-22T06:42:55Z</time>
<ele>6.98</ele>
<name><![CDATA[Point 120]]></name>
</wpt>
<wpt lat="22.479549" lon="120.457741">
<time>2010-02-22T06:43:00Z</time>
<ele>6.79</ele>
<name><![CDATA[Point 121]]></name>
</wpt>
<wpt lat="22.479706" lon="120.457581">
<time>2010-02-22T06:43:05Z</time>
<ele>5.54</ele>
<name><![CDATA[Point 122]]></name>
</wpt>
<wpt lat="22.479893" lon="120.457436">
<time>2010-02-22T06:43:10Z</time>
<ele>4.08</ele>
<name><![CDATA[Point 123]]></name>
</wpt>
<wpt lat="22.480080" lon="120.457321">
<time>2010-02-22T06:43:15Z</time>
<ele>4.37</ele>
<name><![CDATA[Point 124]]></name>
</wpt>
<wpt lat="22.480303" lon="120.457214">
<time>2010-02-22T06:43:20Z</time>
<ele>4.70</ele>
<name><![CDATA[Point 125]]></name>
</wpt>
<wpt lat="22.480532" lon="120.457138">
<time>2010-02-22T06:43:25Z</time>
<ele>3.03</ele>
<name><![CDATA[Point 126]]></name>
</wpt>
<wpt lat="22.480791" lon="120.457115">
<time>2010-02-22T06:43:30Z</time>
<ele>4.86</ele>
<name><![CDATA[Point 127]]></name>
</wpt>
<wpt lat="22.481037" lon="120.457138">
<time>2010-02-22T06:43:35Z</time>
<ele>5.28</ele>
<name><![CDATA[Point 128]]></name>
</wpt>
<wpt lat="22.481302" lon="120.457184">
<time>2010-02-22T06:43:40Z</time>
<ele>7.62</ele>
<name><![CDATA[Point 129]]></name>
</wpt>
<wpt lat="22.481546" lon="120.457298">
<time>2010-02-22T06:43:45Z</time>
<ele>7.44</ele>
<name><![CDATA[Point 130]]></name>
</wpt>
<wpt lat="22.481794" lon="120.457405">
<time>2010-02-22T06:43:50Z</time>
<ele>10.98</ele>
<name><![CDATA[Point 131]]></name>
</wpt>
<wpt lat="22.482046" lon="120.457520">
<time>2010-02-22T06:43:55Z</time>
<ele>11.78</ele>
<name><![CDATA[Point 132]]></name>
</wpt>
<wpt lat="22.482300" lon="120.457619">
<time>2010-02-22T06:44:00Z</time>
<ele>10.87</ele>
<name><![CDATA[Point 133]]></name>
</wpt>
<wpt lat="22.482544" lon="120.457703">
<time>2010-02-22T06:44:05Z</time>
<ele>11.88</ele>
<name><![CDATA[Point 134]]></name>
</wpt>
<wpt lat="22.482792" lon="120.457787">
<time>2010-02-22T06:44:10Z</time>
<ele>12.70</ele>
<name><![CDATA[Point 135]]></name>
</wpt>
<wpt lat="22.483046" lon="120.457886">
<time>2010-02-22T06:44:15Z</time>
<ele>15.43</ele>
<name><![CDATA[Point 136]]></name>
</wpt>
<wpt lat="22.483313" lon="120.457985">
<time>2010-02-22T06:44:20Z</time>
<ele>12.52</ele>
<name><![CDATA[Point 137]]></name>
</wpt>
<wpt lat="22.483559" lon="120.458084">
<time>2010-02-22T06:44:25Z</time>
<ele>13.68</ele>
<name><![CDATA[Point 138]]></name>
</wpt>
<wpt lat="22.483826" lon="120.458183">
<time>2010-02-22T06:44:30Z</time>
<ele>16.79</ele>
<name><![CDATA[Point 139]]></name>
</wpt>
<wpt lat="22.484077" lon="120.458275">
<time>2010-02-22T06:44:35Z</time>
<ele>23.69</ele>
<name><![CDATA[Point 140]]></name>
</wpt>
<wpt lat="22.484297" lon="120.458336">
<time>2010-02-22T06:44:40Z</time>
<ele>31.21</ele>
<name><![CDATA[Point 141]]></name>
</wpt>
<wpt lat="22.484533" lon="120.458374">
<time>2010-02-22T06:44:45Z</time>
<ele>37.43</ele>
<name><![CDATA[Point 142]]></name>
</wpt>
<wpt lat="22.484785" lon="120.458443">
<time>2010-02-22T06:44:50Z</time>
<ele>38.24</ele>
<name><![CDATA[Point 143]]></name>
</wpt>
<wpt lat="22.485003" lon="120.458511">
<time>2010-02-22T06:44:55Z</time>
<ele>40.71</ele>
<name><![CDATA[Point 144]]></name>
</wpt>
<wpt lat="22.485249" lon="120.458519">
<time>2010-02-22T06:45:00Z</time>
<ele>39.02</ele>
<name><![CDATA[Point 145]]></name>
</wpt>
<wpt lat="22.485533" lon="120.458519">
<time>2010-02-22T06:45:05Z</time>
<ele>38.12</ele>
<name><![CDATA[Point 146]]></name>
</wpt>
<wpt lat="22.485809" lon="120.458519">
<time>2010-02-22T06:45:10Z</time>
<ele>33.74</ele>
<name><![CDATA[Point 147]]></name>
</wpt>
<wpt lat="22.486025" lon="120.458473">
<time>2010-02-22T06:45:15Z</time>
<ele>32.54</ele>
<name><![CDATA[Point 148]]></name>
</wpt>
<wpt lat="22.486263" lon="120.458450">
<time>2010-02-22T06:45:20Z</time>
<ele>26.13</ele>
<name><![CDATA[Point 149]]></name>
</wpt>
<wpt lat="22.486485" lon="120.458405">
<time>2010-02-22T06:45:25Z</time>
<ele>30.80</ele>
<name><![CDATA[Point 150]]></name>
</wpt>
<wpt lat="22.486706" lon="120.458397">
<time>2010-02-22T06:45:30Z</time>
<ele>23.32</ele>
<name><![CDATA[Point 151]]></name>
</wpt>
<wpt lat="22.486946" lon="120.458351">
<time>2010-02-22T06:45:35Z</time>
<ele>26.34</ele>
<name><![CDATA[Point 152]]></name>
</wpt>
<wpt lat="22.487164" lon="120.458351">
<time>2010-02-22T06:45:40Z</time>
<ele>29.55</ele>
<name><![CDATA[Point 153]]></name>
</wpt>
<wpt lat="22.487434" lon="120.458351">
<time>2010-02-22T06:45:45Z</time>
<ele>38.08</ele>
<name><![CDATA[Point 154]]></name>
</wpt>
<wpt lat="22.487701" lon="120.458382">
<time>2010-02-22T06:45:50Z</time>
<ele>42.44</ele>
<name><![CDATA[Point 155]]></name>
</wpt>
<wpt lat="22.487955" lon="120.458435">
<time>2010-02-22T06:45:55Z</time>
<ele>45.08</ele>
<name><![CDATA[Point 156]]></name>
</wpt>
<wpt lat="22.488214" lon="120.458511">
<time>2010-02-22T06:46:00Z</time>
<ele>41.03</ele>
<name><![CDATA[Point 157]]></name>
</wpt>
<wpt lat="22.488449" lon="120.458565">
<time>2010-02-22T06:46:05Z</time>
<ele>39.05</ele>
<name><![CDATA[Point 158]]></name>
</wpt>
<wpt lat="22.488697" lon="120.458603">
<time>2010-02-22T06:46:10Z</time>
<ele>37.27</ele>
<name><![CDATA[Point 159]]></name>
</wpt>
<wpt lat="22.488934" lon="120.458618">
<time>2010-02-22T06:46:15Z</time>
<ele>37.79</ele>
<name><![CDATA[Point 160]]></name>
</wpt>
<wpt lat="22.488928" lon="120.458633">
<time>2010-02-22T06:46:20Z</time>
<ele>36.01</ele>
<name><![CDATA[Point 161]]></name>
</wpt>
<wpt lat="22.488943" lon="120.458809">
<time>2010-02-22T06:46:25Z</time>
<ele>30.84</ele>
<name><![CDATA[Point 162]]></name>
</wpt>
<wpt lat="22.488918" lon="120.458923">
<time>2010-02-22T06:46:30Z</time>
<ele>23.06</ele>
<name><![CDATA[Point 163]]></name>
</wpt>
<wpt lat="22.488899" lon="120.458939">
<time>2010-02-22T06:46:35Z</time>
<ele>22.00</ele>
<name><![CDATA[Point 164]]></name>
</wpt>
<wpt lat="22.488901" lon="120.458939">
<time>2010-02-22T06:46:40Z</time>
<ele>21.85</ele>
<name><![CDATA[Point 165]]></name>
</wpt>
<wpt lat="22.488920" lon="120.458969">
<time>2010-02-22T06:46:45Z</time>
<ele>20.03</ele>
<name><![CDATA[Point 166]]></name>
</wpt>
<wpt lat="22.488928" lon="120.458969">
<time>2010-02-22T06:46:50Z</time>
<ele>19.59</ele>
<name><![CDATA[Point 167]]></name>
</wpt>
<wpt lat="22.488930" lon="120.458969">
<time>2010-02-22T06:46:55Z</time>
<ele>19.26</ele>
<name><![CDATA[Point 168]]></name>
</wpt>
<wpt lat="22.488932" lon="120.458969">
<time>2010-02-22T06:47:00Z</time>
<ele>18.99</ele>
<name><![CDATA[Point 169]]></name>
</wpt>
<wpt lat="22.488932" lon="120.458969">
<time>2010-02-22T06:47:05Z</time>
<ele>18.79</ele>
<name><![CDATA[Point 170]]></name>
</wpt>
<wpt lat="22.488930" lon="120.458969">
<time>2010-02-22T06:47:10Z</time>
<ele>18.53</ele>
<name><![CDATA[Point 171]]></name>
</wpt>
<wpt lat="22.488935" lon="120.458969">
<time>2010-02-22T06:47:15Z</time>
<ele>18.28</ele>
<name><![CDATA[Point 172]]></name>
</wpt>
<wpt lat="22.488943" lon="120.458969">
<time>2010-02-22T06:47:20Z</time>
<ele>17.85</ele>
<name><![CDATA[Point 173]]></name>
</wpt>
<wpt lat="22.488947" lon="120.458969">
<time>2010-02-22T06:47:25Z</time>
<ele>17.15</ele>
<name><![CDATA[Point 174]]></name>
</wpt>
<wpt lat="22.488953" lon="120.458969">
<time>2010-02-22T06:47:30Z</time>
<ele>16.47</ele>
<name><![CDATA[Point 175]]></name>
</wpt>
<wpt lat="22.488962" lon="120.458969">
<time>2010-02-22T06:47:35Z</time>
<ele>15.85</ele>
<name><![CDATA[Point 176]]></name>
</wpt>
<wpt lat="22.488964" lon="120.458969">
<time>2010-02-22T06:47:40Z</time>
<ele>15.42</ele>
<name><![CDATA[Point 177]]></name>
</wpt>
<wpt lat="22.488960" lon="120.458969">
<time>2010-02-22T06:47:45Z</time>
<ele>15.36</ele>
<name><![CDATA[Point 178]]></name>
</wpt>
<wpt lat="22.488955" lon="120.458969">
<time>2010-02-22T06:47:50Z</time>
<ele>15.37</ele>
<name><![CDATA[Point 179]]></name>
</wpt>
<wpt lat="22.488953" lon="120.458969">
<time>2010-02-22T06:47:55Z</time>
<ele>15.41</ele>
<name><![CDATA[Point 180]]></name>
</wpt>
<wpt lat="22.488960" lon="120.458969">
<time>2010-02-22T06:48:00Z</time>
<ele>15.47</ele>
<name><![CDATA[Point 181]]></name>
</wpt>
<wpt lat="22.488960" lon="120.458969">
<time>2010-02-22T06:48:05Z</time>
<ele>15.67</ele>
<name><![CDATA[Point 182]]></name>
</wpt>
<wpt lat="22.488955" lon="120.458977">
<time>2010-02-22T06:48:10Z</time>
<ele>15.75</ele>
<name><![CDATA[Point 183]]></name>
</wpt>
<wpt lat="22.488953" lon="120.458977">
<time>2010-02-22T06:48:15Z</time>
<ele>15.68</ele>
<name><![CDATA[Point 184]]></name>
</wpt>
<wpt lat="22.488953" lon="120.458969">
<time>2010-02-22T06:48:20Z</time>
<ele>15.56</ele>
<name><![CDATA[Point 185]]></name>
</wpt>
<wpt lat="22.488907" lon="120.458870">
<time>2010-02-22T06:48:25Z</time>
<ele>15.00</ele>
<name><![CDATA[Point 186]]></name>
</wpt>
<wpt lat="22.488930" lon="120.458763">
<time>2010-02-22T06:48:30Z</time>
<ele>13.95</ele>
<name><![CDATA[Point 187]]></name>
</wpt>
<wpt lat="22.489050" lon="120.458794">
<time>2010-02-22T06:48:35Z</time>
<ele>13.01</ele>
<name><![CDATA[Point 188]]></name>
</wpt>
<wpt lat="22.489201" lon="120.458801">
<time>2010-02-22T06:48:40Z</time>
<ele>12.33</ele>
<name><![CDATA[Point 189]]></name>
</wpt>
<wpt lat="22.489367" lon="120.458832">
<time>2010-02-22T06:48:45Z</time>
<ele>12.39</ele>
<name><![CDATA[Point 190]]></name>
</wpt>
<wpt lat="22.489561" lon="120.458862">
<time>2010-02-22T06:48:50Z</time>
<ele>14.71</ele>
<name><![CDATA[Point 191]]></name>
</wpt>
<wpt lat="22.489758" lon="120.458916">
<time>2010-02-22T06:48:55Z</time>
<ele>15.01</ele>
<name><![CDATA[Point 192]]></name>
</wpt>
<wpt lat="22.489962" lon="120.458916">
<time>2010-02-22T06:49:00Z</time>
<ele>18.44</ele>
<name><![CDATA[Point 193]]></name>
</wpt>
<wpt lat="22.490191" lon="120.458969">
<time>2010-02-22T06:49:05Z</time>
<ele>21.11</ele>
<name><![CDATA[Point 194]]></name>
</wpt>
<wpt lat="22.490379" lon="120.459015">
<time>2010-02-22T06:49:10Z</time>
<ele>21.11</ele>
<name><![CDATA[Point 195]]></name>
</wpt>
<wpt lat="22.490568" lon="120.459038">
<time>2010-02-22T06:49:15Z</time>
<ele>23.73</ele>
<name><![CDATA[Point 196]]></name>
</wpt>
<wpt lat="22.490774" lon="120.459068">
<time>2010-02-22T06:49:20Z</time>
<ele>23.22</ele>
<name><![CDATA[Point 197]]></name>
</wpt>
<wpt lat="22.490982" lon="120.459091">
<time>2010-02-22T06:49:25Z</time>
<ele>24.73</ele>
<name><![CDATA[Point 198]]></name>
</wpt>
<wpt lat="22.491182" lon="120.459160">
<time>2010-02-22T06:49:30Z</time>
<ele>22.84</ele>
<name><![CDATA[Point 199]]></name>
</wpt>
<wpt lat="22.491373" lon="120.459167">
<time>2010-02-22T06:49:35Z</time>
<ele>20.55</ele>
<name><![CDATA[Point 200]]></name>
</wpt>
<wpt lat="22.491573" lon="120.459206">
<time>2010-02-22T06:49:40Z</time>
<ele>20.06</ele>
<name><![CDATA[Point 201]]></name>
</wpt>
<wpt lat="22.491783" lon="120.459229">
<time>2010-02-22T06:49:45Z</time>
<ele>25.03</ele>
<name><![CDATA[Point 202]]></name>
</wpt>
<wpt lat="22.491978" lon="120.459282">
<time>2010-02-22T06:49:50Z</time>
<ele>21.38</ele>
<name><![CDATA[Point 203]]></name>
</wpt>
<wpt lat="22.492186" lon="120.459290">
<time>2010-02-22T06:49:55Z</time>
<ele>22.80</ele>
<name><![CDATA[Point 204]]></name>
</wpt>
<wpt lat="22.492371" lon="120.459366">
<time>2010-02-22T06:50:00Z</time>
<ele>17.22</ele>
<name><![CDATA[Point 205]]></name>
</wpt>
<wpt lat="22.492569" lon="120.459366">
<time>2010-02-22T06:50:05Z</time>
<ele>21.08</ele>
<name><![CDATA[Point 206]]></name>
</wpt>
<wpt lat="22.492783" lon="120.459366">
<time>2010-02-22T06:50:10Z</time>
<ele>25.76</ele>
<name><![CDATA[Point 207]]></name>
</wpt>
<wpt lat="22.492979" lon="120.459396">
<time>2010-02-22T06:50:15Z</time>
<ele>26.27</ele>
<name><![CDATA[Point 208]]></name>
</wpt>
<wpt lat="22.493179" lon="120.459442">
<time>2010-02-22T06:50:20Z</time>
<ele>24.62</ele>
<name><![CDATA[Point 209]]></name>
</wpt>
<wpt lat="22.493385" lon="120.459488">
<time>2010-02-22T06:50:25Z</time>
<ele>22.12</ele>
<name><![CDATA[Point 210]]></name>
</wpt>
<wpt lat="22.493578" lon="120.459534">
<time>2010-02-22T06:50:30Z</time>
<ele>19.69</ele>
<name><![CDATA[Point 211]]></name>
</wpt>
<wpt lat="22.493763" lon="120.459572">
<time>2010-02-22T06:50:35Z</time>
<ele>20.38</ele>
<name><![CDATA[Point 212]]></name>
</wpt>
<wpt lat="22.493973" lon="120.459572">
<time>2010-02-22T06:50:40Z</time>
<ele>25.86</ele>
<name><![CDATA[Point 213]]></name>
</wpt>
<wpt lat="22.494198" lon="120.459625">
<time>2010-02-22T06:50:45Z</time>
<ele>24.91</ele>
<name><![CDATA[Point 214]]></name>
</wpt>
<wpt lat="22.494431" lon="120.459679">
<time>2010-02-22T06:50:50Z</time>
<ele>24.51</ele>
<name><![CDATA[Point 215]]></name>
</wpt>
<wpt lat="22.494686" lon="120.459778">
<time>2010-02-22T06:50:56Z</time>
<ele>19.81</ele>
<name><![CDATA[Point 216]]></name>
</wpt>
<wpt lat="22.494905" lon="120.459846">
<time>2010-02-22T06:51:01Z</time>
<ele>14.15</ele>
<name><![CDATA[Point 217]]></name>
</wpt>
<wpt lat="22.495111" lon="120.459900">
<time>2010-02-22T06:51:06Z</time>
<ele>9.25</ele>
<name><![CDATA[Point 218]]></name>
</wpt>
<wpt lat="22.495321" lon="120.459946">
<time>2010-02-22T06:51:11Z</time>
<ele>7.14</ele>
<name><![CDATA[Point 219]]></name>
</wpt>
<wpt lat="22.495514" lon="120.459969">
<time>2010-02-22T06:51:16Z</time>
<ele>8.04</ele>
<name><![CDATA[Point 220]]></name>
</wpt>
<wpt lat="22.495726" lon="120.460022">
<time>2010-02-22T06:51:21Z</time>
<ele>7.93</ele>
<name><![CDATA[Point 221]]></name>
</wpt>
<wpt lat="22.495955" lon="120.460052">
<time>2010-02-22T06:51:26Z</time>
<ele>8.82</ele>
<name><![CDATA[Point 222]]></name>
</wpt>
<wpt lat="22.496168" lon="120.460091">
<time>2010-02-22T06:51:31Z</time>
<ele>8.30</ele>
<name><![CDATA[Point 223]]></name>
</wpt>
<wpt lat="22.496376" lon="120.460129">
<time>2010-02-22T06:51:36Z</time>
<ele>9.66</ele>
<name><![CDATA[Point 224]]></name>
</wpt>
<wpt lat="22.496586" lon="120.460182">
<time>2010-02-22T06:51:41Z</time>
<ele>8.52</ele>
<name><![CDATA[Point 225]]></name>
</wpt>
<wpt lat="22.496792" lon="120.460220">
<time>2010-02-22T06:51:46Z</time>
<ele>8.73</ele>
<name><![CDATA[Point 226]]></name>
</wpt>
<wpt lat="22.497009" lon="120.460251">
<time>2010-02-22T06:51:51Z</time>
<ele>6.25</ele>
<name><![CDATA[Point 227]]></name>
</wpt>
<wpt lat="22.497219" lon="120.460289">
<time>2010-02-22T06:51:56Z</time>
<ele>5.59</ele>
<name><![CDATA[Point 228]]></name>
</wpt>
<wpt lat="22.497423" lon="120.460327">
<time>2010-02-22T06:52:01Z</time>
<ele>5.45</ele>
<name><![CDATA[Point 229]]></name>
</wpt>
<wpt lat="22.497631" lon="120.460365">
<time>2010-02-22T06:52:06Z</time>
<ele>5.88</ele>
<name><![CDATA[Point 230]]></name>
</wpt>
<wpt lat="22.497822" lon="120.460411">
<time>2010-02-22T06:52:11Z</time>
<ele>5.29</ele>
<name><![CDATA[Point 231]]></name>
</wpt>
<wpt lat="22.498016" lon="120.460449">
<time>2010-02-22T06:52:16Z</time>
<ele>4.56</ele>
<name><![CDATA[Point 232]]></name>
</wpt>
<wpt lat="22.498198" lon="120.460487">
<time>2010-02-22T06:52:21Z</time>
<ele>3.89</ele>
<name><![CDATA[Point 233]]></name>
</wpt>
<wpt lat="22.498398" lon="120.460518">
<time>2010-02-22T06:52:26Z</time>
<ele>3.50</ele>
<name><![CDATA[Point 234]]></name>
</wpt>
<wpt lat="22.498600" lon="120.460564">
<time>2010-02-22T06:52:31Z</time>
<ele>3.68</ele>
<name><![CDATA[Point 235]]></name>
</wpt>
<wpt lat="22.498810" lon="120.460594">
<time>2010-02-22T06:52:36Z</time>
<ele>4.72</ele>
<name><![CDATA[Point 236]]></name>
</wpt>
<wpt lat="22.499016" lon="120.460648">
<time>2010-02-22T06:52:41Z</time>
<ele>4.45</ele>
<name><![CDATA[Point 237]]></name>
</wpt>
<wpt lat="22.499233" lon="120.460678">
<time>2010-02-22T06:52:46Z</time>
<ele>2.61</ele>
<name><![CDATA[Point 238]]></name>
</wpt>
<wpt lat="22.499441" lon="120.460724">
<time>2010-02-22T06:52:51Z</time>
<ele>2.35</ele>
<name><![CDATA[Point 239]]></name>
</wpt>
<wpt lat="22.499649" lon="120.460739">
<time>2010-02-22T06:52:56Z</time>
<ele>2.63</ele>
<name><![CDATA[Point 240]]></name>
</wpt>
<wpt lat="22.499855" lon="120.460785">
<time>2010-02-22T06:53:01Z</time>
<ele>3.52</ele>
<name><![CDATA[Point 241]]></name>
</wpt>
<wpt lat="22.500065" lon="120.460815">
<time>2010-02-22T06:53:06Z</time>
<ele>2.35</ele>
<name><![CDATA[Point 242]]></name>
</wpt>
<wpt lat="22.500286" lon="120.460854">
<time>2010-02-22T06:53:11Z</time>
<ele>3.96</ele>
<name><![CDATA[Point 243]]></name>
</wpt>
<wpt lat="22.500513" lon="120.460892">
<time>2010-02-22T06:53:16Z</time>
<ele>2.69</ele>
<name><![CDATA[Point 244]]></name>
</wpt>
<wpt lat="22.500717" lon="120.460922">
<time>2010-02-22T06:53:21Z</time>
<ele>4.22</ele>
<name><![CDATA[Point 245]]></name>
</wpt>
<wpt lat="22.500914" lon="120.460953">
<time>2010-02-22T06:53:26Z</time>
<ele>4.99</ele>
<name><![CDATA[Point 246]]></name>
</wpt>
<wpt lat="22.501116" lon="120.460999">
<time>2010-02-22T06:53:31Z</time>
<ele>4.44</ele>
<name><![CDATA[Point 247]]></name>
</wpt>
<wpt lat="22.501303" lon="120.461037">
<time>2010-02-22T06:53:36Z</time>
<ele>5.56</ele>
<name><![CDATA[Point 248]]></name>
</wpt>
<wpt lat="22.501503" lon="120.461067">
<time>2010-02-22T06:53:41Z</time>
<ele>4.52</ele>
<name><![CDATA[Point 249]]></name>
</wpt>
<wpt lat="22.501709" lon="120.461105">
<time>2010-02-22T06:53:46Z</time>
<ele>4.57</ele>
<name><![CDATA[Point 250]]></name>
</wpt>
<wpt lat="22.501925" lon="120.461151">
<time>2010-02-22T06:53:51Z</time>
<ele>4.71</ele>
<name><![CDATA[Point 251]]></name>
</wpt>
<wpt lat="22.502131" lon="120.461197">
<time>2010-02-22T06:53:56Z</time>
<ele>4.07</ele>
<name><![CDATA[Point 252]]></name>
</wpt>
<wpt lat="22.502335" lon="120.461250">
<time>2010-02-22T06:54:01Z</time>
<ele>4.32</ele>
<name><![CDATA[Point 253]]></name>
</wpt>
<wpt lat="22.502560" lon="120.461304">
<time>2010-02-22T06:54:06Z</time>
<ele>4.13</ele>
<name><![CDATA[Point 254]]></name>
</wpt>
<wpt lat="22.502783" lon="120.461372">
<time>2010-02-22T06:54:11Z</time>
<ele>3.85</ele>
<name><![CDATA[Point 255]]></name>
</wpt>
<wpt lat="22.503006" lon="120.461411">
<time>2010-02-22T06:54:16Z</time>
<ele>4.75</ele>
<name><![CDATA[Point 256]]></name>
</wpt>
<wpt lat="22.503235" lon="120.461472">
<time>2010-02-22T06:54:21Z</time>
<ele>4.20</ele>
<name><![CDATA[Point 257]]></name>
</wpt>
<wpt lat="22.503456" lon="120.461525">
<time>2010-02-22T06:54:26Z</time>
<ele>2.87</ele>
<name><![CDATA[Point 258]]></name>
</wpt>
<wpt lat="22.503679" lon="120.461571">
<time>2010-02-22T06:54:31Z</time>
<ele>3.47</ele>
<name><![CDATA[Point 259]]></name>
</wpt>
<wpt lat="22.503897" lon="120.461624">
<time>2010-02-22T06:54:36Z</time>
<ele>3.73</ele>
<name><![CDATA[Point 260]]></name>
</wpt>
<wpt lat="22.504099" lon="120.461670">
<time>2010-02-22T06:54:41Z</time>
<ele>4.78</ele>
<name><![CDATA[Point 261]]></name>
</wpt>
<wpt lat="22.504305" lon="120.461700">
<time>2010-02-22T06:54:46Z</time>
<ele>5.01</ele>
<name><![CDATA[Point 262]]></name>
</wpt>
<wpt lat="22.504547" lon="120.461716">
<time>2010-02-22T06:54:51Z</time>
<ele>4.39</ele>
<name><![CDATA[Point 263]]></name>
</wpt>
<wpt lat="22.504774" lon="120.461739">
<time>2010-02-22T06:54:56Z</time>
<ele>4.46</ele>
<name><![CDATA[Point 264]]></name>
</wpt>
<wpt lat="22.505026" lon="120.461769">
<time>2010-02-22T06:55:01Z</time>
<ele>3.19</ele>
<name><![CDATA[Point 265]]></name>
</wpt>
<wpt lat="22.505281" lon="120.461800">
<time>2010-02-22T06:55:06Z</time>
<ele>3.27</ele>
<name><![CDATA[Point 266]]></name>
</wpt>
<wpt lat="22.505541" lon="120.461823">
<time>2010-02-22T06:55:11Z</time>
<ele>2.04</ele>
<name><![CDATA[Point 267]]></name>
</wpt>
<wpt lat="22.505795" lon="120.461861">
<time>2010-02-22T06:55:16Z</time>
<ele>2.12</ele>
<name><![CDATA[Point 268]]></name>
</wpt>
<wpt lat="22.506039" lon="120.461884">
<time>2010-02-22T06:55:21Z</time>
<ele>1.26</ele>
<name><![CDATA[Point 269]]></name>
</wpt>
<wpt lat="22.506296" lon="120.461906">
<time>2010-02-22T06:55:26Z</time>
<ele>1.53</ele>
<name><![CDATA[Point 270]]></name>
</wpt>
<wpt lat="22.506546" lon="120.461945">
<time>2010-02-22T06:55:31Z</time>
<ele>1.06</ele>
<name><![CDATA[Point 271]]></name>
</wpt>
<wpt lat="22.506790" lon="120.461967">
<time>2010-02-22T06:55:36Z</time>
<ele>2.19</ele>
<name><![CDATA[Point 272]]></name>
</wpt>
<wpt lat="22.507030" lon="120.461990">
<time>2010-02-22T06:55:41Z</time>
<ele>1.78</ele>
<name><![CDATA[Point 273]]></name>
</wpt>
<wpt lat="22.507269" lon="120.462021">
<time>2010-02-22T06:55:46Z</time>
<ele>3.96</ele>
<name><![CDATA[Point 274]]></name>
</wpt>
<wpt lat="22.507526" lon="120.462051">
<time>2010-02-22T06:55:51Z</time>
<ele>2.17</ele>
<name><![CDATA[Point 275]]></name>
</wpt>
<wpt lat="22.507784" lon="120.462067">
<time>2010-02-22T06:55:56Z</time>
<ele>2.06</ele>
<name><![CDATA[Point 276]]></name>
</wpt>
<wpt lat="22.508028" lon="120.462105">
<time>2010-02-22T06:56:01Z</time>
<ele>3.11</ele>
<name><![CDATA[Point 277]]></name>
</wpt>
<wpt lat="22.508272" lon="120.462112">
<time>2010-02-22T06:56:06Z</time>
<ele>4.21</ele>
<name><![CDATA[Point 278]]></name>
</wpt>
<wpt lat="22.508503" lon="120.462143">
<time>2010-02-22T06:56:11Z</time>
<ele>3.76</ele>
<name><![CDATA[Point 279]]></name>
</wpt>
<wpt lat="22.508703" lon="120.462166">
<time>2010-02-22T06:56:16Z</time>
<ele>4.67</ele>
<name><![CDATA[Point 280]]></name>
</wpt>
<wpt lat="22.508852" lon="120.462196">
<time>2010-02-22T06:56:21Z</time>
<ele>3.37</ele>
<name><![CDATA[Point 281]]></name>
</wpt>
<wpt lat="22.508986" lon="120.462212">
<time>2010-02-22T06:56:26Z</time>
<ele>5.64</ele>
<name><![CDATA[Point 282]]></name>
</wpt>
<wpt lat="22.509174" lon="120.462234">
<time>2010-02-22T06:56:31Z</time>
<ele>5.52</ele>
<name><![CDATA[Point 283]]></name>
</wpt>
<wpt lat="22.509394" lon="120.462265">
<time>2010-02-22T06:56:36Z</time>
<ele>4.75</ele>
<name><![CDATA[Point 284]]></name>
</wpt>
<wpt lat="22.509619" lon="120.462296">
<time>2010-02-22T06:56:41Z</time>
<ele>3.49</ele>
<name><![CDATA[Point 285]]></name>
</wpt>
<wpt lat="22.509853" lon="120.462318">
<time>2010-02-22T06:56:46Z</time>
<ele>3.71</ele>
<name><![CDATA[Point 286]]></name>
</wpt>
<wpt lat="22.510080" lon="120.462357">
<time>2010-02-22T06:56:51Z</time>
<ele>3.41</ele>
<name><![CDATA[Point 287]]></name>
</wpt>
<wpt lat="22.510307" lon="120.462395">
<time>2010-02-22T06:56:56Z</time>
<ele>2.34</ele>
<name><![CDATA[Point 288]]></name>
</wpt>
<wpt lat="22.510540" lon="120.462410">
<time>2010-02-22T06:57:01Z</time>
<ele>1.86</ele>
<name><![CDATA[Point 289]]></name>
</wpt>
<wpt lat="22.510744" lon="120.462448">
<time>2010-02-22T06:57:06Z</time>
<ele>1.97</ele>
<name><![CDATA[Point 290]]></name>
</wpt>
<wpt lat="22.510944" lon="120.462479">
<time>2010-02-22T06:57:11Z</time>
<ele>1.38</ele>
<name><![CDATA[Point 291]]></name>
</wpt>
<wpt lat="22.511370" lon="120.462509">
<time>2010-02-22T06:57:21Z</time>
<ele>1.71</ele>
<name><![CDATA[Point 292]]></name>
</wpt>
<wpt lat="22.511591" lon="120.462524">
<time>2010-02-22T06:57:26Z</time>
<ele>1.52</ele>
<name><![CDATA[Point 293]]></name>
</wpt>
<wpt lat="22.511797" lon="120.462532">
<time>2010-02-22T06:57:31Z</time>
<ele>2.10</ele>
<name><![CDATA[Point 294]]></name>
</wpt>
<wpt lat="22.511969" lon="120.462517">
<time>2010-02-22T06:57:36Z</time>
<ele>2.62</ele>
<name><![CDATA[Point 295]]></name>
</wpt>
<wpt lat="22.512037" lon="120.462425">
<time>2010-02-22T06:57:41Z</time>
<ele>4.81</ele>
<name><![CDATA[Point 296]]></name>
</wpt>
<wpt lat="22.512011" lon="120.462364">
<time>2010-02-22T06:57:46Z</time>
<ele>3.68</ele>
<name><![CDATA[Point 297]]></name>
</wpt>
<wpt lat="22.511839" lon="120.462311">
<time>2010-02-22T06:57:51Z</time>
<ele>1.91</ele>
<name><![CDATA[Point 298]]></name>
</wpt>
<wpt lat="22.511761" lon="120.462227">
<time>2010-02-22T06:57:56Z</time>
<ele>0.26</ele>
<name><![CDATA[Point 299]]></name>
</wpt>
<wpt lat="22.511791" lon="120.462158">
<time>2010-02-22T06:58:01Z</time>
<ele>0.05</ele>
<name><![CDATA[Point 300]]></name>
</wpt>
<wpt lat="22.511786" lon="120.462143">
<time>2010-02-22T06:58:06Z</time>
<ele>-0.33</ele>
<name><![CDATA[Point 301]]></name>
</wpt>
<wpt lat="22.511770" lon="120.462135">
<time>2010-02-22T06:58:11Z</time>
<ele>-0.41</ele>
<name><![CDATA[Point 302]]></name>
</wpt>
<wpt lat="22.511765" lon="120.462128">
<time>2010-02-22T06:58:16Z</time>
<ele>-0.45</ele>
<name><![CDATA[Point 303]]></name>
</wpt>
<wpt lat="22.511768" lon="120.462128">
<time>2010-02-22T06:58:21Z</time>
<ele>-0.45</ele>
<name><![CDATA[Point 304]]></name>
</wpt>
<wpt lat="22.511778" lon="120.462135">
<time>2010-02-22T06:58:26Z</time>
<ele>-0.43</ele>
<name><![CDATA[Point 305]]></name>
</wpt>
<wpt lat="22.511789" lon="120.462143">
<time>2010-02-22T06:58:31Z</time>
<ele>-0.40</ele>
<name><![CDATA[Point 306]]></name>
</wpt>
<wpt lat="22.511799" lon="120.462151">
<time>2010-02-22T06:58:36Z</time>
<ele>-0.37</ele>
<name><![CDATA[Point 307]]></name>
</wpt>
<wpt lat="22.511806" lon="120.462151">
<time>2010-02-22T06:58:41Z</time>
<ele>-0.33</ele>
<name><![CDATA[Point 308]]></name>
</wpt>
<wpt lat="22.511814" lon="120.462158">
<time>2010-02-22T06:58:46Z</time>
<ele>-0.30</ele>
<name><![CDATA[Point 309]]></name>
</wpt>
<wpt lat="22.511816" lon="120.462158">
<time>2010-02-22T06:58:51Z</time>
<ele>-0.29</ele>
<name><![CDATA[Point 310]]></name>
</wpt>
<wpt lat="22.511806" lon="120.462151">
<time>2010-02-22T06:58:56Z</time>
<ele>-0.30</ele>
<name><![CDATA[Point 311]]></name>
</wpt>
<wpt lat="22.511797" lon="120.462143">
<time>2010-02-22T06:59:01Z</time>
<ele>-0.30</ele>
<name><![CDATA[Point 312]]></name>
</wpt>
<wpt lat="22.511787" lon="120.462135">
<time>2010-02-22T06:59:06Z</time>
<ele>-0.30</ele>
<name><![CDATA[Point 313]]></name>
</wpt>
<wpt lat="22.511782" lon="120.462128">
<time>2010-02-22T06:59:11Z</time>
<ele>-0.30</ele>
<name><![CDATA[Point 314]]></name>
</wpt>
<wpt lat="22.511782" lon="120.462128">
<time>2010-02-22T06:59:16Z</time>
<ele>-0.29</ele>
<name><![CDATA[Point 315]]></name>
</wpt>
<wpt lat="22.511766" lon="120.462143">
<time>2010-02-22T06:59:21Z</time>
<ele>-0.24</ele>
<name><![CDATA[Point 316]]></name>
</wpt>
<wpt lat="22.511759" lon="120.462143">
<time>2010-02-22T06:59:26Z</time>
<ele>-0.20</ele>
<name><![CDATA[Point 317]]></name>
</wpt>
<wpt lat="22.511774" lon="120.462166">
<time>2010-02-22T06:59:31Z</time>
<ele>-0.14</ele>
<name><![CDATA[Point 318]]></name>
</wpt>
<wpt lat="22.511780" lon="120.462173">
<time>2010-02-22T06:59:36Z</time>
<ele>-0.12</ele>
<name><![CDATA[Point 319]]></name>
</wpt>
<wpt lat="22.511787" lon="120.462181">
<time>2010-02-22T06:59:41Z</time>
<ele>-0.10</ele>
<name><![CDATA[Point 320]]></name>
</wpt>
<wpt lat="22.511795" lon="120.462189">
<time>2010-02-22T06:59:46Z</time>
<ele>-0.09</ele>
<name><![CDATA[Point 321]]></name>
</wpt>
<wpt lat="22.511795" lon="120.462189">
<time>2010-02-22T06:59:51Z</time>
<ele>-0.09</ele>
<name><![CDATA[Point 322]]></name>
</wpt>
<wpt lat="22.511795" lon="120.462189">
<time>2010-02-22T06:59:56Z</time>
<ele>-0.09</ele>
<name><![CDATA[Point 323]]></name>
</wpt>
<rte>
<name>Route</name>
<rtept lat="22.468376" lon="120.445114">
<time>2010-02-22T06:32:44Z</time>
<ele>10.32</ele>
<name><![CDATA[Point 0]]></name>
</rtept>
<rtept lat="22.468390" lon="120.445114">
<time>2010-02-22T06:32:49Z</time>
<ele>9.48</ele>
<name><![CDATA[Point 1]]></name>
</rtept>
<rtept lat="22.468384" lon="120.445122">
<time>2010-02-22T06:32:54Z</time>
<ele>9.51</ele>
<name><![CDATA[Point 2]]></name>
</rtept>
<rtept lat="22.468359" lon="120.445137">
<time>2010-02-22T06:32:59Z</time>
<ele>11.38</ele>
<name><![CDATA[Point 3]]></name>
</rtept>
<rtept lat="22.468321" lon="120.445152">
<time>2010-02-22T06:33:04Z</time>
<ele>11.89</ele>
<name><![CDATA[Point 4]]></name>
</rtept>
<rtept lat="22.468365" lon="120.445274">
<time>2010-02-22T06:33:09Z</time>
<ele>11.66</ele>
<name><![CDATA[Point 5]]></name>
</rtept>
<rtept lat="22.468443" lon="120.445450">
<time>2010-02-22T06:33:14Z</time>
<ele>10.04</ele>
<name><![CDATA[Point 6]]></name>
</rtept>
<rtept lat="22.468491" lon="120.445625">
<time>2010-02-22T06:33:19Z</time>
<ele>10.98</ele>
<name><![CDATA[Point 7]]></name>
</rtept>
<rtept lat="22.468664" lon="120.446060">
<time>2010-02-22T06:33:29Z</time>
<ele>14.11</ele>
<name><![CDATA[Point 8]]></name>
</rtept>
<rtept lat="22.468750" lon="120.446304">
<time>2010-02-22T06:33:34Z</time>
<ele>16.04</ele>
<name><![CDATA[Point 9]]></name>
</rtept>
<rtept lat="22.468824" lon="120.446556">
<time>2010-02-22T06:33:39Z</time>
<ele>18.35</ele>
<name><![CDATA[Point 10]]></name>
</rtept>
<rtept lat="22.468914" lon="120.446754">
<time>2010-02-22T06:33:44Z</time>
<ele>19.77</ele>
<name><![CDATA[Point 11]]></name>
</rtept>
<rtept lat="22.468927" lon="120.446831">
<time>2010-02-22T06:33:49Z</time>
<ele>17.14</ele>
<name><![CDATA[Point 12]]></name>
</rtept>
<rtept lat="22.468922" lon="120.446838">
<time>2010-02-22T06:33:54Z</time>
<ele>15.52</ele>
<name><![CDATA[Point 13]]></name>
</rtept>
<rtept lat="22.468920" lon="120.446838">
<time>2010-02-22T06:33:59Z</time>
<ele>15.50</ele>
<name><![CDATA[Point 14]]></name>
</rtept>
<rtept lat="22.468920" lon="120.446838">
<time>2010-02-22T06:34:04Z</time>
<ele>15.45</ele>
<name><![CDATA[Point 15]]></name>
</rtept>
<rtept lat="22.468918" lon="120.446838">
<time>2010-02-22T06:34:09Z</time>
<ele>15.43</ele>
<name><![CDATA[Point 16]]></name>
</rtept>
<rtept lat="22.468918" lon="120.446831">
<time>2010-02-22T06:34:14Z</time>
<ele>15.52</ele>
<name><![CDATA[Point 17]]></name>
</rtept>
<rtept lat="22.468922" lon="120.446838">
<time>2010-02-22T06:34:19Z</time>
<ele>15.58</ele>
<name><![CDATA[Point 18]]></name>
</rtept>
<rtept lat="22.468922" lon="120.446838">
<time>2010-02-22T06:34:24Z</time>
<ele>15.55</ele>
<name><![CDATA[Point 19]]></name>
</rtept>
<rtept lat="22.468922" lon="120.446838">
<time>2010-02-22T06:34:29Z</time>
<ele>15.43</ele>
<name><![CDATA[Point 20]]></name>
</rtept>
<rtept lat="22.468922" lon="120.446838">
<time>2010-02-22T06:34:34Z</time>
<ele>15.28</ele>
<name><![CDATA[Point 21]]></name>
</rtept>
<rtept lat="22.468924" lon="120.446846">
<time>2010-02-22T06:34:39Z</time>
<ele>15.17</ele>
<name><![CDATA[Point 22]]></name>
</rtept>
<rtept lat="22.468924" lon="120.446846">
<time>2010-02-22T06:34:44Z</time>
<ele>15.05</ele>
<name><![CDATA[Point 23]]></name>
</rtept>
<rtept lat="22.468924" lon="120.446846">
<time>2010-02-22T06:34:49Z</time>
<ele>14.97</ele>
<name><![CDATA[Point 24]]></name>
</rtept>
<rtept lat="22.468924" lon="120.446846">
<time>2010-02-22T06:34:54Z</time>
<ele>14.94</ele>
<name><![CDATA[Point 25]]></name>
</rtept>
<rtept lat="22.468988" lon="120.447052">
<time>2010-02-22T06:35:04Z</time>
<ele>13.05</ele>
<name><![CDATA[Point 26]]></name>
</rtept>
<rtept lat="22.469051" lon="120.447273">
<time>2010-02-22T06:35:09Z</time>
<ele>12.04</ele>
<name><![CDATA[Point 27]]></name>
</rtept>
<rtept lat="22.469118" lon="120.447479">
<time>2010-02-22T06:35:14Z</time>
<ele>10.74</ele>
<name><![CDATA[Point 28]]></name>
</rtept>
<rtept lat="22.469179" lon="120.447678">
<time>2010-02-22T06:35:19Z</time>
<ele>9.95</ele>
<name><![CDATA[Point 29]]></name>
</rtept>
<rtept lat="22.469244" lon="120.447891">
<time>2010-02-22T06:35:24Z</time>
<ele>9.10</ele>
<name><![CDATA[Point 30]]></name>
</rtept>
<rtept lat="22.469315" lon="120.448120">
<time>2010-02-22T06:35:29Z</time>
<ele>5.64</ele>
<name><![CDATA[Point 31]]></name>
</rtept>
<rtept lat="22.469385" lon="120.448318">
<time>2010-02-22T06:35:34Z</time>
<ele>5.12</ele>
<name><![CDATA[Point 32]]></name>
</rtept>
<rtept lat="22.469398" lon="120.448502">
<time>2010-02-22T06:35:39Z</time>
<ele>4.67</ele>
<name><![CDATA[Point 33]]></name>
</rtept>
<rtept lat="22.469440" lon="120.448639">
<time>2010-02-22T06:35:44Z</time>
<ele>4.48</ele>
<name><![CDATA[Point 34]]></name>
</rtept>
<rtept lat="22.469488" lon="120.448799">
<time>2010-02-22T06:35:49Z</time>
<ele>4.63</ele>
<name><![CDATA[Point 35]]></name>
</rtept>
<rtept lat="22.469559" lon="120.449013">
<time>2010-02-22T06:35:54Z</time>
<ele>6.44</ele>
<name><![CDATA[Point 36]]></name>
</rtept>
<rtept lat="22.469604" lon="120.449242">
<time>2010-02-22T06:35:59Z</time>
<ele>7.38</ele>
<name><![CDATA[Point 37]]></name>
</rtept>
<rtept lat="22.469717" lon="120.449440">
<time>2010-02-22T06:36:04Z</time>
<ele>5.94</ele>
<name><![CDATA[Point 38]]></name>
</rtept>
<rtept lat="22.469812" lon="120.449669">
<time>2010-02-22T06:36:09Z</time>
<ele>4.30</ele>
<name><![CDATA[Point 39]]></name>
</rtept>
<rtept lat="22.469896" lon="120.449898">
<time>2010-02-22T06:36:14Z</time>
<ele>5.44</ele>
<name><![CDATA[Point 40]]></name>
</rtept>
<rtept lat="22.469978" lon="120.450150">
<time>2010-02-22T06:36:19Z</time>
<ele>4.14</ele>
<name><![CDATA[Point 41]]></name>
</rtept>
<rtept lat="22.470037" lon="120.450348">
<time>2010-02-22T06:36:24Z</time>
<ele>2.93</ele>
<name><![CDATA[Point 42]]></name>
</rtept>
<rtept lat="22.470135" lon="120.450546">
<time>2010-02-22T06:36:29Z</time>
<ele>3.21</ele>
<name><![CDATA[Point 43]]></name>
</rtept>
<rtept lat="22.470238" lon="120.450775">
<time>2010-02-22T06:36:34Z</time>
<ele>5.26</ele>
<name><![CDATA[Point 44]]></name>
</rtept>
<rtept lat="22.470350" lon="120.451012">
<time>2010-02-22T06:36:39Z</time>
<ele>4.49</ele>
<name><![CDATA[Point 45]]></name>
</rtept>
<rtept lat="22.470476" lon="120.451263">
<time>2010-02-22T06:36:44Z</time>
<ele>3.98</ele>
<name><![CDATA[Point 46]]></name>
</rtept>
<rtept lat="22.470581" lon="120.451500">
<time>2010-02-22T06:36:49Z</time>
<ele>6.10</ele>
<name><![CDATA[Point 47]]></name>
</rtept>
<rtept lat="22.470682" lon="120.451706">
<time>2010-02-22T06:36:54Z</time>
<ele>7.72</ele>
<name><![CDATA[Point 48]]></name>
</rtept>
<rtept lat="22.470753" lon="120.451897">
<time>2010-02-22T06:36:59Z</time>
<ele>7.87</ele>
<name><![CDATA[Point 49]]></name>
</rtept>
<rtept lat="22.470816" lon="120.452034">
<time>2010-02-22T06:37:04Z</time>
<ele>10.19</ele>
<name><![CDATA[Point 50]]></name>
</rtept>
<rtept lat="22.470942" lon="120.451988">
<time>2010-02-22T06:37:09Z</time>
<ele>11.05</ele>
<name><![CDATA[Point 51]]></name>
</rtept>
<rtept lat="22.471031" lon="120.452126">
<time>2010-02-22T06:37:14Z</time>
<ele>11.37</ele>
<name><![CDATA[Point 52]]></name>
</rtept>
<rtept lat="22.471128" lon="120.452339">
<time>2010-02-22T06:37:19Z</time>
<ele>8.78</ele>
<name><![CDATA[Point 53]]></name>
</rtept>
<rtept lat="22.471216" lon="120.452484">
<time>2010-02-22T06:37:24Z</time>
<ele>8.07</ele>
<name><![CDATA[Point 54]]></name>
</rtept>
<rtept lat="22.471266" lon="120.452599">
<time>2010-02-22T06:37:29Z</time>
<ele>8.77</ele>
<name><![CDATA[Point 55]]></name>
</rtept>
<rtept lat="22.471333" lon="120.452736">
<time>2010-02-22T06:37:34Z</time>
<ele>7.75</ele>
<name><![CDATA[Point 56]]></name>
</rtept>
<rtept lat="22.471355" lon="120.452774">
<time>2010-02-22T06:37:39Z</time>
<ele>7.50</ele>
<name><![CDATA[Point 57]]></name>
</rtept>
<rtept lat="22.471357" lon="120.452774">
<time>2010-02-22T06:37:44Z</time>
<ele>7.48</ele>
<name><![CDATA[Point 58]]></name>
</rtept>
<rtept lat="22.471357" lon="120.452774">
<time>2010-02-22T06:37:49Z</time>
<ele>7.42</ele>
<name><![CDATA[Point 59]]></name>
</rtept>
<rtept lat="22.471357" lon="120.452782">
<time>2010-02-22T06:37:54Z</time>
<ele>7.33</ele>
<name><![CDATA[Point 60]]></name>
</rtept>
<rtept lat="22.471357" lon="120.452782">
<time>2010-02-22T06:37:59Z</time>
<ele>7.20</ele>
<name><![CDATA[Point 61]]></name>
</rtept>
<rtept lat="22.471390" lon="120.452820">
<time>2010-02-22T06:38:04Z</time>
<ele>6.93</ele>
<name><![CDATA[Point 62]]></name>
</rtept>
<rtept lat="22.471455" lon="120.452965">
<time>2010-02-22T06:38:09Z</time>
<ele>7.06</ele>
<name><![CDATA[Point 63]]></name>
</rtept>
<rtept lat="22.471561" lon="120.453194">
<time>2010-02-22T06:38:15Z</time>
<ele>8.33</ele>
<name><![CDATA[Point 64]]></name>
</rtept>
<rtept lat="22.471649" lon="120.453377">
<time>2010-02-22T06:38:20Z</time>
<ele>10.78</ele>
<name><![CDATA[Point 65]]></name>
</rtept>
<rtept lat="22.471746" lon="120.453560">
<time>2010-02-22T06:38:25Z</time>
<ele>11.42</ele>
<name><![CDATA[Point 66]]></name>
</rtept>
<rtept lat="22.471838" lon="120.453751">
<time>2010-02-22T06:38:30Z</time>
<ele>11.91</ele>
<name><![CDATA[Point 67]]></name>
</rtept>
<rtept lat="22.471949" lon="120.453941">
<time>2010-02-22T06:38:35Z</time>
<ele>13.52</ele>
<name><![CDATA[Point 68]]></name>
</rtept>
<rtept lat="22.472063" lon="120.454117">
<time>2010-02-22T06:38:40Z</time>
<ele>15.97</ele>
<name><![CDATA[Point 69]]></name>
</rtept>
<rtept lat="22.472174" lon="120.454315">
<time>2010-02-22T06:38:45Z</time>
<ele>12.62</ele>
<name><![CDATA[Point 70]]></name>
</rtept>
<rtept lat="22.472281" lon="120.454491">
<time>2010-02-22T06:38:50Z</time>
<ele>12.42</ele>
<name><![CDATA[Point 71]]></name>
</rtept>
<rtept lat="22.472414" lon="120.454666">
<time>2010-02-22T06:38:55Z</time>
<ele>13.72</ele>
<name><![CDATA[Point 72]]></name>
</rtept>
<rtept lat="22.472553" lon="120.454849">
<time>2010-02-22T06:39:00Z</time>
<ele>15.55</ele>
<name><![CDATA[Point 73]]></name>
</rtept>
<rtept lat="22.472689" lon="120.455055">
<time>2010-02-22T06:39:05Z</time>
<ele>16.14</ele>
<name><![CDATA[Point 74]]></name>
</rtept>
<rtept lat="22.472818" lon="120.455246">
<time>2010-02-22T06:39:10Z</time>
<ele>16.74</ele>
<name><![CDATA[Point 75]]></name>
</rtept>
<rtept lat="22.472931" lon="120.455429">
<time>2010-02-22T06:39:15Z</time>
<ele>17.52</ele>
<name><![CDATA[Point 76]]></name>
</rtept>
<rtept lat="22.473043" lon="120.455612">
<time>2010-02-22T06:39:20Z</time>
<ele>16.37</ele>
<name><![CDATA[Point 77]]></name>
</rtept>
<rtept lat="22.473185" lon="120.455780">
<time>2010-02-22T06:39:25Z</time>
<ele>17.03</ele>
<name><![CDATA[Point 78]]></name>
</rtept>
<rtept lat="22.473330" lon="120.455956">
<time>2010-02-22T06:39:30Z</time>
<ele>18.25</ele>
<name><![CDATA[Point 79]]></name>
</rtept>
<rtept lat="22.473484" lon="120.456131">
<time>2010-02-22T06:39:35Z</time>
<ele>18.44</ele>
<name><![CDATA[Point 80]]></name>
</rtept>
<rtept lat="22.473589" lon="120.456322">
<time>2010-02-22T06:39:40Z</time>
<ele>17.08</ele>
<name><![CDATA[Point 81]]></name>
</rtept>
<rtept lat="22.473724" lon="120.456474">
<time>2010-02-22T06:39:45Z</time>
<ele>17.93</ele>
<name><![CDATA[Point 82]]></name>
</rtept>
<rtept lat="22.473867" lon="120.456627">
<time>2010-02-22T06:39:50Z</time>
<ele>20.50</ele>
<name><![CDATA[Point 83]]></name>
</rtept>
<rtept lat="22.473997" lon="120.456787">
<time>2010-02-22T06:39:55Z</time>
<ele>20.18</ele>
<name><![CDATA[Point 84]]></name>
</rtept>
<rtept lat="22.474140" lon="120.456985">
<time>2010-02-22T06:40:00Z</time>
<ele>17.40</ele>
<name><![CDATA[Point 85]]></name>
</rtept>
<rtept lat="22.474276" lon="120.457161">
<time>2010-02-22T06:40:05Z</time>
<ele>16.31</ele>
<name><![CDATA[Point 86]]></name>
</rtept>
<rtept lat="22.474436" lon="120.457329">
<time>2010-02-22T06:40:10Z</time>
<ele>16.21</ele>
<name><![CDATA[Point 87]]></name>
</rtept>
<rtept lat="22.474585" lon="120.457504">
<time>2010-02-22T06:40:15Z</time>
<ele>15.07</ele>
<name><![CDATA[Point 88]]></name>
</rtept>
<rtept lat="22.474726" lon="120.457680">
<time>2010-02-22T06:40:20Z</time>
<ele>15.81</ele>
<name><![CDATA[Point 89]]></name>
</rtept>
<rtept lat="22.474886" lon="120.457855">
<time>2010-02-22T06:40:25Z</time>
<ele>17.04</ele>
<name><![CDATA[Point 90]]></name>
</rtept>
<rtept lat="22.475004" lon="120.458015">
<time>2010-02-22T06:40:30Z</time>
<ele>16.18</ele>
<name><![CDATA[Point 91]]></name>
</rtept>
<rtept lat="22.475163" lon="120.458168">
<time>2010-02-22T06:40:35Z</time>
<ele>17.45</ele>
<name><![CDATA[Point 92]]></name>
</rtept>
<rtept lat="22.475302" lon="120.458328">
<time>2010-02-22T06:40:40Z</time>
<ele>17.90</ele>
<name><![CDATA[Point 93]]></name>
</rtept>
<rtept lat="22.475462" lon="120.458473">
<time>2010-02-22T06:40:45Z</time>
<ele>19.25</ele>
<name><![CDATA[Point 94]]></name>
</rtept>
<rtept lat="22.475611" lon="120.458641">
<time>2010-02-22T06:40:50Z</time>
<ele>19.11</ele>
<name><![CDATA[Point 95]]></name>
</rtept>
<rtept lat="22.475754" lon="120.458817">
<time>2010-02-22T06:40:55Z</time>
<ele>18.50</ele>
<name><![CDATA[Point 96]]></name>
</rtept>
<rtept lat="22.475908" lon="120.458992">
<time>2010-02-22T06:41:00Z</time>
<ele>17.97</ele>
<name><![CDATA[Point 97]]></name>
</rtept>
<rtept lat="22.476057" lon="120.459137">
<time>2010-02-22T06:41:05Z</time>
<ele>18.57</ele>
<name><![CDATA[Point 98]]></name>
</rtept>
<rtept lat="22.476221" lon="120.459297">
<time>2010-02-22T06:41:10Z</time>
<ele>19.35</ele>
<name><![CDATA[Point 99]]></name>
</rtept>
<rtept lat="22.476370" lon="120.459480">
<time>2010-02-22T06:41:15Z</time>
<ele>18.21</ele>
<name><![CDATA[Point 100]]></name>
</rtept>
<rtept lat="22.476507" lon="120.459648">
<time>2010-02-22T06:41:20Z</time>
<ele>16.67</ele>
<name><![CDATA[Point 101]]></name>
</rtept>
<rtept lat="22.476641" lon="120.459808">
<time>2010-02-22T06:41:25Z</time>
<ele>15.61</ele>
<name><![CDATA[Point 102]]></name>
</rtept>
<rtept lat="22.476746" lon="120.459938">
<time>2010-02-22T06:41:30Z</time>
<ele>14.48</ele>
<name><![CDATA[Point 103]]></name>
</rtept>
<rtept lat="22.476837" lon="120.460014">
<time>2010-02-22T06:41:35Z</time>
<ele>16.08</ele>
<name><![CDATA[Point 104]]></name>
</rtept>
<rtept lat="22.476908" lon="120.460121">
<time>2010-02-22T06:41:40Z</time>
<ele>16.47</ele>
<name><![CDATA[Point 105]]></name>
</rtept>
<rtept lat="22.476994" lon="120.460197">
<time>2010-02-22T06:41:45Z</time>
<ele>16.30</ele>
<name><![CDATA[Point 106]]></name>
</rtept>
<rtept lat="22.477161" lon="120.460228">
<time>2010-02-22T06:41:50Z</time>
<ele>15.85</ele>
<name><![CDATA[Point 107]]></name>
</rtept>
<rtept lat="22.477310" lon="120.460075">
<time>2010-02-22T06:41:55Z</time>
<ele>14.87</ele>
<name><![CDATA[Point 108]]></name>
</rtept>
<rtept lat="22.477468" lon="120.459908">
<time>2010-02-22T06:42:00Z</time>
<ele>13.88</ele>
<name><![CDATA[Point 109]]></name>
</rtept>
<rtept lat="22.477638" lon="120.459732">
<time>2010-02-22T06:42:05Z</time>
<ele>10.32</ele>
<name><![CDATA[Point 110]]></name>
</rtept>
<rtept lat="22.477819" lon="120.459549">
<time>2010-02-22T06:42:10Z</time>
<ele>9.53</ele>
<name><![CDATA[Point 111]]></name>
</rtept>
<rtept lat="22.478001" lon="120.459351">
<time>2010-02-22T06:42:15Z</time>
<ele>9.95</ele>
<name><![CDATA[Point 112]]></name>
</rtept>
<rtept lat="22.478193" lon="120.459160">
<time>2010-02-22T06:42:20Z</time>
<ele>9.76</ele>
<name><![CDATA[Point 113]]></name>
</rtept>
<rtept lat="22.478386" lon="120.458961">
<time>2010-02-22T06:42:25Z</time>
<ele>9.94</ele>
<name><![CDATA[Point 114]]></name>
</rtept>
<rtept lat="22.478554" lon="120.458794">
<time>2010-02-22T06:42:30Z</time>
<ele>8.87</ele>
<name><![CDATA[Point 115]]></name>
</rtept>
<rtept lat="22.478727" lon="120.458603">
<time>2010-02-22T06:42:35Z</time>
<ele>8.31</ele>
<name><![CDATA[Point 116]]></name>
</rtept>
<rtept lat="22.478895" lon="120.458427">
<time>2010-02-22T06:42:40Z</time>
<ele>5.95</ele>
<name><![CDATA[Point 117]]></name>
</rtept>
<rtept lat="22.479063" lon="120.458260">
<time>2010-02-22T06:42:45Z</time>
<ele>6.60</ele>
<name><![CDATA[Point 118]]></name>
</rtept>
<rtept lat="22.479227" lon="120.458084">
<time>2010-02-22T06:42:50Z</time>
<ele>7.36</ele>
<name><![CDATA[Point 119]]></name>
</rtept>
<rtept lat="22.479395" lon="120.457909">
<time>2010-02-22T06:42:55Z</time>
<ele>6.98</ele>
<name><![CDATA[Point 120]]></name>
</rtept>
<rtept lat="22.479549" lon="120.457741">
<time>2010-02-22T06:43:00Z</time>
<ele>6.79</ele>
<name><![CDATA[Point 121]]></name>
</rtept>
<rtept lat="22.479706" lon="120.457581">
<time>2010-02-22T06:43:05Z</time>
<ele>5.54</ele>
<name><![CDATA[Point 122]]></name>
</rtept>
<rtept lat="22.479893" lon="120.457436">
<time>2010-02-22T06:43:10Z</time>
<ele>4.08</ele>
<name><![CDATA[Point 123]]></name>
</rtept>
<rtept lat="22.480080" lon="120.457321">
<time>2010-02-22T06:43:15Z</time>
<ele>4.37</ele>
<name><![CDATA[Point 124]]></name>
</rtept>
<rtept lat="22.480303" lon="120.457214">
<time>2010-02-22T06:43:20Z</time>
<ele>4.70</ele>
<name><![CDATA[Point 125]]></name>
</rtept>
<rtept lat="22.480532" lon="120.457138">
<time>2010-02-22T06:43:25Z</time>
<ele>3.03</ele>
<name><![CDATA[Point 126]]></name>
</rtept>
<rtept lat="22.480791" lon="120.457115">
<time>2010-02-22T06:43:30Z</time>
<ele>4.86</ele>
<name><![CDATA[Point 127]]></name>
</rtept>
<rtept lat="22.481037" lon="120.457138">
<time>2010-02-22T06:43:35Z</time>
<ele>5.28</ele>
<name><![CDATA[Point 128]]></name>
</rtept>
<rtept lat="22.481302" lon="120.457184">
<time>2010-02-22T06:43:40Z</time>
<ele>7.62</ele>
<name><![CDATA[Point 129]]></name>
</rtept>
<rtept lat="22.481546" lon="120.457298">
<time>2010-02-22T06:43:45Z</time>
<ele>7.44</ele>
<name><![CDATA[Point 130]]></name>
</rtept>
<rtept lat="22.481794" lon="120.457405">
<time>2010-02-22T06:43:50Z</time>
<ele>10.98</ele>
<name><![CDATA[Point 131]]></name>
</rtept>
<rtept lat="22.482046" lon="120.457520">
<time>2010-02-22T06:43:55Z</time>
<ele>11.78</ele>
<name><![CDATA[Point 132]]></name>
</rtept>
<rtept lat="22.482300" lon="120.457619">
<time>2010-02-22T06:44:00Z</time>
<ele>10.87</ele>
<name><![CDATA[Point 133]]></name>
</rtept>
<rtept lat="22.482544" lon="120.457703">
<time>2010-02-22T06:44:05Z</time>
<ele>11.88</ele>
<name><![CDATA[Point 134]]></name>
</rtept>
<rtept lat="22.482792" lon="120.457787">
<time>2010-02-22T06:44:10Z</time>
<ele>12.70</ele>
<name><![CDATA[Point 135]]></name>
</rtept>
<rtept lat="22.483046" lon="120.457886">
<time>2010-02-22T06:44:15Z</time>
<ele>15.43</ele>
<name><![CDATA[Point 136]]></name>
</rtept>
<rtept lat="22.483313" lon="120.457985">
<time>2010-02-22T06:44:20Z</time>
<ele>12.52</ele>
<name><![CDATA[Point 137]]></name>
</rtept>
<rtept lat="22.483559" lon="120.458084">
<time>2010-02-22T06:44:25Z</time>
<ele>13.68</ele>
<name><![CDATA[Point 138]]></name>
</rtept>
<rtept lat="22.483826" lon="120.458183">
<time>2010-02-22T06:44:30Z</time>
<ele>16.79</ele>
<name><![CDATA[Point 139]]></name>
</rtept>
<rtept lat="22.484077" lon="120.458275">
<time>2010-02-22T06:44:35Z</time>
<ele>23.69</ele>
<name><![CDATA[Point 140]]></name>
</rtept>
<rtept lat="22.484297" lon="120.458336">
<time>2010-02-22T06:44:40Z</time>
<ele>31.21</ele>
<name><![CDATA[Point 141]]></name>
</rtept>
<rtept lat="22.484533" lon="120.458374">
<time>2010-02-22T06:44:45Z</time>
<ele>37.43</ele>
<name><![CDATA[Point 142]]></name>
</rtept>
<rtept lat="22.484785" lon="120.458443">
<time>2010-02-22T06:44:50Z</time>
<ele>38.24</ele>
<name><![CDATA[Point 143]]></name>
</rtept>
<rtept lat="22.485003" lon="120.458511">
<time>2010-02-22T06:44:55Z</time>
<ele>40.71</ele>
<name><![CDATA[Point 144]]></name>
</rtept>
<rtept lat="22.485249" lon="120.458519">
<time>2010-02-22T06:45:00Z</time>
<ele>39.02</ele>
<name><![CDATA[Point 145]]></name>
</rtept>
<rtept lat="22.485533" lon="120.458519">
<time>2010-02-22T06:45:05Z</time>
<ele>38.12</ele>
<name><![CDATA[Point 146]]></name>
</rtept>
<rtept lat="22.485809" lon="120.458519">
<time>2010-02-22T06:45:10Z</time>
<ele>33.74</ele>
<name><![CDATA[Point 147]]></name>
</rtept>
<rtept lat="22.486025" lon="120.458473">
<time>2010-02-22T06:45:15Z</time>
<ele>32.54</ele>
<name><![CDATA[Point 148]]></name>
</rtept>
<rtept lat="22.486263" lon="120.458450">
<time>2010-02-22T06:45:20Z</time>
<ele>26.13</ele>
<name><![CDATA[Point 149]]></name>
</rtept>
<rtept lat="22.486485" lon="120.458405">
<time>2010-02-22T06:45:25Z</time>
<ele>30.80</ele>
<name><![CDATA[Point 150]]></name>
</rtept>
<rtept lat="22.486706" lon="120.458397">
<time>2010-02-22T06:45:30Z</time>
<ele>23.32</ele>
<name><![CDATA[Point 151]]></name>
</rtept>
<rtept lat="22.486946" lon="120.458351">
<time>2010-02-22T06:45:35Z</time>
<ele>26.34</ele>
<name><![CDATA[Point 152]]></name>
</rtept>
<rtept lat="22.487164" lon="120.458351">
<time>2010-02-22T06:45:40Z</time>
<ele>29.55</ele>
<name><![CDATA[Point 153]]></name>
</rtept>
<rtept lat="22.487434" lon="120.458351">
<time>2010-02-22T06:45:45Z</time>
<ele>38.08</ele>
<name><![CDATA[Point 154]]></name>
</rtept>
<rtept lat="22.487701" lon="120.458382">
<time>2010-02-22T06:45:50Z</time>
<ele>42.44</ele>
<name><![CDATA[Point 155]]></name>
</rtept>
<rtept lat="22.487955" lon="120.458435">
<time>2010-02-22T06:45:55Z</time>
<ele>45.08</ele>
<name><![CDATA[Point 156]]></name>
</rtept>
<rtept lat="22.488214" lon="120.458511">
<time>2010-02-22T06:46:00Z</time>
<ele>41.03</ele>
<name><![CDATA[Point 157]]></name>
</rtept>
<rtept lat="22.488449" lon="120.458565">
<time>2010-02-22T06:46:05Z</time>
<ele>39.05</ele>
<name><![CDATA[Point 158]]></name>
</rtept>
<rtept lat="22.488697" lon="120.458603">
<time>2010-02-22T06:46:10Z</time>
<ele>37.27</ele>
<name><![CDATA[Point 159]]></name>
</rtept>
<rtept lat="22.488934" lon="120.458618">
<time>2010-02-22T06:46:15Z</time>
<ele>37.79</ele>
<name><![CDATA[Point 160]]></name>
</rtept>
<rtept lat="22.488928" lon="120.458633">
<time>2010-02-22T06:46:20Z</time>
<ele>36.01</ele>
<name><![CDATA[Point 161]]></name>
</rtept>
<rtept lat="22.488943" lon="120.458809">
<time>2010-02-22T06:46:25Z</time>
<ele>30.84</ele>
<name><![CDATA[Point 162]]></name>
</rtept>
<rtept lat="22.488918" lon="120.458923">
<time>2010-02-22T06:46:30Z</time>
<ele>23.06</ele>
<name><![CDATA[Point 163]]></name>
</rtept>
<rtept lat="22.488899" lon="120.458939">
<time>2010-02-22T06:46:35Z</time>
<ele>22.00</ele>
<name><![CDATA[Point 164]]></name>
</rtept>
<rtept lat="22.488901" lon="120.458939">
<time>2010-02-22T06:46:40Z</time>
<ele>21.85</ele>
<name><![CDATA[Point 165]]></name>
</rtept>
<rtept lat="22.488920" lon="120.458969">
<time>2010-02-22T06:46:45Z</time>
<ele>20.03</ele>
<name><![CDATA[Point 166]]></name>
</rtept>
<rtept lat="22.488928" lon="120.458969">
<time>2010-02-22T06:46:50Z</time>
<ele>19.59</ele>
<name><![CDATA[Point 167]]></name>
</rtept>
<rtept lat="22.488930" lon="120.458969">
<time>2010-02-22T06:46:55Z</time>
<ele>19.26</ele>
<name><![CDATA[Point 168]]></name>
</rtept>
<rtept lat="22.488932" lon="120.458969">
<time>2010-02-22T06:47:00Z</time>
<ele>18.99</ele>
<name><![CDATA[Point 169]]></name>
</rtept>
<rtept lat="22.488932" lon="120.458969">
<time>2010-02-22T06:47:05Z</time>
<ele>18.79</ele>
<name><![CDATA[Point 170]]></name>
</rtept>
<rtept lat="22.488930" lon="120.458969">
<time>2010-02-22T06:47:10Z</time>
<ele>18.53</ele>
<name><![CDATA[Point 171]]></name>
</rtept>
<rtept lat="22.488935" lon="120.458969">
<time>2010-02-22T06:47:15Z</time>
<ele>18.28</ele>
<name><![CDATA[Point 172]]></name>
</rtept>
<rtept lat="22.488943" lon="120.458969">
<time>2010-02-22T06:47:20Z</time>
<ele>17.85</ele>
<name><![CDATA[Point 173]]></name>
</rtept>
<rtept lat="22.488947" lon="120.458969">
<time>2010-02-22T06:47:25Z</time>
<ele>17.15</ele>
<name><![CDATA[Point 174]]></name>
</rtept>
<rtept lat="22.488953" lon="120.458969">
<time>2010-02-22T06:47:30Z</time>
<ele>16.47</ele>
<name><![CDATA[Point 175]]></name>
</rtept>
<rtept lat="22.488962" lon="120.458969">
<time>2010-02-22T06:47:35Z</time>
<ele>15.85</ele>
<name><![CDATA[Point 176]]></name>
</rtept>
<rtept lat="22.488964" lon="120.458969">
<time>2010-02-22T06:47:40Z</time>
<ele>15.42</ele>
<name><![CDATA[Point 177]]></name>
</rtept>
<rtept lat="22.488960" lon="120.458969">
<time>2010-02-22T06:47:45Z</time>
<ele>15.36</ele>
<name><![CDATA[Point 178]]></name>
</rtept>
<rtept lat="22.488955" lon="120.458969">
<time>2010-02-22T06:47:50Z</time>
<ele>15.37</ele>
<name><![CDATA[Point 179]]></name>
</rtept>
<rtept lat="22.488953" lon="120.458969">
<time>2010-02-22T06:47:55Z</time>
<ele>15.41</ele>
<name><![CDATA[Point 180]]></name>
</rtept>
<rtept lat="22.488960" lon="120.458969">
<time>2010-02-22T06:48:00Z</time>
<ele>15.47</ele>
<name><![CDATA[Point 181]]></name>
</rtept>
<rtept lat="22.488960" lon="120.458969">
<time>2010-02-22T06:48:05Z</time>
<ele>15.67</ele>
<name><![CDATA[Point 182]]></name>
</rtept>
<rtept lat="22.488955" lon="120.458977">
<time>2010-02-22T06:48:10Z</time>
<ele>15.75</ele>
<name><![CDATA[Point 183]]></name>
</rtept>
<rtept lat="22.488953" lon="120.458977">
<time>2010-02-22T06:48:15Z</time>
<ele>15.68</ele>
<name><![CDATA[Point 184]]></name>
</rtept>
<rtept lat="22.488953" lon="120.458969">
<time>2010-02-22T06:48:20Z</time>
<ele>15.56</ele>
<name><![CDATA[Point 185]]></name>
</rtept>
<rtept lat="22.488907" lon="120.458870">
<time>2010-02-22T06:48:25Z</time>
<ele>15.00</ele>
<name><![CDATA[Point 186]]></name>
</rtept>
<rtept lat="22.488930" lon="120.458763">
<time>2010-02-22T06:48:30Z</time>
<ele>13.95</ele>
<name><![CDATA[Point 187]]></name>
</rtept>
<rtept lat="22.489050" lon="120.458794">
<time>2010-02-22T06:48:35Z</time>
<ele>13.01</ele>
<name><![CDATA[Point 188]]></name>
</rtept>
<rtept lat="22.489201" lon="120.458801">
<time>2010-02-22T06:48:40Z</time>
<ele>12.33</ele>
<name><![CDATA[Point 189]]></name>
</rtept>
<rtept lat="22.489367" lon="120.458832">
<time>2010-02-22T06:48:45Z</time>
<ele>12.39</ele>
<name><![CDATA[Point 190]]></name>
</rtept>
<rtept lat="22.489561" lon="120.458862">
<time>2010-02-22T06:48:50Z</time>
<ele>14.71</ele>
<name><![CDATA[Point 191]]></name>
</rtept>
<rtept lat="22.489758" lon="120.458916">
<time>2010-02-22T06:48:55Z</time>
<ele>15.01</ele>
<name><![CDATA[Point 192]]></name>
</rtept>
<rtept lat="22.489962" lon="120.458916">
<time>2010-02-22T06:49:00Z</time>
<ele>18.44</ele>
<name><![CDATA[Point 193]]></name>
</rtept>
<rtept lat="22.490191" lon="120.458969">
<time>2010-02-22T06:49:05Z</time>
<ele>21.11</ele>
<name><![CDATA[Point 194]]></name>
</rtept>
<rtept lat="22.490379" lon="120.459015">
<time>2010-02-22T06:49:10Z</time>
<ele>21.11</ele>
<name><![CDATA[Point 195]]></name>
</rtept>
<rtept lat="22.490568" lon="120.459038">
<time>2010-02-22T06:49:15Z</time>
<ele>23.73</ele>
<name><![CDATA[Point 196]]></name>
</rtept>
<rtept lat="22.490774" lon="120.459068">
<time>2010-02-22T06:49:20Z</time>
<ele>23.22</ele>
<name><![CDATA[Point 197]]></name>
</rtept>
<rtept lat="22.490982" lon="120.459091">
<time>2010-02-22T06:49:25Z</time>
<ele>24.73</ele>
<name><![CDATA[Point 198]]></name>
</rtept>
<rtept lat="22.491182" lon="120.459160">
<time>2010-02-22T06:49:30Z</time>
<ele>22.84</ele>
<name><![CDATA[Point 199]]></name>
</rtept>
<rtept lat="22.491373" lon="120.459167">
<time>2010-02-22T06:49:35Z</time>
<ele>20.55</ele>
<name><![CDATA[Point 200]]></name>
</rtept>
<rtept lat="22.491573" lon="120.459206">
<time>2010-02-22T06:49:40Z</time>
<ele>20.06</ele>
<name><![CDATA[Point 201]]></name>
</rtept>
<rtept lat="22.491783" lon="120.459229">
<time>2010-02-22T06:49:45Z</time>
<ele>25.03</ele>
<name><![CDATA[Point 202]]></name>
</rtept>
<rtept lat="22.491978" lon="120.459282">
<time>2010-02-22T06:49:50Z</time>
<ele>21.38</ele>
<name><![CDATA[Point 203]]></name>
</rtept>
<rtept lat="22.492186" lon="120.459290">
<time>2010-02-22T06:49:55Z</time>
<ele>22.80</ele>
<name><![CDATA[Point 204]]></name>
</rtept>
<rtept lat="22.492371" lon="120.459366">
<time>2010-02-22T06:50:00Z</time>
<ele>17.22</ele>
<name><![CDATA[Point 205]]></name>
</rtept>
<rtept lat="22.492569" lon="120.459366">
<time>2010-02-22T06:50:05Z</time>
<ele>21.08</ele>
<name><![CDATA[Point 206]]></name>
</rtept>
<rtept lat="22.492783" lon="120.459366">
<time>2010-02-22T06:50:10Z</time>
<ele>25.76</ele>
<name><![CDATA[Point 207]]></name>
</rtept>
<rtept lat="22.492979" lon="120.459396">
<time>2010-02-22T06:50:15Z</time>
<ele>26.27</ele>
<name><![CDATA[Point 208]]></name>
</rtept>
<rtept lat="22.493179" lon="120.459442">
<time>2010-02-22T06:50:20Z</time>
<ele>24.62</ele>
<name><![CDATA[Point 209]]></name>
</rtept>
<rtept lat="22.493385" lon="120.459488">
<time>2010-02-22T06:50:25Z</time>
<ele>22.12</ele>
<name><![CDATA[Point 210]]></name>
</rtept>
<rtept lat="22.493578" lon="120.459534">
<time>2010-02-22T06:50:30Z</time>
<ele>19.69</ele>
<name><![CDATA[Point 211]]></name>
</rtept>
<rtept lat="22.493763" lon="120.459572">
<time>2010-02-22T06:50:35Z</time>
<ele>20.38</ele>
<name><![CDATA[Point 212]]></name>
</rtept>
<rtept lat="22.493973" lon="120.459572">
<time>2010-02-22T06:50:40Z</time>
<ele>25.86</ele>
<name><![CDATA[Point 213]]></name>
</rtept>
<rtept lat="22.494198" lon="120.459625">
<time>2010-02-22T06:50:45Z</time>
<ele>24.91</ele>
<name><![CDATA[Point 214]]></name>
</rtept>
<rtept lat="22.494431" lon="120.459679">
<time>2010-02-22T06:50:50Z</time>
<ele>24.51</ele>
<name><![CDATA[Point 215]]></name>
</rtept>
<rtept lat="22.494686" lon="120.459778">
<time>2010-02-22T06:50:56Z</time>
<ele>19.81</ele>
<name><![CDATA[Point 216]]></name>
</rtept>
<rtept lat="22.494905" lon="120.459846">
<time>2010-02-22T06:51:01Z</time>
<ele>14.15</ele>
<name><![CDATA[Point 217]]></name>
</rtept>
<rtept lat="22.495111" lon="120.459900">
<time>2010-02-22T06:51:06Z</time>
<ele>9.25</ele>
<name><![CDATA[Point 218]]></name>
</rtept>
<rtept lat="22.495321" lon="120.459946">
<time>2010-02-22T06:51:11Z</time>
<ele>7.14</ele>
<name><![CDATA[Point 219]]></name>
</rtept>
<rtept lat="22.495514" lon="120.459969">
<time>2010-02-22T06:51:16Z</time>
<ele>8.04</ele>
<name><![CDATA[Point 220]]></name>
</rtept>
<rtept lat="22.495726" lon="120.460022">
<time>2010-02-22T06:51:21Z</time>
<ele>7.93</ele>
<name><![CDATA[Point 221]]></name>
</rtept>
<rtept lat="22.495955" lon="120.460052">
<time>2010-02-22T06:51:26Z</time>
<ele>8.82</ele>
<name><![CDATA[Point 222]]></name>
</rtept>
<rtept lat="22.496168" lon="120.460091">
<time>2010-02-22T06:51:31Z</time>
<ele>8.30</ele>
<name><![CDATA[Point 223]]></name>
</rtept>
<rtept lat="22.496376" lon="120.460129">
<time>2010-02-22T06:51:36Z</time>
<ele>9.66</ele>
<name><![CDATA[Point 224]]></name>
</rtept>
<rtept lat="22.496586" lon="120.460182">
<time>2010-02-22T06:51:41Z</time>
<ele>8.52</ele>
<name><![CDATA[Point 225]]></name>
</rtept>
<rtept lat="22.496792" lon="120.460220">
<time>2010-02-22T06:51:46Z</time>
<ele>8.73</ele>
<name><![CDATA[Point 226]]></name>
</rtept>
<rtept lat="22.497009" lon="120.460251">
<time>2010-02-22T06:51:51Z</time>
<ele>6.25</ele>
<name><![CDATA[Point 227]]></name>
</rtept>
<rtept lat="22.497219" lon="120.460289">
<time>2010-02-22T06:51:56Z</time>
<ele>5.59</ele>
<name><![CDATA[Point 228]]></name>
</rtept>
<rtept lat="22.497423" lon="120.460327">
<time>2010-02-22T06:52:01Z</time>
<ele>5.45</ele>
<name><![CDATA[Point 229]]></name>
</rtept>
<rtept lat="22.497631" lon="120.460365">
<time>2010-02-22T06:52:06Z</time>
<ele>5.88</ele>
<name><![CDATA[Point 230]]></name>
</rtept>
<rtept lat="22.497822" lon="120.460411">
<time>2010-02-22T06:52:11Z</time>
<ele>5.29</ele>
<name><![CDATA[Point 231]]></name>
</rtept>
<rtept lat="22.498016" lon="120.460449">
<time>2010-02-22T06:52:16Z</time>
<ele>4.56</ele>
<name><![CDATA[Point 232]]></name>
</rtept>
<rtept lat="22.498198" lon="120.460487">
<time>2010-02-22T06:52:21Z</time>
<ele>3.89</ele>
<name><![CDATA[Point 233]]></name>
</rtept>
<rtept lat="22.498398" lon="120.460518">
<time>2010-02-22T06:52:26Z</time>
<ele>3.50</ele>
<name><![CDATA[Point 234]]></name>
</rtept>
<rtept lat="22.498600" lon="120.460564">
<time>2010-02-22T06:52:31Z</time>
<ele>3.68</ele>
<name><![CDATA[Point 235]]></name>
</rtept>
<rtept lat="22.498810" lon="120.460594">
<time>2010-02-22T06:52:36Z</time>
<ele>4.72</ele>
<name><![CDATA[Point 236]]></name>
</rtept>
<rtept lat="22.499016" lon="120.460648">
<time>2010-02-22T06:52:41Z</time>
<ele>4.45</ele>
<name><![CDATA[Point 237]]></name>
</rtept>
<rtept lat="22.499233" lon="120.460678">
<time>2010-02-22T06:52:46Z</time>
<ele>2.61</ele>
<name><![CDATA[Point 238]]></name>
</rtept>
<rtept lat="22.499441" lon="120.460724">
<time>2010-02-22T06:52:51Z</time>
<ele>2.35</ele>
<name><![CDATA[Point 239]]></name>
</rtept>
<rtept lat="22.499649" lon="120.460739">
<time>2010-02-22T06:52:56Z</time>
<ele>2.63</ele>
<name><![CDATA[Point 240]]></name>
</rtept>
<rtept lat="22.499855" lon="120.460785">
<time>2010-02-22T06:53:01Z</time>
<ele>3.52</ele>
<name><![CDATA[Point 241]]></name>
</rtept>
<rtept lat="22.500065" lon="120.460815">
<time>2010-02-22T06:53:06Z</time>
<ele>2.35</ele>
<name><![CDATA[Point 242]]></name>
</rtept>
<rtept lat="22.500286" lon="120.460854">
<time>2010-02-22T06:53:11Z</time>
<ele>3.96</ele>
<name><![CDATA[Point 243]]></name>
</rtept>
<rtept lat="22.500513" lon="120.460892">
<time>2010-02-22T06:53:16Z</time>
<ele>2.69</ele>
<name><![CDATA[Point 244]]></name>
</rtept>
<rtept lat="22.500717" lon="120.460922">
<time>2010-02-22T06:53:21Z</time>
<ele>4.22</ele>
<name><![CDATA[Point 245]]></name>
</rtept>
<rtept lat="22.500914" lon="120.460953">
<time>2010-02-22T06:53:26Z</time>
<ele>4.99</ele>
<name><![CDATA[Point 246]]></name>
</rtept>
<rtept lat="22.501116" lon="120.460999">
<time>2010-02-22T06:53:31Z</time>
<ele>4.44</ele>
<name><![CDATA[Point 247]]></name>
</rtept>
<rtept lat="22.501303" lon="120.461037">
<time>2010-02-22T06:53:36Z</time>
<ele>5.56</ele>
<name><![CDATA[Point 248]]></name>
</rtept>
<rtept lat="22.501503" lon="120.461067">
<time>2010-02-22T06:53:41Z</time>
<ele>4.52</ele>
<name><![CDATA[Point 249]]></name>
</rtept>
<rtept lat="22.501709" lon="120.461105">
<time>2010-02-22T06:53:46Z</time>
<ele>4.57</ele>
<name><![CDATA[Point 250]]></name>
</rtept>
<rtept lat="22.501925" lon="120.461151">
<time>2010-02-22T06:53:51Z</time>
<ele>4.71</ele>
<name><![CDATA[Point 251]]></name>
</rtept>
<rtept lat="22.502131" lon="120.461197">
<time>2010-02-22T06:53:56Z</time>
<ele>4.07</ele>
<name><![CDATA[Point 252]]></name>
</rtept>
<rtept lat="22.502335" lon="120.461250">
<time>2010-02-22T06:54:01Z</time>
<ele>4.32</ele>
<name><![CDATA[Point 253]]></name>
</rtept>
<rtept lat="22.502560" lon="120.461304">
<time>2010-02-22T06:54:06Z</time>
<ele>4.13</ele>
<name><![CDATA[Point 254]]></name>
</rtept>
<rtept lat="22.502783" lon="120.461372">
<time>2010-02-22T06:54:11Z</time>
<ele>3.85</ele>
<name><![CDATA[Point 255]]></name>
</rtept>
<rtept lat="22.503006" lon="120.461411">
<time>2010-02-22T06:54:16Z</time>
<ele>4.75</ele>
<name><![CDATA[Point 256]]></name>
</rtept>
<rtept lat="22.503235" lon="120.461472">
<time>2010-02-22T06:54:21Z</time>
<ele>4.20</ele>
<name><![CDATA[Point 257]]></name>
</rtept>
<rtept lat="22.503456" lon="120.461525">
<time>2010-02-22T06:54:26Z</time>
<ele>2.87</ele>
<name><![CDATA[Point 258]]></name>
</rtept>
<rtept lat="22.503679" lon="120.461571">
<time>2010-02-22T06:54:31Z</time>
<ele>3.47</ele>
<name><![CDATA[Point 259]]></name>
</rtept>
<rtept lat="22.503897" lon="120.461624">
<time>2010-02-22T06:54:36Z</time>
<ele>3.73</ele>
<name><![CDATA[Point 260]]></name>
</rtept>
<rtept lat="22.504099" lon="120.461670">
<time>2010-02-22T06:54:41Z</time>
<ele>4.78</ele>
<name><![CDATA[Point 261]]></name>
</rtept>
<rtept lat="22.504305" lon="120.461700">
<time>2010-02-22T06:54:46Z</time>
<ele>5.01</ele>
<name><![CDATA[Point 262]]></name>
</rtept>
<rtept lat="22.504547" lon="120.461716">
<time>2010-02-22T06:54:51Z</time>
<ele>4.39</ele>
<name><![CDATA[Point 263]]></name>
</rtept>
<rtept lat="22.504774" lon="120.461739">
<time>2010-02-22T06:54:56Z</time>
<ele>4.46</ele>
<name><![CDATA[Point 264]]></name>
</rtept>
<rtept lat="22.505026" lon="120.461769">
<time>2010-02-22T06:55:01Z</time>
<ele>3.19</ele>
<name><![CDATA[Point 265]]></name>
</rtept>
<rtept lat="22.505281" lon="120.461800">
<time>2010-02-22T06:55:06Z</time>
<ele>3.27</ele>
<name><![CDATA[Point 266]]></name>
</rtept>
<rtept lat="22.505541" lon="120.461823">
<time>2010-02-22T06:55:11Z</time>
<ele>2.04</ele>
<name><![CDATA[Point 267]]></name>
</rtept>
<rtept lat="22.505795" lon="120.461861">
<time>2010-02-22T06:55:16Z</time>
<ele>2.12</ele>
<name><![CDATA[Point 268]]></name>
</rtept>
<rtept lat="22.506039" lon="120.461884">
<time>2010-02-22T06:55:21Z</time>
<ele>1.26</ele>
<name><![CDATA[Point 269]]></name>
</rtept>
<rtept lat="22.506296" lon="120.461906">
<time>2010-02-22T06:55:26Z</time>
<ele>1.53</ele>
<name><![CDATA[Point 270]]></name>
</rtept>
<rtept lat="22.506546" lon="120.461945">
<time>2010-02-22T06:55:31Z</time>
<ele>1.06</ele>
<name><![CDATA[Point 271]]></name>
</rtept>
<rtept lat="22.506790" lon="120.461967">
<time>2010-02-22T06:55:36Z</time>
<ele>2.19</ele>
<name><![CDATA[Point 272]]></name>
</rtept>
<rtept lat="22.507030" lon="120.461990">
<time>2010-02-22T06:55:41Z</time>
<ele>1.78</ele>
<name><![CDATA[Point 273]]></name>
</rtept>
<rtept lat="22.507269" lon="120.462021">
<time>2010-02-22T06:55:46Z</time>
<ele>3.96</ele>
<name><![CDATA[Point 274]]></name>
</rtept>
<rtept lat="22.507526" lon="120.462051">
<time>2010-02-22T06:55:51Z</time>
<ele>2.17</ele>
<name><![CDATA[Point 275]]></name>
</rtept>
<rtept lat="22.507784" lon="120.462067">
<time>2010-02-22T06:55:56Z</time>
<ele>2.06</ele>
<name><![CDATA[Point 276]]></name>
</rtept>
<rtept lat="22.508028" lon="120.462105">
<time>2010-02-22T06:56:01Z</time>
<ele>3.11</ele>
<name><![CDATA[Point 277]]></name>
</rtept>
<rtept lat="22.508272" lon="120.462112">
<time>2010-02-22T06:56:06Z</time>
<ele>4.21</ele>
<name><![CDATA[Point 278]]></name>
</rtept>
<rtept lat="22.508503" lon="120.462143">
<time>2010-02-22T06:56:11Z</time>
<ele>3.76</ele>
<name><![CDATA[Point 279]]></name>
</rtept>
<rtept lat="22.508703" lon="120.462166">
<time>2010-02-22T06:56:16Z</time>
<ele>4.67</ele>
<name><![CDATA[Point 280]]></name>
</rtept>
<rtept lat="22.508852" lon="120.462196">
<time>2010-02-22T06:56:21Z</time>
<ele>3.37</ele>
<name><![CDATA[Point 281]]></name>
</rtept>
<rtept lat="22.508986" lon="120.462212">
<time>2010-02-22T06:56:26Z</time>
<ele>5.64</ele>
<name><![CDATA[Point 282]]></name>
</rtept>
<rtept lat="22.509174" lon="120.462234">
<time>2010-02-22T06:56:31Z</time>
<ele>5.52</ele>
<name><![CDATA[Point 283]]></name>
</rtept>
<rtept lat="22.509394" lon="120.462265">
<time>2010-02-22T06:56:36Z</time>
<ele>4.75</ele>
<name><![CDATA[Point 284]]></name>
</rtept>
<rtept lat="22.509619" lon="120.462296">
<time>2010-02-22T06:56:41Z</time>
<ele>3.49</ele>
<name><![CDATA[Point 285]]></name>
</rtept>
<rtept lat="22.509853" lon="120.462318">
<time>2010-02-22T06:56:46Z</time>
<ele>3.71</ele>
<name><![CDATA[Point 286]]></name>
</rtept>
<rtept lat="22.510080" lon="120.462357">
<time>2010-02-22T06:56:51Z</time>
<ele>3.41</ele>
<name><![CDATA[Point 287]]></name>
</rtept>
<rtept lat="22.510307" lon="120.462395">
<time>2010-02-22T06:56:56Z</time>
<ele>2.34</ele>
<name><![CDATA[Point 288]]></name>
</rtept>
<rtept lat="22.510540" lon="120.462410">
<time>2010-02-22T06:57:01Z</time>
<ele>1.86</ele>
<name><![CDATA[Point 289]]></name>
</rtept>
<rtept lat="22.510744" lon="120.462448">
<time>2010-02-22T06:57:06Z</time>
<ele>1.97</ele>
<name><![CDATA[Point 290]]></name>
</rtept>
<rtept lat="22.510944" lon="120.462479">
<time>2010-02-22T06:57:11Z</time>
<ele>1.38</ele>
<name><![CDATA[Point 291]]></name>
</rtept>
<rtept lat="22.511370" lon="120.462509">
<time>2010-02-22T06:57:21Z</time>
<ele>1.71</ele>
<name><![CDATA[Point 292]]></name>
</rtept>
<rtept lat="22.511591" lon="120.462524">
<time>2010-02-22T06:57:26Z</time>
<ele>1.52</ele>
<name><![CDATA[Point 293]]></name>
</rtept>
<rtept lat="22.511797" lon="120.462532">
<time>2010-02-22T06:57:31Z</time>
<ele>2.10</ele>
<name><![CDATA[Point 294]]></name>
</rtept>
<rtept lat="22.511969" lon="120.462517">
<time>2010-02-22T06:57:36Z</time>
<ele>2.62</ele>
<name><![CDATA[Point 295]]></name>
</rtept>
<rtept lat="22.512037" lon="120.462425">
<time>2010-02-22T06:57:41Z</time>
<ele>4.81</ele>
<name><![CDATA[Point 296]]></name>
</rtept>
<rtept lat="22.512011" lon="120.462364">
<time>2010-02-22T06:57:46Z</time>
<ele>3.68</ele>
<name><![CDATA[Point 297]]></name>
</rtept>
<rtept lat="22.511839" lon="120.462311">
<time>2010-02-22T06:57:51Z</time>
<ele>1.91</ele>
<name><![CDATA[Point 298]]></name>
</rtept>
<rtept lat="22.511761" lon="120.462227">
<time>2010-02-22T06:57:56Z</time>
<ele>0.26</ele>
<name><![CDATA[Point 299]]></name>
</rtept>
<rtept lat="22.511791" lon="120.462158">
<time>2010-02-22T06:58:01Z</time>
<ele>0.05</ele>
<name><![CDATA[Point 300]]></name>
</rtept>
<rtept lat="22.511786" lon="120.462143">
<time>2010-02-22T06:58:06Z</time>
<ele>-0.33</ele>
<name><![CDATA[Point 301]]></name>
</rtept>
<rtept lat="22.511770" lon="120.462135">
<time>2010-02-22T06:58:11Z</time>
<ele>-0.41</ele>
<name><![CDATA[Point 302]]></name>
</rtept>
<rtept lat="22.511765" lon="120.462128">
<time>2010-02-22T06:58:16Z</time>
<ele>-0.45</ele>
<name><![CDATA[Point 303]]></name>
</rtept>
<rtept lat="22.511768" lon="120.462128">
<time>2010-02-22T06:58:21Z</time>
<ele>-0.45</ele>
<name><![CDATA[Point 304]]></name>
</rtept>
<rtept lat="22.511778" lon="120.462135">
<time>2010-02-22T06:58:26Z</time>
<ele>-0.43</ele>
<name><![CDATA[Point 305]]></name>
</rtept>
<rtept lat="22.511789" lon="120.462143">
<time>2010-02-22T06:58:31Z</time>
<ele>-0.40</ele>
<name><![CDATA[Point 306]]></name>
</rtept>
<rtept lat="22.511799" lon="120.462151">
<time>2010-02-22T06:58:36Z</time>
<ele>-0.37</ele>
<name><![CDATA[Point 307]]></name>
</rtept>
<rtept lat="22.511806" lon="120.462151">
<time>2010-02-22T06:58:41Z</time>
<ele>-0.33</ele>
<name><![CDATA[Point 308]]></name>
</rtept>
<rtept lat="22.511814" lon="120.462158">
<time>2010-02-22T06:58:46Z</time>
<ele>-0.30</ele>
<name><![CDATA[Point 309]]></name>
</rtept>
<rtept lat="22.511816" lon="120.462158">
<time>2010-02-22T06:58:51Z</time>
<ele>-0.29</ele>
<name><![CDATA[Point 310]]></name>
</rtept>
<rtept lat="22.511806" lon="120.462151">
<time>2010-02-22T06:58:56Z</time>
<ele>-0.30</ele>
<name><![CDATA[Point 311]]></name>
</rtept>
<rtept lat="22.511797" lon="120.462143">
<time>2010-02-22T06:59:01Z</time>
<ele>-0.30</ele>
<name><![CDATA[Point 312]]></name>
</rtept>
<rtept lat="22.511787" lon="120.462135">
<time>2010-02-22T06:59:06Z</time>
<ele>-0.30</ele>
<name><![CDATA[Point 313]]></name>
</rtept>
<rtept lat="22.511782" lon="120.462128">
<time>2010-02-22T06:59:11Z</time>
<ele>-0.30</ele>
<name><![CDATA[Point 314]]></name>
</rtept>
<rtept lat="22.511782" lon="120.462128">
<time>2010-02-22T06:59:16Z</time>
<ele>-0.29</ele>
<name><![CDATA[Point 315]]></name>
</rtept>
<rtept lat="22.511766" lon="120.462143">
<time>2010-02-22T06:59:21Z</time>
<ele>-0.24</ele>
<name><![CDATA[Point 316]]></name>
</rtept>
<rtept lat="22.511759" lon="120.462143">
<time>2010-02-22T06:59:26Z</time>
<ele>-0.20</ele>
<name><![CDATA[Point 317]]></name>
</rtept>
<rtept lat="22.511774" lon="120.462166">
<time>2010-02-22T06:59:31Z</time>
<ele>-0.14</ele>
<name><![CDATA[Point 318]]></name>
</rtept>
<rtept lat="22.511780" lon="120.462173">
<time>2010-02-22T06:59:36Z</time>
<ele>-0.12</ele>
<name><![CDATA[Point 319]]></name>
</rtept>
<rtept lat="22.511787" lon="120.462181">
<time>2010-02-22T06:59:41Z</time>
<ele>-0.10</ele>
<name><![CDATA[Point 320]]></name>
</rtept>
<rtept lat="22.511795" lon="120.462189">
<time>2010-02-22T06:59:46Z</time>
<ele>-0.09</ele>
<name><![CDATA[Point 321]]></name>
</rtept>
<rtept lat="22.511795" lon="120.462189">
<time>2010-02-22T06:59:51Z</time>
<ele>-0.09</ele>
<name><![CDATA[Point 322]]></name>
</rtept>
<rtept lat="22.511795" lon="120.462189">
<time>2010-02-22T06:59:56Z</time>
<ele>-0.09</ele>
<name><![CDATA[Point 323]]></name>
</rtept>
</rte>
</gpx>
