<?xml version="1.0" encoding="UTF-8"?>
<kml xmlns="http://earth.google.com/kml/2.1">
<Document>
<Style id="normalState_TLP_Start">
<IconStyle>
<scale>1.0</scale>
<Icon>
<href>http://maps.google.com/mapfiles/kml/pal4/icon15.png</href>
</Icon>
</IconStyle>
<LabelStyle>
<scale>1.0</scale>
</LabelStyle>
</Style>
<Style id="highlightState_TLP_Start">
<IconStyle>
<scale>1.1</scale>
<Icon>
<href>http://maps.google.com/mapfiles/kml/pal4/icon7.png</href>
</Icon>
</IconStyle>
<LabelStyle>
<scale>1.1</scale>
<color>ff0000ff</color>
</LabelStyle>
</Style>
<StyleMap id="styleMap_TLP_Start">
<Pair>
<key>normal</key>
<styleUrl>#normalState_TLP_Start</styleUrl>
</Pair>
<Pair>
<key>highlight</key>
<styleUrl>#highlightState_TLP_Start</styleUrl>
</Pair>
</StyleMap>
<Style id="normalState_TLP_Finish">
<IconStyle>
<scale>1.0</scale>
<Icon>
<href>http://maps.google.com/mapfiles/kml/pal4/icon15.png</href>
</Icon>
</IconStyle>
<LabelStyle>
<scale>1.0</scale>
</LabelStyle>
</Style>
<Style id="highlightState_TLP_Finish">
<IconStyle>
<scale>1.1</scale>
<Icon>
<href>http://maps.google.com/mapfiles/kml/pal4/icon7.png</href>
</Icon>
</IconStyle>
<LabelStyle>
<scale>1.1</scale>
<color>ff0000ff</color>
</LabelStyle>
</Style>
<StyleMap id="styleMap_TLP_Finish">
<Pair>
<key>normal</key>
<styleUrl>#normalState_TLP_Finish</styleUrl>
</Pair>
<Pair>
<key>highlight</key>
<styleUrl>#highlightState_TLP_Finish</styleUrl>
</Pair>
</StyleMap>
<Style id="normalState_TLP_Normal">
<IconStyle>
<scale>1.0</scale>
<Icon>
<href>http://maps.google.com/mapfiles/kml/pal4/icon31.png</href>
</Icon>
</IconStyle>
<LabelStyle>
<scale>1.0</scale>
</LabelStyle>
</Style>
<Style id="highlightState_TLP_Normal">
<IconStyle>
<scale>1.1</scale>
<Icon>
<href>http://maps.google.com/mapfiles/kml/pal4/icon23.png</href>
</Icon>
</IconStyle>
<LabelStyle>
<scale>1.1</scale>
<color>ff0000ff</color>
</LabelStyle>
</Style>
<StyleMap id="styleMap_TLP_Normal">
<Pair>
<key>normal</key>
<styleUrl>#normalState_TLP_Normal</styleUrl>
</Pair>
<Pair>
<key>highlight</key>
<styleUrl>#highlightState_TLP_Normal</styleUrl>
</Pair>
</StyleMap>
<Style id="normalState_TLP_Photo">
<IconStyle>
<scale>1.0</scale>
<Icon>
<href>http://maps.google.com/mapfiles/kml/pal4/icon46.png</href>
</Icon>
</IconStyle>
<LabelStyle>
<scale>1.0</scale>
</LabelStyle>
</Style>
<Style id="highlightState_TLP_Photo">
<IconStyle>
<scale>1.1</scale>
<Icon>
<href>http://maps.google.com/mapfiles/kml/pal4/icon38.png</href>
</Icon>
</IconStyle>
<LabelStyle>
<scale>1.1</scale>
<color>ff0000ff</color>
</LabelStyle>
</Style>
<StyleMap id="styleMap_TLP_Photo">
<Pair>
<key>normal</key>
<styleUrl>#normalState_TLP_Photo</styleUrl>
</Pair>
<Pair>
<key>highlight</key>
<styleUrl>#highlightState_TLP_Photo</styleUrl>
</Pair>
</StyleMap>
<Style id="roadStyle">
<LineStyle>
<color>ffffff00</color>
<width>6</width>
</LineStyle>
</Style>
<Open>1</Open>
<description>Route</description>
<name>Track Log</name>
<Placemark>
<name>Route</name>
<styleUrl>#roadStyle</styleUrl>
<MultiGeometry>
<LineString>
<coordinates>
121.7678757,24.3350830,19.08 121.7677383,24.3348274,16.24 121.7676163,24.3346157,15.30 121.7675323,24.3344536,15.04 121.7674713,24.3343391,16.01 121.7674484,24.3341274,18.54 121.7674332,24.3338985,20.96 121.7674026,24.3337421,25.78 121.7673645,24.3335991,30.04 121.7673492,24.3334827,31.50 121.7672882,24.3333740,31.10 121.7672119,24.3332863,32.28 121.7671585,24.3331165,34.14 121.7671051,24.3330231,36.19 121.7670670,24.3328800,36.88 121.7670517,24.3326912,35.79 121.7669830,24.3325367,31.30 121.7669373,24.3323669,27.12 121.7668915,24.3321705,23.35 121.7668228,24.3319206,22.45 121.7667160,24.3316479,23.56 121.7665710,24.3313961,23.86 121.7664185,24.3311501,23.43 121.7663498,24.3308010,19.77 121.7662506,24.3304710,17.19 121.7661438,24.3301468,16.24 121.7660522,24.3297920,17.72 121.7659607,24.3294544,15.04 121.7658615,24.3291569,18.04 121.7657700,24.3289394,17.72 121.7656937,24.3287354,19.78 121.7656250,24.3285503,20.77 121.7655411,24.3283997,19.07 121.7654495,24.3282528,18.98 121.7653732,24.3281174,19.68 121.7653275,24.3279724,18.65 121.7653198,24.3278313,21.95 121.7652740,24.3277111,22.53 121.7652359,24.3275642,24.26 121.7651825,24.3274212,23.18 121.7651215,24.3272991,22.46 121.7650681,24.3271389,21.22 121.7650223,24.3269730,21.22 121.7649918,24.3268185,23.68 121.7649384,24.3266659,24.80 121.7649002,24.3264999,22.26 121.7648468,24.3263531,19.61 121.7647629,24.3261814,16.85 121.7646408,24.3259754,16.59 121.7644958,24.3257408,15.90 121.7643204,24.3255196,15.90 121.7641830,24.3253479,14.58 121.7640152,24.3251343,13.22 121.7638702,24.3249035,13.55 121.7637787,24.3246975,16.75 121.7637100,24.3244991,21.32 121.7636642,24.3243809,22.51 121.7636261,24.3242683,24.04 121.7635574,24.3241577,22.74 121.7635040,24.3240414,22.31 121.7634201,24.3239384,22.25 121.7633438,24.3238316,23.70 121.7632523,24.3237247,24.91 121.7631607,24.3236237,29.36 121.7630768,24.3235149,33.93 121.7629776,24.3234081,28.26 121.7629395,24.3232689,26.27 121.7628937,24.3231411,27.80 121.7628632,24.3230400,29.99 121.7628479,24.3229313,28.55 121.7627716,24.3228474,29.08 121.7627487,24.3227711,29.33 121.7626724,24.3227081,29.20 121.7625656,24.3226452,30.16 121.7624817,24.3225746,32.34 121.7624207,24.3224831,33.23 121.7623825,24.3223934,31.68 121.7623062,24.3223209,31.31 121.7622375,24.3222504,30.89 121.7622299,24.3221741,29.52 121.7621613,24.3221245,29.84 121.7620773,24.3220940,29.44 121.7619858,24.3220654,29.49 121.7618942,24.3220310,31.26 121.7618027,24.3220024,32.35 121.7617035,24.3219604,33.89 121.7615814,24.3219471,35.32 121.7614365,24.3219395,35.77 121.7612915,24.3219357,36.44 121.7611237,24.3219185,36.73 121.7609940,24.3219471,37.43 121.7608337,24.3219414,36.31 121.7606583,24.3219090,34.04 121.7604828,24.3218250,31.73 121.7603226,24.3217487,31.95 121.7601547,24.3217163,32.53 121.7599564,24.3217278,33.19 121.7597656,24.3217354,34.72 121.7595901,24.3217144,38.56 121.7594452,24.3217373,42.19 121.7592621,24.3217487,42.88 121.7590637,24.3217621,44.32 121.7588043,24.3217564,47.29 121.7585068,24.3217487,47.73 121.7582245,24.3217468,48.92 121.7579727,24.3217564,49.19 121.7577744,24.3217640,49.12 121.7576218,24.3217621,49.61 121.7574844,24.3217525,50.18 121.7573318,24.3217335,50.22 121.7572174,24.3217411,49.86 121.7570801,24.3217163,49.80 121.7569199,24.3216972,48.91 121.7567825,24.3216953,49.16 121.7566299,24.3216705,51.20 121.7565231,24.3216782,52.39 121.7563858,24.3216572,53.06 121.7562790,24.3216305,53.37 121.7561646,24.3216019,53.73 121.7560806,24.3215771,53.70 121.7559586,24.3215351,53.07 121.7558517,24.3215427,53.79 121.7557297,24.3215427,53.19 121.7556152,24.3215256,53.69 121.7555084,24.3215084,53.93 121.7554245,24.3214931,54.04 121.7553101,24.3214836,54.58 121.7552109,24.3214741,55.15 121.7551117,24.3214569,55.70 121.7550201,24.3214569,55.45 121.7549057,24.3214455,54.57 121.7547913,24.3214493,54.07 121.7546692,24.3214474,54.61 121.7545471,24.3214264,54.70 121.7544250,24.3214149,55.67 121.7543030,24.3213673,55.42 121.7541962,24.3213081,56.02 121.7540970,24.3212681,57.18 121.7539673,24.3212166,57.05 121.7538452,24.3211689,57.58 121.7537155,24.3211346,58.89 121.7536011,24.3211212,58.75 121.7534943,24.3211060,61.28 121.7533798,24.3210907,63.30 121.7532730,24.3211117,63.90 121.7531738,24.3211212,64.00 121.7530823,24.3211403,65.66 121.7529373,24.3211441,66.90 121.7528000,24.3211708,68.22 121.7527390,24.3212719,68.80 121.7526932,24.3213596,69.37 121.7526474,24.3214397,70.62 121.7525787,24.3215294,72.00 121.7524567,24.3215828,74.24 121.7523270,24.3216248,76.89 121.7521591,24.3216381,78.57 121.7519989,24.3216686,78.94 121.7518616,24.3217335,79.91 121.7517471,24.3218441,79.60 121.7516098,24.3219795,80.05 121.7514343,24.3221645,79.61 121.7512436,24.3224487,79.65 121.7508774,24.3226242,77.03 121.7504425,24.3227425,75.07 121.7499924,24.3228951,70.99 121.7495346,24.3231201,67.75 121.7490540,24.3235130,64.52 121.7464294,24.3261223,61.55 121.7460022,24.3261662,62.20 121.7455978,24.3261433,57.94 121.7452469,24.3260784,55.78 121.7448959,24.3259754,56.49 121.7446136,24.3258553,56.21 121.7443466,24.3256950,56.42 121.7441101,24.3255005,55.35 121.7439041,24.3252735,55.36 121.7436752,24.3250179,54.64 121.7434311,24.3247471,54.77 121.7432251,24.3245049,55.78 121.7430115,24.3242722,54.84 121.7428131,24.3240547,53.18 121.7426224,24.3238430,53.01 121.7424240,24.3236313,53.80 121.7422333,24.3234177,54.32 121.7420578,24.3232193,54.63 121.7418900,24.3230343,53.76 121.7417374,24.3228569,52.96 121.7415924,24.3226891,52.64 121.7414398,24.3225269,52.26 121.7412872,24.3223495,52.06 121.7411423,24.3221588,52.05 121.7410278,24.3219376,51.49 121.7409210,24.3216782,50.01 121.7408752,24.3213844,46.80 121.7408676,24.3210640,45.07 121.7409286,24.3207417,43.88 121.7410202,24.3204479,43.22 121.7411499,24.3201694,41.90 121.7412872,24.3199024,41.12 121.7414322,24.3196545,40.71 121.7415619,24.3194237,40.59 121.7417145,24.3191910,40.53 121.7418671,24.3189564,41.45 121.7420349,24.3187160,42.13 121.7421875,24.3184834,43.28 121.7423477,24.3182487,43.43 121.7425079,24.3180237,44.09 121.7426605,24.3177986,44.45 121.7427979,24.3175907,44.97 121.7429352,24.3173885,44.79 121.7430801,24.3171673,45.05 121.7432251,24.3169441,45.48 121.7433777,24.3167229,46.15 121.7435074,24.3165188,45.88 121.7436218,24.3163338,44.88 121.7437363,24.3161469,43.83 121.7438660,24.3159618,43.82 121.7439804,24.3157616,44.25 121.7441025,24.3155766,44.69 121.7442398,24.3153992,44.47 121.7443695,24.3151989,43.62 121.7445068,24.3150063,44.51 121.7446518,24.3148003,43.91 121.7447891,24.3145752,43.12 121.7449341,24.3143501,43.58 121.7450714,24.3141460,42.71 121.7452164,24.3139458,42.52 121.7453461,24.3137512,41.60 121.7454605,24.3135471,41.40 121.7456055,24.3133411,41.30 121.7457504,24.3131485,40.98 121.7458954,24.3129330,41.04 121.7460327,24.3127174,41.10 121.7461777,24.3125057,41.46 121.7463074,24.3122673,41.61 121.7464447,24.3120556,42.34 121.7465591,24.3118248,42.38 121.7466736,24.3116150,42.46 121.7467957,24.3114052,42.87 121.7468491,24.3111973,44.59 121.7469482,24.3109608,45.46 121.7470627,24.3107548,43.40 121.7471466,24.3105011,43.71 121.7472458,24.3102531,46.06 121.7473450,24.3100300,46.76 121.7474747,24.3097992,50.54 121.7475433,24.3095760,52.26 121.7476349,24.3093796,54.33 121.7476044,24.3093185,52.74 121.7476044,24.3093224,51.67 121.7476044,24.3093243,51.49 121.7476044,24.3093204,51.42 121.7476120,24.3093128,51.38 </coordinates>
</LineString>
</MultiGeometry>
</Placemark>
<Folder>
<name>waypoints</name>
<Placemark>
<name>
Wed Jun 15 13:34:52 2011
</name>
<styleUrl>
#styleMap_TLP_Start
</styleUrl>
<Point>
<coordinates>
121.7678757,24.3350830,19.08
</coordinates>
</Point>
</Placemark>
<Placemark>
<name>
Wed Jun 15 13:34:57 2011
</name>
<styleUrl>
#styleMap_TLP_Normal
</styleUrl>
<Point>
<coordinates>
121.7677383,24.3348274,16.24
</coordinates>
</Point>
</Placemark>
<Placemark>
<name>
Wed Jun 15 13:35:02 2011
</name>
<styleUrl>
#styleMap_TLP_Normal
</styleUrl>
<Point>
<coordinates>
121.7676163,24.3346157,15.30
</coordinates>
</Point>
</Placemark>
<Placemark>
<name>
Wed Jun 15 13:35:07 2011
</name>
<styleUrl>
#styleMap_TLP_Normal
</styleUrl>
<Point>
<coordinates>
121.7675323,24.3344536,15.04
</coordinates>
</Point>
</Placemark>
<Placemark>
<name>
Wed Jun 15 13:35:12 2011
</name>
<styleUrl>
#styleMap_TLP_Normal
</styleUrl>
<Point>
<coordinates>
121.7674713,24.3343391,16.01
</coordinates>
</Point>
</Placemark>
<Placemark>
<name>
Wed Jun 15 13:35:17 2011
</name>
<styleUrl>
#styleMap_TLP_Normal
</styleUrl>
<Point>
<coordinates>
121.7674484,24.3341274,18.54
</coordinates>
</Point>
</Placemark>
<Placemark>
<name>
Wed Jun 15 13:35:22 2011
</name>
<styleUrl>
#styleMap_TLP_Normal
</styleUrl>
<Point>
<coordinates>
121.7674332,24.3338985,20.96
</coordinates>
</Point>
</Placemark>
<Placemark>
<name>
Wed Jun 15 13:35:27 2011
</name>
<styleUrl>
#styleMap_TLP_Normal
</styleUrl>
<Point>
<coordinates>
121.7674026,24.3337421,25.78
</coordinates>
</Point>
</Placemark>
<Placemark>
<name>
Wed Jun 15 13:35:32 2011
</name>
<styleUrl>
#styleMap_TLP_Normal
</styleUrl>
<Point>
<coordinates>
121.7673645,24.3335991,30.04
</coordinates>
</Point>
</Placemark>
<Placemark>
<name>
Wed Jun 15 13:35:37 2011
</name>
<styleUrl>
#styleMap_TLP_Normal
</styleUrl>
<Point>
<coordinates>
121.7673492,24.3334827,31.50
</coordinates>
</Point>
</Placemark>
<Placemark>
<name>
Wed Jun 15 13:35:42 2011
</name>
<styleUrl>
#styleMap_TLP_Normal
</styleUrl>
<Point>
<coordinates>
121.7672882,24.3333740,31.10
</coordinates>
</Point>
</Placemark>
<Placemark>
<name>
Wed Jun 15 13:35:47 2011
</name>
<styleUrl>
#styleMap_TLP_Normal
</styleUrl>
<Point>
<coordinates>
121.7672119,24.3332863,32.28
</coordinates>
</Point>
</Placemark>
<Placemark>
<name>
Wed Jun 15 13:35:52 2011
</name>
<styleUrl>
#styleMap_TLP_Normal
</styleUrl>
<Point>
<coordinates>
121.7671585,24.3331165,34.14
</coordinates>
</Point>
</Placemark>
<Placemark>
<name>
Wed Jun 15 13:35:57 2011
</name>
<styleUrl>
#styleMap_TLP_Normal
</styleUrl>
<Point>
<coordinates>
121.7671051,24.3330231,36.19
</coordinates>
</Point>
</Placemark>
<Placemark>
<name>
Wed Jun 15 13:36:02 2011
</name>
<styleUrl>
#styleMap_TLP_Normal
</styleUrl>
<Point>
<coordinates>
121.7670670,24.3328800,36.88
</coordinates>
</Point>
</Placemark>
<Placemark>
<name>
Wed Jun 15 13:36:07 2011
</name>
<styleUrl>
#styleMap_TLP_Normal
</styleUrl>
<Point>
<coordinates>
121.7670517,24.3326912,35.79
</coordinates>
</Point>
</Placemark>
<Placemark>
<name>
Wed Jun 15 13:36:12 2011
</name>
<styleUrl>
#styleMap_TLP_Normal
</styleUrl>
<Point>
<coordinates>
121.7669830,24.3325367,31.30
</coordinates>
</Point>
</Placemark>
<Placemark>
<name>
Wed Jun 15 13:36:17 2011
</name>
<styleUrl>
#styleMap_TLP_Normal
</styleUrl>
<Point>
<coordinates>
121.7669373,24.3323669,27.12
</coordinates>
</Point>
</Placemark>
<Placemark>
<name>
Wed Jun 15 13:36:22 2011
</name>
<styleUrl>
#styleMap_TLP_Normal
</styleUrl>
<Point>
<coordinates>
121.7668915,24.3321705,23.35
</coordinates>
</Point>
</Placemark>
<Placemark>
<name>
Wed Jun 15 13:36:27 2011
</name>
<styleUrl>
#styleMap_TLP_Normal
</styleUrl>
<Point>
<coordinates>
121.7668228,24.3319206,22.45
</coordinates>
</Point>
</Placemark>
<Placemark>
<name>
Wed Jun 15 13:36:32 2011
</name>
<styleUrl>
#styleMap_TLP_Normal
</styleUrl>
<Point>
<coordinates>
121.7667160,24.3316479,23.56
</coordinates>
</Point>
</Placemark>
<Placemark>
<name>
Wed Jun 15 13:36:37 2011
</name>
<styleUrl>
#styleMap_TLP_Normal
</styleUrl>
<Point>
<coordinates>
121.7665710,24.3313961,23.86
</coordinates>
</Point>
</Placemark>
<Placemark>
<name>
Wed Jun 15 13:36:42 2011
</name>
<styleUrl>
#styleMap_TLP_Normal
</styleUrl>
<Point>
<coordinates>
121.7664185,24.3311501,23.43
</coordinates>
</Point>
</Placemark>
<Placemark>
<name>
Wed Jun 15 13:36:47 2011
</name>
<styleUrl>
#styleMap_TLP_Normal
</styleUrl>
<Point>
<coordinates>
121.7663498,24.3308010,19.77
</coordinates>
</Point>
</Placemark>
<Placemark>
<name>
Wed Jun 15 13:36:52 2011
</name>
<styleUrl>
#styleMap_TLP_Normal
</styleUrl>
<Point>
<coordinates>
121.7662506,24.3304710,17.19
</coordinates>
</Point>
</Placemark>
<Placemark>
<name>
Wed Jun 15 13:36:57 2011
</name>
<styleUrl>
#styleMap_TLP_Normal
</styleUrl>
<Point>
<coordinates>
121.7661438,24.3301468,16.24
</coordinates>
</Point>
</Placemark>
<Placemark>
<name>
Wed Jun 15 13:37:02 2011
</name>
<styleUrl>
#styleMap_TLP_Normal
</styleUrl>
<Point>
<coordinates>
121.7660522,24.3297920,17.72
</coordinates>
</Point>
</Placemark>
<Placemark>
<name>
Wed Jun 15 13:37:07 2011
</name>
<styleUrl>
#styleMap_TLP_Normal
</styleUrl>
<Point>
<coordinates>
121.7659607,24.3294544,15.04
</coordinates>
</Point>
</Placemark>
<Placemark>
<name>
Wed Jun 15 13:37:12 2011
</name>
<styleUrl>
#styleMap_TLP_Normal
</styleUrl>
<Point>
<coordinates>
121.7658615,24.3291569,18.04
</coordinates>
</Point>
</Placemark>
<Placemark>
<name>
Wed Jun 15 13:37:17 2011
</name>
<styleUrl>
#styleMap_TLP_Normal
</styleUrl>
<Point>
<coordinates>
121.7657700,24.3289394,17.72
</coordinates>
</Point>
</Placemark>
<Placemark>
<name>
Wed Jun 15 13:37:22 2011
</name>
<styleUrl>
#styleMap_TLP_Normal
</styleUrl>
<Point>
<coordinates>
121.7656937,24.3287354,19.78
</coordinates>
</Point>
</Placemark>
<Placemark>
<name>
Wed Jun 15 13:37:27 2011
</name>
<styleUrl>
#styleMap_TLP_Normal
</styleUrl>
<Point>
<coordinates>
121.7656250,24.3285503,20.77
</coordinates>
</Point>
</Placemark>
<Placemark>
<name>
Wed Jun 15 13:37:32 2011
</name>
<styleUrl>
#styleMap_TLP_Normal
</styleUrl>
<Point>
<coordinates>
121.7655411,24.3283997,19.07
</coordinates>
</Point>
</Placemark>
<Placemark>
<name>
Wed Jun 15 13:37:37 2011
</name>
<styleUrl>
#styleMap_TLP_Normal
</styleUrl>
<Point>
<coordinates>
121.7654495,24.3282528,18.98
</coordinates>
</Point>
</Placemark>
<Placemark>
<name>
Wed Jun 15 13:37:42 2011
</name>
<styleUrl>
#styleMap_TLP_Normal
</styleUrl>
<Point>
<coordinates>
121.7653732,24.3281174,19.68
</coordinates>
</Point>
</Placemark>
<Placemark>
<name>
Wed Jun 15 13:37:47 2011
</name>
<styleUrl>
#styleMap_TLP_Normal
</styleUrl>
<Point>
<coordinates>
121.7653275,24.3279724,18.65
</coordinates>
</Point>
</Placemark>
<Placemark>
<name>
Wed Jun 15 13:37:52 2011
</name>
<styleUrl>
#styleMap_TLP_Normal
</styleUrl>
<Point>
<coordinates>
121.7653198,24.3278313,21.95
</coordinates>
</Point>
</Placemark>
<Placemark>
<name>
Wed Jun 15 13:37:57 2011
</name>
<styleUrl>
#styleMap_TLP_Normal
</styleUrl>
<Point>
<coordinates>
121.7652740,24.3277111,22.53
</coordinates>
</Point>
</Placemark>
<Placemark>
<name>
Wed Jun 15 13:38:02 2011
</name>
<styleUrl>
#styleMap_TLP_Normal
</styleUrl>
<Point>
<coordinates>
121.7652359,24.3275642,24.26
</coordinates>
</Point>
</Placemark>
<Placemark>
<name>
Wed Jun 15 13:38:07 2011
</name>
<styleUrl>
#styleMap_TLP_Normal
</styleUrl>
<Point>
<coordinates>
121.7651825,24.3274212,23.18
</coordinates>
</Point>
</Placemark>
<Placemark>
<name>
Wed Jun 15 13:38:12 2011
</name>
<styleUrl>
#styleMap_TLP_Normal
</styleUrl>
<Point>
<coordinates>
121.7651215,24.3272991,22.46
</coordinates>
</Point>
</Placemark>
<Placemark>
<name>
Wed Jun 15 13:38:17 2011
</name>
<styleUrl>
#styleMap_TLP_Normal
</styleUrl>
<Point>
<coordinates>
121.7650681,24.3271389,21.22
</coordinates>
</Point>
</Placemark>
<Placemark>
<name>
Wed Jun 15 13:38:22 2011
</name>
<styleUrl>
#styleMap_TLP_Normal
</styleUrl>
<Point>
<coordinates>
121.7650223,24.3269730,21.22
</coordinates>
</Point>
</Placemark>
<Placemark>
<name>
Wed Jun 15 13:38:27 2011
</name>
<styleUrl>
#styleMap_TLP_Normal
</styleUrl>
<Point>
<coordinates>
121.7649918,24.3268185,23.68
</coordinates>
</Point>
</Placemark>
<Placemark>
<name>
Wed Jun 15 13:38:32 2011
</name>
<styleUrl>
#styleMap_TLP_Normal
</styleUrl>
<Point>
<coordinates>
121.7649384,24.3266659,24.80
</coordinates>
</Point>
</Placemark>
<Placemark>
<name>
Wed Jun 15 13:38:37 2011
</name>
<styleUrl>
#styleMap_TLP_Normal
</styleUrl>
<Point>
<coordinates>
121.7649002,24.3264999,22.26
</coordinates>
</Point>
</Placemark>
<Placemark>
<name>
Wed Jun 15 13:38:42 2011
</name>
<styleUrl>
#styleMap_TLP_Normal
</styleUrl>
<Point>
<coordinates>
121.7648468,24.3263531,19.61
</coordinates>
</Point>
</Placemark>
<Placemark>
<name>
Wed Jun 15 13:38:47 2011
</name>
<styleUrl>
#styleMap_TLP_Normal
</styleUrl>
<Point>
<coordinates>
121.7647629,24.3261814,16.85
</coordinates>
</Point>
</Placemark>
<Placemark>
<name>
Wed Jun 15 13:38:52 2011
</name>
<styleUrl>
#styleMap_TLP_Normal
</styleUrl>
<Point>
<coordinates>
121.7646408,24.3259754,16.59
</coordinates>
</Point>
</Placemark>
<Placemark>
<name>
Wed Jun 15 13:38:57 2011
</name>
<styleUrl>
#styleMap_TLP_Normal
</styleUrl>
<Point>
<coordinates>
121.7644958,24.3257408,15.90
</coordinates>
</Point>
</Placemark>
<Placemark>
<name>
Wed Jun 15 13:39:02 2011
</name>
<styleUrl>
#styleMap_TLP_Normal
</styleUrl>
<Point>
<coordinates>
121.7643204,24.3255196,15.90
</coordinates>
</Point>
</Placemark>
<Placemark>
<name>
Wed Jun 15 13:39:07 2011
</name>
<styleUrl>
#styleMap_TLP_Normal
</styleUrl>
<Point>
<coordinates>
121.7641830,24.3253479,14.58
</coordinates>
</Point>
</Placemark>
<Placemark>
<name>
Wed Jun 15 13:39:12 2011
</name>
<styleUrl>
#styleMap_TLP_Normal
</styleUrl>
<Point>
<coordinates>
121.7640152,24.3251343,13.22
</coordinates>
</Point>
</Placemark>
<Placemark>
<name>
Wed Jun 15 13:39:17 2011
</name>
<styleUrl>
#styleMap_TLP_Normal
</styleUrl>
<Point>
<coordinates>
121.7638702,24.3249035,13.55
</coordinates>
</Point>
</Placemark>
<Placemark>
<name>
Wed Jun 15 13:39:22 2011
</name>
<styleUrl>
#styleMap_TLP_Normal
</styleUrl>
<Point>
<coordinates>
121.7637787,24.3246975,16.75
</coordinates>
</Point>
</Placemark>
<Placemark>
<name>
Wed Jun 15 13:39:27 2011
</name>
<styleUrl>
#styleMap_TLP_Normal
</styleUrl>
<Point>
<coordinates>
121.7637100,24.3244991,21.32
</coordinates>
</Point>
</Placemark>
<Placemark>
<name>
Wed Jun 15 13:39:32 2011
</name>
<styleUrl>
#styleMap_TLP_Normal
</styleUrl>
<Point>
<coordinates>
121.7636642,24.3243809,22.51
</coordinates>
</Point>
</Placemark>
<Placemark>
<name>
Wed Jun 15 13:39:37 2011
</name>
<styleUrl>
#styleMap_TLP_Normal
</styleUrl>
<Point>
<coordinates>
121.7636261,24.3242683,24.04
</coordinates>
</Point>
</Placemark>
<Placemark>
<name>
Wed Jun 15 13:39:42 2011
</name>
<styleUrl>
#styleMap_TLP_Normal
</styleUrl>
<Point>
<coordinates>
121.7635574,24.3241577,22.74
</coordinates>
</Point>
</Placemark>
<Placemark>
<name>
Wed Jun 15 13:39:47 2011
</name>
<styleUrl>
#styleMap_TLP_Normal
</styleUrl>
<Point>
<coordinates>
121.7635040,24.3240414,22.31
</coordinates>
</Point>
</Placemark>
<Placemark>
<name>
Wed Jun 15 13:39:52 2011
</name>
<styleUrl>
#styleMap_TLP_Normal
</styleUrl>
<Point>
<coordinates>
121.7634201,24.3239384,22.25
</coordinates>
</Point>
</Placemark>
<Placemark>
<name>
Wed Jun 15 13:39:57 2011
</name>
<styleUrl>
#styleMap_TLP_Normal
</styleUrl>
<Point>
<coordinates>
121.7633438,24.3238316,23.70
</coordinates>
</Point>
</Placemark>
<Placemark>
<name>
Wed Jun 15 13:40:02 2011
</name>
<styleUrl>
#styleMap_TLP_Normal
</styleUrl>
<Point>
<coordinates>
121.7632523,24.3237247,24.91
</coordinates>
</Point>
</Placemark>
<Placemark>
<name>
Wed Jun 15 13:40:07 2011
</name>
<styleUrl>
#styleMap_TLP_Normal
</styleUrl>
<Point>
<coordinates>
121.7631607,24.3236237,29.36
</coordinates>
</Point>
</Placemark>
<Placemark>
<name>
Wed Jun 15 13:40:12 2011
</name>
<styleUrl>
#styleMap_TLP_Normal
</styleUrl>
<Point>
<coordinates>
121.7630768,24.3235149,33.93
</coordinates>
</Point>
</Placemark>
<Placemark>
<name>
Wed Jun 15 13:40:17 2011
</name>
<styleUrl>
#styleMap_TLP_Normal
</styleUrl>
<Point>
<coordinates>
121.7629776,24.3234081,28.26
</coordinates>
</Point>
</Placemark>
<Placemark>
<name>
Wed Jun 15 13:40:22 2011
</name>
<styleUrl>
#styleMap_TLP_Normal
</styleUrl>
<Point>
<coordinates>
121.7629395,24.3232689,26.27
</coordinates>
</Point>
</Placemark>
<Placemark>
<name>
Wed Jun 15 13:40:27 2011
</name>
<styleUrl>
#styleMap_TLP_Normal
</styleUrl>
<Point>
<coordinates>
121.7628937,24.3231411,27.80
</coordinates>
</Point>
</Placemark>
<Placemark>
<name>
Wed Jun 15 13:40:32 2011
</name>
<styleUrl>
#styleMap_TLP_Normal
</styleUrl>
<Point>
<coordinates>
121.7628632,24.3230400,29.99
</coordinates>
</Point>
</Placemark>
<Placemark>
<name>
Wed Jun 15 13:40:37 2011
</name>
<styleUrl>
#styleMap_TLP_Normal
</styleUrl>
<Point>
<coordinates>
121.7628479,24.3229313,28.55
</coordinates>
</Point>
</Placemark>
<Placemark>
<name>
Wed Jun 15 13:40:42 2011
</name>
<styleUrl>
#styleMap_TLP_Normal
</styleUrl>
<Point>
<coordinates>
121.7627716,24.3228474,29.08
</coordinates>
</Point>
</Placemark>
<Placemark>
<name>
Wed Jun 15 13:40:47 2011
</name>
<styleUrl>
#styleMap_TLP_Normal
</styleUrl>
<Point>
<coordinates>
121.7627487,24.3227711,29.33
</coordinates>
</Point>
</Placemark>
<Placemark>
<name>
Wed Jun 15 13:40:52 2011
</name>
<styleUrl>
#styleMap_TLP_Normal
</styleUrl>
<Point>
<coordinates>
121.7626724,24.3227081,29.20
</coordinates>
</Point>
</Placemark>
<Placemark>
<name>
Wed Jun 15 13:40:57 2011
</name>
<styleUrl>
#styleMap_TLP_Normal
</styleUrl>
<Point>
<coordinates>
121.7625656,24.3226452,30.16
</coordinates>
</Point>
</Placemark>
<Placemark>
<name>
Wed Jun 15 13:41:02 2011
</name>
<styleUrl>
#styleMap_TLP_Normal
</styleUrl>
<Point>
<coordinates>
121.7624817,24.3225746,32.34
</coordinates>
</Point>
</Placemark>
<Placemark>
<name>
Wed Jun 15 13:41:07 2011
</name>
<styleUrl>
#styleMap_TLP_Normal
</styleUrl>
<Point>
<coordinates>
121.7624207,24.3224831,33.23
</coordinates>
</Point>
</Placemark>
<Placemark>
<name>
Wed Jun 15 13:41:12 2011
</name>
<styleUrl>
#styleMap_TLP_Normal
</styleUrl>
<Point>
<coordinates>
121.7623825,24.3223934,31.68
</coordinates>
</Point>
</Placemark>
<Placemark>
<name>
Wed Jun 15 13:41:17 2011
</name>
<styleUrl>
#styleMap_TLP_Normal
</styleUrl>
<Point>
<coordinates>
121.7623062,24.3223209,31.31
</coordinates>
</Point>
</Placemark>
<Placemark>
<name>
Wed Jun 15 13:41:22 2011
</name>
<styleUrl>
#styleMap_TLP_Normal
</styleUrl>
<Point>
<coordinates>
121.7622375,24.3222504,30.89
</coordinates>
</Point>
</Placemark>
<Placemark>
<name>
Wed Jun 15 13:41:27 2011
</name>
<styleUrl>
#styleMap_TLP_Normal
</styleUrl>
<Point>
<coordinates>
121.7622299,24.3221741,29.52
</coordinates>
</Point>
</Placemark>
<Placemark>
<name>
Wed Jun 15 13:41:32 2011
</name>
<styleUrl>
#styleMap_TLP_Normal
</styleUrl>
<Point>
<coordinates>
121.7621613,24.3221245,29.84
</coordinates>
</Point>
</Placemark>
<Placemark>
<name>
Wed Jun 15 13:41:37 2011
</name>
<styleUrl>
#styleMap_TLP_Normal
</styleUrl>
<Point>
<coordinates>
121.7620773,24.3220940,29.44
</coordinates>
</Point>
</Placemark>
<Placemark>
<name>
Wed Jun 15 13:41:42 2011
</name>
<styleUrl>
#styleMap_TLP_Normal
</styleUrl>
<Point>
<coordinates>
121.7619858,24.3220654,29.49
</coordinates>
</Point>
</Placemark>
<Placemark>
<name>
Wed Jun 15 13:41:47 2011
</name>
<styleUrl>
#styleMap_TLP_Normal
</styleUrl>
<Point>
<coordinates>
121.7618942,24.3220310,31.26
</coordinates>
</Point>
</Placemark>
<Placemark>
<name>
Wed Jun 15 13:41:52 2011
</name>
<styleUrl>
#styleMap_TLP_Normal
</styleUrl>
<Point>
<coordinates>
121.7618027,24.3220024,32.35
</coordinates>
</Point>
</Placemark>
<Placemark>
<name>
Wed Jun 15 13:41:57 2011
</name>
<styleUrl>
#styleMap_TLP_Normal
</styleUrl>
<Point>
<coordinates>
121.7617035,24.3219604,33.89
</coordinates>
</Point>
</Placemark>
<Placemark>
<name>
Wed Jun 15 13:42:02 2011
</name>
<styleUrl>
#styleMap_TLP_Normal
</styleUrl>
<Point>
<coordinates>
121.7615814,24.3219471,35.32
</coordinates>
</Point>
</Placemark>
<Placemark>
<name>
Wed Jun 15 13:42:07 2011
</name>
<styleUrl>
#styleMap_TLP_Normal
</styleUrl>
<Point>
<coordinates>
121.7614365,24.3219395,35.77
</coordinates>
</Point>
</Placemark>
<Placemark>
<name>
Wed Jun 15 13:42:12 2011
</name>
<styleUrl>
#styleMap_TLP_Normal
</styleUrl>
<Point>
<coordinates>
121.7612915,24.3219357,36.44
</coordinates>
</Point>
</Placemark>
<Placemark>
<name>
Wed Jun 15 13:42:17 2011
</name>
<styleUrl>
#styleMap_TLP_Normal
</styleUrl>
<Point>
<coordinates>
121.7611237,24.3219185,36.73
</coordinates>
</Point>
</Placemark>
<Placemark>
<name>
Wed Jun 15 13:42:22 2011
</name>
<styleUrl>
#styleMap_TLP_Normal
</styleUrl>
<Point>
<coordinates>
121.7609940,24.3219471,37.43
</coordinates>
</Point>
</Placemark>
<Placemark>
<name>
Wed Jun 15 13:42:27 2011
</name>
<styleUrl>
#styleMap_TLP_Normal
</styleUrl>
<Point>
<coordinates>
121.7608337,24.3219414,36.31
</coordinates>
</Point>
</Placemark>
<Placemark>
<name>
Wed Jun 15 13:42:32 2011
</name>
<styleUrl>
#styleMap_TLP_Normal
</styleUrl>
<Point>
<coordinates>
121.7606583,24.3219090,34.04
</coordinates>
</Point>
</Placemark>
<Placemark>
<name>
Wed Jun 15 13:42:37 2011
</name>
<styleUrl>
#styleMap_TLP_Normal
</styleUrl>
<Point>
<coordinates>
121.7604828,24.3218250,31.73
</coordinates>
</Point>
</Placemark>
<Placemark>
<name>
Wed Jun 15 13:42:42 2011
</name>
<styleUrl>
#styleMap_TLP_Normal
</styleUrl>
<Point>
<coordinates>
121.7603226,24.3217487,31.95
</coordinates>
</Point>
</Placemark>
<Placemark>
<name>
Wed Jun 15 13:42:47 2011
</name>
<styleUrl>
#styleMap_TLP_Normal
</styleUrl>
<Point>
<coordinates>
121.7601547,24.3217163,32.53
</coordinates>
</Point>
</Placemark>
<Placemark>
<name>
Wed Jun 15 13:42:52 2011
</name>
<styleUrl>
#styleMap_TLP_Normal
</styleUrl>
<Point>
<coordinates>
121.7599564,24.3217278,33.19
</coordinates>
</Point>
</Placemark>
<Placemark>
<name>
Wed Jun 15 13:42:57 2011
</name>
<styleUrl>
#styleMap_TLP_Normal
</styleUrl>
<Point>
<coordinates>
121.7597656,24.3217354,34.72
</coordinates>
</Point>
</Placemark>
<Placemark>
<name>
Wed Jun 15 13:43:02 2011
</name>
<styleUrl>
#styleMap_TLP_Normal
</styleUrl>
<Point>
<coordinates>
121.7595901,24.3217144,38.56
</coordinates>
</Point>
</Placemark>
<Placemark>
<name>
Wed Jun 15 13:43:07 2011
</name>
<styleUrl>
#styleMap_TLP_Normal
</styleUrl>
<Point>
<coordinates>
121.7594452,24.3217373,42.19
</coordinates>
</Point>
</Placemark>
<Placemark>
<name>
Wed Jun 15 13:43:12 2011
</name>
<styleUrl>
#styleMap_TLP_Normal
</styleUrl>
<Point>
<coordinates>
121.7592621,24.3217487,42.88
</coordinates>
</Point>
</Placemark>
<Placemark>
<name>
Wed Jun 15 13:43:17 2011
</name>
<styleUrl>
#styleMap_TLP_Normal
</styleUrl>
<Point>
<coordinates>
121.7590637,24.3217621,44.32
</coordinates>
</Point>
</Placemark>
<Placemark>
<name>
Wed Jun 15 13:43:22 2011
</name>
<styleUrl>
#styleMap_TLP_Normal
</styleUrl>
<Point>
<coordinates>
121.7588043,24.3217564,47.29
</coordinates>
</Point>
</Placemark>
<Placemark>
<name>
Wed Jun 15 13:43:27 2011
</name>
<styleUrl>
#styleMap_TLP_Normal
</styleUrl>
<Point>
<coordinates>
121.7585068,24.3217487,47.73
</coordinates>
</Point>
</Placemark>
<Placemark>
<name>
Wed Jun 15 13:43:32 2011
</name>
<styleUrl>
#styleMap_TLP_Normal
</styleUrl>
<Point>
<coordinates>
121.7582245,24.3217468,48.92
</coordinates>
</Point>
</Placemark>
<Placemark>
<name>
Wed Jun 15 13:43:37 2011
</name>
<styleUrl>
#styleMap_TLP_Normal
</styleUrl>
<Point>
<coordinates>
121.7579727,24.3217564,49.19
</coordinates>
</Point>
</Placemark>
<Placemark>
<name>
Wed Jun 15 13:43:42 2011
</name>
<styleUrl>
#styleMap_TLP_Normal
</styleUrl>
<Point>
<coordinates>
121.7577744,24.3217640,49.12
</coordinates>
</Point>
</Placemark>
<Placemark>
<name>
Wed Jun 15 13:43:47 2011
</name>
<styleUrl>
#styleMap_TLP_Normal
</styleUrl>
<Point>
<coordinates>
121.7576218,24.3217621,49.61
</coordinates>
</Point>
</Placemark>
<Placemark>
<name>
Wed Jun 15 13:43:52 2011
</name>
<styleUrl>
#styleMap_TLP_Normal
</styleUrl>
<Point>
<coordinates>
121.7574844,24.3217525,50.18
</coordinates>
</Point>
</Placemark>
<Placemark>
<name>
Wed Jun 15 13:43:57 2011
</name>
<styleUrl>
#styleMap_TLP_Normal
</styleUrl>
<Point>
<coordinates>
121.7573318,24.3217335,50.22
</coordinates>
</Point>
</Placemark>
<Placemark>
<name>
Wed Jun 15 13:44:02 2011
</name>
<styleUrl>
#styleMap_TLP_Normal
</styleUrl>
<Point>
<coordinates>
121.7572174,24.3217411,49.86
</coordinates>
</Point>
</Placemark>
<Placemark>
<name>
Wed Jun 15 13:44:07 2011
</name>
<styleUrl>
#styleMap_TLP_Normal
</styleUrl>
<Point>
<coordinates>
121.7570801,24.3217163,49.80
</coordinates>
</Point>
</Placemark>
<Placemark>
<name>
Wed Jun 15 13:44:12 2011
</name>
<styleUrl>
#styleMap_TLP_Normal
</styleUrl>
<Point>
<coordinates>
121.7569199,24.3216972,48.91
</coordinates>
</Point>
</Placemark>
<Placemark>
<name>
Wed Jun 15 13:44:17 2011
</name>
<styleUrl>
#styleMap_TLP_Normal
</styleUrl>
<Point>
<coordinates>
121.7567825,24.3216953,49.16
</coordinates>
</Point>
</Placemark>
<Placemark>
<name>
Wed Jun 15 13:44:22 2011
</name>
<styleUrl>
#styleMap_TLP_Normal
</styleUrl>
<Point>
<coordinates>
121.7566299,24.3216705,51.20
</coordinates>
</Point>
</Placemark>
<Placemark>
<name>
Wed Jun 15 13:44:27 2011
</name>
<styleUrl>
#styleMap_TLP_Normal
</styleUrl>
<Point>
<coordinates>
121.7565231,24.3216782,52.39
</coordinates>
</Point>
</Placemark>
<Placemark>
<name>
Wed Jun 15 13:44:32 2011
</name>
<styleUrl>
#styleMap_TLP_Normal
</styleUrl>
<Point>
<coordinates>
121.7563858,24.3216572,53.06
</coordinates>
</Point>
</Placemark>
<Placemark>
<name>
Wed Jun 15 13:44:37 2011
</name>
<styleUrl>
#styleMap_TLP_Normal
</styleUrl>
<Point>
<coordinates>
121.7562790,24.3216305,53.37
</coordinates>
</Point>
</Placemark>
<Placemark>
<name>
Wed Jun 15 13:44:42 2011
</name>
<styleUrl>
#styleMap_TLP_Normal
</styleUrl>
<Point>
<coordinates>
121.7561646,24.3216019,53.73
</coordinates>
</Point>
</Placemark>
<Placemark>
<name>
Wed Jun 15 13:44:47 2011
</name>
<styleUrl>
#styleMap_TLP_Normal
</styleUrl>
<Point>
<coordinates>
121.7560806,24.3215771,53.70
</coordinates>
</Point>
</Placemark>
<Placemark>
<name>
Wed Jun 15 13:44:52 2011
</name>
<styleUrl>
#styleMap_TLP_Normal
</styleUrl>
<Point>
<coordinates>
121.7559586,24.3215351,53.07
</coordinates>
</Point>
</Placemark>
<Placemark>
<name>
Wed Jun 15 13:44:57 2011
</name>
<styleUrl>
#styleMap_TLP_Normal
</styleUrl>
<Point>
<coordinates>
121.7558517,24.3215427,53.79
</coordinates>
</Point>
</Placemark>
<Placemark>
<name>
Wed Jun 15 13:45:02 2011
</name>
<styleUrl>
#styleMap_TLP_Normal
</styleUrl>
<Point>
<coordinates>
121.7557297,24.3215427,53.19
</coordinates>
</Point>
</Placemark>
<Placemark>
<name>
Wed Jun 15 13:45:07 2011
</name>
<styleUrl>
#styleMap_TLP_Normal
</styleUrl>
<Point>
<coordinates>
121.7556152,24.3215256,53.69
</coordinates>
</Point>
</Placemark>
<Placemark>
<name>
Wed Jun 15 13:45:12 2011
</name>
<styleUrl>
#styleMap_TLP_Normal
</styleUrl>
<Point>
<coordinates>
121.7555084,24.3215084,53.93
</coordinates>
</Point>
</Placemark>
<Placemark>
<name>
Wed Jun 15 13:45:17 2011
</name>
<styleUrl>
#styleMap_TLP_Normal
</styleUrl>
<Point>
<coordinates>
121.7554245,24.3214931,54.04
</coordinates>
</Point>
</Placemark>
<Placemark>
<name>
Wed Jun 15 13:45:22 2011
</name>
<styleUrl>
#styleMap_TLP_Normal
</styleUrl>
<Point>
<coordinates>
121.7553101,24.3214836,54.58
</coordinates>
</Point>
</Placemark>
<Placemark>
<name>
Wed Jun 15 13:45:27 2011
</name>
<styleUrl>
#styleMap_TLP_Normal
</styleUrl>
<Point>
<coordinates>
121.7552109,24.3214741,55.15
</coordinates>
</Point>
</Placemark>
<Placemark>
<name>
Wed Jun 15 13:45:32 2011
</name>
<styleUrl>
#styleMap_TLP_Normal
</styleUrl>
<Point>
<coordinates>
121.7551117,24.3214569,55.70
</coordinates>
</Point>
</Placemark>
<Placemark>
<name>
Wed Jun 15 13:45:37 2011
</name>
<styleUrl>
#styleMap_TLP_Normal
</styleUrl>
<Point>
<coordinates>
121.7550201,24.3214569,55.45
</coordinates>
</Point>
</Placemark>
<Placemark>
<name>
Wed Jun 15 13:45:42 2011
</name>
<styleUrl>
#styleMap_TLP_Normal
</styleUrl>
<Point>
<coordinates>
121.7549057,24.3214455,54.57
</coordinates>
</Point>
</Placemark>
<Placemark>
<name>
Wed Jun 15 13:45:47 2011
</name>
<styleUrl>
#styleMap_TLP_Normal
</styleUrl>
<Point>
<coordinates>
121.7547913,24.3214493,54.07
</coordinates>
</Point>
</Placemark>
<Placemark>
<name>
Wed Jun 15 13:45:52 2011
</name>
<styleUrl>
#styleMap_TLP_Normal
</styleUrl>
<Point>
<coordinates>
121.7546692,24.3214474,54.61
</coordinates>
</Point>
</Placemark>
<Placemark>
<name>
Wed Jun 15 13:45:57 2011
</name>
<styleUrl>
#styleMap_TLP_Normal
</styleUrl>
<Point>
<coordinates>
121.7545471,24.3214264,54.70
</coordinates>
</Point>
</Placemark>
<Placemark>
<name>
Wed Jun 15 13:46:02 2011
</name>
<styleUrl>
#styleMap_TLP_Normal
</styleUrl>
<Point>
<coordinates>
121.7544250,24.3214149,55.67
</coordinates>
</Point>
</Placemark>
<Placemark>
<name>
Wed Jun 15 13:46:07 2011
</name>
<styleUrl>
#styleMap_TLP_Normal
</styleUrl>
<Point>
<coordinates>
121.7543030,24.3213673,55.42
</coordinates>
</Point>
</Placemark>
<Placemark>
<name>
Wed Jun 15 13:46:12 2011
</name>
<styleUrl>
#styleMap_TLP_Normal
</styleUrl>
<Point>
<coordinates>
121.7541962,24.3213081,56.02
</coordinates>
</Point>
</Placemark>
<Placemark>
<name>
Wed Jun 15 13:46:17 2011
</name>
<styleUrl>
#styleMap_TLP_Normal
</styleUrl>
<Point>
<coordinates>
121.7540970,24.3212681,57.18
</coordinates>
</Point>
</Placemark>
<Placemark>
<name>
Wed Jun 15 13:46:22 2011
</name>
<styleUrl>
#styleMap_TLP_Normal
</styleUrl>
<Point>
<coordinates>
121.7539673,24.3212166,57.05
</coordinates>
</Point>
</Placemark>
<Placemark>
<name>
Wed Jun 15 13:46:27 2011
</name>
<styleUrl>
#styleMap_TLP_Normal
</styleUrl>
<Point>
<coordinates>
121.7538452,24.3211689,57.58
</coordinates>
</Point>
</Placemark>
<Placemark>
<name>
Wed Jun 15 13:46:32 2011
</name>
<styleUrl>
#styleMap_TLP_Normal
</styleUrl>
<Point>
<coordinates>
121.7537155,24.3211346,58.89
</coordinates>
</Point>
</Placemark>
<Placemark>
<name>
Wed Jun 15 13:46:37 2011
</name>
<styleUrl>
#styleMap_TLP_Normal
</styleUrl>
<Point>
<coordinates>
121.7536011,24.3211212,58.75
</coordinates>
</Point>
</Placemark>
<Placemark>
<name>
Wed Jun 15 13:46:42 2011
</name>
<styleUrl>
#styleMap_TLP_Normal
</styleUrl>
<Point>
<coordinates>
121.7534943,24.3211060,61.28
</coordinates>
</Point>
</Placemark>
<Placemark>
<name>
Wed Jun 15 13:46:47 2011
</name>
<styleUrl>
#styleMap_TLP_Normal
</styleUrl>
<Point>
<coordinates>
121.7533798,24.3210907,63.30
</coordinates>
</Point>
</Placemark>
<Placemark>
<name>
Wed Jun 15 13:46:52 2011
</name>
<styleUrl>
#styleMap_TLP_Normal
</styleUrl>
<Point>
<coordinates>
121.7532730,24.3211117,63.90
</coordinates>
</Point>
</Placemark>
<Placemark>
<name>
Wed Jun 15 13:46:57 2011
</name>
<styleUrl>
#styleMap_TLP_Normal
</styleUrl>
<Point>
<coordinates>
121.7531738,24.3211212,64.00
</coordinates>
</Point>
</Placemark>
<Placemark>
<name>
Wed Jun 15 13:47:02 2011
</name>
<styleUrl>
#styleMap_TLP_Normal
</styleUrl>
<Point>
<coordinates>
121.7530823,24.3211403,65.66
</coordinates>
</Point>
</Placemark>
<Placemark>
<name>
Wed Jun 15 13:47:07 2011
</name>
<styleUrl>
#styleMap_TLP_Normal
</styleUrl>
<Point>
<coordinates>
121.7529373,24.3211441,66.90
</coordinates>
</Point>
</Placemark>
<Placemark>
<name>
Wed Jun 15 13:47:12 2011
</name>
<styleUrl>
#styleMap_TLP_Normal
</styleUrl>
<Point>
<coordinates>
121.7528000,24.3211708,68.22
</coordinates>
</Point>
</Placemark>
<Placemark>
<name>
Wed Jun 15 13:47:17 2011
</name>
<styleUrl>
#styleMap_TLP_Normal
</styleUrl>
<Point>
<coordinates>
121.7527390,24.3212719,68.80
</coordinates>
</Point>
</Placemark>
<Placemark>
<name>
Wed Jun 15 13:47:22 2011
</name>
<styleUrl>
#styleMap_TLP_Normal
</styleUrl>
<Point>
<coordinates>
121.7526932,24.3213596,69.37
</coordinates>
</Point>
</Placemark>
<Placemark>
<name>
Wed Jun 15 13:47:27 2011
</name>
<styleUrl>
#styleMap_TLP_Normal
</styleUrl>
<Point>
<coordinates>
121.7526474,24.3214397,70.62
</coordinates>
</Point>
</Placemark>
<Placemark>
<name>
Wed Jun 15 13:47:32 2011
</name>
<styleUrl>
#styleMap_TLP_Normal
</styleUrl>
<Point>
<coordinates>
121.7525787,24.3215294,72.00
</coordinates>
</Point>
</Placemark>
<Placemark>
<name>
Wed Jun 15 13:47:37 2011
</name>
<styleUrl>
#styleMap_TLP_Normal
</styleUrl>
<Point>
<coordinates>
121.7524567,24.3215828,74.24
</coordinates>
</Point>
</Placemark>
<Placemark>
<name>
Wed Jun 15 13:47:42 2011
</name>
<styleUrl>
#styleMap_TLP_Normal
</styleUrl>
<Point>
<coordinates>
121.7523270,24.3216248,76.89
</coordinates>
</Point>
</Placemark>
<Placemark>
<name>
Wed Jun 15 13:47:47 2011
</name>
<styleUrl>
#styleMap_TLP_Normal
</styleUrl>
<Point>
<coordinates>
121.7521591,24.3216381,78.57
</coordinates>
</Point>
</Placemark>
<Placemark>
<name>
Wed Jun 15 13:47:52 2011
</name>
<styleUrl>
#styleMap_TLP_Normal
</styleUrl>
<Point>
<coordinates>
121.7519989,24.3216686,78.94
</coordinates>
</Point>
</Placemark>
<Placemark>
<name>
Wed Jun 15 13:47:57 2011
</name>
<styleUrl>
#styleMap_TLP_Normal
</styleUrl>
<Point>
<coordinates>
121.7518616,24.3217335,79.91
</coordinates>
</Point>
</Placemark>
<Placemark>
<name>
Wed Jun 15 13:48:02 2011
</name>
<styleUrl>
#styleMap_TLP_Normal
</styleUrl>
<Point>
<coordinates>
121.7517471,24.3218441,79.60
</coordinates>
</Point>
</Placemark>
<Placemark>
<name>
Wed Jun 15 13:48:07 2011
</name>
<styleUrl>
#styleMap_TLP_Normal
</styleUrl>
<Point>
<coordinates>
121.7516098,24.3219795,80.05
</coordinates>
</Point>
</Placemark>
<Placemark>
<name>
Wed Jun 15 13:48:12 2011
</name>
<styleUrl>
#styleMap_TLP_Normal
</styleUrl>
<Point>
<coordinates>
121.7514343,24.3221645,79.61
</coordinates>
</Point>
</Placemark>
<Placemark>
<name>
Wed Jun 15 13:48:17 2011
</name>
<styleUrl>
#styleMap_TLP_Normal
</styleUrl>
<Point>
<coordinates>
121.7512436,24.3224487,79.65
</coordinates>
</Point>
</Placemark>
<Placemark>
<name>
Wed Jun 15 13:48:22 2011
</name>
<styleUrl>
#styleMap_TLP_Normal
</styleUrl>
<Point>
<coordinates>
121.7508774,24.3226242,77.03
</coordinates>
</Point>
</Placemark>
<Placemark>
<name>
Wed Jun 15 13:48:27 2011
</name>
<styleUrl>
#styleMap_TLP_Normal
</styleUrl>
<Point>
<coordinates>
121.7504425,24.3227425,75.07
</coordinates>
</Point>
</Placemark>
<Placemark>
<name>
Wed Jun 15 13:48:32 2011
</name>
<styleUrl>
#styleMap_TLP_Normal
</styleUrl>
<Point>
<coordinates>
121.7499924,24.3228951,70.99
</coordinates>
</Point>
</Placemark>
<Placemark>
<name>
Wed Jun 15 13:48:37 2011
</name>
<styleUrl>
#styleMap_TLP_Normal
</styleUrl>
<Point>
<coordinates>
121.7495346,24.3231201,67.75
</coordinates>
</Point>
</Placemark>
<Placemark>
<name>
Wed Jun 15 13:48:42 2011
</name>
<styleUrl>
#styleMap_TLP_Normal
</styleUrl>
<Point>
<coordinates>
121.7490540,24.3235130,64.52
</coordinates>
</Point>
</Placemark>
<Placemark>
<name>
Wed Jun 15 13:49:26 2011
</name>
<styleUrl>
#styleMap_TLP_Normal
</styleUrl>
<Point>
<coordinates>
121.7464294,24.3261223,61.55
</coordinates>
</Point>
</Placemark>
<Placemark>
<name>
Wed Jun 15 13:49:31 2011
</name>
<styleUrl>
#styleMap_TLP_Normal
</styleUrl>
<Point>
<coordinates>
121.7460022,24.3261662,62.20
</coordinates>
</Point>
</Placemark>
<Placemark>
<name>
Wed Jun 15 13:49:36 2011
</name>
<styleUrl>
#styleMap_TLP_Normal
</styleUrl>
<Point>
<coordinates>
121.7455978,24.3261433,57.94
</coordinates>
</Point>
</Placemark>
<Placemark>
<name>
Wed Jun 15 13:49:41 2011
</name>
<styleUrl>
#styleMap_TLP_Normal
</styleUrl>
<Point>
<coordinates>
121.7452469,24.3260784,55.78
</coordinates>
</Point>
</Placemark>
<Placemark>
<name>
Wed Jun 15 13:49:46 2011
</name>
<styleUrl>
#styleMap_TLP_Normal
</styleUrl>
<Point>
<coordinates>
121.7448959,24.3259754,56.49
</coordinates>
</Point>
</Placemark>
<Placemark>
<name>
Wed Jun 15 13:49:51 2011
</name>
<styleUrl>
#styleMap_TLP_Normal
</styleUrl>
<Point>
<coordinates>
121.7446136,24.3258553,56.21
</coordinates>
</Point>
</Placemark>
<Placemark>
<name>
Wed Jun 15 13:49:56 2011
</name>
<styleUrl>
#styleMap_TLP_Normal
</styleUrl>
<Point>
<coordinates>
121.7443466,24.3256950,56.42
</coordinates>
</Point>
</Placemark>
<Placemark>
<name>
Wed Jun 15 13:50:01 2011
</name>
<styleUrl>
#styleMap_TLP_Normal
</styleUrl>
<Point>
<coordinates>
121.7441101,24.3255005,55.35
</coordinates>
</Point>
</Placemark>
<Placemark>
<name>
Wed Jun 15 13:50:06 2011
</name>
<styleUrl>
#styleMap_TLP_Normal
</styleUrl>
<Point>
<coordinates>
121.7439041,24.3252735,55.36
</coordinates>
</Point>
</Placemark>
<Placemark>
<name>
Wed Jun 15 13:50:11 2011
</name>
<styleUrl>
#styleMap_TLP_Normal
</styleUrl>
<Point>
<coordinates>
121.7436752,24.3250179,54.64
</coordinates>
</Point>
</Placemark>
<Placemark>
<name>
Wed Jun 15 13:50:16 2011
</name>
<styleUrl>
#styleMap_TLP_Normal
</styleUrl>
<Point>
<coordinates>
121.7434311,24.3247471,54.77
</coordinates>
</Point>
</Placemark>
<Placemark>
<name>
Wed Jun 15 13:50:21 2011
</name>
<styleUrl>
#styleMap_TLP_Normal
</styleUrl>
<Point>
<coordinates>
121.7432251,24.3245049,55.78
</coordinates>
</Point>
</Placemark>
<Placemark>
<name>
Wed Jun 15 13:50:26 2011
</name>
<styleUrl>
#styleMap_TLP_Normal
</styleUrl>
<Point>
<coordinates>
121.7430115,24.3242722,54.84
</coordinates>
</Point>
</Placemark>
<Placemark>
<name>
Wed Jun 15 13:50:31 2011
</name>
<styleUrl>
#styleMap_TLP_Normal
</styleUrl>
<Point>
<coordinates>
121.7428131,24.3240547,53.18
</coordinates>
</Point>
</Placemark>
<Placemark>
<name>
Wed Jun 15 13:50:36 2011
</name>
<styleUrl>
#styleMap_TLP_Normal
</styleUrl>
<Point>
<coordinates>
121.7426224,24.3238430,53.01
</coordinates>
</Point>
</Placemark>
<Placemark>
<name>
Wed Jun 15 13:50:41 2011
</name>
<styleUrl>
#styleMap_TLP_Normal
</styleUrl>
<Point>
<coordinates>
121.7424240,24.3236313,53.80
</coordinates>
</Point>
</Placemark>
<Placemark>
<name>
Wed Jun 15 13:50:46 2011
</name>
<styleUrl>
#styleMap_TLP_Normal
</styleUrl>
<Point>
<coordinates>
121.7422333,24.3234177,54.32
</coordinates>
</Point>
</Placemark>
<Placemark>
<name>
Wed Jun 15 13:50:51 2011
</name>
<styleUrl>
#styleMap_TLP_Normal
</styleUrl>
<Point>
<coordinates>
121.7420578,24.3232193,54.63
</coordinates>
</Point>
</Placemark>
<Placemark>
<name>
Wed Jun 15 13:50:56 2011
</name>
<styleUrl>
#styleMap_TLP_Normal
</styleUrl>
<Point>
<coordinates>
121.7418900,24.3230343,53.76
</coordinates>
</Point>
</Placemark>
<Placemark>
<name>
Wed Jun 15 13:51:01 2011
</name>
<styleUrl>
#styleMap_TLP_Normal
</styleUrl>
<Point>
<coordinates>
121.7417374,24.3228569,52.96
</coordinates>
</Point>
</Placemark>
<Placemark>
<name>
Wed Jun 15 13:51:06 2011
</name>
<styleUrl>
#styleMap_TLP_Normal
</styleUrl>
<Point>
<coordinates>
121.7415924,24.3226891,52.64
</coordinates>
</Point>
</Placemark>
<Placemark>
<name>
Wed Jun 15 13:51:11 2011
</name>
<styleUrl>
#styleMap_TLP_Normal
</styleUrl>
<Point>
<coordinates>
121.7414398,24.3225269,52.26
</coordinates>
</Point>
</Placemark>
<Placemark>
<name>
Wed Jun 15 13:51:16 2011
</name>
<styleUrl>
#styleMap_TLP_Normal
</styleUrl>
<Point>
<coordinates>
121.7412872,24.3223495,52.06
</coordinates>
</Point>
</Placemark>
<Placemark>
<name>
Wed Jun 15 13:51:21 2011
</name>
<styleUrl>
#styleMap_TLP_Normal
</styleUrl>
<Point>
<coordinates>
121.7411423,24.3221588,52.05
</coordinates>
</Point>
</Placemark>
<Placemark>
<name>
Wed Jun 15 13:51:26 2011
</name>
<styleUrl>
#styleMap_TLP_Normal
</styleUrl>
<Point>
<coordinates>
121.7410278,24.3219376,51.49
</coordinates>
</Point>
</Placemark>
<Placemark>
<name>
Wed Jun 15 13:51:31 2011
</name>
<styleUrl>
#styleMap_TLP_Normal
</styleUrl>
<Point>
<coordinates>
121.7409210,24.3216782,50.01
</coordinates>
</Point>
</Placemark>
<Placemark>
<name>
Wed Jun 15 13:51:36 2011
</name>
<styleUrl>
#styleMap_TLP_Normal
</styleUrl>
<Point>
<coordinates>
121.7408752,24.3213844,46.80
</coordinates>
</Point>
</Placemark>
<Placemark>
<name>
Wed Jun 15 13:51:41 2011
</name>
<styleUrl>
#styleMap_TLP_Normal
</styleUrl>
<Point>
<coordinates>
121.7408676,24.3210640,45.07
</coordinates>
</Point>
</Placemark>
<Placemark>
<name>
Wed Jun 15 13:51:46 2011
</name>
<styleUrl>
#styleMap_TLP_Normal
</styleUrl>
<Point>
<coordinates>
121.7409286,24.3207417,43.88
</coordinates>
</Point>
</Placemark>
<Placemark>
<name>
Wed Jun 15 13:51:51 2011
</name>
<styleUrl>
#styleMap_TLP_Normal
</styleUrl>
<Point>
<coordinates>
121.7410202,24.3204479,43.22
</coordinates>
</Point>
</Placemark>
<Placemark>
<name>
Wed Jun 15 13:51:56 2011
</name>
<styleUrl>
#styleMap_TLP_Normal
</styleUrl>
<Point>
<coordinates>
121.7411499,24.3201694,41.90
</coordinates>
</Point>
</Placemark>
<Placemark>
<name>
Wed Jun 15 13:52:01 2011
</name>
<styleUrl>
#styleMap_TLP_Normal
</styleUrl>
<Point>
<coordinates>
121.7412872,24.3199024,41.12
</coordinates>
</Point>
</Placemark>
<Placemark>
<name>
Wed Jun 15 13:52:06 2011
</name>
<styleUrl>
#styleMap_TLP_Normal
</styleUrl>
<Point>
<coordinates>
121.7414322,24.3196545,40.71
</coordinates>
</Point>
</Placemark>
<Placemark>
<name>
Wed Jun 15 13:52:11 2011
</name>
<styleUrl>
#styleMap_TLP_Normal
</styleUrl>
<Point>
<coordinates>
121.7415619,24.3194237,40.59
</coordinates>
</Point>
</Placemark>
<Placemark>
<name>
Wed Jun 15 13:52:16 2011
</name>
<styleUrl>
#styleMap_TLP_Normal
</styleUrl>
<Point>
<coordinates>
121.7417145,24.3191910,40.53
</coordinates>
</Point>
</Placemark>
<Placemark>
<name>
Wed Jun 15 13:52:21 2011
</name>
<styleUrl>
#styleMap_TLP_Normal
</styleUrl>
<Point>
<coordinates>
121.7418671,24.3189564,41.45
</coordinates>
</Point>
</Placemark>
<Placemark>
<name>
Wed Jun 15 13:52:26 2011
</name>
<styleUrl>
#styleMap_TLP_Normal
</styleUrl>
<Point>
<coordinates>
121.7420349,24.3187160,42.13
</coordinates>
</Point>
</Placemark>
<Placemark>
<name>
Wed Jun 15 13:52:31 2011
</name>
<styleUrl>
#styleMap_TLP_Normal
</styleUrl>
<Point>
<coordinates>
121.7421875,24.3184834,43.28
</coordinates>
</Point>
</Placemark>
<Placemark>
<name>
Wed Jun 15 13:52:36 2011
</name>
<styleUrl>
#styleMap_TLP_Normal
</styleUrl>
<Point>
<coordinates>
121.7423477,24.3182487,43.43
</coordinates>
</Point>
</Placemark>
<Placemark>
<name>
Wed Jun 15 13:52:41 2011
</name>
<styleUrl>
#styleMap_TLP_Normal
</styleUrl>
<Point>
<coordinates>
121.7425079,24.3180237,44.09
</coordinates>
</Point>
</Placemark>
<Placemark>
<name>
Wed Jun 15 13:52:46 2011
</name>
<styleUrl>
#styleMap_TLP_Normal
</styleUrl>
<Point>
<coordinates>
121.7426605,24.3177986,44.45
</coordinates>
</Point>
</Placemark>
<Placemark>
<name>
Wed Jun 15 13:52:51 2011
</name>
<styleUrl>
#styleMap_TLP_Normal
</styleUrl>
<Point>
<coordinates>
121.7427979,24.3175907,44.97
</coordinates>
</Point>
</Placemark>
<Placemark>
<name>
Wed Jun 15 13:52:56 2011
</name>
<styleUrl>
#styleMap_TLP_Normal
</styleUrl>
<Point>
<coordinates>
121.7429352,24.3173885,44.79
</coordinates>
</Point>
</Placemark>
<Placemark>
<name>
Wed Jun 15 13:53:01 2011
</name>
<styleUrl>
#styleMap_TLP_Normal
</styleUrl>
<Point>
<coordinates>
121.7430801,24.3171673,45.05
</coordinates>
</Point>
</Placemark>
<Placemark>
<name>
Wed Jun 15 13:53:06 2011
</name>
<styleUrl>
#styleMap_TLP_Normal
</styleUrl>
<Point>
<coordinates>
121.7432251,24.3169441,45.48
</coordinates>
</Point>
</Placemark>
<Placemark>
<name>
Wed Jun 15 13:53:11 2011
</name>
<styleUrl>
#styleMap_TLP_Normal
</styleUrl>
<Point>
<coordinates>
121.7433777,24.3167229,46.15
</coordinates>
</Point>
</Placemark>
<Placemark>
<name>
Wed Jun 15 13:53:16 2011
</name>
<styleUrl>
#styleMap_TLP_Normal
</styleUrl>
<Point>
<coordinates>
121.7435074,24.3165188,45.88
</coordinates>
</Point>
</Placemark>
<Placemark>
<name>
Wed Jun 15 13:53:21 2011
</name>
<styleUrl>
#styleMap_TLP_Normal
</styleUrl>
<Point>
<coordinates>
121.7436218,24.3163338,44.88
</coordinates>
</Point>
</Placemark>
<Placemark>
<name>
Wed Jun 15 13:53:26 2011
</name>
<styleUrl>
#styleMap_TLP_Normal
</styleUrl>
<Point>
<coordinates>
121.7437363,24.3161469,43.83
</coordinates>
</Point>
</Placemark>
<Placemark>
<name>
Wed Jun 15 13:53:31 2011
</name>
<styleUrl>
#styleMap_TLP_Normal
</styleUrl>
<Point>
<coordinates>
121.7438660,24.3159618,43.82
</coordinates>
</Point>
</Placemark>
<Placemark>
<name>
Wed Jun 15 13:53:36 2011
</name>
<styleUrl>
#styleMap_TLP_Normal
</styleUrl>
<Point>
<coordinates>
121.7439804,24.3157616,44.25
</coordinates>
</Point>
</Placemark>
<Placemark>
<name>
Wed Jun 15 13:53:41 2011
</name>
<styleUrl>
#styleMap_TLP_Normal
</styleUrl>
<Point>
<coordinates>
121.7441025,24.3155766,44.69
</coordinates>
</Point>
</Placemark>
<Placemark>
<name>
Wed Jun 15 13:53:46 2011
</name>
<styleUrl>
#styleMap_TLP_Normal
</styleUrl>
<Point>
<coordinates>
121.7442398,24.3153992,44.47
</coordinates>
</Point>
</Placemark>
<Placemark>
<name>
Wed Jun 15 13:53:51 2011
</name>
<styleUrl>
#styleMap_TLP_Normal
</styleUrl>
<Point>
<coordinates>
121.7443695,24.3151989,43.62
</coordinates>
</Point>
</Placemark>
<Placemark>
<name>
Wed Jun 15 13:53:56 2011
</name>
<styleUrl>
#styleMap_TLP_Normal
</styleUrl>
<Point>
<coordinates>
121.7445068,24.3150063,44.51
</coordinates>
</Point>
</Placemark>
<Placemark>
<name>
Wed Jun 15 13:54:01 2011
</name>
<styleUrl>
#styleMap_TLP_Normal
</styleUrl>
<Point>
<coordinates>
121.7446518,24.3148003,43.91
</coordinates>
</Point>
</Placemark>
<Placemark>
<name>
Wed Jun 15 13:54:06 2011
</name>
<styleUrl>
#styleMap_TLP_Normal
</styleUrl>
<Point>
<coordinates>
121.7447891,24.3145752,43.12
</coordinates>
</Point>
</Placemark>
<Placemark>
<name>
Wed Jun 15 13:54:11 2011
</name>
<styleUrl>
#styleMap_TLP_Normal
</styleUrl>
<Point>
<coordinates>
121.7449341,24.3143501,43.58
</coordinates>
</Point>
</Placemark>
<Placemark>
<name>
Wed Jun 15 13:54:16 2011
</name>
<styleUrl>
#styleMap_TLP_Normal
</styleUrl>
<Point>
<coordinates>
121.7450714,24.3141460,42.71
</coordinates>
</Point>
</Placemark>
<Placemark>
<name>
Wed Jun 15 13:54:21 2011
</name>
<styleUrl>
#styleMap_TLP_Normal
</styleUrl>
<Point>
<coordinates>
121.7452164,24.3139458,42.52
</coordinates>
</Point>
</Placemark>
<Placemark>
<name>
Wed Jun 15 13:54:26 2011
</name>
<styleUrl>
#styleMap_TLP_Normal
</styleUrl>
<Point>
<coordinates>
121.7453461,24.3137512,41.60
</coordinates>
</Point>
</Placemark>
<Placemark>
<name>
Wed Jun 15 13:54:31 2011
</name>
<styleUrl>
#styleMap_TLP_Normal
</styleUrl>
<Point>
<coordinates>
121.7454605,24.3135471,41.40
</coordinates>
</Point>
</Placemark>
<Placemark>
<name>
Wed Jun 15 13:54:36 2011
</name>
<styleUrl>
#styleMap_TLP_Normal
</styleUrl>
<Point>
<coordinates>
121.7456055,24.3133411,41.30
</coordinates>
</Point>
</Placemark>
<Placemark>
<name>
Wed Jun 15 13:54:41 2011
</name>
<styleUrl>
#styleMap_TLP_Normal
</styleUrl>
<Point>
<coordinates>
121.7457504,24.3131485,40.98
</coordinates>
</Point>
</Placemark>
<Placemark>
<name>
Wed Jun 15 13:54:46 2011
</name>
<styleUrl>
#styleMap_TLP_Normal
</styleUrl>
<Point>
<coordinates>
121.7458954,24.3129330,41.04
</coordinates>
</Point>
</Placemark>
<Placemark>
<name>
Wed Jun 15 13:54:51 2011
</name>
<styleUrl>
#styleMap_TLP_Normal
</styleUrl>
<Point>
<coordinates>
121.7460327,24.3127174,41.10
</coordinates>
</Point>
</Placemark>
<Placemark>
<name>
Wed Jun 15 13:54:56 2011
</name>
<styleUrl>
#styleMap_TLP_Normal
</styleUrl>
<Point>
<coordinates>
121.7461777,24.3125057,41.46
</coordinates>
</Point>
</Placemark>
<Placemark>
<name>
Wed Jun 15 13:55:01 2011
</name>
<styleUrl>
#styleMap_TLP_Normal
</styleUrl>
<Point>
<coordinates>
121.7463074,24.3122673,41.61
</coordinates>
</Point>
</Placemark>
<Placemark>
<name>
Wed Jun 15 13:55:06 2011
</name>
<styleUrl>
#styleMap_TLP_Normal
</styleUrl>
<Point>
<coordinates>
121.7464447,24.3120556,42.34
</coordinates>
</Point>
</Placemark>
<Placemark>
<name>
Wed Jun 15 13:55:11 2011
</name>
<styleUrl>
#styleMap_TLP_Normal
</styleUrl>
<Point>
<coordinates>
121.7465591,24.3118248,42.38
</coordinates>
</Point>
</Placemark>
<Placemark>
<name>
Wed Jun 15 13:55:16 2011
</name>
<styleUrl>
#styleMap_TLP_Normal
</styleUrl>
<Point>
<coordinates>
121.7466736,24.3116150,42.46
</coordinates>
</Point>
</Placemark>
<Placemark>
<name>
Wed Jun 15 13:55:21 2011
</name>
<styleUrl>
#styleMap_TLP_Normal
</styleUrl>
<Point>
<coordinates>
121.7467957,24.3114052,42.87
</coordinates>
</Point>
</Placemark>
<Placemark>
<name>
Wed Jun 15 13:55:26 2011
</name>
<styleUrl>
#styleMap_TLP_Normal
</styleUrl>
<Point>
<coordinates>
121.7468491,24.3111973,44.59
</coordinates>
</Point>
</Placemark>
<Placemark>
<name>
Wed Jun 15 13:55:31 2011
</name>
<styleUrl>
#styleMap_TLP_Normal
</styleUrl>
<Point>
<coordinates>
121.7469482,24.3109608,45.46
</coordinates>
</Point>
</Placemark>
<Placemark>
<name>
Wed Jun 15 13:55:36 2011
</name>
<styleUrl>
#styleMap_TLP_Normal
</styleUrl>
<Point>
<coordinates>
121.7470627,24.3107548,43.40
</coordinates>
</Point>
</Placemark>
<Placemark>
<name>
Wed Jun 15 13:55:41 2011
</name>
<styleUrl>
#styleMap_TLP_Normal
</styleUrl>
<Point>
<coordinates>
121.7471466,24.3105011,43.71
</coordinates>
</Point>
</Placemark>
<Placemark>
<name>
Wed Jun 15 13:55:46 2011
</name>
<styleUrl>
#styleMap_TLP_Normal
</styleUrl>
<Point>
<coordinates>
121.7472458,24.3102531,46.06
</coordinates>
</Point>
</Placemark>
<Placemark>
<name>
Wed Jun 15 13:55:51 2011
</name>
<styleUrl>
#styleMap_TLP_Normal
</styleUrl>
<Point>
<coordinates>
121.7473450,24.3100300,46.76
</coordinates>
</Point>
</Placemark>
<Placemark>
<name>
Wed Jun 15 13:55:56 2011
</name>
<styleUrl>
#styleMap_TLP_Normal
</styleUrl>
<Point>
<coordinates>
121.7474747,24.3097992,50.54
</coordinates>
</Point>
</Placemark>
<Placemark>
<name>
Wed Jun 15 13:56:01 2011
</name>
<styleUrl>
#styleMap_TLP_Normal
</styleUrl>
<Point>
<coordinates>
121.7475433,24.3095760,52.26
</coordinates>
</Point>
</Placemark>
<Placemark>
<name>
Wed Jun 15 13:56:06 2011
</name>
<styleUrl>
#styleMap_TLP_Normal
</styleUrl>
<Point>
<coordinates>
121.7476349,24.3093796,54.33
</coordinates>
</Point>
</Placemark>
<Placemark>
<name>
Wed Jun 15 13:56:11 2011
</name>
<styleUrl>
#styleMap_TLP_Normal
</styleUrl>
<Point>
<coordinates>
121.7476044,24.3093185,52.74
</coordinates>
</Point>
</Placemark>
<Placemark>
<name>
Wed Jun 15 13:56:16 2011
</name>
<styleUrl>
#styleMap_TLP_Normal
</styleUrl>
<Point>
<coordinates>
121.7476044,24.3093224,51.67
</coordinates>
</Point>
</Placemark>
<Placemark>
<name>
Wed Jun 15 13:56:21 2011
</name>
<styleUrl>
#styleMap_TLP_Normal
</styleUrl>
<Point>
<coordinates>
121.7476044,24.3093243,51.49
</coordinates>
</Point>
</Placemark>
<Placemark>
<name>
Wed Jun 15 13:56:26 2011
</name>
<styleUrl>
#styleMap_TLP_Normal
</styleUrl>
<Point>
<coordinates>
121.7476044,24.3093204,51.42
</coordinates>
</Point>
</Placemark>
<Placemark>
<name>
Wed Jun 15 13:56:31 2011
</name>
<styleUrl>
#styleMap_TLP_Finish
</styleUrl>
<Point>
<coordinates>
121.7476120,24.3093128,51.38
</coordinates>
</Point>
</Placemark>
</Folder>
</Document>
</kml>
