<?xml version="1.0"?>
<gpx
version="1.0"
creator="Holux Utility"
xmlns:xsi="http://www.w3.org/2001/XMLSchema-instance"
xmlns="http://www.topografix.com/GPX/1/0"
xsi:schemaLocation="http://www.topografix.com/GPX/1/0 http://www.topografix.com/GPX/1/0/gpx.xsd">
<wpt lat="25.049074" lon="121.787949">
<time>2011-06-13T08:03:46Z</time>
<ele>178.98</ele>
<name><![CDATA[Point 0]]></name>
</wpt>
<wpt lat="25.049046" lon="121.787422">
<time>2011-06-13T08:03:51Z</time>
<ele>300.84</ele>
<name><![CDATA[Point 1]]></name>
</wpt>
<wpt lat="25.049128" lon="121.787453">
<time>2011-06-13T08:03:56Z</time>
<ele>317.98</ele>
<name><![CDATA[Point 2]]></name>
</wpt>
<wpt lat="25.049202" lon="121.787468">
<time>2011-06-13T08:04:01Z</time>
<ele>315.20</ele>
<name><![CDATA[Point 3]]></name>
</wpt>
<wpt lat="25.049223" lon="121.787430">
<time>2011-06-13T08:04:06Z</time>
<ele>318.73</ele>
<name><![CDATA[Point 4]]></name>
</wpt>
<wpt lat="25.049244" lon="121.787437">
<time>2011-06-13T08:04:11Z</time>
<ele>322.98</ele>
<name><![CDATA[Point 5]]></name>
</wpt>
<wpt lat="25.049271" lon="121.787338">
<time>2011-06-13T08:04:16Z</time>
<ele>311.80</ele>
<name><![CDATA[Point 6]]></name>
</wpt>
<wpt lat="25.049301" lon="121.787346">
<time>2011-06-13T08:04:21Z</time>
<ele>308.54</ele>
<name><![CDATA[Point 7]]></name>
</wpt>
<wpt lat="25.049303" lon="121.787354">
<time>2011-06-13T08:04:26Z</time>
<ele>309.73</ele>
<name><![CDATA[Point 8]]></name>
</wpt>
<wpt lat="25.049263" lon="121.787376">
<time>2011-06-13T08:04:31Z</time>
<ele>313.02</ele>
<name><![CDATA[Point 9]]></name>
</wpt>
<wpt lat="25.049257" lon="121.787384">
<time>2011-06-13T08:04:36Z</time>
<ele>312.45</ele>
<name><![CDATA[Point 10]]></name>
</wpt>
<wpt lat="25.049252" lon="121.787376">
<time>2011-06-13T08:04:41Z</time>
<ele>312.30</ele>
<name><![CDATA[Point 11]]></name>
</wpt>
<wpt lat="25.049234" lon="121.787369">
<time>2011-06-13T08:04:46Z</time>
<ele>309.45</ele>
<name><![CDATA[Point 12]]></name>
</wpt>
<wpt lat="25.049212" lon="121.787285">
<time>2011-06-13T08:04:51Z</time>
<ele>306.36</ele>
<name><![CDATA[Point 13]]></name>
</wpt>
<wpt lat="25.049229" lon="121.787262">
<time>2011-06-13T08:04:56Z</time>
<ele>296.22</ele>
<name><![CDATA[Point 14]]></name>
</wpt>
<wpt lat="25.049212" lon="121.787186">
<time>2011-06-13T08:05:01Z</time>
<ele>294.92</ele>
<name><![CDATA[Point 15]]></name>
</wpt>
<wpt lat="25.049187" lon="121.787132">
<time>2011-06-13T08:05:06Z</time>
<ele>293.55</ele>
<name><![CDATA[Point 16]]></name>
</wpt>
<wpt lat="25.049149" lon="121.787132">
<time>2011-06-13T08:05:11Z</time>
<ele>290.12</ele>
<name><![CDATA[Point 17]]></name>
</wpt>
<wpt lat="25.049088" lon="121.787132">
<time>2011-06-13T08:05:16Z</time>
<ele>287.01</ele>
<name><![CDATA[Point 18]]></name>
</wpt>
<wpt lat="25.049116" lon="121.787033">
<time>2011-06-13T08:05:21Z</time>
<ele>285.02</ele>
<name><![CDATA[Point 19]]></name>
</wpt>
<wpt lat="25.048967" lon="121.787140">
<time>2011-06-13T08:05:26Z</time>
<ele>267.95</ele>
<name><![CDATA[Point 20]]></name>
</wpt>
<wpt lat="25.048826" lon="121.787254">
<time>2011-06-13T08:05:31Z</time>
<ele>252.03</ele>
<name><![CDATA[Point 21]]></name>
</wpt>
<wpt lat="25.048634" lon="121.787369">
<time>2011-06-13T08:05:36Z</time>
<ele>223.77</ele>
<name><![CDATA[Point 22]]></name>
</wpt>
<wpt lat="25.048708" lon="121.787354">
<time>2011-06-13T08:05:41Z</time>
<ele>216.44</ele>
<name><![CDATA[Point 23]]></name>
</wpt>
<wpt lat="25.048731" lon="121.787323">
<time>2011-06-13T08:05:46Z</time>
<ele>209.38</ele>
<name><![CDATA[Point 24]]></name>
</wpt>
<wpt lat="25.048784" lon="121.787285">
<time>2011-06-13T08:05:51Z</time>
<ele>206.68</ele>
<name><![CDATA[Point 25]]></name>
</wpt>
<wpt lat="25.048742" lon="121.787292">
<time>2011-06-13T08:05:56Z</time>
<ele>202.35</ele>
<name><![CDATA[Point 26]]></name>
</wpt>
<wpt lat="25.048780" lon="121.787254">
<time>2011-06-13T08:06:01Z</time>
<ele>198.33</ele>
<name><![CDATA[Point 27]]></name>
</wpt>
<wpt lat="25.048714" lon="121.787178">
<time>2011-06-13T08:06:06Z</time>
<ele>196.81</ele>
<name><![CDATA[Point 28]]></name>
</wpt>
<wpt lat="25.048710" lon="121.787163">
<time>2011-06-13T08:06:11Z</time>
<ele>196.59</ele>
<name><![CDATA[Point 29]]></name>
</wpt>
<wpt lat="25.048735" lon="121.787140">
<time>2011-06-13T08:06:16Z</time>
<ele>193.55</ele>
<name><![CDATA[Point 30]]></name>
</wpt>
<wpt lat="25.048748" lon="121.787155">
<time>2011-06-13T08:06:21Z</time>
<ele>190.85</ele>
<name><![CDATA[Point 31]]></name>
</wpt>
<wpt lat="25.048752" lon="121.787209">
<time>2011-06-13T08:06:26Z</time>
<ele>189.77</ele>
<name><![CDATA[Point 32]]></name>
</wpt>
<wpt lat="25.048746" lon="121.787315">
<time>2011-06-13T08:06:31Z</time>
<ele>185.93</ele>
<name><![CDATA[Point 33]]></name>
</wpt>
<wpt lat="25.048714" lon="121.787323">
<time>2011-06-13T08:06:36Z</time>
<ele>185.19</ele>
<name><![CDATA[Point 34]]></name>
</wpt>
<wpt lat="25.048542" lon="121.787323">
<time>2011-06-13T08:06:41Z</time>
<ele>185.04</ele>
<name><![CDATA[Point 35]]></name>
</wpt>
<wpt lat="25.048492" lon="121.787315">
<time>2011-06-13T08:06:46Z</time>
<ele>184.55</ele>
<name><![CDATA[Point 36]]></name>
</wpt>
<wpt lat="25.048471" lon="121.787315">
<time>2011-06-13T08:06:51Z</time>
<ele>184.31</ele>
<name><![CDATA[Point 37]]></name>
</wpt>
<wpt lat="25.048435" lon="121.787315">
<time>2011-06-13T08:06:56Z</time>
<ele>183.51</ele>
<name><![CDATA[Point 38]]></name>
</wpt>
<wpt lat="25.048437" lon="121.787361">
<time>2011-06-13T08:07:01Z</time>
<ele>176.43</ele>
<name><![CDATA[Point 39]]></name>
</wpt>
<wpt lat="25.048439" lon="121.787369">
<time>2011-06-13T08:07:06Z</time>
<ele>175.55</ele>
<name><![CDATA[Point 40]]></name>
</wpt>
<wpt lat="25.048443" lon="121.787361">
<time>2011-06-13T08:07:11Z</time>
<ele>175.14</ele>
<name><![CDATA[Point 41]]></name>
</wpt>
<wpt lat="25.048447" lon="121.787354">
<time>2011-06-13T08:07:16Z</time>
<ele>174.42</ele>
<name><![CDATA[Point 42]]></name>
</wpt>
<wpt lat="25.048441" lon="121.787338">
<time>2011-06-13T08:07:21Z</time>
<ele>174.21</ele>
<name><![CDATA[Point 43]]></name>
</wpt>
<wpt lat="25.048439" lon="121.787331">
<time>2011-06-13T08:07:26Z</time>
<ele>174.02</ele>
<name><![CDATA[Point 44]]></name>
</wpt>
<wpt lat="25.048433" lon="121.787331">
<time>2011-06-13T08:07:31Z</time>
<ele>173.88</ele>
<name><![CDATA[Point 45]]></name>
</wpt>
<wpt lat="25.048428" lon="121.787331">
<time>2011-06-13T08:07:36Z</time>
<ele>173.58</ele>
<name><![CDATA[Point 46]]></name>
</wpt>
<wpt lat="25.048416" lon="121.787331">
<time>2011-06-13T08:07:41Z</time>
<ele>173.44</ele>
<name><![CDATA[Point 47]]></name>
</wpt>
<wpt lat="25.048424" lon="121.787292">
<time>2011-06-13T08:07:46Z</time>
<ele>172.23</ele>
<name><![CDATA[Point 48]]></name>
</wpt>
<wpt lat="25.048414" lon="121.787231">
<time>2011-06-13T08:07:51Z</time>
<ele>171.16</ele>
<name><![CDATA[Point 49]]></name>
</wpt>
<wpt lat="25.048399" lon="121.787155">
<time>2011-06-13T08:07:56Z</time>
<ele>170.64</ele>
<name><![CDATA[Point 50]]></name>
</wpt>
<wpt lat="25.048388" lon="121.787086">
<time>2011-06-13T08:08:01Z</time>
<ele>170.86</ele>
<name><![CDATA[Point 51]]></name>
</wpt>
<wpt lat="25.048370" lon="121.787018">
<time>2011-06-13T08:08:06Z</time>
<ele>171.13</ele>
<name><![CDATA[Point 52]]></name>
</wpt>
<wpt lat="25.048363" lon="121.786957">
<time>2011-06-13T08:08:11Z</time>
<ele>171.57</ele>
<name><![CDATA[Point 53]]></name>
</wpt>
<wpt lat="25.048378" lon="121.786873">
<time>2011-06-13T08:08:16Z</time>
<ele>172.06</ele>
<name><![CDATA[Point 54]]></name>
</wpt>
<wpt lat="25.048380" lon="121.786789">
<time>2011-06-13T08:08:21Z</time>
<ele>172.13</ele>
<name><![CDATA[Point 55]]></name>
</wpt>
<wpt lat="25.048401" lon="121.786705">
<time>2011-06-13T08:08:26Z</time>
<ele>171.95</ele>
<name><![CDATA[Point 56]]></name>
</wpt>
<wpt lat="25.048386" lon="121.786629">
<time>2011-06-13T08:08:31Z</time>
<ele>172.39</ele>
<name><![CDATA[Point 57]]></name>
</wpt>
<wpt lat="25.048386" lon="121.786537">
<time>2011-06-13T08:08:36Z</time>
<ele>172.49</ele>
<name><![CDATA[Point 58]]></name>
</wpt>
<wpt lat="25.048389" lon="121.786469">
<time>2011-06-13T08:08:41Z</time>
<ele>172.71</ele>
<name><![CDATA[Point 59]]></name>
</wpt>
<wpt lat="25.048407" lon="121.786392">
<time>2011-06-13T08:08:46Z</time>
<ele>173.20</ele>
<name><![CDATA[Point 60]]></name>
</wpt>
<wpt lat="25.048378" lon="121.786308">
<time>2011-06-13T08:08:51Z</time>
<ele>173.83</ele>
<name><![CDATA[Point 61]]></name>
</wpt>
<wpt lat="25.048412" lon="121.786270">
<time>2011-06-13T08:08:56Z</time>
<ele>174.84</ele>
<name><![CDATA[Point 62]]></name>
</wpt>
<wpt lat="25.048426" lon="121.786201">
<time>2011-06-13T08:09:01Z</time>
<ele>175.34</ele>
<name><![CDATA[Point 63]]></name>
</wpt>
<wpt lat="25.048458" lon="121.786133">
<time>2011-06-13T08:09:06Z</time>
<ele>175.80</ele>
<name><![CDATA[Point 64]]></name>
</wpt>
<wpt lat="25.048462" lon="121.786034">
<time>2011-06-13T08:09:11Z</time>
<ele>178.60</ele>
<name><![CDATA[Point 65]]></name>
</wpt>
<wpt lat="25.048477" lon="121.785957">
<time>2011-06-13T08:09:16Z</time>
<ele>178.83</ele>
<name><![CDATA[Point 66]]></name>
</wpt>
<wpt lat="25.048475" lon="121.785889">
<time>2011-06-13T08:09:21Z</time>
<ele>179.10</ele>
<name><![CDATA[Point 67]]></name>
</wpt>
<wpt lat="25.048494" lon="121.785828">
<time>2011-06-13T08:09:26Z</time>
<ele>179.91</ele>
<name><![CDATA[Point 68]]></name>
</wpt>
<wpt lat="25.048504" lon="121.785759">
<time>2011-06-13T08:09:31Z</time>
<ele>180.56</ele>
<name><![CDATA[Point 69]]></name>
</wpt>
<wpt lat="25.048597" lon="121.785767">
<time>2011-06-13T08:09:36Z</time>
<ele>183.25</ele>
<name><![CDATA[Point 70]]></name>
</wpt>
<wpt lat="25.048597" lon="121.785736">
<time>2011-06-13T08:09:41Z</time>
<ele>184.33</ele>
<name><![CDATA[Point 71]]></name>
</wpt>
<wpt lat="25.048590" lon="121.785713">
<time>2011-06-13T08:09:46Z</time>
<ele>186.69</ele>
<name><![CDATA[Point 72]]></name>
</wpt>
<wpt lat="25.048588" lon="121.785713">
<time>2011-06-13T08:09:51Z</time>
<ele>186.41</ele>
<name><![CDATA[Point 73]]></name>
</wpt>
<wpt lat="25.048586" lon="121.785698">
<time>2011-06-13T08:09:56Z</time>
<ele>186.47</ele>
<name><![CDATA[Point 74]]></name>
</wpt>
<wpt lat="25.048582" lon="121.785690">
<time>2011-06-13T08:10:01Z</time>
<ele>186.49</ele>
<name><![CDATA[Point 75]]></name>
</wpt>
<wpt lat="25.048576" lon="121.785698">
<time>2011-06-13T08:10:06Z</time>
<ele>186.50</ele>
<name><![CDATA[Point 76]]></name>
</wpt>
<wpt lat="25.048544" lon="121.785683">
<time>2011-06-13T08:10:11Z</time>
<ele>186.23</ele>
<name><![CDATA[Point 77]]></name>
</wpt>
<wpt lat="25.048517" lon="121.785698">
<time>2011-06-13T08:10:16Z</time>
<ele>186.28</ele>
<name><![CDATA[Point 78]]></name>
</wpt>
<wpt lat="25.048502" lon="121.785706">
<time>2011-06-13T08:10:21Z</time>
<ele>186.65</ele>
<name><![CDATA[Point 79]]></name>
</wpt>
<wpt lat="25.048487" lon="121.785675">
<time>2011-06-13T08:10:26Z</time>
<ele>185.88</ele>
<name><![CDATA[Point 80]]></name>
</wpt>
<wpt lat="25.048506" lon="121.785675">
<time>2011-06-13T08:10:31Z</time>
<ele>185.83</ele>
<name><![CDATA[Point 81]]></name>
</wpt>
<wpt lat="25.048586" lon="121.785645">
<time>2011-06-13T08:10:36Z</time>
<ele>186.52</ele>
<name><![CDATA[Point 82]]></name>
</wpt>
<wpt lat="25.048624" lon="121.785599">
<time>2011-06-13T08:10:41Z</time>
<ele>186.54</ele>
<name><![CDATA[Point 83]]></name>
</wpt>
<wpt lat="25.048622" lon="121.785545">
<time>2011-06-13T08:10:46Z</time>
<ele>186.51</ele>
<name><![CDATA[Point 84]]></name>
</wpt>
<wpt lat="25.048658" lon="121.785515">
<time>2011-06-13T08:10:51Z</time>
<ele>185.06</ele>
<name><![CDATA[Point 85]]></name>
</wpt>
<wpt lat="25.048695" lon="121.785469">
<time>2011-06-13T08:10:56Z</time>
<ele>184.23</ele>
<name><![CDATA[Point 86]]></name>
</wpt>
<wpt lat="25.048712" lon="121.785400">
<time>2011-06-13T08:11:01Z</time>
<ele>183.02</ele>
<name><![CDATA[Point 87]]></name>
</wpt>
<wpt lat="25.048716" lon="121.785347">
<time>2011-06-13T08:11:06Z</time>
<ele>181.34</ele>
<name><![CDATA[Point 88]]></name>
</wpt>
<wpt lat="25.048731" lon="121.785248">
<time>2011-06-13T08:11:11Z</time>
<ele>180.84</ele>
<name><![CDATA[Point 89]]></name>
</wpt>
<wpt lat="25.048733" lon="121.785179">
<time>2011-06-13T08:11:16Z</time>
<ele>177.93</ele>
<name><![CDATA[Point 90]]></name>
</wpt>
<wpt lat="25.048729" lon="121.785095">
<time>2011-06-13T08:11:21Z</time>
<ele>177.21</ele>
<name><![CDATA[Point 91]]></name>
</wpt>
<wpt lat="25.048756" lon="121.785004">
<time>2011-06-13T08:11:26Z</time>
<ele>176.23</ele>
<name><![CDATA[Point 92]]></name>
</wpt>
<wpt lat="25.048794" lon="121.784927">
<time>2011-06-13T08:11:31Z</time>
<ele>175.25</ele>
<name><![CDATA[Point 93]]></name>
</wpt>
<wpt lat="25.048798" lon="121.784866">
<time>2011-06-13T08:11:36Z</time>
<ele>174.99</ele>
<name><![CDATA[Point 94]]></name>
</wpt>
<wpt lat="25.048798" lon="121.784798">
<time>2011-06-13T08:11:41Z</time>
<ele>174.74</ele>
<name><![CDATA[Point 95]]></name>
</wpt>
<wpt lat="25.048826" lon="121.784744">
<time>2011-06-13T08:11:46Z</time>
<ele>176.54</ele>
<name><![CDATA[Point 96]]></name>
</wpt>
<wpt lat="25.048845" lon="121.784721">
<time>2011-06-13T08:11:51Z</time>
<ele>177.52</ele>
<name><![CDATA[Point 97]]></name>
</wpt>
<wpt lat="25.048849" lon="121.784706">
<time>2011-06-13T08:11:56Z</time>
<ele>177.16</ele>
<name><![CDATA[Point 98]]></name>
</wpt>
<wpt lat="25.048851" lon="121.784706">
<time>2011-06-13T08:12:01Z</time>
<ele>177.26</ele>
<name><![CDATA[Point 99]]></name>
</wpt>
<wpt lat="25.048853" lon="121.784698">
<time>2011-06-13T08:12:06Z</time>
<ele>177.32</ele>
<name><![CDATA[Point 100]]></name>
</wpt>
<wpt lat="25.048868" lon="121.784729">
<time>2011-06-13T08:12:11Z</time>
<ele>178.27</ele>
<name><![CDATA[Point 101]]></name>
</wpt>
<wpt lat="25.048861" lon="121.784729">
<time>2011-06-13T08:12:16Z</time>
<ele>179.26</ele>
<name><![CDATA[Point 102]]></name>
</wpt>
<wpt lat="25.048832" lon="121.784737">
<time>2011-06-13T08:12:21Z</time>
<ele>179.50</ele>
<name><![CDATA[Point 103]]></name>
</wpt>
<wpt lat="25.048780" lon="121.784767">
<time>2011-06-13T08:12:26Z</time>
<ele>179.56</ele>
<name><![CDATA[Point 104]]></name>
</wpt>
<wpt lat="25.048779" lon="121.784782">
<time>2011-06-13T08:12:31Z</time>
<ele>178.68</ele>
<name><![CDATA[Point 105]]></name>
</wpt>
<wpt lat="25.048786" lon="121.784767">
<time>2011-06-13T08:12:36Z</time>
<ele>178.03</ele>
<name><![CDATA[Point 106]]></name>
</wpt>
<wpt lat="25.048779" lon="121.784767">
<time>2011-06-13T08:12:41Z</time>
<ele>177.49</ele>
<name><![CDATA[Point 107]]></name>
</wpt>
<wpt lat="25.048763" lon="121.784790">
<time>2011-06-13T08:12:46Z</time>
<ele>177.37</ele>
<name><![CDATA[Point 108]]></name>
</wpt>
<wpt lat="25.048771" lon="121.784843">
<time>2011-06-13T08:12:51Z</time>
<ele>177.11</ele>
<name><![CDATA[Point 109]]></name>
</wpt>
<wpt lat="25.048769" lon="121.784843">
<time>2011-06-13T08:12:56Z</time>
<ele>177.62</ele>
<name><![CDATA[Point 110]]></name>
</wpt>
<wpt lat="25.048761" lon="121.784843">
<time>2011-06-13T08:13:01Z</time>
<ele>177.74</ele>
<name><![CDATA[Point 111]]></name>
</wpt>
<wpt lat="25.048759" lon="121.784851">
<time>2011-06-13T08:13:06Z</time>
<ele>177.53</ele>
<name><![CDATA[Point 112]]></name>
</wpt>
<wpt lat="25.048748" lon="121.784866">
<time>2011-06-13T08:13:11Z</time>
<ele>177.35</ele>
<name><![CDATA[Point 113]]></name>
</wpt>
<wpt lat="25.048738" lon="121.784874">
<time>2011-06-13T08:13:16Z</time>
<ele>177.36</ele>
<name><![CDATA[Point 114]]></name>
</wpt>
<wpt lat="25.048677" lon="121.784912">
<time>2011-06-13T08:13:21Z</time>
<ele>177.20</ele>
<name><![CDATA[Point 115]]></name>
</wpt>
<wpt lat="25.048683" lon="121.784966">
<time>2011-06-13T08:13:26Z</time>
<ele>176.94</ele>
<name><![CDATA[Point 116]]></name>
</wpt>
<wpt lat="25.048643" lon="121.784988">
<time>2011-06-13T08:13:31Z</time>
<ele>176.71</ele>
<name><![CDATA[Point 117]]></name>
</wpt>
<wpt lat="25.048550" lon="121.784966">
<time>2011-06-13T08:13:36Z</time>
<ele>176.52</ele>
<name><![CDATA[Point 118]]></name>
</wpt>
<wpt lat="25.048489" lon="121.784912">
<time>2011-06-13T08:13:41Z</time>
<ele>176.06</ele>
<name><![CDATA[Point 119]]></name>
</wpt>
<wpt lat="25.048418" lon="121.784904">
<time>2011-06-13T08:13:46Z</time>
<ele>175.73</ele>
<name><![CDATA[Point 120]]></name>
</wpt>
<wpt lat="25.048372" lon="121.784889">
<time>2011-06-13T08:13:51Z</time>
<ele>175.96</ele>
<name><![CDATA[Point 121]]></name>
</wpt>
<wpt lat="25.048300" lon="121.784843">
<time>2011-06-13T08:13:56Z</time>
<ele>176.16</ele>
<name><![CDATA[Point 122]]></name>
</wpt>
<wpt lat="25.048258" lon="121.784767">
<time>2011-06-13T08:14:01Z</time>
<ele>176.20</ele>
<name><![CDATA[Point 123]]></name>
</wpt>
<wpt lat="25.048201" lon="121.784737">
<time>2011-06-13T08:14:06Z</time>
<ele>176.05</ele>
<name><![CDATA[Point 124]]></name>
</wpt>
<wpt lat="25.048138" lon="121.784752">
<time>2011-06-13T08:14:11Z</time>
<ele>175.54</ele>
<name><![CDATA[Point 125]]></name>
</wpt>
<wpt lat="25.048071" lon="121.784737">
<time>2011-06-13T08:14:16Z</time>
<ele>175.54</ele>
<name><![CDATA[Point 126]]></name>
</wpt>
<wpt lat="25.047998" lon="121.784706">
<time>2011-06-13T08:14:21Z</time>
<ele>175.46</ele>
<name><![CDATA[Point 127]]></name>
</wpt>
<wpt lat="25.047920" lon="121.784668">
<time>2011-06-13T08:14:26Z</time>
<ele>175.55</ele>
<name><![CDATA[Point 128]]></name>
</wpt>
<wpt lat="25.047832" lon="121.784653">
<time>2011-06-13T08:14:31Z</time>
<ele>175.14</ele>
<name><![CDATA[Point 129]]></name>
</wpt>
<wpt lat="25.047779" lon="121.784637">
<time>2011-06-13T08:14:36Z</time>
<ele>174.79</ele>
<name><![CDATA[Point 130]]></name>
</wpt>
<wpt lat="25.047728" lon="121.784615">
<time>2011-06-13T08:14:41Z</time>
<ele>174.80</ele>
<name><![CDATA[Point 131]]></name>
</wpt>
<wpt lat="25.047651" lon="121.784592">
<time>2011-06-13T08:14:46Z</time>
<ele>174.56</ele>
<name><![CDATA[Point 132]]></name>
</wpt>
<wpt lat="25.047594" lon="121.784531">
<time>2011-06-13T08:14:51Z</time>
<ele>174.73</ele>
<name><![CDATA[Point 133]]></name>
</wpt>
<wpt lat="25.047523" lon="121.784500">
<time>2011-06-13T08:14:56Z</time>
<ele>174.77</ele>
<name><![CDATA[Point 134]]></name>
</wpt>
<wpt lat="25.047497" lon="121.784447">
<time>2011-06-13T08:15:01Z</time>
<ele>170.41</ele>
<name><![CDATA[Point 135]]></name>
</wpt>
<wpt lat="25.047464" lon="121.784386">
<time>2011-06-13T08:15:06Z</time>
<ele>169.16</ele>
<name><![CDATA[Point 136]]></name>
</wpt>
<wpt lat="25.047426" lon="121.784325">
<time>2011-06-13T08:15:11Z</time>
<ele>168.36</ele>
<name><![CDATA[Point 137]]></name>
</wpt>
<wpt lat="25.047413" lon="121.784256">
<time>2011-06-13T08:15:16Z</time>
<ele>168.06</ele>
<name><![CDATA[Point 138]]></name>
</wpt>
<wpt lat="25.047407" lon="121.784172">
<time>2011-06-13T08:15:21Z</time>
<ele>167.91</ele>
<name><![CDATA[Point 139]]></name>
</wpt>
<wpt lat="25.047445" lon="121.784134">
<time>2011-06-13T08:15:26Z</time>
<ele>167.30</ele>
<name><![CDATA[Point 140]]></name>
</wpt>
<wpt lat="25.047474" lon="121.784088">
<time>2011-06-13T08:15:31Z</time>
<ele>167.04</ele>
<name><![CDATA[Point 141]]></name>
</wpt>
<wpt lat="25.047504" lon="121.784035">
<time>2011-06-13T08:15:36Z</time>
<ele>166.40</ele>
<name><![CDATA[Point 142]]></name>
</wpt>
<wpt lat="25.047504" lon="121.783951">
<time>2011-06-13T08:15:41Z</time>
<ele>166.35</ele>
<name><![CDATA[Point 143]]></name>
</wpt>
<wpt lat="25.047548" lon="121.783928">
<time>2011-06-13T08:15:46Z</time>
<ele>165.98</ele>
<name><![CDATA[Point 144]]></name>
</wpt>
<wpt lat="25.047546" lon="121.783897">
<time>2011-06-13T08:15:51Z</time>
<ele>165.46</ele>
<name><![CDATA[Point 145]]></name>
</wpt>
<wpt lat="25.047585" lon="121.783897">
<time>2011-06-13T08:15:56Z</time>
<ele>166.11</ele>
<name><![CDATA[Point 146]]></name>
</wpt>
<wpt lat="25.047585" lon="121.783890">
<time>2011-06-13T08:16:01Z</time>
<ele>167.03</ele>
<name><![CDATA[Point 147]]></name>
</wpt>
<wpt lat="25.047600" lon="121.783859">
<time>2011-06-13T08:16:06Z</time>
<ele>167.30</ele>
<name><![CDATA[Point 148]]></name>
</wpt>
<wpt lat="25.047569" lon="121.783760">
<time>2011-06-13T08:16:11Z</time>
<ele>169.81</ele>
<name><![CDATA[Point 149]]></name>
</wpt>
<wpt lat="25.047550" lon="121.783714">
<time>2011-06-13T08:16:16Z</time>
<ele>171.80</ele>
<name><![CDATA[Point 150]]></name>
</wpt>
<wpt lat="25.047533" lon="121.783646">
<time>2011-06-13T08:16:21Z</time>
<ele>173.00</ele>
<name><![CDATA[Point 151]]></name>
</wpt>
<wpt lat="25.047522" lon="121.783562">
<time>2011-06-13T08:16:26Z</time>
<ele>174.46</ele>
<name><![CDATA[Point 152]]></name>
</wpt>
<wpt lat="25.047512" lon="121.783524">
<time>2011-06-13T08:16:31Z</time>
<ele>174.28</ele>
<name><![CDATA[Point 153]]></name>
</wpt>
<wpt lat="25.047483" lon="121.783447">
<time>2011-06-13T08:16:36Z</time>
<ele>174.79</ele>
<name><![CDATA[Point 154]]></name>
</wpt>
<wpt lat="25.047459" lon="121.783356">
<time>2011-06-13T08:16:41Z</time>
<ele>175.56</ele>
<name><![CDATA[Point 155]]></name>
</wpt>
<wpt lat="25.047413" lon="121.783279">
<time>2011-06-13T08:16:46Z</time>
<ele>175.95</ele>
<name><![CDATA[Point 156]]></name>
</wpt>
<wpt lat="25.047390" lon="121.783195">
<time>2011-06-13T08:16:51Z</time>
<ele>177.23</ele>
<name><![CDATA[Point 157]]></name>
</wpt>
<wpt lat="25.047380" lon="121.783150">
<time>2011-06-13T08:16:56Z</time>
<ele>177.26</ele>
<name><![CDATA[Point 158]]></name>
</wpt>
<wpt lat="25.047363" lon="121.783119">
<time>2011-06-13T08:17:01Z</time>
<ele>176.93</ele>
<name><![CDATA[Point 159]]></name>
</wpt>
<wpt lat="25.047361" lon="121.783134">
<time>2011-06-13T08:17:06Z</time>
<ele>176.29</ele>
<name><![CDATA[Point 160]]></name>
</wpt>
<wpt lat="25.047375" lon="121.783173">
<time>2011-06-13T08:17:11Z</time>
<ele>175.38</ele>
<name><![CDATA[Point 161]]></name>
</wpt>
<wpt lat="25.047375" lon="121.783157">
<time>2011-06-13T08:17:16Z</time>
<ele>175.10</ele>
<name><![CDATA[Point 162]]></name>
</wpt>
<wpt lat="25.047398" lon="121.783188">
<time>2011-06-13T08:17:21Z</time>
<ele>177.08</ele>
<name><![CDATA[Point 163]]></name>
</wpt>
<wpt lat="25.047403" lon="121.783203">
<time>2011-06-13T08:17:26Z</time>
<ele>176.65</ele>
<name><![CDATA[Point 164]]></name>
</wpt>
<wpt lat="25.047411" lon="121.783203">
<time>2011-06-13T08:17:31Z</time>
<ele>176.63</ele>
<name><![CDATA[Point 165]]></name>
</wpt>
<wpt lat="25.047384" lon="121.783211">
<time>2011-06-13T08:17:36Z</time>
<ele>176.24</ele>
<name><![CDATA[Point 166]]></name>
</wpt>
<wpt lat="25.047382" lon="121.783203">
<time>2011-06-13T08:17:41Z</time>
<ele>176.04</ele>
<name><![CDATA[Point 167]]></name>
</wpt>
<wpt lat="25.047342" lon="121.783134">
<time>2011-06-13T08:17:46Z</time>
<ele>176.99</ele>
<name><![CDATA[Point 168]]></name>
</wpt>
<wpt lat="25.047361" lon="121.783089">
<time>2011-06-13T08:17:51Z</time>
<ele>176.90</ele>
<name><![CDATA[Point 169]]></name>
</wpt>
<wpt lat="25.047356" lon="121.783081">
<time>2011-06-13T08:17:56Z</time>
<ele>176.36</ele>
<name><![CDATA[Point 170]]></name>
</wpt>
<wpt lat="25.047361" lon="121.783043">
<time>2011-06-13T08:18:01Z</time>
<ele>176.57</ele>
<name><![CDATA[Point 171]]></name>
</wpt>
<wpt lat="25.047386" lon="121.783020">
<time>2011-06-13T08:18:06Z</time>
<ele>176.63</ele>
<name><![CDATA[Point 172]]></name>
</wpt>
<wpt lat="25.047436" lon="121.783012">
<time>2011-06-13T08:18:11Z</time>
<ele>176.79</ele>
<name><![CDATA[Point 173]]></name>
</wpt>
<wpt lat="25.047447" lon="121.782951">
<time>2011-06-13T08:18:16Z</time>
<ele>176.77</ele>
<name><![CDATA[Point 174]]></name>
</wpt>
<wpt lat="25.047451" lon="121.782883">
<time>2011-06-13T08:18:21Z</time>
<ele>178.27</ele>
<name><![CDATA[Point 175]]></name>
</wpt>
<wpt lat="25.047464" lon="121.782845">
<time>2011-06-13T08:18:26Z</time>
<ele>178.70</ele>
<name><![CDATA[Point 176]]></name>
</wpt>
<wpt lat="25.047445" lon="121.782799">
<time>2011-06-13T08:18:31Z</time>
<ele>178.97</ele>
<name><![CDATA[Point 177]]></name>
</wpt>
<wpt lat="25.047409" lon="121.782768">
<time>2011-06-13T08:18:36Z</time>
<ele>179.01</ele>
<name><![CDATA[Point 178]]></name>
</wpt>
<wpt lat="25.047394" lon="121.782784">
<time>2011-06-13T08:18:41Z</time>
<ele>179.34</ele>
<name><![CDATA[Point 179]]></name>
</wpt>
<wpt lat="25.047384" lon="121.782784">
<time>2011-06-13T08:18:46Z</time>
<ele>179.45</ele>
<name><![CDATA[Point 180]]></name>
</wpt>
<wpt lat="25.047363" lon="121.782761">
<time>2011-06-13T08:18:51Z</time>
<ele>179.41</ele>
<name><![CDATA[Point 181]]></name>
</wpt>
<wpt lat="25.047338" lon="121.782715">
<time>2011-06-13T08:18:56Z</time>
<ele>179.40</ele>
<name><![CDATA[Point 182]]></name>
</wpt>
<wpt lat="25.047327" lon="121.782677">
<time>2011-06-13T08:19:01Z</time>
<ele>179.36</ele>
<name><![CDATA[Point 183]]></name>
</wpt>
<wpt lat="25.047295" lon="121.782661">
<time>2011-06-13T08:19:06Z</time>
<ele>179.31</ele>
<name><![CDATA[Point 184]]></name>
</wpt>
<wpt lat="25.047251" lon="121.782639">
<time>2011-06-13T08:19:11Z</time>
<ele>179.24</ele>
<name><![CDATA[Point 185]]></name>
</wpt>
<wpt lat="25.047232" lon="121.782669">
<time>2011-06-13T08:19:16Z</time>
<ele>179.18</ele>
<name><![CDATA[Point 186]]></name>
</wpt>
<wpt lat="25.047318" lon="121.782867">
<time>2011-06-13T08:19:21Z</time>
<ele>179.20</ele>
<name><![CDATA[Point 187]]></name>
</wpt>
<wpt lat="25.047356" lon="121.782921">
<time>2011-06-13T08:19:26Z</time>
<ele>179.11</ele>
<name><![CDATA[Point 188]]></name>
</wpt>
<wpt lat="25.047432" lon="121.782883">
<time>2011-06-13T08:19:31Z</time>
<ele>178.82</ele>
<name><![CDATA[Point 189]]></name>
</wpt>
<wpt lat="25.047506" lon="121.782890">
<time>2011-06-13T08:19:36Z</time>
<ele>178.70</ele>
<name><![CDATA[Point 190]]></name>
</wpt>
<wpt lat="25.047575" lon="121.782898">
<time>2011-06-13T08:19:41Z</time>
<ele>178.99</ele>
<name><![CDATA[Point 191]]></name>
</wpt>
<wpt lat="25.047611" lon="121.782852">
<time>2011-06-13T08:19:46Z</time>
<ele>178.29</ele>
<name><![CDATA[Point 192]]></name>
</wpt>
<wpt lat="25.047596" lon="121.782883">
<time>2011-06-13T08:19:51Z</time>
<ele>178.05</ele>
<name><![CDATA[Point 193]]></name>
</wpt>
<wpt lat="25.047598" lon="121.782928">
<time>2011-06-13T08:19:56Z</time>
<ele>177.82</ele>
<name><![CDATA[Point 194]]></name>
</wpt>
<wpt lat="25.047571" lon="121.782967">
<time>2011-06-13T08:20:01Z</time>
<ele>177.52</ele>
<name><![CDATA[Point 195]]></name>
</wpt>
<wpt lat="25.047560" lon="121.782982">
<time>2011-06-13T08:20:06Z</time>
<ele>177.23</ele>
<name><![CDATA[Point 196]]></name>
</wpt>
<wpt lat="25.047541" lon="121.783005">
<time>2011-06-13T08:20:11Z</time>
<ele>177.17</ele>
<name><![CDATA[Point 197]]></name>
</wpt>
<rte>
<name>Route</name>
<rtept lat="25.049074" lon="121.787949">
<time>2011-06-13T08:03:46Z</time>
<ele>178.98</ele>
<name><![CDATA[Point 0]]></name>
</rtept>
<rtept lat="25.049046" lon="121.787422">
<time>2011-06-13T08:03:51Z</time>
<ele>300.84</ele>
<name><![CDATA[Point 1]]></name>
</rtept>
<rtept lat="25.049128" lon="121.787453">
<time>2011-06-13T08:03:56Z</time>
<ele>317.98</ele>
<name><![CDATA[Point 2]]></name>
</rtept>
<rtept lat="25.049202" lon="121.787468">
<time>2011-06-13T08:04:01Z</time>
<ele>315.20</ele>
<name><![CDATA[Point 3]]></name>
</rtept>
<rtept lat="25.049223" lon="121.787430">
<time>2011-06-13T08:04:06Z</time>
<ele>318.73</ele>
<name><![CDATA[Point 4]]></name>
</rtept>
<rtept lat="25.049244" lon="121.787437">
<time>2011-06-13T08:04:11Z</time>
<ele>322.98</ele>
<name><![CDATA[Point 5]]></name>
</rtept>
<rtept lat="25.049271" lon="121.787338">
<time>2011-06-13T08:04:16Z</time>
<ele>311.80</ele>
<name><![CDATA[Point 6]]></name>
</rtept>
<rtept lat="25.049301" lon="121.787346">
<time>2011-06-13T08:04:21Z</time>
<ele>308.54</ele>
<name><![CDATA[Point 7]]></name>
</rtept>
<rtept lat="25.049303" lon="121.787354">
<time>2011-06-13T08:04:26Z</time>
<ele>309.73</ele>
<name><![CDATA[Point 8]]></name>
</rtept>
<rtept lat="25.049263" lon="121.787376">
<time>2011-06-13T08:04:31Z</time>
<ele>313.02</ele>
<name><![CDATA[Point 9]]></name>
</rtept>
<rtept lat="25.049257" lon="121.787384">
<time>2011-06-13T08:04:36Z</time>
<ele>312.45</ele>
<name><![CDATA[Point 10]]></name>
</rtept>
<rtept lat="25.049252" lon="121.787376">
<time>2011-06-13T08:04:41Z</time>
<ele>312.30</ele>
<name><![CDATA[Point 11]]></name>
</rtept>
<rtept lat="25.049234" lon="121.787369">
<time>2011-06-13T08:04:46Z</time>
<ele>309.45</ele>
<name><![CDATA[Point 12]]></name>
</rtept>
<rtept lat="25.049212" lon="121.787285">
<time>2011-06-13T08:04:51Z</time>
<ele>306.36</ele>
<name><![CDATA[Point 13]]></name>
</rtept>
<rtept lat="25.049229" lon="121.787262">
<time>2011-06-13T08:04:56Z</time>
<ele>296.22</ele>
<name><![CDATA[Point 14]]></name>
</rtept>
<rtept lat="25.049212" lon="121.787186">
<time>2011-06-13T08:05:01Z</time>
<ele>294.92</ele>
<name><![CDATA[Point 15]]></name>
</rtept>
<rtept lat="25.049187" lon="121.787132">
<time>2011-06-13T08:05:06Z</time>
<ele>293.55</ele>
<name><![CDATA[Point 16]]></name>
</rtept>
<rtept lat="25.049149" lon="121.787132">
<time>2011-06-13T08:05:11Z</time>
<ele>290.12</ele>
<name><![CDATA[Point 17]]></name>
</rtept>
<rtept lat="25.049088" lon="121.787132">
<time>2011-06-13T08:05:16Z</time>
<ele>287.01</ele>
<name><![CDATA[Point 18]]></name>
</rtept>
<rtept lat="25.049116" lon="121.787033">
<time>2011-06-13T08:05:21Z</time>
<ele>285.02</ele>
<name><![CDATA[Point 19]]></name>
</rtept>
<rtept lat="25.048967" lon="121.787140">
<time>2011-06-13T08:05:26Z</time>
<ele>267.95</ele>
<name><![CDATA[Point 20]]></name>
</rtept>
<rtept lat="25.048826" lon="121.787254">
<time>2011-06-13T08:05:31Z</time>
<ele>252.03</ele>
<name><![CDATA[Point 21]]></name>
</rtept>
<rtept lat="25.048634" lon="121.787369">
<time>2011-06-13T08:05:36Z</time>
<ele>223.77</ele>
<name><![CDATA[Point 22]]></name>
</rtept>
<rtept lat="25.048708" lon="121.787354">
<time>2011-06-13T08:05:41Z</time>
<ele>216.44</ele>
<name><![CDATA[Point 23]]></name>
</rtept>
<rtept lat="25.048731" lon="121.787323">
<time>2011-06-13T08:05:46Z</time>
<ele>209.38</ele>
<name><![CDATA[Point 24]]></name>
</rtept>
<rtept lat="25.048784" lon="121.787285">
<time>2011-06-13T08:05:51Z</time>
<ele>206.68</ele>
<name><![CDATA[Point 25]]></name>
</rtept>
<rtept lat="25.048742" lon="121.787292">
<time>2011-06-13T08:05:56Z</time>
<ele>202.35</ele>
<name><![CDATA[Point 26]]></name>
</rtept>
<rtept lat="25.048780" lon="121.787254">
<time>2011-06-13T08:06:01Z</time>
<ele>198.33</ele>
<name><![CDATA[Point 27]]></name>
</rtept>
<rtept lat="25.048714" lon="121.787178">
<time>2011-06-13T08:06:06Z</time>
<ele>196.81</ele>
<name><![CDATA[Point 28]]></name>
</rtept>
<rtept lat="25.048710" lon="121.787163">
<time>2011-06-13T08:06:11Z</time>
<ele>196.59</ele>
<name><![CDATA[Point 29]]></name>
</rtept>
<rtept lat="25.048735" lon="121.787140">
<time>2011-06-13T08:06:16Z</time>
<ele>193.55</ele>
<name><![CDATA[Point 30]]></name>
</rtept>
<rtept lat="25.048748" lon="121.787155">
<time>2011-06-13T08:06:21Z</time>
<ele>190.85</ele>
<name><![CDATA[Point 31]]></name>
</rtept>
<rtept lat="25.048752" lon="121.787209">
<time>2011-06-13T08:06:26Z</time>
<ele>189.77</ele>
<name><![CDATA[Point 32]]></name>
</rtept>
<rtept lat="25.048746" lon="121.787315">
<time>2011-06-13T08:06:31Z</time>
<ele>185.93</ele>
<name><![CDATA[Point 33]]></name>
</rtept>
<rtept lat="25.048714" lon="121.787323">
<time>2011-06-13T08:06:36Z</time>
<ele>185.19</ele>
<name><![CDATA[Point 34]]></name>
</rtept>
<rtept lat="25.048542" lon="121.787323">
<time>2011-06-13T08:06:41Z</time>
<ele>185.04</ele>
<name><![CDATA[Point 35]]></name>
</rtept>
<rtept lat="25.048492" lon="121.787315">
<time>2011-06-13T08:06:46Z</time>
<ele>184.55</ele>
<name><![CDATA[Point 36]]></name>
</rtept>
<rtept lat="25.048471" lon="121.787315">
<time>2011-06-13T08:06:51Z</time>
<ele>184.31</ele>
<name><![CDATA[Point 37]]></name>
</rtept>
<rtept lat="25.048435" lon="121.787315">
<time>2011-06-13T08:06:56Z</time>
<ele>183.51</ele>
<name><![CDATA[Point 38]]></name>
</rtept>
<rtept lat="25.048437" lon="121.787361">
<time>2011-06-13T08:07:01Z</time>
<ele>176.43</ele>
<name><![CDATA[Point 39]]></name>
</rtept>
<rtept lat="25.048439" lon="121.787369">
<time>2011-06-13T08:07:06Z</time>
<ele>175.55</ele>
<name><![CDATA[Point 40]]></name>
</rtept>
<rtept lat="25.048443" lon="121.787361">
<time>2011-06-13T08:07:11Z</time>
<ele>175.14</ele>
<name><![CDATA[Point 41]]></name>
</rtept>
<rtept lat="25.048447" lon="121.787354">
<time>2011-06-13T08:07:16Z</time>
<ele>174.42</ele>
<name><![CDATA[Point 42]]></name>
</rtept>
<rtept lat="25.048441" lon="121.787338">
<time>2011-06-13T08:07:21Z</time>
<ele>174.21</ele>
<name><![CDATA[Point 43]]></name>
</rtept>
<rtept lat="25.048439" lon="121.787331">
<time>2011-06-13T08:07:26Z</time>
<ele>174.02</ele>
<name><![CDATA[Point 44]]></name>
</rtept>
<rtept lat="25.048433" lon="121.787331">
<time>2011-06-13T08:07:31Z</time>
<ele>173.88</ele>
<name><![CDATA[Point 45]]></name>
</rtept>
<rtept lat="25.048428" lon="121.787331">
<time>2011-06-13T08:07:36Z</time>
<ele>173.58</ele>
<name><![CDATA[Point 46]]></name>
</rtept>
<rtept lat="25.048416" lon="121.787331">
<time>2011-06-13T08:07:41Z</time>
<ele>173.44</ele>
<name><![CDATA[Point 47]]></name>
</rtept>
<rtept lat="25.048424" lon="121.787292">
<time>2011-06-13T08:07:46Z</time>
<ele>172.23</ele>
<name><![CDATA[Point 48]]></name>
</rtept>
<rtept lat="25.048414" lon="121.787231">
<time>2011-06-13T08:07:51Z</time>
<ele>171.16</ele>
<name><![CDATA[Point 49]]></name>
</rtept>
<rtept lat="25.048399" lon="121.787155">
<time>2011-06-13T08:07:56Z</time>
<ele>170.64</ele>
<name><![CDATA[Point 50]]></name>
</rtept>
<rtept lat="25.048388" lon="121.787086">
<time>2011-06-13T08:08:01Z</time>
<ele>170.86</ele>
<name><![CDATA[Point 51]]></name>
</rtept>
<rtept lat="25.048370" lon="121.787018">
<time>2011-06-13T08:08:06Z</time>
<ele>171.13</ele>
<name><![CDATA[Point 52]]></name>
</rtept>
<rtept lat="25.048363" lon="121.786957">
<time>2011-06-13T08:08:11Z</time>
<ele>171.57</ele>
<name><![CDATA[Point 53]]></name>
</rtept>
<rtept lat="25.048378" lon="121.786873">
<time>2011-06-13T08:08:16Z</time>
<ele>172.06</ele>
<name><![CDATA[Point 54]]></name>
</rtept>
<rtept lat="25.048380" lon="121.786789">
<time>2011-06-13T08:08:21Z</time>
<ele>172.13</ele>
<name><![CDATA[Point 55]]></name>
</rtept>
<rtept lat="25.048401" lon="121.786705">
<time>2011-06-13T08:08:26Z</time>
<ele>171.95</ele>
<name><![CDATA[Point 56]]></name>
</rtept>
<rtept lat="25.048386" lon="121.786629">
<time>2011-06-13T08:08:31Z</time>
<ele>172.39</ele>
<name><![CDATA[Point 57]]></name>
</rtept>
<rtept lat="25.048386" lon="121.786537">
<time>2011-06-13T08:08:36Z</time>
<ele>172.49</ele>
<name><![CDATA[Point 58]]></name>
</rtept>
<rtept lat="25.048389" lon="121.786469">
<time>2011-06-13T08:08:41Z</time>
<ele>172.71</ele>
<name><![CDATA[Point 59]]></name>
</rtept>
<rtept lat="25.048407" lon="121.786392">
<time>2011-06-13T08:08:46Z</time>
<ele>173.20</ele>
<name><![CDATA[Point 60]]></name>
</rtept>
<rtept lat="25.048378" lon="121.786308">
<time>2011-06-13T08:08:51Z</time>
<ele>173.83</ele>
<name><![CDATA[Point 61]]></name>
</rtept>
<rtept lat="25.048412" lon="121.786270">
<time>2011-06-13T08:08:56Z</time>
<ele>174.84</ele>
<name><![CDATA[Point 62]]></name>
</rtept>
<rtept lat="25.048426" lon="121.786201">
<time>2011-06-13T08:09:01Z</time>
<ele>175.34</ele>
<name><![CDATA[Point 63]]></name>
</rtept>
<rtept lat="25.048458" lon="121.786133">
<time>2011-06-13T08:09:06Z</time>
<ele>175.80</ele>
<name><![CDATA[Point 64]]></name>
</rtept>
<rtept lat="25.048462" lon="121.786034">
<time>2011-06-13T08:09:11Z</time>
<ele>178.60</ele>
<name><![CDATA[Point 65]]></name>
</rtept>
<rtept lat="25.048477" lon="121.785957">
<time>2011-06-13T08:09:16Z</time>
<ele>178.83</ele>
<name><![CDATA[Point 66]]></name>
</rtept>
<rtept lat="25.048475" lon="121.785889">
<time>2011-06-13T08:09:21Z</time>
<ele>179.10</ele>
<name><![CDATA[Point 67]]></name>
</rtept>
<rtept lat="25.048494" lon="121.785828">
<time>2011-06-13T08:09:26Z</time>
<ele>179.91</ele>
<name><![CDATA[Point 68]]></name>
</rtept>
<rtept lat="25.048504" lon="121.785759">
<time>2011-06-13T08:09:31Z</time>
<ele>180.56</ele>
<name><![CDATA[Point 69]]></name>
</rtept>
<rtept lat="25.048597" lon="121.785767">
<time>2011-06-13T08:09:36Z</time>
<ele>183.25</ele>
<name><![CDATA[Point 70]]></name>
</rtept>
<rtept lat="25.048597" lon="121.785736">
<time>2011-06-13T08:09:41Z</time>
<ele>184.33</ele>
<name><![CDATA[Point 71]]></name>
</rtept>
<rtept lat="25.048590" lon="121.785713">
<time>2011-06-13T08:09:46Z</time>
<ele>186.69</ele>
<name><![CDATA[Point 72]]></name>
</rtept>
<rtept lat="25.048588" lon="121.785713">
<time>2011-06-13T08:09:51Z</time>
<ele>186.41</ele>
<name><![CDATA[Point 73]]></name>
</rtept>
<rtept lat="25.048586" lon="121.785698">
<time>2011-06-13T08:09:56Z</time>
<ele>186.47</ele>
<name><![CDATA[Point 74]]></name>
</rtept>
<rtept lat="25.048582" lon="121.785690">
<time>2011-06-13T08:10:01Z</time>
<ele>186.49</ele>
<name><![CDATA[Point 75]]></name>
</rtept>
<rtept lat="25.048576" lon="121.785698">
<time>2011-06-13T08:10:06Z</time>
<ele>186.50</ele>
<name><![CDATA[Point 76]]></name>
</rtept>
<rtept lat="25.048544" lon="121.785683">
<time>2011-06-13T08:10:11Z</time>
<ele>186.23</ele>
<name><![CDATA[Point 77]]></name>
</rtept>
<rtept lat="25.048517" lon="121.785698">
<time>2011-06-13T08:10:16Z</time>
<ele>186.28</ele>
<name><![CDATA[Point 78]]></name>
</rtept>
<rtept lat="25.048502" lon="121.785706">
<time>2011-06-13T08:10:21Z</time>
<ele>186.65</ele>
<name><![CDATA[Point 79]]></name>
</rtept>
<rtept lat="25.048487" lon="121.785675">
<time>2011-06-13T08:10:26Z</time>
<ele>185.88</ele>
<name><![CDATA[Point 80]]></name>
</rtept>
<rtept lat="25.048506" lon="121.785675">
<time>2011-06-13T08:10:31Z</time>
<ele>185.83</ele>
<name><![CDATA[Point 81]]></name>
</rtept>
<rtept lat="25.048586" lon="121.785645">
<time>2011-06-13T08:10:36Z</time>
<ele>186.52</ele>
<name><![CDATA[Point 82]]></name>
</rtept>
<rtept lat="25.048624" lon="121.785599">
<time>2011-06-13T08:10:41Z</time>
<ele>186.54</ele>
<name><![CDATA[Point 83]]></name>
</rtept>
<rtept lat="25.048622" lon="121.785545">
<time>2011-06-13T08:10:46Z</time>
<ele>186.51</ele>
<name><![CDATA[Point 84]]></name>
</rtept>
<rtept lat="25.048658" lon="121.785515">
<time>2011-06-13T08:10:51Z</time>
<ele>185.06</ele>
<name><![CDATA[Point 85]]></name>
</rtept>
<rtept lat="25.048695" lon="121.785469">
<time>2011-06-13T08:10:56Z</time>
<ele>184.23</ele>
<name><![CDATA[Point 86]]></name>
</rtept>
<rtept lat="25.048712" lon="121.785400">
<time>2011-06-13T08:11:01Z</time>
<ele>183.02</ele>
<name><![CDATA[Point 87]]></name>
</rtept>
<rtept lat="25.048716" lon="121.785347">
<time>2011-06-13T08:11:06Z</time>
<ele>181.34</ele>
<name><![CDATA[Point 88]]></name>
</rtept>
<rtept lat="25.048731" lon="121.785248">
<time>2011-06-13T08:11:11Z</time>
<ele>180.84</ele>
<name><![CDATA[Point 89]]></name>
</rtept>
<rtept lat="25.048733" lon="121.785179">
<time>2011-06-13T08:11:16Z</time>
<ele>177.93</ele>
<name><![CDATA[Point 90]]></name>
</rtept>
<rtept lat="25.048729" lon="121.785095">
<time>2011-06-13T08:11:21Z</time>
<ele>177.21</ele>
<name><![CDATA[Point 91]]></name>
</rtept>
<rtept lat="25.048756" lon="121.785004">
<time>2011-06-13T08:11:26Z</time>
<ele>176.23</ele>
<name><![CDATA[Point 92]]></name>
</rtept>
<rtept lat="25.048794" lon="121.784927">
<time>2011-06-13T08:11:31Z</time>
<ele>175.25</ele>
<name><![CDATA[Point 93]]></name>
</rtept>
<rtept lat="25.048798" lon="121.784866">
<time>2011-06-13T08:11:36Z</time>
<ele>174.99</ele>
<name><![CDATA[Point 94]]></name>
</rtept>
<rtept lat="25.048798" lon="121.784798">
<time>2011-06-13T08:11:41Z</time>
<ele>174.74</ele>
<name><![CDATA[Point 95]]></name>
</rtept>
<rtept lat="25.048826" lon="121.784744">
<time>2011-06-13T08:11:46Z</time>
<ele>176.54</ele>
<name><![CDATA[Point 96]]></name>
</rtept>
<rtept lat="25.048845" lon="121.784721">
<time>2011-06-13T08:11:51Z</time>
<ele>177.52</ele>
<name><![CDATA[Point 97]]></name>
</rtept>
<rtept lat="25.048849" lon="121.784706">
<time>2011-06-13T08:11:56Z</time>
<ele>177.16</ele>
<name><![CDATA[Point 98]]></name>
</rtept>
<rtept lat="25.048851" lon="121.784706">
<time>2011-06-13T08:12:01Z</time>
<ele>177.26</ele>
<name><![CDATA[Point 99]]></name>
</rtept>
<rtept lat="25.048853" lon="121.784698">
<time>2011-06-13T08:12:06Z</time>
<ele>177.32</ele>
<name><![CDATA[Point 100]]></name>
</rtept>
<rtept lat="25.048868" lon="121.784729">
<time>2011-06-13T08:12:11Z</time>
<ele>178.27</ele>
<name><![CDATA[Point 101]]></name>
</rtept>
<rtept lat="25.048861" lon="121.784729">
<time>2011-06-13T08:12:16Z</time>
<ele>179.26</ele>
<name><![CDATA[Point 102]]></name>
</rtept>
<rtept lat="25.048832" lon="121.784737">
<time>2011-06-13T08:12:21Z</time>
<ele>179.50</ele>
<name><![CDATA[Point 103]]></name>
</rtept>
<rtept lat="25.048780" lon="121.784767">
<time>2011-06-13T08:12:26Z</time>
<ele>179.56</ele>
<name><![CDATA[Point 104]]></name>
</rtept>
<rtept lat="25.048779" lon="121.784782">
<time>2011-06-13T08:12:31Z</time>
<ele>178.68</ele>
<name><![CDATA[Point 105]]></name>
</rtept>
<rtept lat="25.048786" lon="121.784767">
<time>2011-06-13T08:12:36Z</time>
<ele>178.03</ele>
<name><![CDATA[Point 106]]></name>
</rtept>
<rtept lat="25.048779" lon="121.784767">
<time>2011-06-13T08:12:41Z</time>
<ele>177.49</ele>
<name><![CDATA[Point 107]]></name>
</rtept>
<rtept lat="25.048763" lon="121.784790">
<time>2011-06-13T08:12:46Z</time>
<ele>177.37</ele>
<name><![CDATA[Point 108]]></name>
</rtept>
<rtept lat="25.048771" lon="121.784843">
<time>2011-06-13T08:12:51Z</time>
<ele>177.11</ele>
<name><![CDATA[Point 109]]></name>
</rtept>
<rtept lat="25.048769" lon="121.784843">
<time>2011-06-13T08:12:56Z</time>
<ele>177.62</ele>
<name><![CDATA[Point 110]]></name>
</rtept>
<rtept lat="25.048761" lon="121.784843">
<time>2011-06-13T08:13:01Z</time>
<ele>177.74</ele>
<name><![CDATA[Point 111]]></name>
</rtept>
<rtept lat="25.048759" lon="121.784851">
<time>2011-06-13T08:13:06Z</time>
<ele>177.53</ele>
<name><![CDATA[Point 112]]></name>
</rtept>
<rtept lat="25.048748" lon="121.784866">
<time>2011-06-13T08:13:11Z</time>
<ele>177.35</ele>
<name><![CDATA[Point 113]]></name>
</rtept>
<rtept lat="25.048738" lon="121.784874">
<time>2011-06-13T08:13:16Z</time>
<ele>177.36</ele>
<name><![CDATA[Point 114]]></name>
</rtept>
<rtept lat="25.048677" lon="121.784912">
<time>2011-06-13T08:13:21Z</time>
<ele>177.20</ele>
<name><![CDATA[Point 115]]></name>
</rtept>
<rtept lat="25.048683" lon="121.784966">
<time>2011-06-13T08:13:26Z</time>
<ele>176.94</ele>
<name><![CDATA[Point 116]]></name>
</rtept>
<rtept lat="25.048643" lon="121.784988">
<time>2011-06-13T08:13:31Z</time>
<ele>176.71</ele>
<name><![CDATA[Point 117]]></name>
</rtept>
<rtept lat="25.048550" lon="121.784966">
<time>2011-06-13T08:13:36Z</time>
<ele>176.52</ele>
<name><![CDATA[Point 118]]></name>
</rtept>
<rtept lat="25.048489" lon="121.784912">
<time>2011-06-13T08:13:41Z</time>
<ele>176.06</ele>
<name><![CDATA[Point 119]]></name>
</rtept>
<rtept lat="25.048418" lon="121.784904">
<time>2011-06-13T08:13:46Z</time>
<ele>175.73</ele>
<name><![CDATA[Point 120]]></name>
</rtept>
<rtept lat="25.048372" lon="121.784889">
<time>2011-06-13T08:13:51Z</time>
<ele>175.96</ele>
<name><![CDATA[Point 121]]></name>
</rtept>
<rtept lat="25.048300" lon="121.784843">
<time>2011-06-13T08:13:56Z</time>
<ele>176.16</ele>
<name><![CDATA[Point 122]]></name>
</rtept>
<rtept lat="25.048258" lon="121.784767">
<time>2011-06-13T08:14:01Z</time>
<ele>176.20</ele>
<name><![CDATA[Point 123]]></name>
</rtept>
<rtept lat="25.048201" lon="121.784737">
<time>2011-06-13T08:14:06Z</time>
<ele>176.05</ele>
<name><![CDATA[Point 124]]></name>
</rtept>
<rtept lat="25.048138" lon="121.784752">
<time>2011-06-13T08:14:11Z</time>
<ele>175.54</ele>
<name><![CDATA[Point 125]]></name>
</rtept>
<rtept lat="25.048071" lon="121.784737">
<time>2011-06-13T08:14:16Z</time>
<ele>175.54</ele>
<name><![CDATA[Point 126]]></name>
</rtept>
<rtept lat="25.047998" lon="121.784706">
<time>2011-06-13T08:14:21Z</time>
<ele>175.46</ele>
<name><![CDATA[Point 127]]></name>
</rtept>
<rtept lat="25.047920" lon="121.784668">
<time>2011-06-13T08:14:26Z</time>
<ele>175.55</ele>
<name><![CDATA[Point 128]]></name>
</rtept>
<rtept lat="25.047832" lon="121.784653">
<time>2011-06-13T08:14:31Z</time>
<ele>175.14</ele>
<name><![CDATA[Point 129]]></name>
</rtept>
<rtept lat="25.047779" lon="121.784637">
<time>2011-06-13T08:14:36Z</time>
<ele>174.79</ele>
<name><![CDATA[Point 130]]></name>
</rtept>
<rtept lat="25.047728" lon="121.784615">
<time>2011-06-13T08:14:41Z</time>
<ele>174.80</ele>
<name><![CDATA[Point 131]]></name>
</rtept>
<rtept lat="25.047651" lon="121.784592">
<time>2011-06-13T08:14:46Z</time>
<ele>174.56</ele>
<name><![CDATA[Point 132]]></name>
</rtept>
<rtept lat="25.047594" lon="121.784531">
<time>2011-06-13T08:14:51Z</time>
<ele>174.73</ele>
<name><![CDATA[Point 133]]></name>
</rtept>
<rtept lat="25.047523" lon="121.784500">
<time>2011-06-13T08:14:56Z</time>
<ele>174.77</ele>
<name><![CDATA[Point 134]]></name>
</rtept>
<rtept lat="25.047497" lon="121.784447">
<time>2011-06-13T08:15:01Z</time>
<ele>170.41</ele>
<name><![CDATA[Point 135]]></name>
</rtept>
<rtept lat="25.047464" lon="121.784386">
<time>2011-06-13T08:15:06Z</time>
<ele>169.16</ele>
<name><![CDATA[Point 136]]></name>
</rtept>
<rtept lat="25.047426" lon="121.784325">
<time>2011-06-13T08:15:11Z</time>
<ele>168.36</ele>
<name><![CDATA[Point 137]]></name>
</rtept>
<rtept lat="25.047413" lon="121.784256">
<time>2011-06-13T08:15:16Z</time>
<ele>168.06</ele>
<name><![CDATA[Point 138]]></name>
</rtept>
<rtept lat="25.047407" lon="121.784172">
<time>2011-06-13T08:15:21Z</time>
<ele>167.91</ele>
<name><![CDATA[Point 139]]></name>
</rtept>
<rtept lat="25.047445" lon="121.784134">
<time>2011-06-13T08:15:26Z</time>
<ele>167.30</ele>
<name><![CDATA[Point 140]]></name>
</rtept>
<rtept lat="25.047474" lon="121.784088">
<time>2011-06-13T08:15:31Z</time>
<ele>167.04</ele>
<name><![CDATA[Point 141]]></name>
</rtept>
<rtept lat="25.047504" lon="121.784035">
<time>2011-06-13T08:15:36Z</time>
<ele>166.40</ele>
<name><![CDATA[Point 142]]></name>
</rtept>
<rtept lat="25.047504" lon="121.783951">
<time>2011-06-13T08:15:41Z</time>
<ele>166.35</ele>
<name><![CDATA[Point 143]]></name>
</rtept>
<rtept lat="25.047548" lon="121.783928">
<time>2011-06-13T08:15:46Z</time>
<ele>165.98</ele>
<name><![CDATA[Point 144]]></name>
</rtept>
<rtept lat="25.047546" lon="121.783897">
<time>2011-06-13T08:15:51Z</time>
<ele>165.46</ele>
<name><![CDATA[Point 145]]></name>
</rtept>
<rtept lat="25.047585" lon="121.783897">
<time>2011-06-13T08:15:56Z</time>
<ele>166.11</ele>
<name><![CDATA[Point 146]]></name>
</rtept>
<rtept lat="25.047585" lon="121.783890">
<time>2011-06-13T08:16:01Z</time>
<ele>167.03</ele>
<name><![CDATA[Point 147]]></name>
</rtept>
<rtept lat="25.047600" lon="121.783859">
<time>2011-06-13T08:16:06Z</time>
<ele>167.30</ele>
<name><![CDATA[Point 148]]></name>
</rtept>
<rtept lat="25.047569" lon="121.783760">
<time>2011-06-13T08:16:11Z</time>
<ele>169.81</ele>
<name><![CDATA[Point 149]]></name>
</rtept>
<rtept lat="25.047550" lon="121.783714">
<time>2011-06-13T08:16:16Z</time>
<ele>171.80</ele>
<name><![CDATA[Point 150]]></name>
</rtept>
<rtept lat="25.047533" lon="121.783646">
<time>2011-06-13T08:16:21Z</time>
<ele>173.00</ele>
<name><![CDATA[Point 151]]></name>
</rtept>
<rtept lat="25.047522" lon="121.783562">
<time>2011-06-13T08:16:26Z</time>
<ele>174.46</ele>
<name><![CDATA[Point 152]]></name>
</rtept>
<rtept lat="25.047512" lon="121.783524">
<time>2011-06-13T08:16:31Z</time>
<ele>174.28</ele>
<name><![CDATA[Point 153]]></name>
</rtept>
<rtept lat="25.047483" lon="121.783447">
<time>2011-06-13T08:16:36Z</time>
<ele>174.79</ele>
<name><![CDATA[Point 154]]></name>
</rtept>
<rtept lat="25.047459" lon="121.783356">
<time>2011-06-13T08:16:41Z</time>
<ele>175.56</ele>
<name><![CDATA[Point 155]]></name>
</rtept>
<rtept lat="25.047413" lon="121.783279">
<time>2011-06-13T08:16:46Z</time>
<ele>175.95</ele>
<name><![CDATA[Point 156]]></name>
</rtept>
<rtept lat="25.047390" lon="121.783195">
<time>2011-06-13T08:16:51Z</time>
<ele>177.23</ele>
<name><![CDATA[Point 157]]></name>
</rtept>
<rtept lat="25.047380" lon="121.783150">
<time>2011-06-13T08:16:56Z</time>
<ele>177.26</ele>
<name><![CDATA[Point 158]]></name>
</rtept>
<rtept lat="25.047363" lon="121.783119">
<time>2011-06-13T08:17:01Z</time>
<ele>176.93</ele>
<name><![CDATA[Point 159]]></name>
</rtept>
<rtept lat="25.047361" lon="121.783134">
<time>2011-06-13T08:17:06Z</time>
<ele>176.29</ele>
<name><![CDATA[Point 160]]></name>
</rtept>
<rtept lat="25.047375" lon="121.783173">
<time>2011-06-13T08:17:11Z</time>
<ele>175.38</ele>
<name><![CDATA[Point 161]]></name>
</rtept>
<rtept lat="25.047375" lon="121.783157">
<time>2011-06-13T08:17:16Z</time>
<ele>175.10</ele>
<name><![CDATA[Point 162]]></name>
</rtept>
<rtept lat="25.047398" lon="121.783188">
<time>2011-06-13T08:17:21Z</time>
<ele>177.08</ele>
<name><![CDATA[Point 163]]></name>
</rtept>
<rtept lat="25.047403" lon="121.783203">
<time>2011-06-13T08:17:26Z</time>
<ele>176.65</ele>
<name><![CDATA[Point 164]]></name>
</rtept>
<rtept lat="25.047411" lon="121.783203">
<time>2011-06-13T08:17:31Z</time>
<ele>176.63</ele>
<name><![CDATA[Point 165]]></name>
</rtept>
<rtept lat="25.047384" lon="121.783211">
<time>2011-06-13T08:17:36Z</time>
<ele>176.24</ele>
<name><![CDATA[Point 166]]></name>
</rtept>
<rtept lat="25.047382" lon="121.783203">
<time>2011-06-13T08:17:41Z</time>
<ele>176.04</ele>
<name><![CDATA[Point 167]]></name>
</rtept>
<rtept lat="25.047342" lon="121.783134">
<time>2011-06-13T08:17:46Z</time>
<ele>176.99</ele>
<name><![CDATA[Point 168]]></name>
</rtept>
<rtept lat="25.047361" lon="121.783089">
<time>2011-06-13T08:17:51Z</time>
<ele>176.90</ele>
<name><![CDATA[Point 169]]></name>
</rtept>
<rtept lat="25.047356" lon="121.783081">
<time>2011-06-13T08:17:56Z</time>
<ele>176.36</ele>
<name><![CDATA[Point 170]]></name>
</rtept>
<rtept lat="25.047361" lon="121.783043">
<time>2011-06-13T08:18:01Z</time>
<ele>176.57</ele>
<name><![CDATA[Point 171]]></name>
</rtept>
<rtept lat="25.047386" lon="121.783020">
<time>2011-06-13T08:18:06Z</time>
<ele>176.63</ele>
<name><![CDATA[Point 172]]></name>
</rtept>
<rtept lat="25.047436" lon="121.783012">
<time>2011-06-13T08:18:11Z</time>
<ele>176.79</ele>
<name><![CDATA[Point 173]]></name>
</rtept>
<rtept lat="25.047447" lon="121.782951">
<time>2011-06-13T08:18:16Z</time>
<ele>176.77</ele>
<name><![CDATA[Point 174]]></name>
</rtept>
<rtept lat="25.047451" lon="121.782883">
<time>2011-06-13T08:18:21Z</time>
<ele>178.27</ele>
<name><![CDATA[Point 175]]></name>
</rtept>
<rtept lat="25.047464" lon="121.782845">
<time>2011-06-13T08:18:26Z</time>
<ele>178.70</ele>
<name><![CDATA[Point 176]]></name>
</rtept>
<rtept lat="25.047445" lon="121.782799">
<time>2011-06-13T08:18:31Z</time>
<ele>178.97</ele>
<name><![CDATA[Point 177]]></name>
</rtept>
<rtept lat="25.047409" lon="121.782768">
<time>2011-06-13T08:18:36Z</time>
<ele>179.01</ele>
<name><![CDATA[Point 178]]></name>
</rtept>
<rtept lat="25.047394" lon="121.782784">
<time>2011-06-13T08:18:41Z</time>
<ele>179.34</ele>
<name><![CDATA[Point 179]]></name>
</rtept>
<rtept lat="25.047384" lon="121.782784">
<time>2011-06-13T08:18:46Z</time>
<ele>179.45</ele>
<name><![CDATA[Point 180]]></name>
</rtept>
<rtept lat="25.047363" lon="121.782761">
<time>2011-06-13T08:18:51Z</time>
<ele>179.41</ele>
<name><![CDATA[Point 181]]></name>
</rtept>
<rtept lat="25.047338" lon="121.782715">
<time>2011-06-13T08:18:56Z</time>
<ele>179.40</ele>
<name><![CDATA[Point 182]]></name>
</rtept>
<rtept lat="25.047327" lon="121.782677">
<time>2011-06-13T08:19:01Z</time>
<ele>179.36</ele>
<name><![CDATA[Point 183]]></name>
</rtept>
<rtept lat="25.047295" lon="121.782661">
<time>2011-06-13T08:19:06Z</time>
<ele>179.31</ele>
<name><![CDATA[Point 184]]></name>
</rtept>
<rtept lat="25.047251" lon="121.782639">
<time>2011-06-13T08:19:11Z</time>
<ele>179.24</ele>
<name><![CDATA[Point 185]]></name>
</rtept>
<rtept lat="25.047232" lon="121.782669">
<time>2011-06-13T08:19:16Z</time>
<ele>179.18</ele>
<name><![CDATA[Point 186]]></name>
</rtept>
<rtept lat="25.047318" lon="121.782867">
<time>2011-06-13T08:19:21Z</time>
<ele>179.20</ele>
<name><![CDATA[Point 187]]></name>
</rtept>
<rtept lat="25.047356" lon="121.782921">
<time>2011-06-13T08:19:26Z</time>
<ele>179.11</ele>
<name><![CDATA[Point 188]]></name>
</rtept>
<rtept lat="25.047432" lon="121.782883">
<time>2011-06-13T08:19:31Z</time>
<ele>178.82</ele>
<name><![CDATA[Point 189]]></name>
</rtept>
<rtept lat="25.047506" lon="121.782890">
<time>2011-06-13T08:19:36Z</time>
<ele>178.70</ele>
<name><![CDATA[Point 190]]></name>
</rtept>
<rtept lat="25.047575" lon="121.782898">
<time>2011-06-13T08:19:41Z</time>
<ele>178.99</ele>
<name><![CDATA[Point 191]]></name>
</rtept>
<rtept lat="25.047611" lon="121.782852">
<time>2011-06-13T08:19:46Z</time>
<ele>178.29</ele>
<name><![CDATA[Point 192]]></name>
</rtept>
<rtept lat="25.047596" lon="121.782883">
<time>2011-06-13T08:19:51Z</time>
<ele>178.05</ele>
<name><![CDATA[Point 193]]></name>
</rtept>
<rtept lat="25.047598" lon="121.782928">
<time>2011-06-13T08:19:56Z</time>
<ele>177.82</ele>
<name><![CDATA[Point 194]]></name>
</rtept>
<rtept lat="25.047571" lon="121.782967">
<time>2011-06-13T08:20:01Z</time>
<ele>177.52</ele>
<name><![CDATA[Point 195]]></name>
</rtept>
<rtept lat="25.047560" lon="121.782982">
<time>2011-06-13T08:20:06Z</time>
<ele>177.23</ele>
<name><![CDATA[Point 196]]></name>
</rtept>
<rtept lat="25.047541" lon="121.783005">
<time>2011-06-13T08:20:11Z</time>
<ele>177.17</ele>
<name><![CDATA[Point 197]]></name>
</rtept>
</rte>
</gpx>
