<?xml version="1.0"?>
<gpx
version="1.0"
creator="Holux Utility"
xmlns:xsi="http://www.w3.org/2001/XMLSchema-instance"
xmlns="http://www.topografix.com/GPX/1/0"
xsi:schemaLocation="http://www.topografix.com/GPX/1/0 http://www.topografix.com/GPX/1/0/gpx.xsd">
<wpt lat="22.110388" lon="120.866524">
<time>2011-06-19T06:25:40Z</time>
<ele>60.42</ele>
<name><![CDATA[Point 0]]></name>
</wpt>
<wpt lat="22.110346" lon="120.866539">
<time>2011-06-19T06:25:45Z</time>
<ele>62.79</ele>
<name><![CDATA[Point 1]]></name>
</wpt>
<wpt lat="22.110344" lon="120.866539">
<time>2011-06-19T06:25:50Z</time>
<ele>62.95</ele>
<name><![CDATA[Point 2]]></name>
</wpt>
<wpt lat="22.110338" lon="120.866539">
<time>2011-06-19T06:25:55Z</time>
<ele>63.17</ele>
<name><![CDATA[Point 3]]></name>
</wpt>
<wpt lat="22.110283" lon="120.866486">
<time>2011-06-19T06:26:00Z</time>
<ele>63.13</ele>
<name><![CDATA[Point 4]]></name>
</wpt>
<wpt lat="22.110241" lon="120.866447">
<time>2011-06-19T06:26:05Z</time>
<ele>63.48</ele>
<name><![CDATA[Point 5]]></name>
</wpt>
<wpt lat="22.110229" lon="120.866432">
<time>2011-06-19T06:26:10Z</time>
<ele>64.52</ele>
<name><![CDATA[Point 6]]></name>
</wpt>
<wpt lat="22.110195" lon="120.866417">
<time>2011-06-19T06:26:15Z</time>
<ele>64.62</ele>
<name><![CDATA[Point 7]]></name>
</wpt>
<wpt lat="22.110186" lon="120.866409">
<time>2011-06-19T06:26:20Z</time>
<ele>64.57</ele>
<name><![CDATA[Point 8]]></name>
</wpt>
<wpt lat="22.110176" lon="120.866409">
<time>2011-06-19T06:26:25Z</time>
<ele>64.52</ele>
<name><![CDATA[Point 9]]></name>
</wpt>
<wpt lat="22.110167" lon="120.866409">
<time>2011-06-19T06:26:30Z</time>
<ele>64.60</ele>
<name><![CDATA[Point 10]]></name>
</wpt>
<wpt lat="22.110155" lon="120.866409">
<time>2011-06-19T06:26:35Z</time>
<ele>64.72</ele>
<name><![CDATA[Point 11]]></name>
</wpt>
<wpt lat="22.110147" lon="120.866409">
<time>2011-06-19T06:26:40Z</time>
<ele>64.81</ele>
<name><![CDATA[Point 12]]></name>
</wpt>
<wpt lat="22.110142" lon="120.866409">
<time>2011-06-19T06:26:45Z</time>
<ele>64.90</ele>
<name><![CDATA[Point 13]]></name>
</wpt>
<wpt lat="22.110136" lon="120.866409">
<time>2011-06-19T06:26:50Z</time>
<ele>64.97</ele>
<name><![CDATA[Point 14]]></name>
</wpt>
<wpt lat="22.110132" lon="120.866409">
<time>2011-06-19T06:26:55Z</time>
<ele>65.03</ele>
<name><![CDATA[Point 15]]></name>
</wpt>
<wpt lat="22.110128" lon="120.866409">
<time>2011-06-19T06:27:00Z</time>
<ele>65.08</ele>
<name><![CDATA[Point 16]]></name>
</wpt>
<wpt lat="22.110123" lon="120.866409">
<time>2011-06-19T06:27:05Z</time>
<ele>65.08</ele>
<name><![CDATA[Point 17]]></name>
</wpt>
<wpt lat="22.110121" lon="120.866417">
<time>2011-06-19T06:27:10Z</time>
<ele>65.14</ele>
<name><![CDATA[Point 18]]></name>
</wpt>
<wpt lat="22.110121" lon="120.866417">
<time>2011-06-19T06:27:15Z</time>
<ele>65.29</ele>
<name><![CDATA[Point 19]]></name>
</wpt>
<wpt lat="22.110125" lon="120.866425">
<time>2011-06-19T06:27:20Z</time>
<ele>65.50</ele>
<name><![CDATA[Point 20]]></name>
</wpt>
<wpt lat="22.110125" lon="120.866425">
<time>2011-06-19T06:27:25Z</time>
<ele>65.70</ele>
<name><![CDATA[Point 21]]></name>
</wpt>
<wpt lat="22.110121" lon="120.866425">
<time>2011-06-19T06:27:30Z</time>
<ele>65.89</ele>
<name><![CDATA[Point 22]]></name>
</wpt>
<wpt lat="22.110115" lon="120.866432">
<time>2011-06-19T06:27:35Z</time>
<ele>66.04</ele>
<name><![CDATA[Point 23]]></name>
</wpt>
<wpt lat="22.110115" lon="120.866425">
<time>2011-06-19T06:27:40Z</time>
<ele>66.15</ele>
<name><![CDATA[Point 24]]></name>
</wpt>
<wpt lat="22.110111" lon="120.866417">
<time>2011-06-19T06:27:45Z</time>
<ele>66.34</ele>
<name><![CDATA[Point 25]]></name>
</wpt>
<wpt lat="22.110048" lon="120.866341">
<time>2011-06-19T06:27:50Z</time>
<ele>67.24</ele>
<name><![CDATA[Point 26]]></name>
</wpt>
<wpt lat="22.109961" lon="120.866226">
<time>2011-06-19T06:27:55Z</time>
<ele>66.97</ele>
<name><![CDATA[Point 27]]></name>
</wpt>
<wpt lat="22.109919" lon="120.866096">
<time>2011-06-19T06:28:00Z</time>
<ele>64.77</ele>
<name><![CDATA[Point 28]]></name>
</wpt>
<wpt lat="22.109863" lon="120.865990">
<time>2011-06-19T06:28:05Z</time>
<ele>63.74</ele>
<name><![CDATA[Point 29]]></name>
</wpt>
<wpt lat="22.109840" lon="120.865891">
<time>2011-06-19T06:28:10Z</time>
<ele>61.09</ele>
<name><![CDATA[Point 30]]></name>
</wpt>
<wpt lat="22.109804" lon="120.865814">
<time>2011-06-19T06:28:15Z</time>
<ele>60.50</ele>
<name><![CDATA[Point 31]]></name>
</wpt>
<wpt lat="22.109732" lon="120.865707">
<time>2011-06-19T06:28:20Z</time>
<ele>60.82</ele>
<name><![CDATA[Point 32]]></name>
</wpt>
<wpt lat="22.109636" lon="120.865601">
<time>2011-06-19T06:28:25Z</time>
<ele>60.89</ele>
<name><![CDATA[Point 33]]></name>
</wpt>
<wpt lat="22.109552" lon="120.865509">
<time>2011-06-19T06:28:30Z</time>
<ele>61.25</ele>
<name><![CDATA[Point 34]]></name>
</wpt>
<wpt lat="22.109467" lon="120.865387">
<time>2011-06-19T06:28:35Z</time>
<ele>62.71</ele>
<name><![CDATA[Point 35]]></name>
</wpt>
<wpt lat="22.109411" lon="120.865227">
<time>2011-06-19T06:28:40Z</time>
<ele>63.09</ele>
<name><![CDATA[Point 36]]></name>
</wpt>
<wpt lat="22.109316" lon="120.865105">
<time>2011-06-19T06:28:45Z</time>
<ele>64.08</ele>
<name><![CDATA[Point 37]]></name>
</wpt>
<wpt lat="22.109217" lon="120.865021">
<time>2011-06-19T06:28:50Z</time>
<ele>67.28</ele>
<name><![CDATA[Point 38]]></name>
</wpt>
<wpt lat="22.109106" lon="120.864937">
<time>2011-06-19T06:28:55Z</time>
<ele>69.66</ele>
<name><![CDATA[Point 39]]></name>
</wpt>
<wpt lat="22.108988" lon="120.864822">
<time>2011-06-19T06:29:00Z</time>
<ele>68.97</ele>
<name><![CDATA[Point 40]]></name>
</wpt>
<wpt lat="22.108881" lon="120.864731">
<time>2011-06-19T06:29:05Z</time>
<ele>69.89</ele>
<name><![CDATA[Point 41]]></name>
</wpt>
<wpt lat="22.108789" lon="120.864647">
<time>2011-06-19T06:29:10Z</time>
<ele>71.90</ele>
<name><![CDATA[Point 42]]></name>
</wpt>
<wpt lat="22.108694" lon="120.864532">
<time>2011-06-19T06:29:15Z</time>
<ele>72.69</ele>
<name><![CDATA[Point 43]]></name>
</wpt>
<wpt lat="22.108616" lon="120.864388">
<time>2011-06-19T06:29:20Z</time>
<ele>73.30</ele>
<name><![CDATA[Point 44]]></name>
</wpt>
<wpt lat="22.108555" lon="120.864227">
<time>2011-06-19T06:29:25Z</time>
<ele>73.22</ele>
<name><![CDATA[Point 45]]></name>
</wpt>
<wpt lat="22.108526" lon="120.864075">
<time>2011-06-19T06:29:30Z</time>
<ele>74.70</ele>
<name><![CDATA[Point 46]]></name>
</wpt>
<wpt lat="22.108519" lon="120.863914">
<time>2011-06-19T06:29:35Z</time>
<ele>73.50</ele>
<name><![CDATA[Point 47]]></name>
</wpt>
<wpt lat="22.108507" lon="120.863777">
<time>2011-06-19T06:29:40Z</time>
<ele>74.90</ele>
<name><![CDATA[Point 48]]></name>
</wpt>
<wpt lat="22.108488" lon="120.863625">
<time>2011-06-19T06:29:45Z</time>
<ele>74.48</ele>
<name><![CDATA[Point 49]]></name>
</wpt>
<wpt lat="22.108479" lon="120.863472">
<time>2011-06-19T06:29:50Z</time>
<ele>74.88</ele>
<name><![CDATA[Point 50]]></name>
</wpt>
<wpt lat="22.108467" lon="120.863312">
<time>2011-06-19T06:29:55Z</time>
<ele>75.38</ele>
<name><![CDATA[Point 51]]></name>
</wpt>
<wpt lat="22.108450" lon="120.863129">
<time>2011-06-19T06:30:00Z</time>
<ele>75.16</ele>
<name><![CDATA[Point 52]]></name>
</wpt>
<wpt lat="22.108505" lon="120.862930">
<time>2011-06-19T06:30:05Z</time>
<ele>73.37</ele>
<name><![CDATA[Point 53]]></name>
</wpt>
<wpt lat="22.108578" lon="120.862755">
<time>2011-06-19T06:30:10Z</time>
<ele>71.68</ele>
<name><![CDATA[Point 54]]></name>
</wpt>
<wpt lat="22.108620" lon="120.862595">
<time>2011-06-19T06:30:15Z</time>
<ele>69.21</ele>
<name><![CDATA[Point 55]]></name>
</wpt>
<wpt lat="22.108679" lon="120.862442">
<time>2011-06-19T06:30:20Z</time>
<ele>67.25</ele>
<name><![CDATA[Point 56]]></name>
</wpt>
<wpt lat="22.108667" lon="120.862289">
<time>2011-06-19T06:30:25Z</time>
<ele>66.84</ele>
<name><![CDATA[Point 57]]></name>
</wpt>
<wpt lat="22.108580" lon="120.862076">
<time>2011-06-19T06:30:30Z</time>
<ele>66.40</ele>
<name><![CDATA[Point 58]]></name>
</wpt>
<wpt lat="22.108467" lon="120.861900">
<time>2011-06-19T06:30:35Z</time>
<ele>68.63</ele>
<name><![CDATA[Point 59]]></name>
</wpt>
<wpt lat="22.108315" lon="120.861740">
<time>2011-06-19T06:30:40Z</time>
<ele>72.52</ele>
<name><![CDATA[Point 60]]></name>
</wpt>
<wpt lat="22.108240" lon="120.861610">
<time>2011-06-19T06:30:45Z</time>
<ele>73.35</ele>
<name><![CDATA[Point 61]]></name>
</wpt>
<wpt lat="22.108150" lon="120.861488">
<time>2011-06-19T06:30:50Z</time>
<ele>72.59</ele>
<name><![CDATA[Point 62]]></name>
</wpt>
<wpt lat="22.108120" lon="120.861351">
<time>2011-06-19T06:30:55Z</time>
<ele>72.46</ele>
<name><![CDATA[Point 63]]></name>
</wpt>
<wpt lat="22.108078" lon="120.861198">
<time>2011-06-19T06:31:00Z</time>
<ele>74.63</ele>
<name><![CDATA[Point 64]]></name>
</wpt>
<wpt lat="22.108009" lon="120.861038">
<time>2011-06-19T06:31:05Z</time>
<ele>78.43</ele>
<name><![CDATA[Point 65]]></name>
</wpt>
<wpt lat="22.107962" lon="120.860916">
<time>2011-06-19T06:31:10Z</time>
<ele>79.82</ele>
<name><![CDATA[Point 66]]></name>
</wpt>
<wpt lat="22.107859" lon="120.860817">
<time>2011-06-19T06:31:15Z</time>
<ele>82.33</ele>
<name><![CDATA[Point 67]]></name>
</wpt>
<wpt lat="22.107771" lon="120.860741">
<time>2011-06-19T06:31:20Z</time>
<ele>81.07</ele>
<name><![CDATA[Point 68]]></name>
</wpt>
<wpt lat="22.107697" lon="120.860695">
<time>2011-06-19T06:31:25Z</time>
<ele>81.27</ele>
<name><![CDATA[Point 69]]></name>
</wpt>
<wpt lat="22.107567" lon="120.860657">
<time>2011-06-19T06:31:30Z</time>
<ele>80.95</ele>
<name><![CDATA[Point 70]]></name>
</wpt>
<wpt lat="22.107410" lon="120.860649">
<time>2011-06-19T06:31:35Z</time>
<ele>79.60</ele>
<name><![CDATA[Point 71]]></name>
</wpt>
<wpt lat="22.107298" lon="120.860695">
<time>2011-06-19T06:31:40Z</time>
<ele>80.27</ele>
<name><![CDATA[Point 72]]></name>
</wpt>
<wpt lat="22.107180" lon="120.860710">
<time>2011-06-19T06:31:45Z</time>
<ele>81.03</ele>
<name><![CDATA[Point 73]]></name>
</wpt>
<wpt lat="22.107061" lon="120.860687">
<time>2011-06-19T06:31:50Z</time>
<ele>82.49</ele>
<name><![CDATA[Point 74]]></name>
</wpt>
<wpt lat="22.106953" lon="120.860641">
<time>2011-06-19T06:31:55Z</time>
<ele>84.54</ele>
<name><![CDATA[Point 75]]></name>
</wpt>
<wpt lat="22.106869" lon="120.860573">
<time>2011-06-19T06:32:00Z</time>
<ele>85.62</ele>
<name><![CDATA[Point 76]]></name>
</wpt>
<wpt lat="22.106775" lon="120.860519">
<time>2011-06-19T06:32:05Z</time>
<ele>87.86</ele>
<name><![CDATA[Point 77]]></name>
</wpt>
<wpt lat="22.106731" lon="120.860420">
<time>2011-06-19T06:32:10Z</time>
<ele>87.73</ele>
<name><![CDATA[Point 78]]></name>
</wpt>
<wpt lat="22.106726" lon="120.860306">
<time>2011-06-19T06:32:15Z</time>
<ele>89.60</ele>
<name><![CDATA[Point 79]]></name>
</wpt>
<wpt lat="22.106802" lon="120.860191">
<time>2011-06-19T06:32:20Z</time>
<ele>88.17</ele>
<name><![CDATA[Point 80]]></name>
</wpt>
<wpt lat="22.106894" lon="120.860107">
<time>2011-06-19T06:32:25Z</time>
<ele>87.85</ele>
<name><![CDATA[Point 81]]></name>
</wpt>
<wpt lat="22.106993" lon="120.860039">
<time>2011-06-19T06:32:30Z</time>
<ele>87.77</ele>
<name><![CDATA[Point 82]]></name>
</wpt>
<wpt lat="22.107084" lon="120.859962">
<time>2011-06-19T06:32:35Z</time>
<ele>87.24</ele>
<name><![CDATA[Point 83]]></name>
</wpt>
<wpt lat="22.107138" lon="120.859863">
<time>2011-06-19T06:32:40Z</time>
<ele>88.15</ele>
<name><![CDATA[Point 84]]></name>
</wpt>
<wpt lat="22.107141" lon="120.859749">
<time>2011-06-19T06:32:45Z</time>
<ele>88.79</ele>
<name><![CDATA[Point 85]]></name>
</wpt>
<wpt lat="22.107111" lon="120.859627">
<time>2011-06-19T06:32:50Z</time>
<ele>89.20</ele>
<name><![CDATA[Point 86]]></name>
</wpt>
<wpt lat="22.107031" lon="120.859520">
<time>2011-06-19T06:32:55Z</time>
<ele>89.42</ele>
<name><![CDATA[Point 87]]></name>
</wpt>
<wpt lat="22.106930" lon="120.859436">
<time>2011-06-19T06:33:00Z</time>
<ele>91.22</ele>
<name><![CDATA[Point 88]]></name>
</wpt>
<wpt lat="22.106842" lon="120.859390">
<time>2011-06-19T06:33:05Z</time>
<ele>93.78</ele>
<name><![CDATA[Point 89]]></name>
</wpt>
<wpt lat="22.106750" lon="120.859360">
<time>2011-06-19T06:33:10Z</time>
<ele>95.48</ele>
<name><![CDATA[Point 90]]></name>
</wpt>
<wpt lat="22.106663" lon="120.859322">
<time>2011-06-19T06:33:15Z</time>
<ele>97.14</ele>
<name><![CDATA[Point 91]]></name>
</wpt>
<wpt lat="22.106606" lon="120.859245">
<time>2011-06-19T06:33:20Z</time>
<ele>98.73</ele>
<name><![CDATA[Point 92]]></name>
</wpt>
<wpt lat="22.106575" lon="120.859161">
<time>2011-06-19T06:33:25Z</time>
<ele>100.03</ele>
<name><![CDATA[Point 93]]></name>
</wpt>
<wpt lat="22.106567" lon="120.859055">
<time>2011-06-19T06:33:30Z</time>
<ele>100.30</ele>
<name><![CDATA[Point 94]]></name>
</wpt>
<wpt lat="22.106583" lon="120.858917">
<time>2011-06-19T06:33:35Z</time>
<ele>99.60</ele>
<name><![CDATA[Point 95]]></name>
</wpt>
<wpt lat="22.106585" lon="120.858765">
<time>2011-06-19T06:33:40Z</time>
<ele>100.29</ele>
<name><![CDATA[Point 96]]></name>
</wpt>
<wpt lat="22.106585" lon="120.858620">
<time>2011-06-19T06:33:45Z</time>
<ele>104.21</ele>
<name><![CDATA[Point 97]]></name>
</wpt>
<wpt lat="22.106585" lon="120.858467">
<time>2011-06-19T06:33:50Z</time>
<ele>107.40</ele>
<name><![CDATA[Point 98]]></name>
</wpt>
<wpt lat="22.106607" lon="120.858315">
<time>2011-06-19T06:33:55Z</time>
<ele>108.04</ele>
<name><![CDATA[Point 99]]></name>
</wpt>
<wpt lat="22.106638" lon="120.858215">
<time>2011-06-19T06:34:00Z</time>
<ele>107.90</ele>
<name><![CDATA[Point 100]]></name>
</wpt>
<wpt lat="22.106667" lon="120.858116">
<time>2011-06-19T06:34:05Z</time>
<ele>105.77</ele>
<name><![CDATA[Point 101]]></name>
</wpt>
<wpt lat="22.106693" lon="120.858025">
<time>2011-06-19T06:34:10Z</time>
<ele>103.28</ele>
<name><![CDATA[Point 102]]></name>
</wpt>
<wpt lat="22.106733" lon="120.857933">
<time>2011-06-19T06:34:15Z</time>
<ele>103.27</ele>
<name><![CDATA[Point 103]]></name>
</wpt>
<wpt lat="22.106787" lon="120.857834">
<time>2011-06-19T06:34:20Z</time>
<ele>103.69</ele>
<name><![CDATA[Point 104]]></name>
</wpt>
<wpt lat="22.106865" lon="120.857773">
<time>2011-06-19T06:34:25Z</time>
<ele>105.36</ele>
<name><![CDATA[Point 105]]></name>
</wpt>
<wpt lat="22.106964" lon="120.857742">
<time>2011-06-19T06:34:30Z</time>
<ele>106.41</ele>
<name><![CDATA[Point 106]]></name>
</wpt>
<wpt lat="22.107046" lon="120.857704">
<time>2011-06-19T06:34:35Z</time>
<ele>108.42</ele>
<name><![CDATA[Point 107]]></name>
</wpt>
<wpt lat="22.107155" lon="120.857681">
<time>2011-06-19T06:34:40Z</time>
<ele>108.96</ele>
<name><![CDATA[Point 108]]></name>
</wpt>
<wpt lat="22.107252" lon="120.857536">
<time>2011-06-19T06:34:45Z</time>
<ele>111.06</ele>
<name><![CDATA[Point 109]]></name>
</wpt>
<wpt lat="22.107283" lon="120.857361">
<time>2011-06-19T06:34:50Z</time>
<ele>113.17</ele>
<name><![CDATA[Point 110]]></name>
</wpt>
<wpt lat="22.107248" lon="120.857224">
<time>2011-06-19T06:34:55Z</time>
<ele>114.99</ele>
<name><![CDATA[Point 111]]></name>
</wpt>
<wpt lat="22.107180" lon="120.857140">
<time>2011-06-19T06:35:00Z</time>
<ele>115.50</ele>
<name><![CDATA[Point 112]]></name>
</wpt>
<wpt lat="22.107105" lon="120.857033">
<time>2011-06-19T06:35:05Z</time>
<ele>116.84</ele>
<name><![CDATA[Point 113]]></name>
</wpt>
<wpt lat="22.107044" lon="120.856918">
<time>2011-06-19T06:35:10Z</time>
<ele>118.83</ele>
<name><![CDATA[Point 114]]></name>
</wpt>
<wpt lat="22.107054" lon="120.856796">
<time>2011-06-19T06:35:15Z</time>
<ele>117.20</ele>
<name><![CDATA[Point 115]]></name>
</wpt>
<wpt lat="22.107090" lon="120.856659">
<time>2011-06-19T06:35:20Z</time>
<ele>116.89</ele>
<name><![CDATA[Point 116]]></name>
</wpt>
<wpt lat="22.107201" lon="120.856598">
<time>2011-06-19T06:35:25Z</time>
<ele>117.61</ele>
<name><![CDATA[Point 117]]></name>
</wpt>
<wpt lat="22.107323" lon="120.856552">
<time>2011-06-19T06:35:30Z</time>
<ele>118.49</ele>
<name><![CDATA[Point 118]]></name>
</wpt>
<wpt lat="22.107450" lon="120.856583">
<time>2011-06-19T06:35:35Z</time>
<ele>117.87</ele>
<name><![CDATA[Point 119]]></name>
</wpt>
<wpt lat="22.107578" lon="120.856613">
<time>2011-06-19T06:35:40Z</time>
<ele>117.95</ele>
<name><![CDATA[Point 120]]></name>
</wpt>
<wpt lat="22.107733" lon="120.856674">
<time>2011-06-19T06:35:45Z</time>
<ele>116.63</ele>
<name><![CDATA[Point 121]]></name>
</wpt>
<wpt lat="22.107857" lon="120.856621">
<time>2011-06-19T06:35:50Z</time>
<ele>117.54</ele>
<name><![CDATA[Point 122]]></name>
</wpt>
<wpt lat="22.107891" lon="120.856445">
<time>2011-06-19T06:35:55Z</time>
<ele>119.44</ele>
<name><![CDATA[Point 123]]></name>
</wpt>
<wpt lat="22.107834" lon="120.856262">
<time>2011-06-19T06:36:00Z</time>
<ele>125.30</ele>
<name><![CDATA[Point 124]]></name>
</wpt>
<wpt lat="22.107761" lon="120.856125">
<time>2011-06-19T06:36:05Z</time>
<ele>126.03</ele>
<name><![CDATA[Point 125]]></name>
</wpt>
<wpt lat="22.107695" lon="120.855972">
<time>2011-06-19T06:36:10Z</time>
<ele>126.75</ele>
<name><![CDATA[Point 126]]></name>
</wpt>
<wpt lat="22.107683" lon="120.855835">
<time>2011-06-19T06:36:15Z</time>
<ele>125.21</ele>
<name><![CDATA[Point 127]]></name>
</wpt>
<wpt lat="22.107759" lon="120.855743">
<time>2011-06-19T06:36:20Z</time>
<ele>124.86</ele>
<name><![CDATA[Point 128]]></name>
</wpt>
<wpt lat="22.107840" lon="120.855621">
<time>2011-06-19T06:36:25Z</time>
<ele>124.91</ele>
<name><![CDATA[Point 129]]></name>
</wpt>
<wpt lat="22.107893" lon="120.855469">
<time>2011-06-19T06:36:30Z</time>
<ele>125.05</ele>
<name><![CDATA[Point 130]]></name>
</wpt>
<wpt lat="22.107897" lon="120.855301">
<time>2011-06-19T06:36:35Z</time>
<ele>126.18</ele>
<name><![CDATA[Point 131]]></name>
</wpt>
<wpt lat="22.107841" lon="120.855179">
<time>2011-06-19T06:36:40Z</time>
<ele>126.98</ele>
<name><![CDATA[Point 132]]></name>
</wpt>
<wpt lat="22.107765" lon="120.855141">
<time>2011-06-19T06:36:45Z</time>
<ele>128.06</ele>
<name><![CDATA[Point 133]]></name>
</wpt>
<wpt lat="22.107670" lon="120.855133">
<time>2011-06-19T06:36:50Z</time>
<ele>127.28</ele>
<name><![CDATA[Point 134]]></name>
</wpt>
<wpt lat="22.107590" lon="120.855125">
<time>2011-06-19T06:36:55Z</time>
<ele>127.68</ele>
<name><![CDATA[Point 135]]></name>
</wpt>
<wpt lat="22.107502" lon="120.855133">
<time>2011-06-19T06:37:00Z</time>
<ele>128.14</ele>
<name><![CDATA[Point 136]]></name>
</wpt>
<wpt lat="22.107395" lon="120.855125">
<time>2011-06-19T06:37:05Z</time>
<ele>129.52</ele>
<name><![CDATA[Point 137]]></name>
</wpt>
<wpt lat="22.107288" lon="120.855080">
<time>2011-06-19T06:37:10Z</time>
<ele>129.18</ele>
<name><![CDATA[Point 138]]></name>
</wpt>
<wpt lat="22.107214" lon="120.855019">
<time>2011-06-19T06:37:15Z</time>
<ele>129.75</ele>
<name><![CDATA[Point 139]]></name>
</wpt>
<wpt lat="22.107162" lon="120.854927">
<time>2011-06-19T06:37:20Z</time>
<ele>129.70</ele>
<name><![CDATA[Point 140]]></name>
</wpt>
<wpt lat="22.107128" lon="120.854813">
<time>2011-06-19T06:37:25Z</time>
<ele>128.55</ele>
<name><![CDATA[Point 141]]></name>
</wpt>
<wpt lat="22.107140" lon="120.854706">
<time>2011-06-19T06:37:30Z</time>
<ele>129.02</ele>
<name><![CDATA[Point 142]]></name>
</wpt>
<wpt lat="22.107180" lon="120.854607">
<time>2011-06-19T06:37:35Z</time>
<ele>129.70</ele>
<name><![CDATA[Point 143]]></name>
</wpt>
<wpt lat="22.107201" lon="120.854485">
<time>2011-06-19T06:37:40Z</time>
<ele>130.79</ele>
<name><![CDATA[Point 144]]></name>
</wpt>
<wpt lat="22.107183" lon="120.854362">
<time>2011-06-19T06:37:45Z</time>
<ele>131.79</ele>
<name><![CDATA[Point 145]]></name>
</wpt>
<wpt lat="22.107128" lon="120.854240">
<time>2011-06-19T06:37:50Z</time>
<ele>134.14</ele>
<name><![CDATA[Point 146]]></name>
</wpt>
<wpt lat="22.107042" lon="120.854172">
<time>2011-06-19T06:37:55Z</time>
<ele>136.39</ele>
<name><![CDATA[Point 147]]></name>
</wpt>
<wpt lat="22.106989" lon="120.854118">
<time>2011-06-19T06:38:00Z</time>
<ele>137.88</ele>
<name><![CDATA[Point 148]]></name>
</wpt>
<wpt lat="22.106916" lon="120.854027">
<time>2011-06-19T06:38:05Z</time>
<ele>138.42</ele>
<name><![CDATA[Point 149]]></name>
</wpt>
<wpt lat="22.106821" lon="120.853935">
<time>2011-06-19T06:38:10Z</time>
<ele>137.53</ele>
<name><![CDATA[Point 150]]></name>
</wpt>
<wpt lat="22.106707" lon="120.853806">
<time>2011-06-19T06:38:15Z</time>
<ele>138.14</ele>
<name><![CDATA[Point 151]]></name>
</wpt>
<wpt lat="22.106628" lon="120.853638">
<time>2011-06-19T06:38:20Z</time>
<ele>135.52</ele>
<name><![CDATA[Point 152]]></name>
</wpt>
<wpt lat="22.106642" lon="120.853401">
<time>2011-06-19T06:38:25Z</time>
<ele>135.39</ele>
<name><![CDATA[Point 153]]></name>
</wpt>
<wpt lat="22.106714" lon="120.853218">
<time>2011-06-19T06:38:30Z</time>
<ele>136.79</ele>
<name><![CDATA[Point 154]]></name>
</wpt>
<wpt lat="22.106815" lon="120.853073">
<time>2011-06-19T06:38:35Z</time>
<ele>138.48</ele>
<name><![CDATA[Point 155]]></name>
</wpt>
<wpt lat="22.106911" lon="120.852936">
<time>2011-06-19T06:38:40Z</time>
<ele>140.17</ele>
<name><![CDATA[Point 156]]></name>
</wpt>
<wpt lat="22.106966" lon="120.852745">
<time>2011-06-19T06:38:45Z</time>
<ele>143.31</ele>
<name><![CDATA[Point 157]]></name>
</wpt>
<wpt lat="22.106899" lon="120.852547">
<time>2011-06-19T06:38:50Z</time>
<ele>144.55</ele>
<name><![CDATA[Point 158]]></name>
</wpt>
<wpt lat="22.106771" lon="120.852402">
<time>2011-06-19T06:38:55Z</time>
<ele>144.91</ele>
<name><![CDATA[Point 159]]></name>
</wpt>
<wpt lat="22.106590" lon="120.852341">
<time>2011-06-19T06:39:00Z</time>
<ele>144.49</ele>
<name><![CDATA[Point 160]]></name>
</wpt>
<wpt lat="22.106428" lon="120.852394">
<time>2011-06-19T06:39:05Z</time>
<ele>143.55</ele>
<name><![CDATA[Point 161]]></name>
</wpt>
<wpt lat="22.106243" lon="120.852470">
<time>2011-06-19T06:39:10Z</time>
<ele>143.19</ele>
<name><![CDATA[Point 162]]></name>
</wpt>
<wpt lat="22.106039" lon="120.852448">
<time>2011-06-19T06:39:15Z</time>
<ele>143.22</ele>
<name><![CDATA[Point 163]]></name>
</wpt>
<wpt lat="22.105927" lon="120.852295">
<time>2011-06-19T06:39:20Z</time>
<ele>142.28</ele>
<name><![CDATA[Point 164]]></name>
</wpt>
<wpt lat="22.105967" lon="120.852158">
<time>2011-06-19T06:39:25Z</time>
<ele>142.49</ele>
<name><![CDATA[Point 165]]></name>
</wpt>
<wpt lat="22.106054" lon="120.852028">
<time>2011-06-19T06:39:30Z</time>
<ele>143.07</ele>
<name><![CDATA[Point 166]]></name>
</wpt>
<wpt lat="22.106060" lon="120.851822">
<time>2011-06-19T06:39:35Z</time>
<ele>145.45</ele>
<name><![CDATA[Point 167]]></name>
</wpt>
<wpt lat="22.106005" lon="120.851646">
<time>2011-06-19T06:39:40Z</time>
<ele>149.11</ele>
<name><![CDATA[Point 168]]></name>
</wpt>
<wpt lat="22.105917" lon="120.851540">
<time>2011-06-19T06:39:45Z</time>
<ele>150.14</ele>
<name><![CDATA[Point 169]]></name>
</wpt>
<wpt lat="22.105835" lon="120.851479">
<time>2011-06-19T06:39:50Z</time>
<ele>150.67</ele>
<name><![CDATA[Point 170]]></name>
</wpt>
<wpt lat="22.105734" lon="120.851418">
<time>2011-06-19T06:39:55Z</time>
<ele>151.48</ele>
<name><![CDATA[Point 171]]></name>
</wpt>
<wpt lat="22.105642" lon="120.851334">
<time>2011-06-19T06:40:00Z</time>
<ele>150.51</ele>
<name><![CDATA[Point 172]]></name>
</wpt>
<wpt lat="22.105661" lon="120.851189">
<time>2011-06-19T06:40:05Z</time>
<ele>148.85</ele>
<name><![CDATA[Point 173]]></name>
</wpt>
<wpt lat="22.105701" lon="120.851044">
<time>2011-06-19T06:40:10Z</time>
<ele>149.39</ele>
<name><![CDATA[Point 174]]></name>
</wpt>
<wpt lat="22.105738" lon="120.850906">
<time>2011-06-19T06:40:15Z</time>
<ele>150.85</ele>
<name><![CDATA[Point 175]]></name>
</wpt>
<wpt lat="22.105732" lon="120.850731">
<time>2011-06-19T06:40:20Z</time>
<ele>152.61</ele>
<name><![CDATA[Point 176]]></name>
</wpt>
<wpt lat="22.105654" lon="120.850563">
<time>2011-06-19T06:40:25Z</time>
<ele>153.21</ele>
<name><![CDATA[Point 177]]></name>
</wpt>
<wpt lat="22.105505" lon="120.850433">
<time>2011-06-19T06:40:30Z</time>
<ele>152.77</ele>
<name><![CDATA[Point 178]]></name>
</wpt>
<wpt lat="22.105343" lon="120.850296">
<time>2011-06-19T06:40:35Z</time>
<ele>154.46</ele>
<name><![CDATA[Point 179]]></name>
</wpt>
<wpt lat="22.105324" lon="120.850113">
<time>2011-06-19T06:40:40Z</time>
<ele>152.01</ele>
<name><![CDATA[Point 180]]></name>
</wpt>
<wpt lat="22.105320" lon="120.849960">
<time>2011-06-19T06:40:45Z</time>
<ele>152.82</ele>
<name><![CDATA[Point 181]]></name>
</wpt>
<wpt lat="22.105320" lon="120.849792">
<time>2011-06-19T06:40:50Z</time>
<ele>154.27</ele>
<name><![CDATA[Point 182]]></name>
</wpt>
<wpt lat="22.105328" lon="120.849625">
<time>2011-06-19T06:40:55Z</time>
<ele>155.75</ele>
<name><![CDATA[Point 183]]></name>
</wpt>
<wpt lat="22.105331" lon="120.849487">
<time>2011-06-19T06:41:00Z</time>
<ele>157.46</ele>
<name><![CDATA[Point 184]]></name>
</wpt>
<wpt lat="22.105330" lon="120.849373">
<time>2011-06-19T06:41:05Z</time>
<ele>159.64</ele>
<name><![CDATA[Point 185]]></name>
</wpt>
<wpt lat="22.105289" lon="120.849243">
<time>2011-06-19T06:41:10Z</time>
<ele>160.62</ele>
<name><![CDATA[Point 186]]></name>
</wpt>
<wpt lat="22.105230" lon="120.849136">
<time>2011-06-19T06:41:15Z</time>
<ele>160.70</ele>
<name><![CDATA[Point 187]]></name>
</wpt>
<wpt lat="22.105158" lon="120.849022">
<time>2011-06-19T06:41:20Z</time>
<ele>161.07</ele>
<name><![CDATA[Point 188]]></name>
</wpt>
<wpt lat="22.105034" lon="120.848938">
<time>2011-06-19T06:41:25Z</time>
<ele>163.39</ele>
<name><![CDATA[Point 189]]></name>
</wpt>
<wpt lat="22.104925" lon="120.848854">
<time>2011-06-19T06:41:30Z</time>
<ele>164.86</ele>
<name><![CDATA[Point 190]]></name>
</wpt>
<wpt lat="22.104813" lon="120.848808">
<time>2011-06-19T06:41:35Z</time>
<ele>165.38</ele>
<name><![CDATA[Point 191]]></name>
</wpt>
<wpt lat="22.104689" lon="120.848785">
<time>2011-06-19T06:41:40Z</time>
<ele>164.66</ele>
<name><![CDATA[Point 192]]></name>
</wpt>
<wpt lat="22.104563" lon="120.848793">
<time>2011-06-19T06:41:45Z</time>
<ele>165.35</ele>
<name><![CDATA[Point 193]]></name>
</wpt>
<wpt lat="22.104448" lon="120.848740">
<time>2011-06-19T06:41:50Z</time>
<ele>165.77</ele>
<name><![CDATA[Point 194]]></name>
</wpt>
<wpt lat="22.104376" lon="120.848701">
<time>2011-06-19T06:41:55Z</time>
<ele>166.40</ele>
<name><![CDATA[Point 195]]></name>
</wpt>
<wpt lat="22.104315" lon="120.848640">
<time>2011-06-19T06:42:00Z</time>
<ele>167.34</ele>
<name><![CDATA[Point 196]]></name>
</wpt>
<wpt lat="22.104219" lon="120.848587">
<time>2011-06-19T06:42:05Z</time>
<ele>168.27</ele>
<name><![CDATA[Point 197]]></name>
</wpt>
<wpt lat="22.104130" lon="120.848518">
<time>2011-06-19T06:42:10Z</time>
<ele>168.34</ele>
<name><![CDATA[Point 198]]></name>
</wpt>
<wpt lat="22.104031" lon="120.848450">
<time>2011-06-19T06:42:15Z</time>
<ele>169.02</ele>
<name><![CDATA[Point 199]]></name>
</wpt>
<wpt lat="22.103912" lon="120.848412">
<time>2011-06-19T06:42:20Z</time>
<ele>169.59</ele>
<name><![CDATA[Point 200]]></name>
</wpt>
<wpt lat="22.103821" lon="120.848351">
<time>2011-06-19T06:42:25Z</time>
<ele>169.82</ele>
<name><![CDATA[Point 201]]></name>
</wpt>
<wpt lat="22.103720" lon="120.848282">
<time>2011-06-19T06:42:30Z</time>
<ele>170.04</ele>
<name><![CDATA[Point 202]]></name>
</wpt>
<wpt lat="22.103643" lon="120.848160">
<time>2011-06-19T06:42:35Z</time>
<ele>167.24</ele>
<name><![CDATA[Point 203]]></name>
</wpt>
<wpt lat="22.103649" lon="120.848007">
<time>2011-06-19T06:42:40Z</time>
<ele>168.43</ele>
<name><![CDATA[Point 204]]></name>
</wpt>
<wpt lat="22.103634" lon="120.847908">
<time>2011-06-19T06:42:45Z</time>
<ele>170.13</ele>
<name><![CDATA[Point 205]]></name>
</wpt>
<wpt lat="22.103613" lon="120.847801">
<time>2011-06-19T06:42:50Z</time>
<ele>171.21</ele>
<name><![CDATA[Point 206]]></name>
</wpt>
<wpt lat="22.103577" lon="120.847687">
<time>2011-06-19T06:42:55Z</time>
<ele>172.93</ele>
<name><![CDATA[Point 207]]></name>
</wpt>
<wpt lat="22.103537" lon="120.847549">
<time>2011-06-19T06:43:00Z</time>
<ele>172.05</ele>
<name><![CDATA[Point 208]]></name>
</wpt>
<wpt lat="22.103523" lon="120.847389">
<time>2011-06-19T06:43:05Z</time>
<ele>169.40</ele>
<name><![CDATA[Point 209]]></name>
</wpt>
<wpt lat="22.103504" lon="120.847221">
<time>2011-06-19T06:43:10Z</time>
<ele>168.71</ele>
<name><![CDATA[Point 210]]></name>
</wpt>
<wpt lat="22.103510" lon="120.847054">
<time>2011-06-19T06:43:15Z</time>
<ele>170.92</ele>
<name><![CDATA[Point 211]]></name>
</wpt>
<wpt lat="22.103512" lon="120.846916">
<time>2011-06-19T06:43:20Z</time>
<ele>171.54</ele>
<name><![CDATA[Point 212]]></name>
</wpt>
<wpt lat="22.103527" lon="120.846794">
<time>2011-06-19T06:43:25Z</time>
<ele>171.84</ele>
<name><![CDATA[Point 213]]></name>
</wpt>
<wpt lat="22.103531" lon="120.846672">
<time>2011-06-19T06:43:30Z</time>
<ele>173.84</ele>
<name><![CDATA[Point 214]]></name>
</wpt>
<wpt lat="22.103493" lon="120.846512">
<time>2011-06-19T06:43:35Z</time>
<ele>175.35</ele>
<name><![CDATA[Point 215]]></name>
</wpt>
<wpt lat="22.103386" lon="120.846375">
<time>2011-06-19T06:43:40Z</time>
<ele>177.06</ele>
<name><![CDATA[Point 216]]></name>
</wpt>
<wpt lat="22.103279" lon="120.846260">
<time>2011-06-19T06:43:45Z</time>
<ele>175.54</ele>
<name><![CDATA[Point 217]]></name>
</wpt>
<wpt lat="22.103222" lon="120.846130">
<time>2011-06-19T06:43:50Z</time>
<ele>174.38</ele>
<name><![CDATA[Point 218]]></name>
</wpt>
<wpt lat="22.103222" lon="120.846016">
<time>2011-06-19T06:43:55Z</time>
<ele>174.51</ele>
<name><![CDATA[Point 219]]></name>
</wpt>
<wpt lat="22.103182" lon="120.845871">
<time>2011-06-19T06:44:00Z</time>
<ele>176.58</ele>
<name><![CDATA[Point 220]]></name>
</wpt>
<wpt lat="22.103073" lon="120.845749">
<time>2011-06-19T06:44:05Z</time>
<ele>180.16</ele>
<name><![CDATA[Point 221]]></name>
</wpt>
<wpt lat="22.102936" lon="120.845665">
<time>2011-06-19T06:44:10Z</time>
<ele>181.14</ele>
<name><![CDATA[Point 222]]></name>
</wpt>
<wpt lat="22.102867" lon="120.845512">
<time>2011-06-19T06:44:15Z</time>
<ele>176.11</ele>
<name><![CDATA[Point 223]]></name>
</wpt>
<wpt lat="22.102846" lon="120.845345">
<time>2011-06-19T06:44:20Z</time>
<ele>173.88</ele>
<name><![CDATA[Point 224]]></name>
</wpt>
<wpt lat="22.102869" lon="120.845146">
<time>2011-06-19T06:44:25Z</time>
<ele>176.46</ele>
<name><![CDATA[Point 225]]></name>
</wpt>
<wpt lat="22.102911" lon="120.844963">
<time>2011-06-19T06:44:30Z</time>
<ele>179.87</ele>
<name><![CDATA[Point 226]]></name>
</wpt>
<wpt lat="22.102989" lon="120.844772">
<time>2011-06-19T06:44:35Z</time>
<ele>180.18</ele>
<name><![CDATA[Point 227]]></name>
</wpt>
<wpt lat="22.103062" lon="120.844597">
<time>2011-06-19T06:44:40Z</time>
<ele>181.32</ele>
<name><![CDATA[Point 228]]></name>
</wpt>
<wpt lat="22.103148" lon="120.844437">
<time>2011-06-19T06:44:45Z</time>
<ele>181.53</ele>
<name><![CDATA[Point 229]]></name>
</wpt>
<wpt lat="22.103233" lon="120.844269">
<time>2011-06-19T06:44:50Z</time>
<ele>180.62</ele>
<name><![CDATA[Point 230]]></name>
</wpt>
<wpt lat="22.103317" lon="120.844086">
<time>2011-06-19T06:44:55Z</time>
<ele>180.52</ele>
<name><![CDATA[Point 231]]></name>
</wpt>
<wpt lat="22.103386" lon="120.843880">
<time>2011-06-19T06:45:00Z</time>
<ele>179.57</ele>
<name><![CDATA[Point 232]]></name>
</wpt>
<wpt lat="22.103455" lon="120.843681">
<time>2011-06-19T06:45:05Z</time>
<ele>180.38</ele>
<name><![CDATA[Point 233]]></name>
</wpt>
<wpt lat="22.103510" lon="120.843506">
<time>2011-06-19T06:45:10Z</time>
<ele>186.75</ele>
<name><![CDATA[Point 234]]></name>
</wpt>
<wpt lat="22.103577" lon="120.843361">
<time>2011-06-19T06:45:15Z</time>
<ele>187.64</ele>
<name><![CDATA[Point 235]]></name>
</wpt>
<wpt lat="22.103649" lon="120.843246">
<time>2011-06-19T06:45:20Z</time>
<ele>189.80</ele>
<name><![CDATA[Point 236]]></name>
</wpt>
<wpt lat="22.103731" lon="120.843140">
<time>2011-06-19T06:45:25Z</time>
<ele>191.52</ele>
<name><![CDATA[Point 237]]></name>
</wpt>
<wpt lat="22.103798" lon="120.843040">
<time>2011-06-19T06:45:30Z</time>
<ele>195.41</ele>
<name><![CDATA[Point 238]]></name>
</wpt>
<wpt lat="22.103905" lon="120.842987">
<time>2011-06-19T06:45:35Z</time>
<ele>193.79</ele>
<name><![CDATA[Point 239]]></name>
</wpt>
<wpt lat="22.104015" lon="120.842941">
<time>2011-06-19T06:45:40Z</time>
<ele>192.38</ele>
<name><![CDATA[Point 240]]></name>
</wpt>
<wpt lat="22.104134" lon="120.842918">
<time>2011-06-19T06:45:45Z</time>
<ele>191.48</ele>
<name><![CDATA[Point 241]]></name>
</wpt>
<wpt lat="22.104265" lon="120.842834">
<time>2011-06-19T06:45:50Z</time>
<ele>189.49</ele>
<name><![CDATA[Point 242]]></name>
</wpt>
<wpt lat="22.104324" lon="120.842690">
<time>2011-06-19T06:45:55Z</time>
<ele>187.82</ele>
<name><![CDATA[Point 243]]></name>
</wpt>
<wpt lat="22.104280" lon="120.842560">
<time>2011-06-19T06:46:00Z</time>
<ele>186.94</ele>
<name><![CDATA[Point 244]]></name>
</wpt>
<wpt lat="22.104149" lon="120.842461">
<time>2011-06-19T06:46:05Z</time>
<ele>187.62</ele>
<name><![CDATA[Point 245]]></name>
</wpt>
<wpt lat="22.104004" lon="120.842377">
<time>2011-06-19T06:46:10Z</time>
<ele>187.65</ele>
<name><![CDATA[Point 246]]></name>
</wpt>
<wpt lat="22.103855" lon="120.842255">
<time>2011-06-19T06:46:15Z</time>
<ele>186.67</ele>
<name><![CDATA[Point 247]]></name>
</wpt>
<wpt lat="22.103773" lon="120.842178">
<time>2011-06-19T06:46:20Z</time>
<ele>188.55</ele>
<name><![CDATA[Point 248]]></name>
</wpt>
<wpt lat="22.103764" lon="120.842178">
<time>2011-06-19T06:46:25Z</time>
<ele>189.95</ele>
<name><![CDATA[Point 249]]></name>
</wpt>
<wpt lat="22.103764" lon="120.842171">
<time>2011-06-19T06:46:30Z</time>
<ele>190.06</ele>
<name><![CDATA[Point 250]]></name>
</wpt>
<rte>
<name>Route</name>
<rtept lat="22.110388" lon="120.866524">
<time>2011-06-19T06:25:40Z</time>
<ele>60.42</ele>
<name><![CDATA[Point 0]]></name>
</rtept>
<rtept lat="22.110346" lon="120.866539">
<time>2011-06-19T06:25:45Z</time>
<ele>62.79</ele>
<name><![CDATA[Point 1]]></name>
</rtept>
<rtept lat="22.110344" lon="120.866539">
<time>2011-06-19T06:25:50Z</time>
<ele>62.95</ele>
<name><![CDATA[Point 2]]></name>
</rtept>
<rtept lat="22.110338" lon="120.866539">
<time>2011-06-19T06:25:55Z</time>
<ele>63.17</ele>
<name><![CDATA[Point 3]]></name>
</rtept>
<rtept lat="22.110283" lon="120.866486">
<time>2011-06-19T06:26:00Z</time>
<ele>63.13</ele>
<name><![CDATA[Point 4]]></name>
</rtept>
<rtept lat="22.110241" lon="120.866447">
<time>2011-06-19T06:26:05Z</time>
<ele>63.48</ele>
<name><![CDATA[Point 5]]></name>
</rtept>
<rtept lat="22.110229" lon="120.866432">
<time>2011-06-19T06:26:10Z</time>
<ele>64.52</ele>
<name><![CDATA[Point 6]]></name>
</rtept>
<rtept lat="22.110195" lon="120.866417">
<time>2011-06-19T06:26:15Z</time>
<ele>64.62</ele>
<name><![CDATA[Point 7]]></name>
</rtept>
<rtept lat="22.110186" lon="120.866409">
<time>2011-06-19T06:26:20Z</time>
<ele>64.57</ele>
<name><![CDATA[Point 8]]></name>
</rtept>
<rtept lat="22.110176" lon="120.866409">
<time>2011-06-19T06:26:25Z</time>
<ele>64.52</ele>
<name><![CDATA[Point 9]]></name>
</rtept>
<rtept lat="22.110167" lon="120.866409">
<time>2011-06-19T06:26:30Z</time>
<ele>64.60</ele>
<name><![CDATA[Point 10]]></name>
</rtept>
<rtept lat="22.110155" lon="120.866409">
<time>2011-06-19T06:26:35Z</time>
<ele>64.72</ele>
<name><![CDATA[Point 11]]></name>
</rtept>
<rtept lat="22.110147" lon="120.866409">
<time>2011-06-19T06:26:40Z</time>
<ele>64.81</ele>
<name><![CDATA[Point 12]]></name>
</rtept>
<rtept lat="22.110142" lon="120.866409">
<time>2011-06-19T06:26:45Z</time>
<ele>64.90</ele>
<name><![CDATA[Point 13]]></name>
</rtept>
<rtept lat="22.110136" lon="120.866409">
<time>2011-06-19T06:26:50Z</time>
<ele>64.97</ele>
<name><![CDATA[Point 14]]></name>
</rtept>
<rtept lat="22.110132" lon="120.866409">
<time>2011-06-19T06:26:55Z</time>
<ele>65.03</ele>
<name><![CDATA[Point 15]]></name>
</rtept>
<rtept lat="22.110128" lon="120.866409">
<time>2011-06-19T06:27:00Z</time>
<ele>65.08</ele>
<name><![CDATA[Point 16]]></name>
</rtept>
<rtept lat="22.110123" lon="120.866409">
<time>2011-06-19T06:27:05Z</time>
<ele>65.08</ele>
<name><![CDATA[Point 17]]></name>
</rtept>
<rtept lat="22.110121" lon="120.866417">
<time>2011-06-19T06:27:10Z</time>
<ele>65.14</ele>
<name><![CDATA[Point 18]]></name>
</rtept>
<rtept lat="22.110121" lon="120.866417">
<time>2011-06-19T06:27:15Z</time>
<ele>65.29</ele>
<name><![CDATA[Point 19]]></name>
</rtept>
<rtept lat="22.110125" lon="120.866425">
<time>2011-06-19T06:27:20Z</time>
<ele>65.50</ele>
<name><![CDATA[Point 20]]></name>
</rtept>
<rtept lat="22.110125" lon="120.866425">
<time>2011-06-19T06:27:25Z</time>
<ele>65.70</ele>
<name><![CDATA[Point 21]]></name>
</rtept>
<rtept lat="22.110121" lon="120.866425">
<time>2011-06-19T06:27:30Z</time>
<ele>65.89</ele>
<name><![CDATA[Point 22]]></name>
</rtept>
<rtept lat="22.110115" lon="120.866432">
<time>2011-06-19T06:27:35Z</time>
<ele>66.04</ele>
<name><![CDATA[Point 23]]></name>
</rtept>
<rtept lat="22.110115" lon="120.866425">
<time>2011-06-19T06:27:40Z</time>
<ele>66.15</ele>
<name><![CDATA[Point 24]]></name>
</rtept>
<rtept lat="22.110111" lon="120.866417">
<time>2011-06-19T06:27:45Z</time>
<ele>66.34</ele>
<name><![CDATA[Point 25]]></name>
</rtept>
<rtept lat="22.110048" lon="120.866341">
<time>2011-06-19T06:27:50Z</time>
<ele>67.24</ele>
<name><![CDATA[Point 26]]></name>
</rtept>
<rtept lat="22.109961" lon="120.866226">
<time>2011-06-19T06:27:55Z</time>
<ele>66.97</ele>
<name><![CDATA[Point 27]]></name>
</rtept>
<rtept lat="22.109919" lon="120.866096">
<time>2011-06-19T06:28:00Z</time>
<ele>64.77</ele>
<name><![CDATA[Point 28]]></name>
</rtept>
<rtept lat="22.109863" lon="120.865990">
<time>2011-06-19T06:28:05Z</time>
<ele>63.74</ele>
<name><![CDATA[Point 29]]></name>
</rtept>
<rtept lat="22.109840" lon="120.865891">
<time>2011-06-19T06:28:10Z</time>
<ele>61.09</ele>
<name><![CDATA[Point 30]]></name>
</rtept>
<rtept lat="22.109804" lon="120.865814">
<time>2011-06-19T06:28:15Z</time>
<ele>60.50</ele>
<name><![CDATA[Point 31]]></name>
</rtept>
<rtept lat="22.109732" lon="120.865707">
<time>2011-06-19T06:28:20Z</time>
<ele>60.82</ele>
<name><![CDATA[Point 32]]></name>
</rtept>
<rtept lat="22.109636" lon="120.865601">
<time>2011-06-19T06:28:25Z</time>
<ele>60.89</ele>
<name><![CDATA[Point 33]]></name>
</rtept>
<rtept lat="22.109552" lon="120.865509">
<time>2011-06-19T06:28:30Z</time>
<ele>61.25</ele>
<name><![CDATA[Point 34]]></name>
</rtept>
<rtept lat="22.109467" lon="120.865387">
<time>2011-06-19T06:28:35Z</time>
<ele>62.71</ele>
<name><![CDATA[Point 35]]></name>
</rtept>
<rtept lat="22.109411" lon="120.865227">
<time>2011-06-19T06:28:40Z</time>
<ele>63.09</ele>
<name><![CDATA[Point 36]]></name>
</rtept>
<rtept lat="22.109316" lon="120.865105">
<time>2011-06-19T06:28:45Z</time>
<ele>64.08</ele>
<name><![CDATA[Point 37]]></name>
</rtept>
<rtept lat="22.109217" lon="120.865021">
<time>2011-06-19T06:28:50Z</time>
<ele>67.28</ele>
<name><![CDATA[Point 38]]></name>
</rtept>
<rtept lat="22.109106" lon="120.864937">
<time>2011-06-19T06:28:55Z</time>
<ele>69.66</ele>
<name><![CDATA[Point 39]]></name>
</rtept>
<rtept lat="22.108988" lon="120.864822">
<time>2011-06-19T06:29:00Z</time>
<ele>68.97</ele>
<name><![CDATA[Point 40]]></name>
</rtept>
<rtept lat="22.108881" lon="120.864731">
<time>2011-06-19T06:29:05Z</time>
<ele>69.89</ele>
<name><![CDATA[Point 41]]></name>
</rtept>
<rtept lat="22.108789" lon="120.864647">
<time>2011-06-19T06:29:10Z</time>
<ele>71.90</ele>
<name><![CDATA[Point 42]]></name>
</rtept>
<rtept lat="22.108694" lon="120.864532">
<time>2011-06-19T06:29:15Z</time>
<ele>72.69</ele>
<name><![CDATA[Point 43]]></name>
</rtept>
<rtept lat="22.108616" lon="120.864388">
<time>2011-06-19T06:29:20Z</time>
<ele>73.30</ele>
<name><![CDATA[Point 44]]></name>
</rtept>
<rtept lat="22.108555" lon="120.864227">
<time>2011-06-19T06:29:25Z</time>
<ele>73.22</ele>
<name><![CDATA[Point 45]]></name>
</rtept>
<rtept lat="22.108526" lon="120.864075">
<time>2011-06-19T06:29:30Z</time>
<ele>74.70</ele>
<name><![CDATA[Point 46]]></name>
</rtept>
<rtept lat="22.108519" lon="120.863914">
<time>2011-06-19T06:29:35Z</time>
<ele>73.50</ele>
<name><![CDATA[Point 47]]></name>
</rtept>
<rtept lat="22.108507" lon="120.863777">
<time>2011-06-19T06:29:40Z</time>
<ele>74.90</ele>
<name><![CDATA[Point 48]]></name>
</rtept>
<rtept lat="22.108488" lon="120.863625">
<time>2011-06-19T06:29:45Z</time>
<ele>74.48</ele>
<name><![CDATA[Point 49]]></name>
</rtept>
<rtept lat="22.108479" lon="120.863472">
<time>2011-06-19T06:29:50Z</time>
<ele>74.88</ele>
<name><![CDATA[Point 50]]></name>
</rtept>
<rtept lat="22.108467" lon="120.863312">
<time>2011-06-19T06:29:55Z</time>
<ele>75.38</ele>
<name><![CDATA[Point 51]]></name>
</rtept>
<rtept lat="22.108450" lon="120.863129">
<time>2011-06-19T06:30:00Z</time>
<ele>75.16</ele>
<name><![CDATA[Point 52]]></name>
</rtept>
<rtept lat="22.108505" lon="120.862930">
<time>2011-06-19T06:30:05Z</time>
<ele>73.37</ele>
<name><![CDATA[Point 53]]></name>
</rtept>
<rtept lat="22.108578" lon="120.862755">
<time>2011-06-19T06:30:10Z</time>
<ele>71.68</ele>
<name><![CDATA[Point 54]]></name>
</rtept>
<rtept lat="22.108620" lon="120.862595">
<time>2011-06-19T06:30:15Z</time>
<ele>69.21</ele>
<name><![CDATA[Point 55]]></name>
</rtept>
<rtept lat="22.108679" lon="120.862442">
<time>2011-06-19T06:30:20Z</time>
<ele>67.25</ele>
<name><![CDATA[Point 56]]></name>
</rtept>
<rtept lat="22.108667" lon="120.862289">
<time>2011-06-19T06:30:25Z</time>
<ele>66.84</ele>
<name><![CDATA[Point 57]]></name>
</rtept>
<rtept lat="22.108580" lon="120.862076">
<time>2011-06-19T06:30:30Z</time>
<ele>66.40</ele>
<name><![CDATA[Point 58]]></name>
</rtept>
<rtept lat="22.108467" lon="120.861900">
<time>2011-06-19T06:30:35Z</time>
<ele>68.63</ele>
<name><![CDATA[Point 59]]></name>
</rtept>
<rtept lat="22.108315" lon="120.861740">
<time>2011-06-19T06:30:40Z</time>
<ele>72.52</ele>
<name><![CDATA[Point 60]]></name>
</rtept>
<rtept lat="22.108240" lon="120.861610">
<time>2011-06-19T06:30:45Z</time>
<ele>73.35</ele>
<name><![CDATA[Point 61]]></name>
</rtept>
<rtept lat="22.108150" lon="120.861488">
<time>2011-06-19T06:30:50Z</time>
<ele>72.59</ele>
<name><![CDATA[Point 62]]></name>
</rtept>
<rtept lat="22.108120" lon="120.861351">
<time>2011-06-19T06:30:55Z</time>
<ele>72.46</ele>
<name><![CDATA[Point 63]]></name>
</rtept>
<rtept lat="22.108078" lon="120.861198">
<time>2011-06-19T06:31:00Z</time>
<ele>74.63</ele>
<name><![CDATA[Point 64]]></name>
</rtept>
<rtept lat="22.108009" lon="120.861038">
<time>2011-06-19T06:31:05Z</time>
<ele>78.43</ele>
<name><![CDATA[Point 65]]></name>
</rtept>
<rtept lat="22.107962" lon="120.860916">
<time>2011-06-19T06:31:10Z</time>
<ele>79.82</ele>
<name><![CDATA[Point 66]]></name>
</rtept>
<rtept lat="22.107859" lon="120.860817">
<time>2011-06-19T06:31:15Z</time>
<ele>82.33</ele>
<name><![CDATA[Point 67]]></name>
</rtept>
<rtept lat="22.107771" lon="120.860741">
<time>2011-06-19T06:31:20Z</time>
<ele>81.07</ele>
<name><![CDATA[Point 68]]></name>
</rtept>
<rtept lat="22.107697" lon="120.860695">
<time>2011-06-19T06:31:25Z</time>
<ele>81.27</ele>
<name><![CDATA[Point 69]]></name>
</rtept>
<rtept lat="22.107567" lon="120.860657">
<time>2011-06-19T06:31:30Z</time>
<ele>80.95</ele>
<name><![CDATA[Point 70]]></name>
</rtept>
<rtept lat="22.107410" lon="120.860649">
<time>2011-06-19T06:31:35Z</time>
<ele>79.60</ele>
<name><![CDATA[Point 71]]></name>
</rtept>
<rtept lat="22.107298" lon="120.860695">
<time>2011-06-19T06:31:40Z</time>
<ele>80.27</ele>
<name><![CDATA[Point 72]]></name>
</rtept>
<rtept lat="22.107180" lon="120.860710">
<time>2011-06-19T06:31:45Z</time>
<ele>81.03</ele>
<name><![CDATA[Point 73]]></name>
</rtept>
<rtept lat="22.107061" lon="120.860687">
<time>2011-06-19T06:31:50Z</time>
<ele>82.49</ele>
<name><![CDATA[Point 74]]></name>
</rtept>
<rtept lat="22.106953" lon="120.860641">
<time>2011-06-19T06:31:55Z</time>
<ele>84.54</ele>
<name><![CDATA[Point 75]]></name>
</rtept>
<rtept lat="22.106869" lon="120.860573">
<time>2011-06-19T06:32:00Z</time>
<ele>85.62</ele>
<name><![CDATA[Point 76]]></name>
</rtept>
<rtept lat="22.106775" lon="120.860519">
<time>2011-06-19T06:32:05Z</time>
<ele>87.86</ele>
<name><![CDATA[Point 77]]></name>
</rtept>
<rtept lat="22.106731" lon="120.860420">
<time>2011-06-19T06:32:10Z</time>
<ele>87.73</ele>
<name><![CDATA[Point 78]]></name>
</rtept>
<rtept lat="22.106726" lon="120.860306">
<time>2011-06-19T06:32:15Z</time>
<ele>89.60</ele>
<name><![CDATA[Point 79]]></name>
</rtept>
<rtept lat="22.106802" lon="120.860191">
<time>2011-06-19T06:32:20Z</time>
<ele>88.17</ele>
<name><![CDATA[Point 80]]></name>
</rtept>
<rtept lat="22.106894" lon="120.860107">
<time>2011-06-19T06:32:25Z</time>
<ele>87.85</ele>
<name><![CDATA[Point 81]]></name>
</rtept>
<rtept lat="22.106993" lon="120.860039">
<time>2011-06-19T06:32:30Z</time>
<ele>87.77</ele>
<name><![CDATA[Point 82]]></name>
</rtept>
<rtept lat="22.107084" lon="120.859962">
<time>2011-06-19T06:32:35Z</time>
<ele>87.24</ele>
<name><![CDATA[Point 83]]></name>
</rtept>
<rtept lat="22.107138" lon="120.859863">
<time>2011-06-19T06:32:40Z</time>
<ele>88.15</ele>
<name><![CDATA[Point 84]]></name>
</rtept>
<rtept lat="22.107141" lon="120.859749">
<time>2011-06-19T06:32:45Z</time>
<ele>88.79</ele>
<name><![CDATA[Point 85]]></name>
</rtept>
<rtept lat="22.107111" lon="120.859627">
<time>2011-06-19T06:32:50Z</time>
<ele>89.20</ele>
<name><![CDATA[Point 86]]></name>
</rtept>
<rtept lat="22.107031" lon="120.859520">
<time>2011-06-19T06:32:55Z</time>
<ele>89.42</ele>
<name><![CDATA[Point 87]]></name>
</rtept>
<rtept lat="22.106930" lon="120.859436">
<time>2011-06-19T06:33:00Z</time>
<ele>91.22</ele>
<name><![CDATA[Point 88]]></name>
</rtept>
<rtept lat="22.106842" lon="120.859390">
<time>2011-06-19T06:33:05Z</time>
<ele>93.78</ele>
<name><![CDATA[Point 89]]></name>
</rtept>
<rtept lat="22.106750" lon="120.859360">
<time>2011-06-19T06:33:10Z</time>
<ele>95.48</ele>
<name><![CDATA[Point 90]]></name>
</rtept>
<rtept lat="22.106663" lon="120.859322">
<time>2011-06-19T06:33:15Z</time>
<ele>97.14</ele>
<name><![CDATA[Point 91]]></name>
</rtept>
<rtept lat="22.106606" lon="120.859245">
<time>2011-06-19T06:33:20Z</time>
<ele>98.73</ele>
<name><![CDATA[Point 92]]></name>
</rtept>
<rtept lat="22.106575" lon="120.859161">
<time>2011-06-19T06:33:25Z</time>
<ele>100.03</ele>
<name><![CDATA[Point 93]]></name>
</rtept>
<rtept lat="22.106567" lon="120.859055">
<time>2011-06-19T06:33:30Z</time>
<ele>100.30</ele>
<name><![CDATA[Point 94]]></name>
</rtept>
<rtept lat="22.106583" lon="120.858917">
<time>2011-06-19T06:33:35Z</time>
<ele>99.60</ele>
<name><![CDATA[Point 95]]></name>
</rtept>
<rtept lat="22.106585" lon="120.858765">
<time>2011-06-19T06:33:40Z</time>
<ele>100.29</ele>
<name><![CDATA[Point 96]]></name>
</rtept>
<rtept lat="22.106585" lon="120.858620">
<time>2011-06-19T06:33:45Z</time>
<ele>104.21</ele>
<name><![CDATA[Point 97]]></name>
</rtept>
<rtept lat="22.106585" lon="120.858467">
<time>2011-06-19T06:33:50Z</time>
<ele>107.40</ele>
<name><![CDATA[Point 98]]></name>
</rtept>
<rtept lat="22.106607" lon="120.858315">
<time>2011-06-19T06:33:55Z</time>
<ele>108.04</ele>
<name><![CDATA[Point 99]]></name>
</rtept>
<rtept lat="22.106638" lon="120.858215">
<time>2011-06-19T06:34:00Z</time>
<ele>107.90</ele>
<name><![CDATA[Point 100]]></name>
</rtept>
<rtept lat="22.106667" lon="120.858116">
<time>2011-06-19T06:34:05Z</time>
<ele>105.77</ele>
<name><![CDATA[Point 101]]></name>
</rtept>
<rtept lat="22.106693" lon="120.858025">
<time>2011-06-19T06:34:10Z</time>
<ele>103.28</ele>
<name><![CDATA[Point 102]]></name>
</rtept>
<rtept lat="22.106733" lon="120.857933">
<time>2011-06-19T06:34:15Z</time>
<ele>103.27</ele>
<name><![CDATA[Point 103]]></name>
</rtept>
<rtept lat="22.106787" lon="120.857834">
<time>2011-06-19T06:34:20Z</time>
<ele>103.69</ele>
<name><![CDATA[Point 104]]></name>
</rtept>
<rtept lat="22.106865" lon="120.857773">
<time>2011-06-19T06:34:25Z</time>
<ele>105.36</ele>
<name><![CDATA[Point 105]]></name>
</rtept>
<rtept lat="22.106964" lon="120.857742">
<time>2011-06-19T06:34:30Z</time>
<ele>106.41</ele>
<name><![CDATA[Point 106]]></name>
</rtept>
<rtept lat="22.107046" lon="120.857704">
<time>2011-06-19T06:34:35Z</time>
<ele>108.42</ele>
<name><![CDATA[Point 107]]></name>
</rtept>
<rtept lat="22.107155" lon="120.857681">
<time>2011-06-19T06:34:40Z</time>
<ele>108.96</ele>
<name><![CDATA[Point 108]]></name>
</rtept>
<rtept lat="22.107252" lon="120.857536">
<time>2011-06-19T06:34:45Z</time>
<ele>111.06</ele>
<name><![CDATA[Point 109]]></name>
</rtept>
<rtept lat="22.107283" lon="120.857361">
<time>2011-06-19T06:34:50Z</time>
<ele>113.17</ele>
<name><![CDATA[Point 110]]></name>
</rtept>
<rtept lat="22.107248" lon="120.857224">
<time>2011-06-19T06:34:55Z</time>
<ele>114.99</ele>
<name><![CDATA[Point 111]]></name>
</rtept>
<rtept lat="22.107180" lon="120.857140">
<time>2011-06-19T06:35:00Z</time>
<ele>115.50</ele>
<name><![CDATA[Point 112]]></name>
</rtept>
<rtept lat="22.107105" lon="120.857033">
<time>2011-06-19T06:35:05Z</time>
<ele>116.84</ele>
<name><![CDATA[Point 113]]></name>
</rtept>
<rtept lat="22.107044" lon="120.856918">
<time>2011-06-19T06:35:10Z</time>
<ele>118.83</ele>
<name><![CDATA[Point 114]]></name>
</rtept>
<rtept lat="22.107054" lon="120.856796">
<time>2011-06-19T06:35:15Z</time>
<ele>117.20</ele>
<name><![CDATA[Point 115]]></name>
</rtept>
<rtept lat="22.107090" lon="120.856659">
<time>2011-06-19T06:35:20Z</time>
<ele>116.89</ele>
<name><![CDATA[Point 116]]></name>
</rtept>
<rtept lat="22.107201" lon="120.856598">
<time>2011-06-19T06:35:25Z</time>
<ele>117.61</ele>
<name><![CDATA[Point 117]]></name>
</rtept>
<rtept lat="22.107323" lon="120.856552">
<time>2011-06-19T06:35:30Z</time>
<ele>118.49</ele>
<name><![CDATA[Point 118]]></name>
</rtept>
<rtept lat="22.107450" lon="120.856583">
<time>2011-06-19T06:35:35Z</time>
<ele>117.87</ele>
<name><![CDATA[Point 119]]></name>
</rtept>
<rtept lat="22.107578" lon="120.856613">
<time>2011-06-19T06:35:40Z</time>
<ele>117.95</ele>
<name><![CDATA[Point 120]]></name>
</rtept>
<rtept lat="22.107733" lon="120.856674">
<time>2011-06-19T06:35:45Z</time>
<ele>116.63</ele>
<name><![CDATA[Point 121]]></name>
</rtept>
<rtept lat="22.107857" lon="120.856621">
<time>2011-06-19T06:35:50Z</time>
<ele>117.54</ele>
<name><![CDATA[Point 122]]></name>
</rtept>
<rtept lat="22.107891" lon="120.856445">
<time>2011-06-19T06:35:55Z</time>
<ele>119.44</ele>
<name><![CDATA[Point 123]]></name>
</rtept>
<rtept lat="22.107834" lon="120.856262">
<time>2011-06-19T06:36:00Z</time>
<ele>125.30</ele>
<name><![CDATA[Point 124]]></name>
</rtept>
<rtept lat="22.107761" lon="120.856125">
<time>2011-06-19T06:36:05Z</time>
<ele>126.03</ele>
<name><![CDATA[Point 125]]></name>
</rtept>
<rtept lat="22.107695" lon="120.855972">
<time>2011-06-19T06:36:10Z</time>
<ele>126.75</ele>
<name><![CDATA[Point 126]]></name>
</rtept>
<rtept lat="22.107683" lon="120.855835">
<time>2011-06-19T06:36:15Z</time>
<ele>125.21</ele>
<name><![CDATA[Point 127]]></name>
</rtept>
<rtept lat="22.107759" lon="120.855743">
<time>2011-06-19T06:36:20Z</time>
<ele>124.86</ele>
<name><![CDATA[Point 128]]></name>
</rtept>
<rtept lat="22.107840" lon="120.855621">
<time>2011-06-19T06:36:25Z</time>
<ele>124.91</ele>
<name><![CDATA[Point 129]]></name>
</rtept>
<rtept lat="22.107893" lon="120.855469">
<time>2011-06-19T06:36:30Z</time>
<ele>125.05</ele>
<name><![CDATA[Point 130]]></name>
</rtept>
<rtept lat="22.107897" lon="120.855301">
<time>2011-06-19T06:36:35Z</time>
<ele>126.18</ele>
<name><![CDATA[Point 131]]></name>
</rtept>
<rtept lat="22.107841" lon="120.855179">
<time>2011-06-19T06:36:40Z</time>
<ele>126.98</ele>
<name><![CDATA[Point 132]]></name>
</rtept>
<rtept lat="22.107765" lon="120.855141">
<time>2011-06-19T06:36:45Z</time>
<ele>128.06</ele>
<name><![CDATA[Point 133]]></name>
</rtept>
<rtept lat="22.107670" lon="120.855133">
<time>2011-06-19T06:36:50Z</time>
<ele>127.28</ele>
<name><![CDATA[Point 134]]></name>
</rtept>
<rtept lat="22.107590" lon="120.855125">
<time>2011-06-19T06:36:55Z</time>
<ele>127.68</ele>
<name><![CDATA[Point 135]]></name>
</rtept>
<rtept lat="22.107502" lon="120.855133">
<time>2011-06-19T06:37:00Z</time>
<ele>128.14</ele>
<name><![CDATA[Point 136]]></name>
</rtept>
<rtept lat="22.107395" lon="120.855125">
<time>2011-06-19T06:37:05Z</time>
<ele>129.52</ele>
<name><![CDATA[Point 137]]></name>
</rtept>
<rtept lat="22.107288" lon="120.855080">
<time>2011-06-19T06:37:10Z</time>
<ele>129.18</ele>
<name><![CDATA[Point 138]]></name>
</rtept>
<rtept lat="22.107214" lon="120.855019">
<time>2011-06-19T06:37:15Z</time>
<ele>129.75</ele>
<name><![CDATA[Point 139]]></name>
</rtept>
<rtept lat="22.107162" lon="120.854927">
<time>2011-06-19T06:37:20Z</time>
<ele>129.70</ele>
<name><![CDATA[Point 140]]></name>
</rtept>
<rtept lat="22.107128" lon="120.854813">
<time>2011-06-19T06:37:25Z</time>
<ele>128.55</ele>
<name><![CDATA[Point 141]]></name>
</rtept>
<rtept lat="22.107140" lon="120.854706">
<time>2011-06-19T06:37:30Z</time>
<ele>129.02</ele>
<name><![CDATA[Point 142]]></name>
</rtept>
<rtept lat="22.107180" lon="120.854607">
<time>2011-06-19T06:37:35Z</time>
<ele>129.70</ele>
<name><![CDATA[Point 143]]></name>
</rtept>
<rtept lat="22.107201" lon="120.854485">
<time>2011-06-19T06:37:40Z</time>
<ele>130.79</ele>
<name><![CDATA[Point 144]]></name>
</rtept>
<rtept lat="22.107183" lon="120.854362">
<time>2011-06-19T06:37:45Z</time>
<ele>131.79</ele>
<name><![CDATA[Point 145]]></name>
</rtept>
<rtept lat="22.107128" lon="120.854240">
<time>2011-06-19T06:37:50Z</time>
<ele>134.14</ele>
<name><![CDATA[Point 146]]></name>
</rtept>
<rtept lat="22.107042" lon="120.854172">
<time>2011-06-19T06:37:55Z</time>
<ele>136.39</ele>
<name><![CDATA[Point 147]]></name>
</rtept>
<rtept lat="22.106989" lon="120.854118">
<time>2011-06-19T06:38:00Z</time>
<ele>137.88</ele>
<name><![CDATA[Point 148]]></name>
</rtept>
<rtept lat="22.106916" lon="120.854027">
<time>2011-06-19T06:38:05Z</time>
<ele>138.42</ele>
<name><![CDATA[Point 149]]></name>
</rtept>
<rtept lat="22.106821" lon="120.853935">
<time>2011-06-19T06:38:10Z</time>
<ele>137.53</ele>
<name><![CDATA[Point 150]]></name>
</rtept>
<rtept lat="22.106707" lon="120.853806">
<time>2011-06-19T06:38:15Z</time>
<ele>138.14</ele>
<name><![CDATA[Point 151]]></name>
</rtept>
<rtept lat="22.106628" lon="120.853638">
<time>2011-06-19T06:38:20Z</time>
<ele>135.52</ele>
<name><![CDATA[Point 152]]></name>
</rtept>
<rtept lat="22.106642" lon="120.853401">
<time>2011-06-19T06:38:25Z</time>
<ele>135.39</ele>
<name><![CDATA[Point 153]]></name>
</rtept>
<rtept lat="22.106714" lon="120.853218">
<time>2011-06-19T06:38:30Z</time>
<ele>136.79</ele>
<name><![CDATA[Point 154]]></name>
</rtept>
<rtept lat="22.106815" lon="120.853073">
<time>2011-06-19T06:38:35Z</time>
<ele>138.48</ele>
<name><![CDATA[Point 155]]></name>
</rtept>
<rtept lat="22.106911" lon="120.852936">
<time>2011-06-19T06:38:40Z</time>
<ele>140.17</ele>
<name><![CDATA[Point 156]]></name>
</rtept>
<rtept lat="22.106966" lon="120.852745">
<time>2011-06-19T06:38:45Z</time>
<ele>143.31</ele>
<name><![CDATA[Point 157]]></name>
</rtept>
<rtept lat="22.106899" lon="120.852547">
<time>2011-06-19T06:38:50Z</time>
<ele>144.55</ele>
<name><![CDATA[Point 158]]></name>
</rtept>
<rtept lat="22.106771" lon="120.852402">
<time>2011-06-19T06:38:55Z</time>
<ele>144.91</ele>
<name><![CDATA[Point 159]]></name>
</rtept>
<rtept lat="22.106590" lon="120.852341">
<time>2011-06-19T06:39:00Z</time>
<ele>144.49</ele>
<name><![CDATA[Point 160]]></name>
</rtept>
<rtept lat="22.106428" lon="120.852394">
<time>2011-06-19T06:39:05Z</time>
<ele>143.55</ele>
<name><![CDATA[Point 161]]></name>
</rtept>
<rtept lat="22.106243" lon="120.852470">
<time>2011-06-19T06:39:10Z</time>
<ele>143.19</ele>
<name><![CDATA[Point 162]]></name>
</rtept>
<rtept lat="22.106039" lon="120.852448">
<time>2011-06-19T06:39:15Z</time>
<ele>143.22</ele>
<name><![CDATA[Point 163]]></name>
</rtept>
<rtept lat="22.105927" lon="120.852295">
<time>2011-06-19T06:39:20Z</time>
<ele>142.28</ele>
<name><![CDATA[Point 164]]></name>
</rtept>
<rtept lat="22.105967" lon="120.852158">
<time>2011-06-19T06:39:25Z</time>
<ele>142.49</ele>
<name><![CDATA[Point 165]]></name>
</rtept>
<rtept lat="22.106054" lon="120.852028">
<time>2011-06-19T06:39:30Z</time>
<ele>143.07</ele>
<name><![CDATA[Point 166]]></name>
</rtept>
<rtept lat="22.106060" lon="120.851822">
<time>2011-06-19T06:39:35Z</time>
<ele>145.45</ele>
<name><![CDATA[Point 167]]></name>
</rtept>
<rtept lat="22.106005" lon="120.851646">
<time>2011-06-19T06:39:40Z</time>
<ele>149.11</ele>
<name><![CDATA[Point 168]]></name>
</rtept>
<rtept lat="22.105917" lon="120.851540">
<time>2011-06-19T06:39:45Z</time>
<ele>150.14</ele>
<name><![CDATA[Point 169]]></name>
</rtept>
<rtept lat="22.105835" lon="120.851479">
<time>2011-06-19T06:39:50Z</time>
<ele>150.67</ele>
<name><![CDATA[Point 170]]></name>
</rtept>
<rtept lat="22.105734" lon="120.851418">
<time>2011-06-19T06:39:55Z</time>
<ele>151.48</ele>
<name><![CDATA[Point 171]]></name>
</rtept>
<rtept lat="22.105642" lon="120.851334">
<time>2011-06-19T06:40:00Z</time>
<ele>150.51</ele>
<name><![CDATA[Point 172]]></name>
</rtept>
<rtept lat="22.105661" lon="120.851189">
<time>2011-06-19T06:40:05Z</time>
<ele>148.85</ele>
<name><![CDATA[Point 173]]></name>
</rtept>
<rtept lat="22.105701" lon="120.851044">
<time>2011-06-19T06:40:10Z</time>
<ele>149.39</ele>
<name><![CDATA[Point 174]]></name>
</rtept>
<rtept lat="22.105738" lon="120.850906">
<time>2011-06-19T06:40:15Z</time>
<ele>150.85</ele>
<name><![CDATA[Point 175]]></name>
</rtept>
<rtept lat="22.105732" lon="120.850731">
<time>2011-06-19T06:40:20Z</time>
<ele>152.61</ele>
<name><![CDATA[Point 176]]></name>
</rtept>
<rtept lat="22.105654" lon="120.850563">
<time>2011-06-19T06:40:25Z</time>
<ele>153.21</ele>
<name><![CDATA[Point 177]]></name>
</rtept>
<rtept lat="22.105505" lon="120.850433">
<time>2011-06-19T06:40:30Z</time>
<ele>152.77</ele>
<name><![CDATA[Point 178]]></name>
</rtept>
<rtept lat="22.105343" lon="120.850296">
<time>2011-06-19T06:40:35Z</time>
<ele>154.46</ele>
<name><![CDATA[Point 179]]></name>
</rtept>
<rtept lat="22.105324" lon="120.850113">
<time>2011-06-19T06:40:40Z</time>
<ele>152.01</ele>
<name><![CDATA[Point 180]]></name>
</rtept>
<rtept lat="22.105320" lon="120.849960">
<time>2011-06-19T06:40:45Z</time>
<ele>152.82</ele>
<name><![CDATA[Point 181]]></name>
</rtept>
<rtept lat="22.105320" lon="120.849792">
<time>2011-06-19T06:40:50Z</time>
<ele>154.27</ele>
<name><![CDATA[Point 182]]></name>
</rtept>
<rtept lat="22.105328" lon="120.849625">
<time>2011-06-19T06:40:55Z</time>
<ele>155.75</ele>
<name><![CDATA[Point 183]]></name>
</rtept>
<rtept lat="22.105331" lon="120.849487">
<time>2011-06-19T06:41:00Z</time>
<ele>157.46</ele>
<name><![CDATA[Point 184]]></name>
</rtept>
<rtept lat="22.105330" lon="120.849373">
<time>2011-06-19T06:41:05Z</time>
<ele>159.64</ele>
<name><![CDATA[Point 185]]></name>
</rtept>
<rtept lat="22.105289" lon="120.849243">
<time>2011-06-19T06:41:10Z</time>
<ele>160.62</ele>
<name><![CDATA[Point 186]]></name>
</rtept>
<rtept lat="22.105230" lon="120.849136">
<time>2011-06-19T06:41:15Z</time>
<ele>160.70</ele>
<name><![CDATA[Point 187]]></name>
</rtept>
<rtept lat="22.105158" lon="120.849022">
<time>2011-06-19T06:41:20Z</time>
<ele>161.07</ele>
<name><![CDATA[Point 188]]></name>
</rtept>
<rtept lat="22.105034" lon="120.848938">
<time>2011-06-19T06:41:25Z</time>
<ele>163.39</ele>
<name><![CDATA[Point 189]]></name>
</rtept>
<rtept lat="22.104925" lon="120.848854">
<time>2011-06-19T06:41:30Z</time>
<ele>164.86</ele>
<name><![CDATA[Point 190]]></name>
</rtept>
<rtept lat="22.104813" lon="120.848808">
<time>2011-06-19T06:41:35Z</time>
<ele>165.38</ele>
<name><![CDATA[Point 191]]></name>
</rtept>
<rtept lat="22.104689" lon="120.848785">
<time>2011-06-19T06:41:40Z</time>
<ele>164.66</ele>
<name><![CDATA[Point 192]]></name>
</rtept>
<rtept lat="22.104563" lon="120.848793">
<time>2011-06-19T06:41:45Z</time>
<ele>165.35</ele>
<name><![CDATA[Point 193]]></name>
</rtept>
<rtept lat="22.104448" lon="120.848740">
<time>2011-06-19T06:41:50Z</time>
<ele>165.77</ele>
<name><![CDATA[Point 194]]></name>
</rtept>
<rtept lat="22.104376" lon="120.848701">
<time>2011-06-19T06:41:55Z</time>
<ele>166.40</ele>
<name><![CDATA[Point 195]]></name>
</rtept>
<rtept lat="22.104315" lon="120.848640">
<time>2011-06-19T06:42:00Z</time>
<ele>167.34</ele>
<name><![CDATA[Point 196]]></name>
</rtept>
<rtept lat="22.104219" lon="120.848587">
<time>2011-06-19T06:42:05Z</time>
<ele>168.27</ele>
<name><![CDATA[Point 197]]></name>
</rtept>
<rtept lat="22.104130" lon="120.848518">
<time>2011-06-19T06:42:10Z</time>
<ele>168.34</ele>
<name><![CDATA[Point 198]]></name>
</rtept>
<rtept lat="22.104031" lon="120.848450">
<time>2011-06-19T06:42:15Z</time>
<ele>169.02</ele>
<name><![CDATA[Point 199]]></name>
</rtept>
<rtept lat="22.103912" lon="120.848412">
<time>2011-06-19T06:42:20Z</time>
<ele>169.59</ele>
<name><![CDATA[Point 200]]></name>
</rtept>
<rtept lat="22.103821" lon="120.848351">
<time>2011-06-19T06:42:25Z</time>
<ele>169.82</ele>
<name><![CDATA[Point 201]]></name>
</rtept>
<rtept lat="22.103720" lon="120.848282">
<time>2011-06-19T06:42:30Z</time>
<ele>170.04</ele>
<name><![CDATA[Point 202]]></name>
</rtept>
<rtept lat="22.103643" lon="120.848160">
<time>2011-06-19T06:42:35Z</time>
<ele>167.24</ele>
<name><![CDATA[Point 203]]></name>
</rtept>
<rtept lat="22.103649" lon="120.848007">
<time>2011-06-19T06:42:40Z</time>
<ele>168.43</ele>
<name><![CDATA[Point 204]]></name>
</rtept>
<rtept lat="22.103634" lon="120.847908">
<time>2011-06-19T06:42:45Z</time>
<ele>170.13</ele>
<name><![CDATA[Point 205]]></name>
</rtept>
<rtept lat="22.103613" lon="120.847801">
<time>2011-06-19T06:42:50Z</time>
<ele>171.21</ele>
<name><![CDATA[Point 206]]></name>
</rtept>
<rtept lat="22.103577" lon="120.847687">
<time>2011-06-19T06:42:55Z</time>
<ele>172.93</ele>
<name><![CDATA[Point 207]]></name>
</rtept>
<rtept lat="22.103537" lon="120.847549">
<time>2011-06-19T06:43:00Z</time>
<ele>172.05</ele>
<name><![CDATA[Point 208]]></name>
</rtept>
<rtept lat="22.103523" lon="120.847389">
<time>2011-06-19T06:43:05Z</time>
<ele>169.40</ele>
<name><![CDATA[Point 209]]></name>
</rtept>
<rtept lat="22.103504" lon="120.847221">
<time>2011-06-19T06:43:10Z</time>
<ele>168.71</ele>
<name><![CDATA[Point 210]]></name>
</rtept>
<rtept lat="22.103510" lon="120.847054">
<time>2011-06-19T06:43:15Z</time>
<ele>170.92</ele>
<name><![CDATA[Point 211]]></name>
</rtept>
<rtept lat="22.103512" lon="120.846916">
<time>2011-06-19T06:43:20Z</time>
<ele>171.54</ele>
<name><![CDATA[Point 212]]></name>
</rtept>
<rtept lat="22.103527" lon="120.846794">
<time>2011-06-19T06:43:25Z</time>
<ele>171.84</ele>
<name><![CDATA[Point 213]]></name>
</rtept>
<rtept lat="22.103531" lon="120.846672">
<time>2011-06-19T06:43:30Z</time>
<ele>173.84</ele>
<name><![CDATA[Point 214]]></name>
</rtept>
<rtept lat="22.103493" lon="120.846512">
<time>2011-06-19T06:43:35Z</time>
<ele>175.35</ele>
<name><![CDATA[Point 215]]></name>
</rtept>
<rtept lat="22.103386" lon="120.846375">
<time>2011-06-19T06:43:40Z</time>
<ele>177.06</ele>
<name><![CDATA[Point 216]]></name>
</rtept>
<rtept lat="22.103279" lon="120.846260">
<time>2011-06-19T06:43:45Z</time>
<ele>175.54</ele>
<name><![CDATA[Point 217]]></name>
</rtept>
<rtept lat="22.103222" lon="120.846130">
<time>2011-06-19T06:43:50Z</time>
<ele>174.38</ele>
<name><![CDATA[Point 218]]></name>
</rtept>
<rtept lat="22.103222" lon="120.846016">
<time>2011-06-19T06:43:55Z</time>
<ele>174.51</ele>
<name><![CDATA[Point 219]]></name>
</rtept>
<rtept lat="22.103182" lon="120.845871">
<time>2011-06-19T06:44:00Z</time>
<ele>176.58</ele>
<name><![CDATA[Point 220]]></name>
</rtept>
<rtept lat="22.103073" lon="120.845749">
<time>2011-06-19T06:44:05Z</time>
<ele>180.16</ele>
<name><![CDATA[Point 221]]></name>
</rtept>
<rtept lat="22.102936" lon="120.845665">
<time>2011-06-19T06:44:10Z</time>
<ele>181.14</ele>
<name><![CDATA[Point 222]]></name>
</rtept>
<rtept lat="22.102867" lon="120.845512">
<time>2011-06-19T06:44:15Z</time>
<ele>176.11</ele>
<name><![CDATA[Point 223]]></name>
</rtept>
<rtept lat="22.102846" lon="120.845345">
<time>2011-06-19T06:44:20Z</time>
<ele>173.88</ele>
<name><![CDATA[Point 224]]></name>
</rtept>
<rtept lat="22.102869" lon="120.845146">
<time>2011-06-19T06:44:25Z</time>
<ele>176.46</ele>
<name><![CDATA[Point 225]]></name>
</rtept>
<rtept lat="22.102911" lon="120.844963">
<time>2011-06-19T06:44:30Z</time>
<ele>179.87</ele>
<name><![CDATA[Point 226]]></name>
</rtept>
<rtept lat="22.102989" lon="120.844772">
<time>2011-06-19T06:44:35Z</time>
<ele>180.18</ele>
<name><![CDATA[Point 227]]></name>
</rtept>
<rtept lat="22.103062" lon="120.844597">
<time>2011-06-19T06:44:40Z</time>
<ele>181.32</ele>
<name><![CDATA[Point 228]]></name>
</rtept>
<rtept lat="22.103148" lon="120.844437">
<time>2011-06-19T06:44:45Z</time>
<ele>181.53</ele>
<name><![CDATA[Point 229]]></name>
</rtept>
<rtept lat="22.103233" lon="120.844269">
<time>2011-06-19T06:44:50Z</time>
<ele>180.62</ele>
<name><![CDATA[Point 230]]></name>
</rtept>
<rtept lat="22.103317" lon="120.844086">
<time>2011-06-19T06:44:55Z</time>
<ele>180.52</ele>
<name><![CDATA[Point 231]]></name>
</rtept>
<rtept lat="22.103386" lon="120.843880">
<time>2011-06-19T06:45:00Z</time>
<ele>179.57</ele>
<name><![CDATA[Point 232]]></name>
</rtept>
<rtept lat="22.103455" lon="120.843681">
<time>2011-06-19T06:45:05Z</time>
<ele>180.38</ele>
<name><![CDATA[Point 233]]></name>
</rtept>
<rtept lat="22.103510" lon="120.843506">
<time>2011-06-19T06:45:10Z</time>
<ele>186.75</ele>
<name><![CDATA[Point 234]]></name>
</rtept>
<rtept lat="22.103577" lon="120.843361">
<time>2011-06-19T06:45:15Z</time>
<ele>187.64</ele>
<name><![CDATA[Point 235]]></name>
</rtept>
<rtept lat="22.103649" lon="120.843246">
<time>2011-06-19T06:45:20Z</time>
<ele>189.80</ele>
<name><![CDATA[Point 236]]></name>
</rtept>
<rtept lat="22.103731" lon="120.843140">
<time>2011-06-19T06:45:25Z</time>
<ele>191.52</ele>
<name><![CDATA[Point 237]]></name>
</rtept>
<rtept lat="22.103798" lon="120.843040">
<time>2011-06-19T06:45:30Z</time>
<ele>195.41</ele>
<name><![CDATA[Point 238]]></name>
</rtept>
<rtept lat="22.103905" lon="120.842987">
<time>2011-06-19T06:45:35Z</time>
<ele>193.79</ele>
<name><![CDATA[Point 239]]></name>
</rtept>
<rtept lat="22.104015" lon="120.842941">
<time>2011-06-19T06:45:40Z</time>
<ele>192.38</ele>
<name><![CDATA[Point 240]]></name>
</rtept>
<rtept lat="22.104134" lon="120.842918">
<time>2011-06-19T06:45:45Z</time>
<ele>191.48</ele>
<name><![CDATA[Point 241]]></name>
</rtept>
<rtept lat="22.104265" lon="120.842834">
<time>2011-06-19T06:45:50Z</time>
<ele>189.49</ele>
<name><![CDATA[Point 242]]></name>
</rtept>
<rtept lat="22.104324" lon="120.842690">
<time>2011-06-19T06:45:55Z</time>
<ele>187.82</ele>
<name><![CDATA[Point 243]]></name>
</rtept>
<rtept lat="22.104280" lon="120.842560">
<time>2011-06-19T06:46:00Z</time>
<ele>186.94</ele>
<name><![CDATA[Point 244]]></name>
</rtept>
<rtept lat="22.104149" lon="120.842461">
<time>2011-06-19T06:46:05Z</time>
<ele>187.62</ele>
<name><![CDATA[Point 245]]></name>
</rtept>
<rtept lat="22.104004" lon="120.842377">
<time>2011-06-19T06:46:10Z</time>
<ele>187.65</ele>
<name><![CDATA[Point 246]]></name>
</rtept>
<rtept lat="22.103855" lon="120.842255">
<time>2011-06-19T06:46:15Z</time>
<ele>186.67</ele>
<name><![CDATA[Point 247]]></name>
</rtept>
<rtept lat="22.103773" lon="120.842178">
<time>2011-06-19T06:46:20Z</time>
<ele>188.55</ele>
<name><![CDATA[Point 248]]></name>
</rtept>
<rtept lat="22.103764" lon="120.842178">
<time>2011-06-19T06:46:25Z</time>
<ele>189.95</ele>
<name><![CDATA[Point 249]]></name>
</rtept>
<rtept lat="22.103764" lon="120.842171">
<time>2011-06-19T06:46:30Z</time>
<ele>190.06</ele>
<name><![CDATA[Point 250]]></name>
</rtept>
</rte>
</gpx>
