<?xml version="1.0"?>
<gpx
version="1.0"
creator="Holux Utility"
xmlns:xsi="http://www.w3.org/2001/XMLSchema-instance"
xmlns="http://www.topografix.com/GPX/1/0"
xsi:schemaLocation="http://www.topografix.com/GPX/1/0 http://www.topografix.com/GPX/1/0/gpx.xsd">
<wpt lat="24.223434" lon="121.695236">
<time>2011-06-15T07:59:21Z</time>
<ele>71.94</ele>
<name><![CDATA[Point 0]]></name>
</wpt>
<wpt lat="24.223406" lon="121.695320">
<time>2011-06-15T07:59:26Z</time>
<ele>71.35</ele>
<name><![CDATA[Point 1]]></name>
</wpt>
<wpt lat="24.219208" lon="121.692856">
<time>2011-06-15T08:00:55Z</time>
<ele>83.41</ele>
<name><![CDATA[Point 2]]></name>
</wpt>
<wpt lat="24.219088" lon="121.692795">
<time>2011-06-15T08:01:00Z</time>
<ele>84.60</ele>
<name><![CDATA[Point 3]]></name>
</wpt>
<wpt lat="24.219006" lon="121.692680">
<time>2011-06-15T08:01:05Z</time>
<ele>86.27</ele>
<name><![CDATA[Point 4]]></name>
</wpt>
<wpt lat="24.218916" lon="121.692612">
<time>2011-06-15T08:01:10Z</time>
<ele>86.83</ele>
<name><![CDATA[Point 5]]></name>
</wpt>
<wpt lat="24.218859" lon="121.692535">
<time>2011-06-15T08:01:15Z</time>
<ele>86.14</ele>
<name><![CDATA[Point 6]]></name>
</wpt>
<wpt lat="24.218807" lon="121.692444">
<time>2011-06-15T08:01:20Z</time>
<ele>84.56</ele>
<name><![CDATA[Point 7]]></name>
</wpt>
<wpt lat="24.218691" lon="121.692360">
<time>2011-06-15T08:01:25Z</time>
<ele>83.88</ele>
<name><![CDATA[Point 8]]></name>
</wpt>
<wpt lat="24.218607" lon="121.692268">
<time>2011-06-15T08:01:30Z</time>
<ele>82.79</ele>
<name><![CDATA[Point 9]]></name>
</wpt>
<wpt lat="24.218521" lon="121.692177">
<time>2011-06-15T08:01:35Z</time>
<ele>81.46</ele>
<name><![CDATA[Point 10]]></name>
</wpt>
<wpt lat="24.218422" lon="121.692093">
<time>2011-06-15T08:01:40Z</time>
<ele>81.37</ele>
<name><![CDATA[Point 11]]></name>
</wpt>
<wpt lat="24.218313" lon="121.692009">
<time>2011-06-15T08:01:45Z</time>
<ele>79.61</ele>
<name><![CDATA[Point 12]]></name>
</wpt>
<wpt lat="24.218170" lon="121.691956">
<time>2011-06-15T08:01:50Z</time>
<ele>80.22</ele>
<name><![CDATA[Point 13]]></name>
</wpt>
<wpt lat="24.218029" lon="121.691902">
<time>2011-06-15T08:01:55Z</time>
<ele>80.16</ele>
<name><![CDATA[Point 14]]></name>
</wpt>
<wpt lat="24.217905" lon="121.691841">
<time>2011-06-15T08:02:00Z</time>
<ele>78.87</ele>
<name><![CDATA[Point 15]]></name>
</wpt>
<wpt lat="24.217758" lon="121.691719">
<time>2011-06-15T08:02:05Z</time>
<ele>79.68</ele>
<name><![CDATA[Point 16]]></name>
</wpt>
<wpt lat="24.217821" lon="121.691490">
<time>2011-06-15T08:02:10Z</time>
<ele>81.37</ele>
<name><![CDATA[Point 17]]></name>
</wpt>
<wpt lat="24.217871" lon="121.691170">
<time>2011-06-15T08:02:15Z</time>
<ele>79.64</ele>
<name><![CDATA[Point 18]]></name>
</wpt>
<wpt lat="24.218060" lon="121.690865">
<time>2011-06-15T08:02:20Z</time>
<ele>78.32</ele>
<name><![CDATA[Point 19]]></name>
</wpt>
<wpt lat="24.218414" lon="121.690750">
<time>2011-06-15T08:02:25Z</time>
<ele>76.09</ele>
<name><![CDATA[Point 20]]></name>
</wpt>
<wpt lat="24.218800" lon="121.690582">
<time>2011-06-15T08:02:30Z</time>
<ele>74.62</ele>
<name><![CDATA[Point 21]]></name>
</wpt>
<wpt lat="24.219257" lon="121.690483">
<time>2011-06-15T08:02:35Z</time>
<ele>74.40</ele>
<name><![CDATA[Point 22]]></name>
</wpt>
<wpt lat="24.219620" lon="121.690193">
<time>2011-06-15T08:02:40Z</time>
<ele>72.92</ele>
<name><![CDATA[Point 23]]></name>
</wpt>
<wpt lat="24.219961" lon="121.689896">
<time>2011-06-15T08:02:45Z</time>
<ele>71.58</ele>
<name><![CDATA[Point 24]]></name>
</wpt>
<wpt lat="24.220243" lon="121.689552">
<time>2011-06-15T08:02:50Z</time>
<ele>70.33</ele>
<name><![CDATA[Point 25]]></name>
</wpt>
<wpt lat="24.220179" lon="121.689171">
<time>2011-06-15T08:02:55Z</time>
<ele>68.68</ele>
<name><![CDATA[Point 26]]></name>
</wpt>
<wpt lat="24.219864" lon="121.689041">
<time>2011-06-15T08:03:00Z</time>
<ele>63.94</ele>
<name><![CDATA[Point 27]]></name>
</wpt>
<wpt lat="24.219568" lon="121.689003">
<time>2011-06-15T08:03:05Z</time>
<ele>60.52</ele>
<name><![CDATA[Point 28]]></name>
</wpt>
<wpt lat="24.219366" lon="121.689087">
<time>2011-06-15T08:03:10Z</time>
<ele>58.28</ele>
<name><![CDATA[Point 29]]></name>
</wpt>
<wpt lat="24.219250" lon="121.689117">
<time>2011-06-15T08:03:15Z</time>
<ele>57.42</ele>
<name><![CDATA[Point 30]]></name>
</wpt>
<wpt lat="24.219135" lon="121.689110">
<time>2011-06-15T08:03:20Z</time>
<ele>57.33</ele>
<name><![CDATA[Point 31]]></name>
</wpt>
<wpt lat="24.219072" lon="121.689079">
<time>2011-06-15T08:03:25Z</time>
<ele>56.87</ele>
<name><![CDATA[Point 32]]></name>
</wpt>
<wpt lat="24.219051" lon="121.689156">
<time>2011-06-15T08:03:30Z</time>
<ele>56.13</ele>
<name><![CDATA[Point 33]]></name>
</wpt>
<wpt lat="24.219013" lon="121.689186">
<time>2011-06-15T08:03:35Z</time>
<ele>55.78</ele>
<name><![CDATA[Point 34]]></name>
</wpt>
<wpt lat="24.219004" lon="121.689178">
<time>2011-06-15T08:03:40Z</time>
<ele>55.54</ele>
<name><![CDATA[Point 35]]></name>
</wpt>
<wpt lat="24.218941" lon="121.689133">
<time>2011-06-15T08:03:45Z</time>
<ele>55.78</ele>
<name><![CDATA[Point 36]]></name>
</wpt>
<wpt lat="24.218855" lon="121.689056">
<time>2011-06-15T08:03:50Z</time>
<ele>57.00</ele>
<name><![CDATA[Point 37]]></name>
</wpt>
<wpt lat="24.218822" lon="121.689041">
<time>2011-06-15T08:03:55Z</time>
<ele>58.75</ele>
<name><![CDATA[Point 38]]></name>
</wpt>
<wpt lat="24.218811" lon="121.689041">
<time>2011-06-15T08:04:00Z</time>
<ele>58.79</ele>
<name><![CDATA[Point 39]]></name>
</wpt>
<wpt lat="24.218811" lon="121.689041">
<time>2011-06-15T08:04:05Z</time>
<ele>58.83</ele>
<name><![CDATA[Point 40]]></name>
</wpt>
<wpt lat="24.218809" lon="121.689041">
<time>2011-06-15T08:04:10Z</time>
<ele>58.84</ele>
<name><![CDATA[Point 41]]></name>
</wpt>
<wpt lat="24.218803" lon="121.689041">
<time>2011-06-15T08:04:15Z</time>
<ele>58.85</ele>
<name><![CDATA[Point 42]]></name>
</wpt>
<wpt lat="24.218800" lon="121.689034">
<time>2011-06-15T08:04:20Z</time>
<ele>58.88</ele>
<name><![CDATA[Point 43]]></name>
</wpt>
<wpt lat="24.218798" lon="121.689034">
<time>2011-06-15T08:04:25Z</time>
<ele>58.91</ele>
<name><![CDATA[Point 44]]></name>
</wpt>
<wpt lat="24.218800" lon="121.689034">
<time>2011-06-15T08:04:30Z</time>
<ele>58.93</ele>
<name><![CDATA[Point 45]]></name>
</wpt>
<wpt lat="24.218800" lon="121.689034">
<time>2011-06-15T08:04:35Z</time>
<ele>58.96</ele>
<name><![CDATA[Point 46]]></name>
</wpt>
<wpt lat="24.218800" lon="121.689034">
<time>2011-06-15T08:04:40Z</time>
<ele>58.99</ele>
<name><![CDATA[Point 47]]></name>
</wpt>
<wpt lat="24.218800" lon="121.689034">
<time>2011-06-15T08:04:45Z</time>
<ele>59.01</ele>
<name><![CDATA[Point 48]]></name>
</wpt>
<wpt lat="24.218800" lon="121.689034">
<time>2011-06-15T08:04:50Z</time>
<ele>59.03</ele>
<name><![CDATA[Point 49]]></name>
</wpt>
<wpt lat="24.218800" lon="121.689034">
<time>2011-06-15T08:04:55Z</time>
<ele>59.04</ele>
<name><![CDATA[Point 50]]></name>
</wpt>
<wpt lat="24.218800" lon="121.689034">
<time>2011-06-15T08:05:00Z</time>
<ele>59.05</ele>
<name><![CDATA[Point 51]]></name>
</wpt>
<wpt lat="24.218801" lon="121.689034">
<time>2011-06-15T08:05:05Z</time>
<ele>59.06</ele>
<name><![CDATA[Point 52]]></name>
</wpt>
<wpt lat="24.218811" lon="121.689041">
<time>2011-06-15T08:05:10Z</time>
<ele>59.08</ele>
<name><![CDATA[Point 53]]></name>
</wpt>
<wpt lat="24.218832" lon="121.689079">
<time>2011-06-15T08:05:15Z</time>
<ele>59.33</ele>
<name><![CDATA[Point 54]]></name>
</wpt>
<wpt lat="24.218843" lon="121.689095">
<time>2011-06-15T08:05:20Z</time>
<ele>59.45</ele>
<name><![CDATA[Point 55]]></name>
</wpt>
<wpt lat="24.218845" lon="121.689095">
<time>2011-06-15T08:05:25Z</time>
<ele>59.50</ele>
<name><![CDATA[Point 56]]></name>
</wpt>
<wpt lat="24.218845" lon="121.689095">
<time>2011-06-15T08:05:30Z</time>
<ele>59.52</ele>
<name><![CDATA[Point 57]]></name>
</wpt>
<wpt lat="24.218847" lon="121.689095">
<time>2011-06-15T08:05:35Z</time>
<ele>59.54</ele>
<name><![CDATA[Point 58]]></name>
</wpt>
<wpt lat="24.218845" lon="121.689095">
<time>2011-06-15T08:05:40Z</time>
<ele>59.56</ele>
<name><![CDATA[Point 59]]></name>
</wpt>
<wpt lat="24.218843" lon="121.689095">
<time>2011-06-15T08:05:45Z</time>
<ele>59.56</ele>
<name><![CDATA[Point 60]]></name>
</wpt>
<wpt lat="24.218842" lon="121.689095">
<time>2011-06-15T08:05:50Z</time>
<ele>59.57</ele>
<name><![CDATA[Point 61]]></name>
</wpt>
<wpt lat="24.218838" lon="121.689087">
<time>2011-06-15T08:05:55Z</time>
<ele>59.58</ele>
<name><![CDATA[Point 62]]></name>
</wpt>
<wpt lat="24.218838" lon="121.689087">
<time>2011-06-15T08:06:00Z</time>
<ele>59.60</ele>
<name><![CDATA[Point 63]]></name>
</wpt>
<wpt lat="24.218834" lon="121.689087">
<time>2011-06-15T08:06:05Z</time>
<ele>59.63</ele>
<name><![CDATA[Point 64]]></name>
</wpt>
<wpt lat="24.218834" lon="121.689087">
<time>2011-06-15T08:06:10Z</time>
<ele>59.64</ele>
<name><![CDATA[Point 65]]></name>
</wpt>
<wpt lat="24.218836" lon="121.689087">
<time>2011-06-15T08:06:15Z</time>
<ele>59.62</ele>
<name><![CDATA[Point 66]]></name>
</wpt>
<wpt lat="24.218832" lon="121.689087">
<time>2011-06-15T08:06:20Z</time>
<ele>59.60</ele>
<name><![CDATA[Point 67]]></name>
</wpt>
<wpt lat="24.218830" lon="121.689079">
<time>2011-06-15T08:06:25Z</time>
<ele>59.59</ele>
<name><![CDATA[Point 68]]></name>
</wpt>
<wpt lat="24.218828" lon="121.689079">
<time>2011-06-15T08:06:30Z</time>
<ele>59.60</ele>
<name><![CDATA[Point 69]]></name>
</wpt>
<wpt lat="24.218830" lon="121.689079">
<time>2011-06-15T08:06:35Z</time>
<ele>59.62</ele>
<name><![CDATA[Point 70]]></name>
</wpt>
<wpt lat="24.218832" lon="121.689087">
<time>2011-06-15T08:06:40Z</time>
<ele>59.74</ele>
<name><![CDATA[Point 71]]></name>
</wpt>
<wpt lat="24.218830" lon="121.689087">
<time>2011-06-15T08:06:45Z</time>
<ele>59.85</ele>
<name><![CDATA[Point 72]]></name>
</wpt>
<wpt lat="24.218832" lon="121.689087">
<time>2011-06-15T08:06:50Z</time>
<ele>59.93</ele>
<name><![CDATA[Point 73]]></name>
</wpt>
<wpt lat="24.218832" lon="121.689087">
<time>2011-06-15T08:06:55Z</time>
<ele>60.04</ele>
<name><![CDATA[Point 74]]></name>
</wpt>
<wpt lat="24.218834" lon="121.689087">
<time>2011-06-15T08:07:00Z</time>
<ele>60.13</ele>
<name><![CDATA[Point 75]]></name>
</wpt>
<wpt lat="24.218834" lon="121.689087">
<time>2011-06-15T08:07:05Z</time>
<ele>60.21</ele>
<name><![CDATA[Point 76]]></name>
</wpt>
<wpt lat="24.218830" lon="121.689087">
<time>2011-06-15T08:07:10Z</time>
<ele>60.25</ele>
<name><![CDATA[Point 77]]></name>
</wpt>
<wpt lat="24.218828" lon="121.689087">
<time>2011-06-15T08:07:15Z</time>
<ele>60.29</ele>
<name><![CDATA[Point 78]]></name>
</wpt>
<wpt lat="24.218830" lon="121.689087">
<time>2011-06-15T08:07:20Z</time>
<ele>60.31</ele>
<name><![CDATA[Point 79]]></name>
</wpt>
<wpt lat="24.218822" lon="121.689087">
<time>2011-06-15T08:07:25Z</time>
<ele>60.32</ele>
<name><![CDATA[Point 80]]></name>
</wpt>
<wpt lat="24.218815" lon="121.689079">
<time>2011-06-15T08:07:30Z</time>
<ele>60.36</ele>
<name><![CDATA[Point 81]]></name>
</wpt>
<wpt lat="24.218809" lon="121.689079">
<time>2011-06-15T08:07:35Z</time>
<ele>60.34</ele>
<name><![CDATA[Point 82]]></name>
</wpt>
<wpt lat="24.218809" lon="121.689079">
<time>2011-06-15T08:07:40Z</time>
<ele>60.35</ele>
<name><![CDATA[Point 83]]></name>
</wpt>
<wpt lat="24.218813" lon="121.689087">
<time>2011-06-15T08:07:45Z</time>
<ele>60.34</ele>
<name><![CDATA[Point 84]]></name>
</wpt>
<wpt lat="24.218838" lon="121.689072">
<time>2011-06-15T08:07:50Z</time>
<ele>60.70</ele>
<name><![CDATA[Point 85]]></name>
</wpt>
<wpt lat="24.218843" lon="121.689064">
<time>2011-06-15T08:07:55Z</time>
<ele>61.03</ele>
<name><![CDATA[Point 86]]></name>
</wpt>
<wpt lat="24.218842" lon="121.689064">
<time>2011-06-15T08:08:00Z</time>
<ele>61.18</ele>
<name><![CDATA[Point 87]]></name>
</wpt>
<wpt lat="24.218842" lon="121.689064">
<time>2011-06-15T08:08:05Z</time>
<ele>61.26</ele>
<name><![CDATA[Point 88]]></name>
</wpt>
<wpt lat="24.218845" lon="121.689064">
<time>2011-06-15T08:08:10Z</time>
<ele>61.34</ele>
<name><![CDATA[Point 89]]></name>
</wpt>
<wpt lat="24.218847" lon="121.689064">
<time>2011-06-15T08:08:15Z</time>
<ele>61.50</ele>
<name><![CDATA[Point 90]]></name>
</wpt>
<wpt lat="24.218845" lon="121.689064">
<time>2011-06-15T08:08:20Z</time>
<ele>61.64</ele>
<name><![CDATA[Point 91]]></name>
</wpt>
<wpt lat="24.218847" lon="121.689064">
<time>2011-06-15T08:08:25Z</time>
<ele>61.65</ele>
<name><![CDATA[Point 92]]></name>
</wpt>
<wpt lat="24.218849" lon="121.689064">
<time>2011-06-15T08:08:30Z</time>
<ele>61.64</ele>
<name><![CDATA[Point 93]]></name>
</wpt>
<wpt lat="24.218853" lon="121.689072">
<time>2011-06-15T08:08:35Z</time>
<ele>61.72</ele>
<name><![CDATA[Point 94]]></name>
</wpt>
<wpt lat="24.218859" lon="121.689072">
<time>2011-06-15T08:08:40Z</time>
<ele>61.90</ele>
<name><![CDATA[Point 95]]></name>
</wpt>
<wpt lat="24.218863" lon="121.689072">
<time>2011-06-15T08:08:45Z</time>
<ele>62.10</ele>
<name><![CDATA[Point 96]]></name>
</wpt>
<wpt lat="24.218863" lon="121.689072">
<time>2011-06-15T08:08:50Z</time>
<ele>62.23</ele>
<name><![CDATA[Point 97]]></name>
</wpt>
<wpt lat="24.218864" lon="121.689072">
<time>2011-06-15T08:08:55Z</time>
<ele>62.32</ele>
<name><![CDATA[Point 98]]></name>
</wpt>
<wpt lat="24.218868" lon="121.689072">
<time>2011-06-15T08:09:00Z</time>
<ele>62.39</ele>
<name><![CDATA[Point 99]]></name>
</wpt>
<wpt lat="24.218870" lon="121.689072">
<time>2011-06-15T08:09:05Z</time>
<ele>62.58</ele>
<name><![CDATA[Point 100]]></name>
</wpt>
<wpt lat="24.218874" lon="121.689072">
<time>2011-06-15T08:09:10Z</time>
<ele>63.08</ele>
<name><![CDATA[Point 101]]></name>
</wpt>
<wpt lat="24.218876" lon="121.689072">
<time>2011-06-15T08:09:15Z</time>
<ele>63.39</ele>
<name><![CDATA[Point 102]]></name>
</wpt>
<wpt lat="24.218918" lon="121.689079">
<time>2011-06-15T08:09:20Z</time>
<ele>64.11</ele>
<name><![CDATA[Point 103]]></name>
</wpt>
<wpt lat="24.218990" lon="121.689148">
<time>2011-06-15T08:09:25Z</time>
<ele>64.81</ele>
<name><![CDATA[Point 104]]></name>
</wpt>
<wpt lat="24.219046" lon="121.689095">
<time>2011-06-15T08:09:30Z</time>
<ele>65.62</ele>
<name><![CDATA[Point 105]]></name>
</wpt>
<wpt lat="24.219011" lon="121.688995">
<time>2011-06-15T08:09:35Z</time>
<ele>66.44</ele>
<name><![CDATA[Point 106]]></name>
</wpt>
<wpt lat="24.218973" lon="121.688896">
<time>2011-06-15T08:09:40Z</time>
<ele>66.52</ele>
<name><![CDATA[Point 107]]></name>
</wpt>
<wpt lat="24.218897" lon="121.688828">
<time>2011-06-15T08:09:45Z</time>
<ele>66.21</ele>
<name><![CDATA[Point 108]]></name>
</wpt>
<wpt lat="24.218801" lon="121.688812">
<time>2011-06-15T08:09:50Z</time>
<ele>67.51</ele>
<name><![CDATA[Point 109]]></name>
</wpt>
<wpt lat="24.218691" lon="121.688789">
<time>2011-06-15T08:09:55Z</time>
<ele>68.85</ele>
<name><![CDATA[Point 110]]></name>
</wpt>
<wpt lat="24.218571" lon="121.688766">
<time>2011-06-15T08:10:00Z</time>
<ele>69.79</ele>
<name><![CDATA[Point 111]]></name>
</wpt>
<wpt lat="24.218485" lon="121.688721">
<time>2011-06-15T08:10:05Z</time>
<ele>69.84</ele>
<name><![CDATA[Point 112]]></name>
</wpt>
<wpt lat="24.218397" lon="121.688667">
<time>2011-06-15T08:10:10Z</time>
<ele>70.63</ele>
<name><![CDATA[Point 113]]></name>
</wpt>
<wpt lat="24.218285" lon="121.688576">
<time>2011-06-15T08:10:15Z</time>
<ele>70.87</ele>
<name><![CDATA[Point 114]]></name>
</wpt>
<wpt lat="24.218163" lon="121.688477">
<time>2011-06-15T08:10:20Z</time>
<ele>70.37</ele>
<name><![CDATA[Point 115]]></name>
</wpt>
<wpt lat="24.218065" lon="121.688377">
<time>2011-06-15T08:10:25Z</time>
<ele>69.39</ele>
<name><![CDATA[Point 116]]></name>
</wpt>
<wpt lat="24.217976" lon="121.688286">
<time>2011-06-15T08:10:30Z</time>
<ele>69.84</ele>
<name><![CDATA[Point 117]]></name>
</wpt>
<wpt lat="24.217918" lon="121.688179">
<time>2011-06-15T08:10:35Z</time>
<ele>70.93</ele>
<name><![CDATA[Point 118]]></name>
</wpt>
<wpt lat="24.217859" lon="121.688072">
<time>2011-06-15T08:10:40Z</time>
<ele>72.26</ele>
<name><![CDATA[Point 119]]></name>
</wpt>
<wpt lat="24.217796" lon="121.687965">
<time>2011-06-15T08:10:45Z</time>
<ele>74.05</ele>
<name><![CDATA[Point 120]]></name>
</wpt>
<wpt lat="24.217712" lon="121.687859">
<time>2011-06-15T08:10:50Z</time>
<ele>74.54</ele>
<name><![CDATA[Point 121]]></name>
</wpt>
<wpt lat="24.217625" lon="121.687759">
<time>2011-06-15T08:10:55Z</time>
<ele>74.89</ele>
<name><![CDATA[Point 122]]></name>
</wpt>
<wpt lat="24.217531" lon="121.687721">
<time>2011-06-15T08:11:00Z</time>
<ele>76.36</ele>
<name><![CDATA[Point 123]]></name>
</wpt>
<wpt lat="24.217417" lon="121.687683">
<time>2011-06-15T08:11:05Z</time>
<ele>77.28</ele>
<name><![CDATA[Point 124]]></name>
</wpt>
<wpt lat="24.217297" lon="121.687653">
<time>2011-06-15T08:11:10Z</time>
<ele>78.76</ele>
<name><![CDATA[Point 125]]></name>
</wpt>
<wpt lat="24.217188" lon="121.687614">
<time>2011-06-15T08:11:15Z</time>
<ele>80.94</ele>
<name><![CDATA[Point 126]]></name>
</wpt>
<wpt lat="24.217087" lon="121.687592">
<time>2011-06-15T08:11:20Z</time>
<ele>81.39</ele>
<name><![CDATA[Point 127]]></name>
</wpt>
<wpt lat="24.216997" lon="121.687569">
<time>2011-06-15T08:11:25Z</time>
<ele>82.58</ele>
<name><![CDATA[Point 128]]></name>
</wpt>
<wpt lat="24.216904" lon="121.687538">
<time>2011-06-15T08:11:30Z</time>
<ele>83.58</ele>
<name><![CDATA[Point 129]]></name>
</wpt>
<wpt lat="24.216810" lon="121.687500">
<time>2011-06-15T08:11:35Z</time>
<ele>84.56</ele>
<name><![CDATA[Point 130]]></name>
</wpt>
<wpt lat="24.216726" lon="121.687469">
<time>2011-06-15T08:11:40Z</time>
<ele>85.26</ele>
<name><![CDATA[Point 131]]></name>
</wpt>
<wpt lat="24.216633" lon="121.687431">
<time>2011-06-15T08:11:45Z</time>
<ele>85.54</ele>
<name><![CDATA[Point 132]]></name>
</wpt>
<wpt lat="24.216536" lon="121.687401">
<time>2011-06-15T08:11:50Z</time>
<ele>85.56</ele>
<name><![CDATA[Point 133]]></name>
</wpt>
<wpt lat="24.216423" lon="121.687370">
<time>2011-06-15T08:11:55Z</time>
<ele>85.93</ele>
<name><![CDATA[Point 134]]></name>
</wpt>
<wpt lat="24.216333" lon="121.687317">
<time>2011-06-15T08:12:00Z</time>
<ele>87.01</ele>
<name><![CDATA[Point 135]]></name>
</wpt>
<wpt lat="24.216246" lon="121.687256">
<time>2011-06-15T08:12:05Z</time>
<ele>88.65</ele>
<name><![CDATA[Point 136]]></name>
</wpt>
<wpt lat="24.216166" lon="121.687187">
<time>2011-06-15T08:12:10Z</time>
<ele>89.60</ele>
<name><![CDATA[Point 137]]></name>
</wpt>
<wpt lat="24.216093" lon="121.687096">
<time>2011-06-15T08:12:15Z</time>
<ele>88.40</ele>
<name><![CDATA[Point 138]]></name>
</wpt>
<wpt lat="24.215969" lon="121.686966">
<time>2011-06-15T08:12:20Z</time>
<ele>89.23</ele>
<name><![CDATA[Point 139]]></name>
</wpt>
<wpt lat="24.215815" lon="121.686836">
<time>2011-06-15T08:12:25Z</time>
<ele>90.65</ele>
<name><![CDATA[Point 140]]></name>
</wpt>
<wpt lat="24.215656" lon="121.686707">
<time>2011-06-15T08:12:30Z</time>
<ele>92.12</ele>
<name><![CDATA[Point 141]]></name>
</wpt>
<wpt lat="24.215534" lon="121.686584">
<time>2011-06-15T08:12:35Z</time>
<ele>93.35</ele>
<name><![CDATA[Point 142]]></name>
</wpt>
<wpt lat="24.212244" lon="121.682526">
<time>2011-06-15T08:15:02Z</time>
<ele>114.67</ele>
<name><![CDATA[Point 143]]></name>
</wpt>
<wpt lat="24.212206" lon="121.682381">
<time>2011-06-15T08:15:07Z</time>
<ele>106.19</ele>
<name><![CDATA[Point 144]]></name>
</wpt>
<wpt lat="24.212086" lon="121.682243">
<time>2011-06-15T08:15:12Z</time>
<ele>111.33</ele>
<name><![CDATA[Point 145]]></name>
</wpt>
<wpt lat="24.212025" lon="121.682076">
<time>2011-06-15T08:15:17Z</time>
<ele>110.32</ele>
<name><![CDATA[Point 146]]></name>
</wpt>
<wpt lat="24.212008" lon="121.681953">
<time>2011-06-15T08:15:22Z</time>
<ele>109.93</ele>
<name><![CDATA[Point 147]]></name>
</wpt>
<wpt lat="24.212040" lon="121.681931">
<time>2011-06-15T08:15:27Z</time>
<ele>109.92</ele>
<name><![CDATA[Point 148]]></name>
</wpt>
<wpt lat="24.207970" lon="121.672440">
<time>2011-06-15T08:18:53Z</time>
<ele>114.19</ele>
<name><![CDATA[Point 149]]></name>
</wpt>
<wpt lat="24.207964" lon="121.672249">
<time>2011-06-15T08:18:58Z</time>
<ele>105.37</ele>
<name><![CDATA[Point 150]]></name>
</wpt>
<wpt lat="24.207987" lon="121.672043">
<time>2011-06-15T08:19:03Z</time>
<ele>106.07</ele>
<name><![CDATA[Point 151]]></name>
</wpt>
<wpt lat="24.208000" lon="121.671783">
<time>2011-06-15T08:19:08Z</time>
<ele>104.09</ele>
<name><![CDATA[Point 152]]></name>
</wpt>
<wpt lat="24.208097" lon="121.671478">
<time>2011-06-15T08:19:13Z</time>
<ele>102.44</ele>
<name><![CDATA[Point 153]]></name>
</wpt>
<wpt lat="24.208309" lon="121.671211">
<time>2011-06-15T08:19:18Z</time>
<ele>99.69</ele>
<name><![CDATA[Point 154]]></name>
</wpt>
<wpt lat="24.208567" lon="121.670952">
<time>2011-06-15T08:19:23Z</time>
<ele>97.62</ele>
<name><![CDATA[Point 155]]></name>
</wpt>
<wpt lat="24.208818" lon="121.670609">
<time>2011-06-15T08:19:28Z</time>
<ele>95.67</ele>
<name><![CDATA[Point 156]]></name>
</wpt>
<wpt lat="24.208714" lon="121.670280">
<time>2011-06-15T08:19:33Z</time>
<ele>95.01</ele>
<name><![CDATA[Point 157]]></name>
</wpt>
<wpt lat="24.208462" lon="121.670151">
<time>2011-06-15T08:19:38Z</time>
<ele>91.80</ele>
<name><![CDATA[Point 158]]></name>
</wpt>
<wpt lat="24.208212" lon="121.670235">
<time>2011-06-15T08:19:43Z</time>
<ele>88.53</ele>
<name><![CDATA[Point 159]]></name>
</wpt>
<wpt lat="24.207941" lon="121.670326">
<time>2011-06-15T08:19:48Z</time>
<ele>85.85</ele>
<name><![CDATA[Point 160]]></name>
</wpt>
<wpt lat="24.207600" lon="121.670151">
<time>2011-06-15T08:19:53Z</time>
<ele>83.35</ele>
<name><![CDATA[Point 161]]></name>
</wpt>
<wpt lat="24.207466" lon="121.669868">
<time>2011-06-15T08:19:58Z</time>
<ele>81.36</ele>
<name><![CDATA[Point 162]]></name>
</wpt>
<wpt lat="24.207397" lon="121.669586">
<time>2011-06-15T08:20:03Z</time>
<ele>79.28</ele>
<name><![CDATA[Point 163]]></name>
</wpt>
<wpt lat="24.207352" lon="121.669319">
<time>2011-06-15T08:20:08Z</time>
<ele>77.27</ele>
<name><![CDATA[Point 164]]></name>
</wpt>
<wpt lat="24.207277" lon="121.669029">
<time>2011-06-15T08:20:13Z</time>
<ele>75.70</ele>
<name><![CDATA[Point 165]]></name>
</wpt>
<wpt lat="24.207378" lon="121.668793">
<time>2011-06-15T08:20:18Z</time>
<ele>73.60</ele>
<name><![CDATA[Point 166]]></name>
</wpt>
<wpt lat="24.207472" lon="121.668587">
<time>2011-06-15T08:20:23Z</time>
<ele>70.23</ele>
<name><![CDATA[Point 167]]></name>
</wpt>
<wpt lat="24.207573" lon="121.668282">
<time>2011-06-15T08:20:28Z</time>
<ele>67.81</ele>
<name><![CDATA[Point 168]]></name>
</wpt>
<wpt lat="24.207653" lon="121.667847">
<time>2011-06-15T08:20:33Z</time>
<ele>67.00</ele>
<name><![CDATA[Point 169]]></name>
</wpt>
<wpt lat="24.207575" lon="121.667465">
<time>2011-06-15T08:20:38Z</time>
<ele>65.80</ele>
<name><![CDATA[Point 170]]></name>
</wpt>
<wpt lat="24.207386" lon="121.667046">
<time>2011-06-15T08:20:43Z</time>
<ele>64.47</ele>
<name><![CDATA[Point 171]]></name>
</wpt>
<wpt lat="24.207157" lon="121.666672">
<time>2011-06-15T08:20:48Z</time>
<ele>63.58</ele>
<name><![CDATA[Point 172]]></name>
</wpt>
<wpt lat="24.206890" lon="121.666374">
<time>2011-06-15T08:20:53Z</time>
<ele>63.95</ele>
<name><![CDATA[Point 173]]></name>
</wpt>
<wpt lat="24.206673" lon="121.666222">
<time>2011-06-15T08:20:58Z</time>
<ele>62.59</ele>
<name><![CDATA[Point 174]]></name>
</wpt>
<wpt lat="24.206652" lon="121.666306">
<time>2011-06-15T08:21:03Z</time>
<ele>60.97</ele>
<name><![CDATA[Point 175]]></name>
</wpt>
<wpt lat="24.206705" lon="121.666481">
<time>2011-06-15T08:21:08Z</time>
<ele>61.09</ele>
<name><![CDATA[Point 176]]></name>
</wpt>
<wpt lat="24.206619" lon="121.666580">
<time>2011-06-15T08:21:13Z</time>
<ele>60.29</ele>
<name><![CDATA[Point 177]]></name>
</wpt>
<wpt lat="24.206657" lon="121.666595">
<time>2011-06-15T08:21:18Z</time>
<ele>58.89</ele>
<name><![CDATA[Point 178]]></name>
</wpt>
<wpt lat="24.206654" lon="121.666534">
<time>2011-06-15T08:21:23Z</time>
<ele>58.39</ele>
<name><![CDATA[Point 179]]></name>
</wpt>
<wpt lat="24.206615" lon="121.666580">
<time>2011-06-15T08:21:28Z</time>
<ele>57.98</ele>
<name><![CDATA[Point 180]]></name>
</wpt>
<wpt lat="24.206572" lon="121.666725">
<time>2011-06-15T08:21:33Z</time>
<ele>56.75</ele>
<name><![CDATA[Point 181]]></name>
</wpt>
<wpt lat="24.206608" lon="121.666870">
<time>2011-06-15T08:21:38Z</time>
<ele>55.56</ele>
<name><![CDATA[Point 182]]></name>
</wpt>
<wpt lat="24.206646" lon="121.666901">
<time>2011-06-15T08:21:43Z</time>
<ele>54.48</ele>
<name><![CDATA[Point 183]]></name>
</wpt>
<wpt lat="24.206648" lon="121.666931">
<time>2011-06-15T08:21:48Z</time>
<ele>54.64</ele>
<name><![CDATA[Point 184]]></name>
</wpt>
<wpt lat="24.206646" lon="121.666931">
<time>2011-06-15T08:21:53Z</time>
<ele>54.58</ele>
<name><![CDATA[Point 185]]></name>
</wpt>
<wpt lat="24.206648" lon="121.666931">
<time>2011-06-15T08:21:58Z</time>
<ele>54.56</ele>
<name><![CDATA[Point 186]]></name>
</wpt>
<wpt lat="24.206648" lon="121.666931">
<time>2011-06-15T08:22:03Z</time>
<ele>54.55</ele>
<name><![CDATA[Point 187]]></name>
</wpt>
<wpt lat="24.206650" lon="121.666924">
<time>2011-06-15T08:22:08Z</time>
<ele>54.55</ele>
<name><![CDATA[Point 188]]></name>
</wpt>
<wpt lat="24.206650" lon="121.666931">
<time>2011-06-15T08:22:13Z</time>
<ele>54.56</ele>
<name><![CDATA[Point 189]]></name>
</wpt>
<wpt lat="24.206652" lon="121.666924">
<time>2011-06-15T08:22:18Z</time>
<ele>54.57</ele>
<name><![CDATA[Point 190]]></name>
</wpt>
<wpt lat="24.206654" lon="121.666924">
<time>2011-06-15T08:22:23Z</time>
<ele>54.58</ele>
<name><![CDATA[Point 191]]></name>
</wpt>
<wpt lat="24.206657" lon="121.666916">
<time>2011-06-15T08:22:28Z</time>
<ele>54.59</ele>
<name><![CDATA[Point 192]]></name>
</wpt>
<wpt lat="24.206659" lon="121.666908">
<time>2011-06-15T08:22:33Z</time>
<ele>54.60</ele>
<name><![CDATA[Point 193]]></name>
</wpt>
<wpt lat="24.206661" lon="121.666908">
<time>2011-06-15T08:22:38Z</time>
<ele>54.61</ele>
<name><![CDATA[Point 194]]></name>
</wpt>
<wpt lat="24.206661" lon="121.666908">
<time>2011-06-15T08:22:43Z</time>
<ele>54.63</ele>
<name><![CDATA[Point 195]]></name>
</wpt>
<wpt lat="24.206661" lon="121.666908">
<time>2011-06-15T08:22:48Z</time>
<ele>54.65</ele>
<name><![CDATA[Point 196]]></name>
</wpt>
<wpt lat="24.206663" lon="121.666908">
<time>2011-06-15T08:22:53Z</time>
<ele>54.67</ele>
<name><![CDATA[Point 197]]></name>
</wpt>
<wpt lat="24.206667" lon="121.666901">
<time>2011-06-15T08:22:58Z</time>
<ele>54.68</ele>
<name><![CDATA[Point 198]]></name>
</wpt>
<wpt lat="24.206669" lon="121.666893">
<time>2011-06-15T08:23:03Z</time>
<ele>54.69</ele>
<name><![CDATA[Point 199]]></name>
</wpt>
<wpt lat="24.206671" lon="121.666893">
<time>2011-06-15T08:23:08Z</time>
<ele>54.71</ele>
<name><![CDATA[Point 200]]></name>
</wpt>
<wpt lat="24.206671" lon="121.666893">
<time>2011-06-15T08:23:13Z</time>
<ele>54.75</ele>
<name><![CDATA[Point 201]]></name>
</wpt>
<wpt lat="24.206667" lon="121.666901">
<time>2011-06-15T08:23:18Z</time>
<ele>54.77</ele>
<name><![CDATA[Point 202]]></name>
</wpt>
<wpt lat="24.206669" lon="121.666901">
<time>2011-06-15T08:23:23Z</time>
<ele>54.80</ele>
<name><![CDATA[Point 203]]></name>
</wpt>
<wpt lat="24.206669" lon="121.666893">
<time>2011-06-15T08:23:28Z</time>
<ele>54.82</ele>
<name><![CDATA[Point 204]]></name>
</wpt>
<wpt lat="24.206671" lon="121.666893">
<time>2011-06-15T08:23:33Z</time>
<ele>54.86</ele>
<name><![CDATA[Point 205]]></name>
</wpt>
<wpt lat="24.206667" lon="121.666901">
<time>2011-06-15T08:23:38Z</time>
<ele>54.90</ele>
<name><![CDATA[Point 206]]></name>
</wpt>
<wpt lat="24.206667" lon="121.666901">
<time>2011-06-15T08:23:43Z</time>
<ele>54.94</ele>
<name><![CDATA[Point 207]]></name>
</wpt>
<wpt lat="24.206663" lon="121.666908">
<time>2011-06-15T08:23:48Z</time>
<ele>55.00</ele>
<name><![CDATA[Point 208]]></name>
</wpt>
<wpt lat="24.206659" lon="121.666916">
<time>2011-06-15T08:23:53Z</time>
<ele>55.06</ele>
<name><![CDATA[Point 209]]></name>
</wpt>
<wpt lat="24.206657" lon="121.666924">
<time>2011-06-15T08:23:58Z</time>
<ele>55.04</ele>
<name><![CDATA[Point 210]]></name>
</wpt>
<wpt lat="24.206656" lon="121.666924">
<time>2011-06-15T08:24:03Z</time>
<ele>55.03</ele>
<name><![CDATA[Point 211]]></name>
</wpt>
<wpt lat="24.206659" lon="121.666916">
<time>2011-06-15T08:24:08Z</time>
<ele>55.01</ele>
<name><![CDATA[Point 212]]></name>
</wpt>
<wpt lat="24.206663" lon="121.666908">
<time>2011-06-15T08:24:13Z</time>
<ele>55.00</ele>
<name><![CDATA[Point 213]]></name>
</wpt>
<wpt lat="24.206665" lon="121.666908">
<time>2011-06-15T08:24:18Z</time>
<ele>55.01</ele>
<name><![CDATA[Point 214]]></name>
</wpt>
<wpt lat="24.206667" lon="121.666908">
<time>2011-06-15T08:24:23Z</time>
<ele>55.01</ele>
<name><![CDATA[Point 215]]></name>
</wpt>
<wpt lat="24.206669" lon="121.666901">
<time>2011-06-15T08:24:28Z</time>
<ele>55.01</ele>
<name><![CDATA[Point 216]]></name>
</wpt>
<wpt lat="24.206669" lon="121.666901">
<time>2011-06-15T08:24:33Z</time>
<ele>55.00</ele>
<name><![CDATA[Point 217]]></name>
</wpt>
<wpt lat="24.206669" lon="121.666901">
<time>2011-06-15T08:24:38Z</time>
<ele>55.02</ele>
<name><![CDATA[Point 218]]></name>
</wpt>
<wpt lat="24.206675" lon="121.666893">
<time>2011-06-15T08:24:43Z</time>
<ele>55.04</ele>
<name><![CDATA[Point 219]]></name>
</wpt>
<wpt lat="24.206680" lon="121.666885">
<time>2011-06-15T08:24:48Z</time>
<ele>55.05</ele>
<name><![CDATA[Point 220]]></name>
</wpt>
<wpt lat="24.206684" lon="121.666878">
<time>2011-06-15T08:24:53Z</time>
<ele>55.10</ele>
<name><![CDATA[Point 221]]></name>
</wpt>
<wpt lat="24.206665" lon="121.666824">
<time>2011-06-15T08:24:58Z</time>
<ele>56.09</ele>
<name><![CDATA[Point 222]]></name>
</wpt>
<wpt lat="24.206581" lon="121.666756">
<time>2011-06-15T08:25:03Z</time>
<ele>58.19</ele>
<name><![CDATA[Point 223]]></name>
</wpt>
<wpt lat="24.206577" lon="121.666641">
<time>2011-06-15T08:25:08Z</time>
<ele>60.12</ele>
<name><![CDATA[Point 224]]></name>
</wpt>
<wpt lat="24.206608" lon="121.666565">
<time>2011-06-15T08:25:13Z</time>
<ele>62.38</ele>
<name><![CDATA[Point 225]]></name>
</wpt>
<wpt lat="24.206631" lon="121.666512">
<time>2011-06-15T08:25:18Z</time>
<ele>64.54</ele>
<name><![CDATA[Point 226]]></name>
</wpt>
<wpt lat="24.206642" lon="121.666443">
<time>2011-06-15T08:25:23Z</time>
<ele>65.32</ele>
<name><![CDATA[Point 227]]></name>
</wpt>
<wpt lat="24.206629" lon="121.666382">
<time>2011-06-15T08:25:28Z</time>
<ele>67.16</ele>
<name><![CDATA[Point 228]]></name>
</wpt>
<wpt lat="24.206585" lon="121.666328">
<time>2011-06-15T08:25:33Z</time>
<ele>68.04</ele>
<name><![CDATA[Point 229]]></name>
</wpt>
<wpt lat="24.206516" lon="121.666298">
<time>2011-06-15T08:25:38Z</time>
<ele>69.36</ele>
<name><![CDATA[Point 230]]></name>
</wpt>
<wpt lat="24.206474" lon="121.666229">
<time>2011-06-15T08:25:43Z</time>
<ele>70.13</ele>
<name><![CDATA[Point 231]]></name>
</wpt>
<wpt lat="24.206390" lon="121.666161">
<time>2011-06-15T08:25:48Z</time>
<ele>70.79</ele>
<name><![CDATA[Point 232]]></name>
</wpt>
<wpt lat="24.206291" lon="121.666092">
<time>2011-06-15T08:25:53Z</time>
<ele>71.16</ele>
<name><![CDATA[Point 233]]></name>
</wpt>
<wpt lat="24.206158" lon="121.666039">
<time>2011-06-15T08:25:58Z</time>
<ele>72.18</ele>
<name><![CDATA[Point 234]]></name>
</wpt>
<wpt lat="24.206181" lon="121.665932">
<time>2011-06-15T08:26:03Z</time>
<ele>72.34</ele>
<name><![CDATA[Point 235]]></name>
</wpt>
<wpt lat="24.206161" lon="121.665985">
<time>2011-06-15T08:26:08Z</time>
<ele>72.54</ele>
<name><![CDATA[Point 236]]></name>
</wpt>
<wpt lat="24.193254" lon="121.661980">
<time>2011-06-15T08:29:28Z</time>
<ele>73.75</ele>
<name><![CDATA[Point 237]]></name>
</wpt>
<wpt lat="24.192957" lon="121.661789">
<time>2011-06-15T08:29:33Z</time>
<ele>74.36</ele>
<name><![CDATA[Point 238]]></name>
</wpt>
<wpt lat="24.192722" lon="121.661545">
<time>2011-06-15T08:29:38Z</time>
<ele>71.04</ele>
<name><![CDATA[Point 239]]></name>
</wpt>
<wpt lat="24.192408" lon="121.661407">
<time>2011-06-15T08:29:43Z</time>
<ele>70.73</ele>
<name><![CDATA[Point 240]]></name>
</wpt>
<wpt lat="24.192083" lon="121.661346">
<time>2011-06-15T08:29:48Z</time>
<ele>70.43</ele>
<name><![CDATA[Point 241]]></name>
</wpt>
<wpt lat="24.191830" lon="121.661255">
<time>2011-06-15T08:29:53Z</time>
<ele>69.43</ele>
<name><![CDATA[Point 242]]></name>
</wpt>
<wpt lat="24.191690" lon="121.661148">
<time>2011-06-15T08:29:58Z</time>
<ele>69.88</ele>
<name><![CDATA[Point 243]]></name>
</wpt>
<wpt lat="24.191656" lon="121.661102">
<time>2011-06-15T08:30:03Z</time>
<ele>70.17</ele>
<name><![CDATA[Point 244]]></name>
</wpt>
<wpt lat="24.191641" lon="121.661118">
<time>2011-06-15T08:30:08Z</time>
<ele>70.93</ele>
<name><![CDATA[Point 245]]></name>
</wpt>
<wpt lat="24.191645" lon="121.661118">
<time>2011-06-15T08:30:13Z</time>
<ele>70.94</ele>
<name><![CDATA[Point 246]]></name>
</wpt>
<wpt lat="24.191650" lon="121.661118">
<time>2011-06-15T08:30:18Z</time>
<ele>70.93</ele>
<name><![CDATA[Point 247]]></name>
</wpt>
<wpt lat="24.191645" lon="121.661118">
<time>2011-06-15T08:30:23Z</time>
<ele>70.93</ele>
<name><![CDATA[Point 248]]></name>
</wpt>
<wpt lat="24.191637" lon="121.661110">
<time>2011-06-15T08:30:28Z</time>
<ele>70.93</ele>
<name><![CDATA[Point 249]]></name>
</wpt>
<wpt lat="24.191629" lon="121.661110">
<time>2011-06-15T08:30:33Z</time>
<ele>70.93</ele>
<name><![CDATA[Point 250]]></name>
</wpt>
<wpt lat="24.191626" lon="121.661102">
<time>2011-06-15T08:30:38Z</time>
<ele>70.92</ele>
<name><![CDATA[Point 251]]></name>
</wpt>
<wpt lat="24.191616" lon="121.661095">
<time>2011-06-15T08:30:43Z</time>
<ele>70.91</ele>
<name><![CDATA[Point 252]]></name>
</wpt>
<wpt lat="24.191608" lon="121.661087">
<time>2011-06-15T08:30:48Z</time>
<ele>70.91</ele>
<name><![CDATA[Point 253]]></name>
</wpt>
<wpt lat="24.191601" lon="121.661087">
<time>2011-06-15T08:30:53Z</time>
<ele>70.91</ele>
<name><![CDATA[Point 254]]></name>
</wpt>
<wpt lat="24.191591" lon="121.661079">
<time>2011-06-15T08:30:58Z</time>
<ele>70.92</ele>
<name><![CDATA[Point 255]]></name>
</wpt>
<wpt lat="24.191584" lon="121.661072">
<time>2011-06-15T08:31:03Z</time>
<ele>70.93</ele>
<name><![CDATA[Point 256]]></name>
</wpt>
<wpt lat="24.191570" lon="121.661072">
<time>2011-06-15T08:31:08Z</time>
<ele>70.92</ele>
<name><![CDATA[Point 257]]></name>
</wpt>
<wpt lat="24.191648" lon="121.661217">
<time>2011-06-15T08:31:13Z</time>
<ele>71.72</ele>
<name><![CDATA[Point 258]]></name>
</wpt>
<wpt lat="24.191660" lon="121.661263">
<time>2011-06-15T08:31:18Z</time>
<ele>72.08</ele>
<name><![CDATA[Point 259]]></name>
</wpt>
<wpt lat="24.191685" lon="121.661255">
<time>2011-06-15T08:31:23Z</time>
<ele>73.13</ele>
<name><![CDATA[Point 260]]></name>
</wpt>
<wpt lat="24.191685" lon="121.661247">
<time>2011-06-15T08:31:28Z</time>
<ele>73.03</ele>
<name><![CDATA[Point 261]]></name>
</wpt>
<wpt lat="24.191681" lon="121.661255">
<time>2011-06-15T08:31:33Z</time>
<ele>72.93</ele>
<name><![CDATA[Point 262]]></name>
</wpt>
<wpt lat="24.191681" lon="121.661263">
<time>2011-06-15T08:31:38Z</time>
<ele>72.84</ele>
<name><![CDATA[Point 263]]></name>
</wpt>
<wpt lat="24.191681" lon="121.661255">
<time>2011-06-15T08:31:43Z</time>
<ele>72.72</ele>
<name><![CDATA[Point 264]]></name>
</wpt>
<wpt lat="24.191679" lon="121.661263">
<time>2011-06-15T08:31:48Z</time>
<ele>72.60</ele>
<name><![CDATA[Point 265]]></name>
</wpt>
<wpt lat="24.191679" lon="121.661263">
<time>2011-06-15T08:31:53Z</time>
<ele>72.48</ele>
<name><![CDATA[Point 266]]></name>
</wpt>
<wpt lat="24.191679" lon="121.661263">
<time>2011-06-15T08:31:58Z</time>
<ele>72.40</ele>
<name><![CDATA[Point 267]]></name>
</wpt>
<wpt lat="24.191679" lon="121.661255">
<time>2011-06-15T08:32:03Z</time>
<ele>72.32</ele>
<name><![CDATA[Point 268]]></name>
</wpt>
<wpt lat="24.191679" lon="121.661255">
<time>2011-06-15T08:32:08Z</time>
<ele>72.27</ele>
<name><![CDATA[Point 269]]></name>
</wpt>
<wpt lat="24.191679" lon="121.661255">
<time>2011-06-15T08:32:13Z</time>
<ele>72.23</ele>
<name><![CDATA[Point 270]]></name>
</wpt>
<wpt lat="24.191677" lon="121.661247">
<time>2011-06-15T08:32:18Z</time>
<ele>72.21</ele>
<name><![CDATA[Point 271]]></name>
</wpt>
<wpt lat="24.191677" lon="121.661247">
<time>2011-06-15T08:32:23Z</time>
<ele>72.20</ele>
<name><![CDATA[Point 272]]></name>
</wpt>
<wpt lat="24.191675" lon="121.661247">
<time>2011-06-15T08:32:28Z</time>
<ele>72.18</ele>
<name><![CDATA[Point 273]]></name>
</wpt>
<wpt lat="24.191675" lon="121.661247">
<time>2011-06-15T08:32:33Z</time>
<ele>72.19</ele>
<name><![CDATA[Point 274]]></name>
</wpt>
<wpt lat="24.191673" lon="121.661247">
<time>2011-06-15T08:32:38Z</time>
<ele>72.15</ele>
<name><![CDATA[Point 275]]></name>
</wpt>
<wpt lat="24.191673" lon="121.661247">
<time>2011-06-15T08:32:43Z</time>
<ele>72.10</ele>
<name><![CDATA[Point 276]]></name>
</wpt>
<wpt lat="24.191671" lon="121.661247">
<time>2011-06-15T08:32:48Z</time>
<ele>72.08</ele>
<name><![CDATA[Point 277]]></name>
</wpt>
<wpt lat="24.191669" lon="121.661247">
<time>2011-06-15T08:32:53Z</time>
<ele>72.02</ele>
<name><![CDATA[Point 278]]></name>
</wpt>
<wpt lat="24.191669" lon="121.661247">
<time>2011-06-15T08:32:58Z</time>
<ele>71.95</ele>
<name><![CDATA[Point 279]]></name>
</wpt>
<wpt lat="24.191669" lon="121.661247">
<time>2011-06-15T08:33:03Z</time>
<ele>71.88</ele>
<name><![CDATA[Point 280]]></name>
</wpt>
<wpt lat="24.191669" lon="121.661247">
<time>2011-06-15T08:33:08Z</time>
<ele>71.78</ele>
<name><![CDATA[Point 281]]></name>
</wpt>
<wpt lat="24.191669" lon="121.661247">
<time>2011-06-15T08:33:13Z</time>
<ele>71.70</ele>
<name><![CDATA[Point 282]]></name>
</wpt>
<wpt lat="24.191669" lon="121.661247">
<time>2011-06-15T08:33:18Z</time>
<ele>71.63</ele>
<name><![CDATA[Point 283]]></name>
</wpt>
<wpt lat="24.191669" lon="121.661247">
<time>2011-06-15T08:33:23Z</time>
<ele>71.61</ele>
<name><![CDATA[Point 284]]></name>
</wpt>
<wpt lat="24.191669" lon="121.661247">
<time>2011-06-15T08:33:28Z</time>
<ele>71.57</ele>
<name><![CDATA[Point 285]]></name>
</wpt>
<wpt lat="24.191669" lon="121.661247">
<time>2011-06-15T08:33:33Z</time>
<ele>71.52</ele>
<name><![CDATA[Point 286]]></name>
</wpt>
<wpt lat="24.191669" lon="121.661247">
<time>2011-06-15T08:33:38Z</time>
<ele>71.49</ele>
<name><![CDATA[Point 287]]></name>
</wpt>
<wpt lat="24.191669" lon="121.661247">
<time>2011-06-15T08:33:43Z</time>
<ele>71.46</ele>
<name><![CDATA[Point 288]]></name>
</wpt>
<wpt lat="24.191669" lon="121.661247">
<time>2011-06-15T08:33:48Z</time>
<ele>71.41</ele>
<name><![CDATA[Point 289]]></name>
</wpt>
<wpt lat="24.191669" lon="121.661247">
<time>2011-06-15T08:33:53Z</time>
<ele>71.40</ele>
<name><![CDATA[Point 290]]></name>
</wpt>
<wpt lat="24.191669" lon="121.661240">
<time>2011-06-15T08:33:58Z</time>
<ele>71.35</ele>
<name><![CDATA[Point 291]]></name>
</wpt>
<wpt lat="24.191668" lon="121.661240">
<time>2011-06-15T08:34:03Z</time>
<ele>71.30</ele>
<name><![CDATA[Point 292]]></name>
</wpt>
<wpt lat="24.191668" lon="121.661240">
<time>2011-06-15T08:34:08Z</time>
<ele>71.24</ele>
<name><![CDATA[Point 293]]></name>
</wpt>
<wpt lat="24.191668" lon="121.661240">
<time>2011-06-15T08:34:13Z</time>
<ele>71.18</ele>
<name><![CDATA[Point 294]]></name>
</wpt>
<wpt lat="24.191669" lon="121.661240">
<time>2011-06-15T08:34:18Z</time>
<ele>71.11</ele>
<name><![CDATA[Point 295]]></name>
</wpt>
<wpt lat="24.191669" lon="121.661240">
<time>2011-06-15T08:34:23Z</time>
<ele>71.09</ele>
<name><![CDATA[Point 296]]></name>
</wpt>
<wpt lat="24.191669" lon="121.661240">
<time>2011-06-15T08:34:28Z</time>
<ele>71.03</ele>
<name><![CDATA[Point 297]]></name>
</wpt>
<wpt lat="24.191668" lon="121.661240">
<time>2011-06-15T08:34:33Z</time>
<ele>70.99</ele>
<name><![CDATA[Point 298]]></name>
</wpt>
<wpt lat="24.191668" lon="121.661240">
<time>2011-06-15T08:34:38Z</time>
<ele>70.94</ele>
<name><![CDATA[Point 299]]></name>
</wpt>
<wpt lat="24.191668" lon="121.661240">
<time>2011-06-15T08:34:43Z</time>
<ele>70.86</ele>
<name><![CDATA[Point 300]]></name>
</wpt>
<wpt lat="24.191668" lon="121.661240">
<time>2011-06-15T08:34:48Z</time>
<ele>70.81</ele>
<name><![CDATA[Point 301]]></name>
</wpt>
<wpt lat="24.191668" lon="121.661240">
<time>2011-06-15T08:34:53Z</time>
<ele>70.77</ele>
<name><![CDATA[Point 302]]></name>
</wpt>
<wpt lat="24.191666" lon="121.661240">
<time>2011-06-15T08:34:58Z</time>
<ele>70.72</ele>
<name><![CDATA[Point 303]]></name>
</wpt>
<wpt lat="24.191666" lon="121.661240">
<time>2011-06-15T08:35:03Z</time>
<ele>70.68</ele>
<name><![CDATA[Point 304]]></name>
</wpt>
<wpt lat="24.191666" lon="121.661240">
<time>2011-06-15T08:35:08Z</time>
<ele>70.69</ele>
<name><![CDATA[Point 305]]></name>
</wpt>
<wpt lat="24.191666" lon="121.661240">
<time>2011-06-15T08:35:13Z</time>
<ele>70.66</ele>
<name><![CDATA[Point 306]]></name>
</wpt>
<wpt lat="24.191668" lon="121.661240">
<time>2011-06-15T08:35:18Z</time>
<ele>70.61</ele>
<name><![CDATA[Point 307]]></name>
</wpt>
<wpt lat="24.191668" lon="121.661232">
<time>2011-06-15T08:35:23Z</time>
<ele>70.57</ele>
<name><![CDATA[Point 308]]></name>
</wpt>
<wpt lat="24.191668" lon="121.661232">
<time>2011-06-15T08:35:28Z</time>
<ele>70.49</ele>
<name><![CDATA[Point 309]]></name>
</wpt>
<wpt lat="24.191668" lon="121.661232">
<time>2011-06-15T08:35:33Z</time>
<ele>70.42</ele>
<name><![CDATA[Point 310]]></name>
</wpt>
<wpt lat="24.191669" lon="121.661232">
<time>2011-06-15T08:35:38Z</time>
<ele>70.32</ele>
<name><![CDATA[Point 311]]></name>
</wpt>
<wpt lat="24.191669" lon="121.661232">
<time>2011-06-15T08:35:43Z</time>
<ele>70.25</ele>
<name><![CDATA[Point 312]]></name>
</wpt>
<wpt lat="24.191669" lon="121.661232">
<time>2011-06-15T08:35:48Z</time>
<ele>70.19</ele>
<name><![CDATA[Point 313]]></name>
</wpt>
<wpt lat="24.191669" lon="121.661232">
<time>2011-06-15T08:35:53Z</time>
<ele>70.14</ele>
<name><![CDATA[Point 314]]></name>
</wpt>
<wpt lat="24.191669" lon="121.661232">
<time>2011-06-15T08:35:58Z</time>
<ele>70.10</ele>
<name><![CDATA[Point 315]]></name>
</wpt>
<wpt lat="24.191669" lon="121.661232">
<time>2011-06-15T08:36:03Z</time>
<ele>70.09</ele>
<name><![CDATA[Point 316]]></name>
</wpt>
<wpt lat="24.191669" lon="121.661232">
<time>2011-06-15T08:36:08Z</time>
<ele>70.12</ele>
<name><![CDATA[Point 317]]></name>
</wpt>
<wpt lat="24.191669" lon="121.661232">
<time>2011-06-15T08:36:13Z</time>
<ele>70.10</ele>
<name><![CDATA[Point 318]]></name>
</wpt>
<wpt lat="24.191669" lon="121.661224">
<time>2011-06-15T08:36:18Z</time>
<ele>70.08</ele>
<name><![CDATA[Point 319]]></name>
</wpt>
<wpt lat="24.191671" lon="121.661224">
<time>2011-06-15T08:36:23Z</time>
<ele>70.07</ele>
<name><![CDATA[Point 320]]></name>
</wpt>
<wpt lat="24.191671" lon="121.661224">
<time>2011-06-15T08:36:28Z</time>
<ele>70.03</ele>
<name><![CDATA[Point 321]]></name>
</wpt>
<wpt lat="24.191671" lon="121.661224">
<time>2011-06-15T08:36:33Z</time>
<ele>70.00</ele>
<name><![CDATA[Point 322]]></name>
</wpt>
<wpt lat="24.191671" lon="121.661224">
<time>2011-06-15T08:36:38Z</time>
<ele>69.95</ele>
<name><![CDATA[Point 323]]></name>
</wpt>
<wpt lat="24.191673" lon="121.661224">
<time>2011-06-15T08:36:43Z</time>
<ele>69.90</ele>
<name><![CDATA[Point 324]]></name>
</wpt>
<wpt lat="24.191673" lon="121.661224">
<time>2011-06-15T08:36:48Z</time>
<ele>69.87</ele>
<name><![CDATA[Point 325]]></name>
</wpt>
<wpt lat="24.191673" lon="121.661224">
<time>2011-06-15T08:36:53Z</time>
<ele>69.81</ele>
<name><![CDATA[Point 326]]></name>
</wpt>
<wpt lat="24.191673" lon="121.661224">
<time>2011-06-15T08:36:58Z</time>
<ele>69.78</ele>
<name><![CDATA[Point 327]]></name>
</wpt>
<wpt lat="24.191673" lon="121.661224">
<time>2011-06-15T08:37:03Z</time>
<ele>69.79</ele>
<name><![CDATA[Point 328]]></name>
</wpt>
<wpt lat="24.191673" lon="121.661224">
<time>2011-06-15T08:37:08Z</time>
<ele>69.79</ele>
<name><![CDATA[Point 329]]></name>
</wpt>
<wpt lat="24.191673" lon="121.661224">
<time>2011-06-15T08:37:13Z</time>
<ele>69.77</ele>
<name><![CDATA[Point 330]]></name>
</wpt>
<wpt lat="24.191673" lon="121.661224">
<time>2011-06-15T08:37:18Z</time>
<ele>69.77</ele>
<name><![CDATA[Point 331]]></name>
</wpt>
<wpt lat="24.191673" lon="121.661217">
<time>2011-06-15T08:37:23Z</time>
<ele>69.75</ele>
<name><![CDATA[Point 332]]></name>
</wpt>
<wpt lat="24.191675" lon="121.661217">
<time>2011-06-15T08:37:28Z</time>
<ele>69.70</ele>
<name><![CDATA[Point 333]]></name>
</wpt>
<wpt lat="24.191673" lon="121.661217">
<time>2011-06-15T08:37:33Z</time>
<ele>69.68</ele>
<name><![CDATA[Point 334]]></name>
</wpt>
<wpt lat="24.191673" lon="121.661217">
<time>2011-06-15T08:37:38Z</time>
<ele>69.65</ele>
<name><![CDATA[Point 335]]></name>
</wpt>
<wpt lat="24.191673" lon="121.661217">
<time>2011-06-15T08:37:43Z</time>
<ele>69.62</ele>
<name><![CDATA[Point 336]]></name>
</wpt>
<wpt lat="24.191673" lon="121.661217">
<time>2011-06-15T08:37:48Z</time>
<ele>69.61</ele>
<name><![CDATA[Point 337]]></name>
</wpt>
<wpt lat="24.191673" lon="121.661217">
<time>2011-06-15T08:37:53Z</time>
<ele>69.57</ele>
<name><![CDATA[Point 338]]></name>
</wpt>
<wpt lat="24.191673" lon="121.661217">
<time>2011-06-15T08:37:58Z</time>
<ele>69.54</ele>
<name><![CDATA[Point 339]]></name>
</wpt>
<wpt lat="24.191673" lon="121.661217">
<time>2011-06-15T08:38:03Z</time>
<ele>69.52</ele>
<name><![CDATA[Point 340]]></name>
</wpt>
<wpt lat="24.191673" lon="121.661217">
<time>2011-06-15T08:38:08Z</time>
<ele>69.52</ele>
<name><![CDATA[Point 341]]></name>
</wpt>
<wpt lat="24.191673" lon="121.661217">
<time>2011-06-15T08:38:13Z</time>
<ele>69.53</ele>
<name><![CDATA[Point 342]]></name>
</wpt>
<wpt lat="24.191673" lon="121.661217">
<time>2011-06-15T08:38:18Z</time>
<ele>69.51</ele>
<name><![CDATA[Point 343]]></name>
</wpt>
<wpt lat="24.191669" lon="121.661209">
<time>2011-06-15T08:38:23Z</time>
<ele>69.02</ele>
<name><![CDATA[Point 344]]></name>
</wpt>
<wpt lat="24.191669" lon="121.661179">
<time>2011-06-15T08:38:28Z</time>
<ele>68.72</ele>
<name><![CDATA[Point 345]]></name>
</wpt>
<wpt lat="24.191648" lon="121.661034">
<time>2011-06-15T08:38:33Z</time>
<ele>68.97</ele>
<name><![CDATA[Point 346]]></name>
</wpt>
<wpt lat="24.191532" lon="121.660896">
<time>2011-06-15T08:38:38Z</time>
<ele>69.53</ele>
<name><![CDATA[Point 347]]></name>
</wpt>
<wpt lat="24.189129" lon="121.660362">
<time>2011-06-15T08:39:28Z</time>
<ele>100.05</ele>
<name><![CDATA[Point 348]]></name>
</wpt>
<wpt lat="24.188902" lon="121.660378">
<time>2011-06-15T08:39:33Z</time>
<ele>72.90</ele>
<name><![CDATA[Point 349]]></name>
</wpt>
<wpt lat="24.188644" lon="121.660271">
<time>2011-06-15T08:39:38Z</time>
<ele>70.46</ele>
<name><![CDATA[Point 350]]></name>
</wpt>
<rte>
<name>Route</name>
<rtept lat="24.223434" lon="121.695236">
<time>2011-06-15T07:59:21Z</time>
<ele>71.94</ele>
<name><![CDATA[Point 0]]></name>
</rtept>
<rtept lat="24.223406" lon="121.695320">
<time>2011-06-15T07:59:26Z</time>
<ele>71.35</ele>
<name><![CDATA[Point 1]]></name>
</rtept>
<rtept lat="24.219208" lon="121.692856">
<time>2011-06-15T08:00:55Z</time>
<ele>83.41</ele>
<name><![CDATA[Point 2]]></name>
</rtept>
<rtept lat="24.219088" lon="121.692795">
<time>2011-06-15T08:01:00Z</time>
<ele>84.60</ele>
<name><![CDATA[Point 3]]></name>
</rtept>
<rtept lat="24.219006" lon="121.692680">
<time>2011-06-15T08:01:05Z</time>
<ele>86.27</ele>
<name><![CDATA[Point 4]]></name>
</rtept>
<rtept lat="24.218916" lon="121.692612">
<time>2011-06-15T08:01:10Z</time>
<ele>86.83</ele>
<name><![CDATA[Point 5]]></name>
</rtept>
<rtept lat="24.218859" lon="121.692535">
<time>2011-06-15T08:01:15Z</time>
<ele>86.14</ele>
<name><![CDATA[Point 6]]></name>
</rtept>
<rtept lat="24.218807" lon="121.692444">
<time>2011-06-15T08:01:20Z</time>
<ele>84.56</ele>
<name><![CDATA[Point 7]]></name>
</rtept>
<rtept lat="24.218691" lon="121.692360">
<time>2011-06-15T08:01:25Z</time>
<ele>83.88</ele>
<name><![CDATA[Point 8]]></name>
</rtept>
<rtept lat="24.218607" lon="121.692268">
<time>2011-06-15T08:01:30Z</time>
<ele>82.79</ele>
<name><![CDATA[Point 9]]></name>
</rtept>
<rtept lat="24.218521" lon="121.692177">
<time>2011-06-15T08:01:35Z</time>
<ele>81.46</ele>
<name><![CDATA[Point 10]]></name>
</rtept>
<rtept lat="24.218422" lon="121.692093">
<time>2011-06-15T08:01:40Z</time>
<ele>81.37</ele>
<name><![CDATA[Point 11]]></name>
</rtept>
<rtept lat="24.218313" lon="121.692009">
<time>2011-06-15T08:01:45Z</time>
<ele>79.61</ele>
<name><![CDATA[Point 12]]></name>
</rtept>
<rtept lat="24.218170" lon="121.691956">
<time>2011-06-15T08:01:50Z</time>
<ele>80.22</ele>
<name><![CDATA[Point 13]]></name>
</rtept>
<rtept lat="24.218029" lon="121.691902">
<time>2011-06-15T08:01:55Z</time>
<ele>80.16</ele>
<name><![CDATA[Point 14]]></name>
</rtept>
<rtept lat="24.217905" lon="121.691841">
<time>2011-06-15T08:02:00Z</time>
<ele>78.87</ele>
<name><![CDATA[Point 15]]></name>
</rtept>
<rtept lat="24.217758" lon="121.691719">
<time>2011-06-15T08:02:05Z</time>
<ele>79.68</ele>
<name><![CDATA[Point 16]]></name>
</rtept>
<rtept lat="24.217821" lon="121.691490">
<time>2011-06-15T08:02:10Z</time>
<ele>81.37</ele>
<name><![CDATA[Point 17]]></name>
</rtept>
<rtept lat="24.217871" lon="121.691170">
<time>2011-06-15T08:02:15Z</time>
<ele>79.64</ele>
<name><![CDATA[Point 18]]></name>
</rtept>
<rtept lat="24.218060" lon="121.690865">
<time>2011-06-15T08:02:20Z</time>
<ele>78.32</ele>
<name><![CDATA[Point 19]]></name>
</rtept>
<rtept lat="24.218414" lon="121.690750">
<time>2011-06-15T08:02:25Z</time>
<ele>76.09</ele>
<name><![CDATA[Point 20]]></name>
</rtept>
<rtept lat="24.218800" lon="121.690582">
<time>2011-06-15T08:02:30Z</time>
<ele>74.62</ele>
<name><![CDATA[Point 21]]></name>
</rtept>
<rtept lat="24.219257" lon="121.690483">
<time>2011-06-15T08:02:35Z</time>
<ele>74.40</ele>
<name><![CDATA[Point 22]]></name>
</rtept>
<rtept lat="24.219620" lon="121.690193">
<time>2011-06-15T08:02:40Z</time>
<ele>72.92</ele>
<name><![CDATA[Point 23]]></name>
</rtept>
<rtept lat="24.219961" lon="121.689896">
<time>2011-06-15T08:02:45Z</time>
<ele>71.58</ele>
<name><![CDATA[Point 24]]></name>
</rtept>
<rtept lat="24.220243" lon="121.689552">
<time>2011-06-15T08:02:50Z</time>
<ele>70.33</ele>
<name><![CDATA[Point 25]]></name>
</rtept>
<rtept lat="24.220179" lon="121.689171">
<time>2011-06-15T08:02:55Z</time>
<ele>68.68</ele>
<name><![CDATA[Point 26]]></name>
</rtept>
<rtept lat="24.219864" lon="121.689041">
<time>2011-06-15T08:03:00Z</time>
<ele>63.94</ele>
<name><![CDATA[Point 27]]></name>
</rtept>
<rtept lat="24.219568" lon="121.689003">
<time>2011-06-15T08:03:05Z</time>
<ele>60.52</ele>
<name><![CDATA[Point 28]]></name>
</rtept>
<rtept lat="24.219366" lon="121.689087">
<time>2011-06-15T08:03:10Z</time>
<ele>58.28</ele>
<name><![CDATA[Point 29]]></name>
</rtept>
<rtept lat="24.219250" lon="121.689117">
<time>2011-06-15T08:03:15Z</time>
<ele>57.42</ele>
<name><![CDATA[Point 30]]></name>
</rtept>
<rtept lat="24.219135" lon="121.689110">
<time>2011-06-15T08:03:20Z</time>
<ele>57.33</ele>
<name><![CDATA[Point 31]]></name>
</rtept>
<rtept lat="24.219072" lon="121.689079">
<time>2011-06-15T08:03:25Z</time>
<ele>56.87</ele>
<name><![CDATA[Point 32]]></name>
</rtept>
<rtept lat="24.219051" lon="121.689156">
<time>2011-06-15T08:03:30Z</time>
<ele>56.13</ele>
<name><![CDATA[Point 33]]></name>
</rtept>
<rtept lat="24.219013" lon="121.689186">
<time>2011-06-15T08:03:35Z</time>
<ele>55.78</ele>
<name><![CDATA[Point 34]]></name>
</rtept>
<rtept lat="24.219004" lon="121.689178">
<time>2011-06-15T08:03:40Z</time>
<ele>55.54</ele>
<name><![CDATA[Point 35]]></name>
</rtept>
<rtept lat="24.218941" lon="121.689133">
<time>2011-06-15T08:03:45Z</time>
<ele>55.78</ele>
<name><![CDATA[Point 36]]></name>
</rtept>
<rtept lat="24.218855" lon="121.689056">
<time>2011-06-15T08:03:50Z</time>
<ele>57.00</ele>
<name><![CDATA[Point 37]]></name>
</rtept>
<rtept lat="24.218822" lon="121.689041">
<time>2011-06-15T08:03:55Z</time>
<ele>58.75</ele>
<name><![CDATA[Point 38]]></name>
</rtept>
<rtept lat="24.218811" lon="121.689041">
<time>2011-06-15T08:04:00Z</time>
<ele>58.79</ele>
<name><![CDATA[Point 39]]></name>
</rtept>
<rtept lat="24.218811" lon="121.689041">
<time>2011-06-15T08:04:05Z</time>
<ele>58.83</ele>
<name><![CDATA[Point 40]]></name>
</rtept>
<rtept lat="24.218809" lon="121.689041">
<time>2011-06-15T08:04:10Z</time>
<ele>58.84</ele>
<name><![CDATA[Point 41]]></name>
</rtept>
<rtept lat="24.218803" lon="121.689041">
<time>2011-06-15T08:04:15Z</time>
<ele>58.85</ele>
<name><![CDATA[Point 42]]></name>
</rtept>
<rtept lat="24.218800" lon="121.689034">
<time>2011-06-15T08:04:20Z</time>
<ele>58.88</ele>
<name><![CDATA[Point 43]]></name>
</rtept>
<rtept lat="24.218798" lon="121.689034">
<time>2011-06-15T08:04:25Z</time>
<ele>58.91</ele>
<name><![CDATA[Point 44]]></name>
</rtept>
<rtept lat="24.218800" lon="121.689034">
<time>2011-06-15T08:04:30Z</time>
<ele>58.93</ele>
<name><![CDATA[Point 45]]></name>
</rtept>
<rtept lat="24.218800" lon="121.689034">
<time>2011-06-15T08:04:35Z</time>
<ele>58.96</ele>
<name><![CDATA[Point 46]]></name>
</rtept>
<rtept lat="24.218800" lon="121.689034">
<time>2011-06-15T08:04:40Z</time>
<ele>58.99</ele>
<name><![CDATA[Point 47]]></name>
</rtept>
<rtept lat="24.218800" lon="121.689034">
<time>2011-06-15T08:04:45Z</time>
<ele>59.01</ele>
<name><![CDATA[Point 48]]></name>
</rtept>
<rtept lat="24.218800" lon="121.689034">
<time>2011-06-15T08:04:50Z</time>
<ele>59.03</ele>
<name><![CDATA[Point 49]]></name>
</rtept>
<rtept lat="24.218800" lon="121.689034">
<time>2011-06-15T08:04:55Z</time>
<ele>59.04</ele>
<name><![CDATA[Point 50]]></name>
</rtept>
<rtept lat="24.218800" lon="121.689034">
<time>2011-06-15T08:05:00Z</time>
<ele>59.05</ele>
<name><![CDATA[Point 51]]></name>
</rtept>
<rtept lat="24.218801" lon="121.689034">
<time>2011-06-15T08:05:05Z</time>
<ele>59.06</ele>
<name><![CDATA[Point 52]]></name>
</rtept>
<rtept lat="24.218811" lon="121.689041">
<time>2011-06-15T08:05:10Z</time>
<ele>59.08</ele>
<name><![CDATA[Point 53]]></name>
</rtept>
<rtept lat="24.218832" lon="121.689079">
<time>2011-06-15T08:05:15Z</time>
<ele>59.33</ele>
<name><![CDATA[Point 54]]></name>
</rtept>
<rtept lat="24.218843" lon="121.689095">
<time>2011-06-15T08:05:20Z</time>
<ele>59.45</ele>
<name><![CDATA[Point 55]]></name>
</rtept>
<rtept lat="24.218845" lon="121.689095">
<time>2011-06-15T08:05:25Z</time>
<ele>59.50</ele>
<name><![CDATA[Point 56]]></name>
</rtept>
<rtept lat="24.218845" lon="121.689095">
<time>2011-06-15T08:05:30Z</time>
<ele>59.52</ele>
<name><![CDATA[Point 57]]></name>
</rtept>
<rtept lat="24.218847" lon="121.689095">
<time>2011-06-15T08:05:35Z</time>
<ele>59.54</ele>
<name><![CDATA[Point 58]]></name>
</rtept>
<rtept lat="24.218845" lon="121.689095">
<time>2011-06-15T08:05:40Z</time>
<ele>59.56</ele>
<name><![CDATA[Point 59]]></name>
</rtept>
<rtept lat="24.218843" lon="121.689095">
<time>2011-06-15T08:05:45Z</time>
<ele>59.56</ele>
<name><![CDATA[Point 60]]></name>
</rtept>
<rtept lat="24.218842" lon="121.689095">
<time>2011-06-15T08:05:50Z</time>
<ele>59.57</ele>
<name><![CDATA[Point 61]]></name>
</rtept>
<rtept lat="24.218838" lon="121.689087">
<time>2011-06-15T08:05:55Z</time>
<ele>59.58</ele>
<name><![CDATA[Point 62]]></name>
</rtept>
<rtept lat="24.218838" lon="121.689087">
<time>2011-06-15T08:06:00Z</time>
<ele>59.60</ele>
<name><![CDATA[Point 63]]></name>
</rtept>
<rtept lat="24.218834" lon="121.689087">
<time>2011-06-15T08:06:05Z</time>
<ele>59.63</ele>
<name><![CDATA[Point 64]]></name>
</rtept>
<rtept lat="24.218834" lon="121.689087">
<time>2011-06-15T08:06:10Z</time>
<ele>59.64</ele>
<name><![CDATA[Point 65]]></name>
</rtept>
<rtept lat="24.218836" lon="121.689087">
<time>2011-06-15T08:06:15Z</time>
<ele>59.62</ele>
<name><![CDATA[Point 66]]></name>
</rtept>
<rtept lat="24.218832" lon="121.689087">
<time>2011-06-15T08:06:20Z</time>
<ele>59.60</ele>
<name><![CDATA[Point 67]]></name>
</rtept>
<rtept lat="24.218830" lon="121.689079">
<time>2011-06-15T08:06:25Z</time>
<ele>59.59</ele>
<name><![CDATA[Point 68]]></name>
</rtept>
<rtept lat="24.218828" lon="121.689079">
<time>2011-06-15T08:06:30Z</time>
<ele>59.60</ele>
<name><![CDATA[Point 69]]></name>
</rtept>
<rtept lat="24.218830" lon="121.689079">
<time>2011-06-15T08:06:35Z</time>
<ele>59.62</ele>
<name><![CDATA[Point 70]]></name>
</rtept>
<rtept lat="24.218832" lon="121.689087">
<time>2011-06-15T08:06:40Z</time>
<ele>59.74</ele>
<name><![CDATA[Point 71]]></name>
</rtept>
<rtept lat="24.218830" lon="121.689087">
<time>2011-06-15T08:06:45Z</time>
<ele>59.85</ele>
<name><![CDATA[Point 72]]></name>
</rtept>
<rtept lat="24.218832" lon="121.689087">
<time>2011-06-15T08:06:50Z</time>
<ele>59.93</ele>
<name><![CDATA[Point 73]]></name>
</rtept>
<rtept lat="24.218832" lon="121.689087">
<time>2011-06-15T08:06:55Z</time>
<ele>60.04</ele>
<name><![CDATA[Point 74]]></name>
</rtept>
<rtept lat="24.218834" lon="121.689087">
<time>2011-06-15T08:07:00Z</time>
<ele>60.13</ele>
<name><![CDATA[Point 75]]></name>
</rtept>
<rtept lat="24.218834" lon="121.689087">
<time>2011-06-15T08:07:05Z</time>
<ele>60.21</ele>
<name><![CDATA[Point 76]]></name>
</rtept>
<rtept lat="24.218830" lon="121.689087">
<time>2011-06-15T08:07:10Z</time>
<ele>60.25</ele>
<name><![CDATA[Point 77]]></name>
</rtept>
<rtept lat="24.218828" lon="121.689087">
<time>2011-06-15T08:07:15Z</time>
<ele>60.29</ele>
<name><![CDATA[Point 78]]></name>
</rtept>
<rtept lat="24.218830" lon="121.689087">
<time>2011-06-15T08:07:20Z</time>
<ele>60.31</ele>
<name><![CDATA[Point 79]]></name>
</rtept>
<rtept lat="24.218822" lon="121.689087">
<time>2011-06-15T08:07:25Z</time>
<ele>60.32</ele>
<name><![CDATA[Point 80]]></name>
</rtept>
<rtept lat="24.218815" lon="121.689079">
<time>2011-06-15T08:07:30Z</time>
<ele>60.36</ele>
<name><![CDATA[Point 81]]></name>
</rtept>
<rtept lat="24.218809" lon="121.689079">
<time>2011-06-15T08:07:35Z</time>
<ele>60.34</ele>
<name><![CDATA[Point 82]]></name>
</rtept>
<rtept lat="24.218809" lon="121.689079">
<time>2011-06-15T08:07:40Z</time>
<ele>60.35</ele>
<name><![CDATA[Point 83]]></name>
</rtept>
<rtept lat="24.218813" lon="121.689087">
<time>2011-06-15T08:07:45Z</time>
<ele>60.34</ele>
<name><![CDATA[Point 84]]></name>
</rtept>
<rtept lat="24.218838" lon="121.689072">
<time>2011-06-15T08:07:50Z</time>
<ele>60.70</ele>
<name><![CDATA[Point 85]]></name>
</rtept>
<rtept lat="24.218843" lon="121.689064">
<time>2011-06-15T08:07:55Z</time>
<ele>61.03</ele>
<name><![CDATA[Point 86]]></name>
</rtept>
<rtept lat="24.218842" lon="121.689064">
<time>2011-06-15T08:08:00Z</time>
<ele>61.18</ele>
<name><![CDATA[Point 87]]></name>
</rtept>
<rtept lat="24.218842" lon="121.689064">
<time>2011-06-15T08:08:05Z</time>
<ele>61.26</ele>
<name><![CDATA[Point 88]]></name>
</rtept>
<rtept lat="24.218845" lon="121.689064">
<time>2011-06-15T08:08:10Z</time>
<ele>61.34</ele>
<name><![CDATA[Point 89]]></name>
</rtept>
<rtept lat="24.218847" lon="121.689064">
<time>2011-06-15T08:08:15Z</time>
<ele>61.50</ele>
<name><![CDATA[Point 90]]></name>
</rtept>
<rtept lat="24.218845" lon="121.689064">
<time>2011-06-15T08:08:20Z</time>
<ele>61.64</ele>
<name><![CDATA[Point 91]]></name>
</rtept>
<rtept lat="24.218847" lon="121.689064">
<time>2011-06-15T08:08:25Z</time>
<ele>61.65</ele>
<name><![CDATA[Point 92]]></name>
</rtept>
<rtept lat="24.218849" lon="121.689064">
<time>2011-06-15T08:08:30Z</time>
<ele>61.64</ele>
<name><![CDATA[Point 93]]></name>
</rtept>
<rtept lat="24.218853" lon="121.689072">
<time>2011-06-15T08:08:35Z</time>
<ele>61.72</ele>
<name><![CDATA[Point 94]]></name>
</rtept>
<rtept lat="24.218859" lon="121.689072">
<time>2011-06-15T08:08:40Z</time>
<ele>61.90</ele>
<name><![CDATA[Point 95]]></name>
</rtept>
<rtept lat="24.218863" lon="121.689072">
<time>2011-06-15T08:08:45Z</time>
<ele>62.10</ele>
<name><![CDATA[Point 96]]></name>
</rtept>
<rtept lat="24.218863" lon="121.689072">
<time>2011-06-15T08:08:50Z</time>
<ele>62.23</ele>
<name><![CDATA[Point 97]]></name>
</rtept>
<rtept lat="24.218864" lon="121.689072">
<time>2011-06-15T08:08:55Z</time>
<ele>62.32</ele>
<name><![CDATA[Point 98]]></name>
</rtept>
<rtept lat="24.218868" lon="121.689072">
<time>2011-06-15T08:09:00Z</time>
<ele>62.39</ele>
<name><![CDATA[Point 99]]></name>
</rtept>
<rtept lat="24.218870" lon="121.689072">
<time>2011-06-15T08:09:05Z</time>
<ele>62.58</ele>
<name><![CDATA[Point 100]]></name>
</rtept>
<rtept lat="24.218874" lon="121.689072">
<time>2011-06-15T08:09:10Z</time>
<ele>63.08</ele>
<name><![CDATA[Point 101]]></name>
</rtept>
<rtept lat="24.218876" lon="121.689072">
<time>2011-06-15T08:09:15Z</time>
<ele>63.39</ele>
<name><![CDATA[Point 102]]></name>
</rtept>
<rtept lat="24.218918" lon="121.689079">
<time>2011-06-15T08:09:20Z</time>
<ele>64.11</ele>
<name><![CDATA[Point 103]]></name>
</rtept>
<rtept lat="24.218990" lon="121.689148">
<time>2011-06-15T08:09:25Z</time>
<ele>64.81</ele>
<name><![CDATA[Point 104]]></name>
</rtept>
<rtept lat="24.219046" lon="121.689095">
<time>2011-06-15T08:09:30Z</time>
<ele>65.62</ele>
<name><![CDATA[Point 105]]></name>
</rtept>
<rtept lat="24.219011" lon="121.688995">
<time>2011-06-15T08:09:35Z</time>
<ele>66.44</ele>
<name><![CDATA[Point 106]]></name>
</rtept>
<rtept lat="24.218973" lon="121.688896">
<time>2011-06-15T08:09:40Z</time>
<ele>66.52</ele>
<name><![CDATA[Point 107]]></name>
</rtept>
<rtept lat="24.218897" lon="121.688828">
<time>2011-06-15T08:09:45Z</time>
<ele>66.21</ele>
<name><![CDATA[Point 108]]></name>
</rtept>
<rtept lat="24.218801" lon="121.688812">
<time>2011-06-15T08:09:50Z</time>
<ele>67.51</ele>
<name><![CDATA[Point 109]]></name>
</rtept>
<rtept lat="24.218691" lon="121.688789">
<time>2011-06-15T08:09:55Z</time>
<ele>68.85</ele>
<name><![CDATA[Point 110]]></name>
</rtept>
<rtept lat="24.218571" lon="121.688766">
<time>2011-06-15T08:10:00Z</time>
<ele>69.79</ele>
<name><![CDATA[Point 111]]></name>
</rtept>
<rtept lat="24.218485" lon="121.688721">
<time>2011-06-15T08:10:05Z</time>
<ele>69.84</ele>
<name><![CDATA[Point 112]]></name>
</rtept>
<rtept lat="24.218397" lon="121.688667">
<time>2011-06-15T08:10:10Z</time>
<ele>70.63</ele>
<name><![CDATA[Point 113]]></name>
</rtept>
<rtept lat="24.218285" lon="121.688576">
<time>2011-06-15T08:10:15Z</time>
<ele>70.87</ele>
<name><![CDATA[Point 114]]></name>
</rtept>
<rtept lat="24.218163" lon="121.688477">
<time>2011-06-15T08:10:20Z</time>
<ele>70.37</ele>
<name><![CDATA[Point 115]]></name>
</rtept>
<rtept lat="24.218065" lon="121.688377">
<time>2011-06-15T08:10:25Z</time>
<ele>69.39</ele>
<name><![CDATA[Point 116]]></name>
</rtept>
<rtept lat="24.217976" lon="121.688286">
<time>2011-06-15T08:10:30Z</time>
<ele>69.84</ele>
<name><![CDATA[Point 117]]></name>
</rtept>
<rtept lat="24.217918" lon="121.688179">
<time>2011-06-15T08:10:35Z</time>
<ele>70.93</ele>
<name><![CDATA[Point 118]]></name>
</rtept>
<rtept lat="24.217859" lon="121.688072">
<time>2011-06-15T08:10:40Z</time>
<ele>72.26</ele>
<name><![CDATA[Point 119]]></name>
</rtept>
<rtept lat="24.217796" lon="121.687965">
<time>2011-06-15T08:10:45Z</time>
<ele>74.05</ele>
<name><![CDATA[Point 120]]></name>
</rtept>
<rtept lat="24.217712" lon="121.687859">
<time>2011-06-15T08:10:50Z</time>
<ele>74.54</ele>
<name><![CDATA[Point 121]]></name>
</rtept>
<rtept lat="24.217625" lon="121.687759">
<time>2011-06-15T08:10:55Z</time>
<ele>74.89</ele>
<name><![CDATA[Point 122]]></name>
</rtept>
<rtept lat="24.217531" lon="121.687721">
<time>2011-06-15T08:11:00Z</time>
<ele>76.36</ele>
<name><![CDATA[Point 123]]></name>
</rtept>
<rtept lat="24.217417" lon="121.687683">
<time>2011-06-15T08:11:05Z</time>
<ele>77.28</ele>
<name><![CDATA[Point 124]]></name>
</rtept>
<rtept lat="24.217297" lon="121.687653">
<time>2011-06-15T08:11:10Z</time>
<ele>78.76</ele>
<name><![CDATA[Point 125]]></name>
</rtept>
<rtept lat="24.217188" lon="121.687614">
<time>2011-06-15T08:11:15Z</time>
<ele>80.94</ele>
<name><![CDATA[Point 126]]></name>
</rtept>
<rtept lat="24.217087" lon="121.687592">
<time>2011-06-15T08:11:20Z</time>
<ele>81.39</ele>
<name><![CDATA[Point 127]]></name>
</rtept>
<rtept lat="24.216997" lon="121.687569">
<time>2011-06-15T08:11:25Z</time>
<ele>82.58</ele>
<name><![CDATA[Point 128]]></name>
</rtept>
<rtept lat="24.216904" lon="121.687538">
<time>2011-06-15T08:11:30Z</time>
<ele>83.58</ele>
<name><![CDATA[Point 129]]></name>
</rtept>
<rtept lat="24.216810" lon="121.687500">
<time>2011-06-15T08:11:35Z</time>
<ele>84.56</ele>
<name><![CDATA[Point 130]]></name>
</rtept>
<rtept lat="24.216726" lon="121.687469">
<time>2011-06-15T08:11:40Z</time>
<ele>85.26</ele>
<name><![CDATA[Point 131]]></name>
</rtept>
<rtept lat="24.216633" lon="121.687431">
<time>2011-06-15T08:11:45Z</time>
<ele>85.54</ele>
<name><![CDATA[Point 132]]></name>
</rtept>
<rtept lat="24.216536" lon="121.687401">
<time>2011-06-15T08:11:50Z</time>
<ele>85.56</ele>
<name><![CDATA[Point 133]]></name>
</rtept>
<rtept lat="24.216423" lon="121.687370">
<time>2011-06-15T08:11:55Z</time>
<ele>85.93</ele>
<name><![CDATA[Point 134]]></name>
</rtept>
<rtept lat="24.216333" lon="121.687317">
<time>2011-06-15T08:12:00Z</time>
<ele>87.01</ele>
<name><![CDATA[Point 135]]></name>
</rtept>
<rtept lat="24.216246" lon="121.687256">
<time>2011-06-15T08:12:05Z</time>
<ele>88.65</ele>
<name><![CDATA[Point 136]]></name>
</rtept>
<rtept lat="24.216166" lon="121.687187">
<time>2011-06-15T08:12:10Z</time>
<ele>89.60</ele>
<name><![CDATA[Point 137]]></name>
</rtept>
<rtept lat="24.216093" lon="121.687096">
<time>2011-06-15T08:12:15Z</time>
<ele>88.40</ele>
<name><![CDATA[Point 138]]></name>
</rtept>
<rtept lat="24.215969" lon="121.686966">
<time>2011-06-15T08:12:20Z</time>
<ele>89.23</ele>
<name><![CDATA[Point 139]]></name>
</rtept>
<rtept lat="24.215815" lon="121.686836">
<time>2011-06-15T08:12:25Z</time>
<ele>90.65</ele>
<name><![CDATA[Point 140]]></name>
</rtept>
<rtept lat="24.215656" lon="121.686707">
<time>2011-06-15T08:12:30Z</time>
<ele>92.12</ele>
<name><![CDATA[Point 141]]></name>
</rtept>
<rtept lat="24.215534" lon="121.686584">
<time>2011-06-15T08:12:35Z</time>
<ele>93.35</ele>
<name><![CDATA[Point 142]]></name>
</rtept>
<rtept lat="24.212244" lon="121.682526">
<time>2011-06-15T08:15:02Z</time>
<ele>114.67</ele>
<name><![CDATA[Point 143]]></name>
</rtept>
<rtept lat="24.212206" lon="121.682381">
<time>2011-06-15T08:15:07Z</time>
<ele>106.19</ele>
<name><![CDATA[Point 144]]></name>
</rtept>
<rtept lat="24.212086" lon="121.682243">
<time>2011-06-15T08:15:12Z</time>
<ele>111.33</ele>
<name><![CDATA[Point 145]]></name>
</rtept>
<rtept lat="24.212025" lon="121.682076">
<time>2011-06-15T08:15:17Z</time>
<ele>110.32</ele>
<name><![CDATA[Point 146]]></name>
</rtept>
<rtept lat="24.212008" lon="121.681953">
<time>2011-06-15T08:15:22Z</time>
<ele>109.93</ele>
<name><![CDATA[Point 147]]></name>
</rtept>
<rtept lat="24.212040" lon="121.681931">
<time>2011-06-15T08:15:27Z</time>
<ele>109.92</ele>
<name><![CDATA[Point 148]]></name>
</rtept>
<rtept lat="24.207970" lon="121.672440">
<time>2011-06-15T08:18:53Z</time>
<ele>114.19</ele>
<name><![CDATA[Point 149]]></name>
</rtept>
<rtept lat="24.207964" lon="121.672249">
<time>2011-06-15T08:18:58Z</time>
<ele>105.37</ele>
<name><![CDATA[Point 150]]></name>
</rtept>
<rtept lat="24.207987" lon="121.672043">
<time>2011-06-15T08:19:03Z</time>
<ele>106.07</ele>
<name><![CDATA[Point 151]]></name>
</rtept>
<rtept lat="24.208000" lon="121.671783">
<time>2011-06-15T08:19:08Z</time>
<ele>104.09</ele>
<name><![CDATA[Point 152]]></name>
</rtept>
<rtept lat="24.208097" lon="121.671478">
<time>2011-06-15T08:19:13Z</time>
<ele>102.44</ele>
<name><![CDATA[Point 153]]></name>
</rtept>
<rtept lat="24.208309" lon="121.671211">
<time>2011-06-15T08:19:18Z</time>
<ele>99.69</ele>
<name><![CDATA[Point 154]]></name>
</rtept>
<rtept lat="24.208567" lon="121.670952">
<time>2011-06-15T08:19:23Z</time>
<ele>97.62</ele>
<name><![CDATA[Point 155]]></name>
</rtept>
<rtept lat="24.208818" lon="121.670609">
<time>2011-06-15T08:19:28Z</time>
<ele>95.67</ele>
<name><![CDATA[Point 156]]></name>
</rtept>
<rtept lat="24.208714" lon="121.670280">
<time>2011-06-15T08:19:33Z</time>
<ele>95.01</ele>
<name><![CDATA[Point 157]]></name>
</rtept>
<rtept lat="24.208462" lon="121.670151">
<time>2011-06-15T08:19:38Z</time>
<ele>91.80</ele>
<name><![CDATA[Point 158]]></name>
</rtept>
<rtept lat="24.208212" lon="121.670235">
<time>2011-06-15T08:19:43Z</time>
<ele>88.53</ele>
<name><![CDATA[Point 159]]></name>
</rtept>
<rtept lat="24.207941" lon="121.670326">
<time>2011-06-15T08:19:48Z</time>
<ele>85.85</ele>
<name><![CDATA[Point 160]]></name>
</rtept>
<rtept lat="24.207600" lon="121.670151">
<time>2011-06-15T08:19:53Z</time>
<ele>83.35</ele>
<name><![CDATA[Point 161]]></name>
</rtept>
<rtept lat="24.207466" lon="121.669868">
<time>2011-06-15T08:19:58Z</time>
<ele>81.36</ele>
<name><![CDATA[Point 162]]></name>
</rtept>
<rtept lat="24.207397" lon="121.669586">
<time>2011-06-15T08:20:03Z</time>
<ele>79.28</ele>
<name><![CDATA[Point 163]]></name>
</rtept>
<rtept lat="24.207352" lon="121.669319">
<time>2011-06-15T08:20:08Z</time>
<ele>77.27</ele>
<name><![CDATA[Point 164]]></name>
</rtept>
<rtept lat="24.207277" lon="121.669029">
<time>2011-06-15T08:20:13Z</time>
<ele>75.70</ele>
<name><![CDATA[Point 165]]></name>
</rtept>
<rtept lat="24.207378" lon="121.668793">
<time>2011-06-15T08:20:18Z</time>
<ele>73.60</ele>
<name><![CDATA[Point 166]]></name>
</rtept>
<rtept lat="24.207472" lon="121.668587">
<time>2011-06-15T08:20:23Z</time>
<ele>70.23</ele>
<name><![CDATA[Point 167]]></name>
</rtept>
<rtept lat="24.207573" lon="121.668282">
<time>2011-06-15T08:20:28Z</time>
<ele>67.81</ele>
<name><![CDATA[Point 168]]></name>
</rtept>
<rtept lat="24.207653" lon="121.667847">
<time>2011-06-15T08:20:33Z</time>
<ele>67.00</ele>
<name><![CDATA[Point 169]]></name>
</rtept>
<rtept lat="24.207575" lon="121.667465">
<time>2011-06-15T08:20:38Z</time>
<ele>65.80</ele>
<name><![CDATA[Point 170]]></name>
</rtept>
<rtept lat="24.207386" lon="121.667046">
<time>2011-06-15T08:20:43Z</time>
<ele>64.47</ele>
<name><![CDATA[Point 171]]></name>
</rtept>
<rtept lat="24.207157" lon="121.666672">
<time>2011-06-15T08:20:48Z</time>
<ele>63.58</ele>
<name><![CDATA[Point 172]]></name>
</rtept>
<rtept lat="24.206890" lon="121.666374">
<time>2011-06-15T08:20:53Z</time>
<ele>63.95</ele>
<name><![CDATA[Point 173]]></name>
</rtept>
<rtept lat="24.206673" lon="121.666222">
<time>2011-06-15T08:20:58Z</time>
<ele>62.59</ele>
<name><![CDATA[Point 174]]></name>
</rtept>
<rtept lat="24.206652" lon="121.666306">
<time>2011-06-15T08:21:03Z</time>
<ele>60.97</ele>
<name><![CDATA[Point 175]]></name>
</rtept>
<rtept lat="24.206705" lon="121.666481">
<time>2011-06-15T08:21:08Z</time>
<ele>61.09</ele>
<name><![CDATA[Point 176]]></name>
</rtept>
<rtept lat="24.206619" lon="121.666580">
<time>2011-06-15T08:21:13Z</time>
<ele>60.29</ele>
<name><![CDATA[Point 177]]></name>
</rtept>
<rtept lat="24.206657" lon="121.666595">
<time>2011-06-15T08:21:18Z</time>
<ele>58.89</ele>
<name><![CDATA[Point 178]]></name>
</rtept>
<rtept lat="24.206654" lon="121.666534">
<time>2011-06-15T08:21:23Z</time>
<ele>58.39</ele>
<name><![CDATA[Point 179]]></name>
</rtept>
<rtept lat="24.206615" lon="121.666580">
<time>2011-06-15T08:21:28Z</time>
<ele>57.98</ele>
<name><![CDATA[Point 180]]></name>
</rtept>
<rtept lat="24.206572" lon="121.666725">
<time>2011-06-15T08:21:33Z</time>
<ele>56.75</ele>
<name><![CDATA[Point 181]]></name>
</rtept>
<rtept lat="24.206608" lon="121.666870">
<time>2011-06-15T08:21:38Z</time>
<ele>55.56</ele>
<name><![CDATA[Point 182]]></name>
</rtept>
<rtept lat="24.206646" lon="121.666901">
<time>2011-06-15T08:21:43Z</time>
<ele>54.48</ele>
<name><![CDATA[Point 183]]></name>
</rtept>
<rtept lat="24.206648" lon="121.666931">
<time>2011-06-15T08:21:48Z</time>
<ele>54.64</ele>
<name><![CDATA[Point 184]]></name>
</rtept>
<rtept lat="24.206646" lon="121.666931">
<time>2011-06-15T08:21:53Z</time>
<ele>54.58</ele>
<name><![CDATA[Point 185]]></name>
</rtept>
<rtept lat="24.206648" lon="121.666931">
<time>2011-06-15T08:21:58Z</time>
<ele>54.56</ele>
<name><![CDATA[Point 186]]></name>
</rtept>
<rtept lat="24.206648" lon="121.666931">
<time>2011-06-15T08:22:03Z</time>
<ele>54.55</ele>
<name><![CDATA[Point 187]]></name>
</rtept>
<rtept lat="24.206650" lon="121.666924">
<time>2011-06-15T08:22:08Z</time>
<ele>54.55</ele>
<name><![CDATA[Point 188]]></name>
</rtept>
<rtept lat="24.206650" lon="121.666931">
<time>2011-06-15T08:22:13Z</time>
<ele>54.56</ele>
<name><![CDATA[Point 189]]></name>
</rtept>
<rtept lat="24.206652" lon="121.666924">
<time>2011-06-15T08:22:18Z</time>
<ele>54.57</ele>
<name><![CDATA[Point 190]]></name>
</rtept>
<rtept lat="24.206654" lon="121.666924">
<time>2011-06-15T08:22:23Z</time>
<ele>54.58</ele>
<name><![CDATA[Point 191]]></name>
</rtept>
<rtept lat="24.206657" lon="121.666916">
<time>2011-06-15T08:22:28Z</time>
<ele>54.59</ele>
<name><![CDATA[Point 192]]></name>
</rtept>
<rtept lat="24.206659" lon="121.666908">
<time>2011-06-15T08:22:33Z</time>
<ele>54.60</ele>
<name><![CDATA[Point 193]]></name>
</rtept>
<rtept lat="24.206661" lon="121.666908">
<time>2011-06-15T08:22:38Z</time>
<ele>54.61</ele>
<name><![CDATA[Point 194]]></name>
</rtept>
<rtept lat="24.206661" lon="121.666908">
<time>2011-06-15T08:22:43Z</time>
<ele>54.63</ele>
<name><![CDATA[Point 195]]></name>
</rtept>
<rtept lat="24.206661" lon="121.666908">
<time>2011-06-15T08:22:48Z</time>
<ele>54.65</ele>
<name><![CDATA[Point 196]]></name>
</rtept>
<rtept lat="24.206663" lon="121.666908">
<time>2011-06-15T08:22:53Z</time>
<ele>54.67</ele>
<name><![CDATA[Point 197]]></name>
</rtept>
<rtept lat="24.206667" lon="121.666901">
<time>2011-06-15T08:22:58Z</time>
<ele>54.68</ele>
<name><![CDATA[Point 198]]></name>
</rtept>
<rtept lat="24.206669" lon="121.666893">
<time>2011-06-15T08:23:03Z</time>
<ele>54.69</ele>
<name><![CDATA[Point 199]]></name>
</rtept>
<rtept lat="24.206671" lon="121.666893">
<time>2011-06-15T08:23:08Z</time>
<ele>54.71</ele>
<name><![CDATA[Point 200]]></name>
</rtept>
<rtept lat="24.206671" lon="121.666893">
<time>2011-06-15T08:23:13Z</time>
<ele>54.75</ele>
<name><![CDATA[Point 201]]></name>
</rtept>
<rtept lat="24.206667" lon="121.666901">
<time>2011-06-15T08:23:18Z</time>
<ele>54.77</ele>
<name><![CDATA[Point 202]]></name>
</rtept>
<rtept lat="24.206669" lon="121.666901">
<time>2011-06-15T08:23:23Z</time>
<ele>54.80</ele>
<name><![CDATA[Point 203]]></name>
</rtept>
<rtept lat="24.206669" lon="121.666893">
<time>2011-06-15T08:23:28Z</time>
<ele>54.82</ele>
<name><![CDATA[Point 204]]></name>
</rtept>
<rtept lat="24.206671" lon="121.666893">
<time>2011-06-15T08:23:33Z</time>
<ele>54.86</ele>
<name><![CDATA[Point 205]]></name>
</rtept>
<rtept lat="24.206667" lon="121.666901">
<time>2011-06-15T08:23:38Z</time>
<ele>54.90</ele>
<name><![CDATA[Point 206]]></name>
</rtept>
<rtept lat="24.206667" lon="121.666901">
<time>2011-06-15T08:23:43Z</time>
<ele>54.94</ele>
<name><![CDATA[Point 207]]></name>
</rtept>
<rtept lat="24.206663" lon="121.666908">
<time>2011-06-15T08:23:48Z</time>
<ele>55.00</ele>
<name><![CDATA[Point 208]]></name>
</rtept>
<rtept lat="24.206659" lon="121.666916">
<time>2011-06-15T08:23:53Z</time>
<ele>55.06</ele>
<name><![CDATA[Point 209]]></name>
</rtept>
<rtept lat="24.206657" lon="121.666924">
<time>2011-06-15T08:23:58Z</time>
<ele>55.04</ele>
<name><![CDATA[Point 210]]></name>
</rtept>
<rtept lat="24.206656" lon="121.666924">
<time>2011-06-15T08:24:03Z</time>
<ele>55.03</ele>
<name><![CDATA[Point 211]]></name>
</rtept>
<rtept lat="24.206659" lon="121.666916">
<time>2011-06-15T08:24:08Z</time>
<ele>55.01</ele>
<name><![CDATA[Point 212]]></name>
</rtept>
<rtept lat="24.206663" lon="121.666908">
<time>2011-06-15T08:24:13Z</time>
<ele>55.00</ele>
<name><![CDATA[Point 213]]></name>
</rtept>
<rtept lat="24.206665" lon="121.666908">
<time>2011-06-15T08:24:18Z</time>
<ele>55.01</ele>
<name><![CDATA[Point 214]]></name>
</rtept>
<rtept lat="24.206667" lon="121.666908">
<time>2011-06-15T08:24:23Z</time>
<ele>55.01</ele>
<name><![CDATA[Point 215]]></name>
</rtept>
<rtept lat="24.206669" lon="121.666901">
<time>2011-06-15T08:24:28Z</time>
<ele>55.01</ele>
<name><![CDATA[Point 216]]></name>
</rtept>
<rtept lat="24.206669" lon="121.666901">
<time>2011-06-15T08:24:33Z</time>
<ele>55.00</ele>
<name><![CDATA[Point 217]]></name>
</rtept>
<rtept lat="24.206669" lon="121.666901">
<time>2011-06-15T08:24:38Z</time>
<ele>55.02</ele>
<name><![CDATA[Point 218]]></name>
</rtept>
<rtept lat="24.206675" lon="121.666893">
<time>2011-06-15T08:24:43Z</time>
<ele>55.04</ele>
<name><![CDATA[Point 219]]></name>
</rtept>
<rtept lat="24.206680" lon="121.666885">
<time>2011-06-15T08:24:48Z</time>
<ele>55.05</ele>
<name><![CDATA[Point 220]]></name>
</rtept>
<rtept lat="24.206684" lon="121.666878">
<time>2011-06-15T08:24:53Z</time>
<ele>55.10</ele>
<name><![CDATA[Point 221]]></name>
</rtept>
<rtept lat="24.206665" lon="121.666824">
<time>2011-06-15T08:24:58Z</time>
<ele>56.09</ele>
<name><![CDATA[Point 222]]></name>
</rtept>
<rtept lat="24.206581" lon="121.666756">
<time>2011-06-15T08:25:03Z</time>
<ele>58.19</ele>
<name><![CDATA[Point 223]]></name>
</rtept>
<rtept lat="24.206577" lon="121.666641">
<time>2011-06-15T08:25:08Z</time>
<ele>60.12</ele>
<name><![CDATA[Point 224]]></name>
</rtept>
<rtept lat="24.206608" lon="121.666565">
<time>2011-06-15T08:25:13Z</time>
<ele>62.38</ele>
<name><![CDATA[Point 225]]></name>
</rtept>
<rtept lat="24.206631" lon="121.666512">
<time>2011-06-15T08:25:18Z</time>
<ele>64.54</ele>
<name><![CDATA[Point 226]]></name>
</rtept>
<rtept lat="24.206642" lon="121.666443">
<time>2011-06-15T08:25:23Z</time>
<ele>65.32</ele>
<name><![CDATA[Point 227]]></name>
</rtept>
<rtept lat="24.206629" lon="121.666382">
<time>2011-06-15T08:25:28Z</time>
<ele>67.16</ele>
<name><![CDATA[Point 228]]></name>
</rtept>
<rtept lat="24.206585" lon="121.666328">
<time>2011-06-15T08:25:33Z</time>
<ele>68.04</ele>
<name><![CDATA[Point 229]]></name>
</rtept>
<rtept lat="24.206516" lon="121.666298">
<time>2011-06-15T08:25:38Z</time>
<ele>69.36</ele>
<name><![CDATA[Point 230]]></name>
</rtept>
<rtept lat="24.206474" lon="121.666229">
<time>2011-06-15T08:25:43Z</time>
<ele>70.13</ele>
<name><![CDATA[Point 231]]></name>
</rtept>
<rtept lat="24.206390" lon="121.666161">
<time>2011-06-15T08:25:48Z</time>
<ele>70.79</ele>
<name><![CDATA[Point 232]]></name>
</rtept>
<rtept lat="24.206291" lon="121.666092">
<time>2011-06-15T08:25:53Z</time>
<ele>71.16</ele>
<name><![CDATA[Point 233]]></name>
</rtept>
<rtept lat="24.206158" lon="121.666039">
<time>2011-06-15T08:25:58Z</time>
<ele>72.18</ele>
<name><![CDATA[Point 234]]></name>
</rtept>
<rtept lat="24.206181" lon="121.665932">
<time>2011-06-15T08:26:03Z</time>
<ele>72.34</ele>
<name><![CDATA[Point 235]]></name>
</rtept>
<rtept lat="24.206161" lon="121.665985">
<time>2011-06-15T08:26:08Z</time>
<ele>72.54</ele>
<name><![CDATA[Point 236]]></name>
</rtept>
<rtept lat="24.193254" lon="121.661980">
<time>2011-06-15T08:29:28Z</time>
<ele>73.75</ele>
<name><![CDATA[Point 237]]></name>
</rtept>
<rtept lat="24.192957" lon="121.661789">
<time>2011-06-15T08:29:33Z</time>
<ele>74.36</ele>
<name><![CDATA[Point 238]]></name>
</rtept>
<rtept lat="24.192722" lon="121.661545">
<time>2011-06-15T08:29:38Z</time>
<ele>71.04</ele>
<name><![CDATA[Point 239]]></name>
</rtept>
<rtept lat="24.192408" lon="121.661407">
<time>2011-06-15T08:29:43Z</time>
<ele>70.73</ele>
<name><![CDATA[Point 240]]></name>
</rtept>
<rtept lat="24.192083" lon="121.661346">
<time>2011-06-15T08:29:48Z</time>
<ele>70.43</ele>
<name><![CDATA[Point 241]]></name>
</rtept>
<rtept lat="24.191830" lon="121.661255">
<time>2011-06-15T08:29:53Z</time>
<ele>69.43</ele>
<name><![CDATA[Point 242]]></name>
</rtept>
<rtept lat="24.191690" lon="121.661148">
<time>2011-06-15T08:29:58Z</time>
<ele>69.88</ele>
<name><![CDATA[Point 243]]></name>
</rtept>
<rtept lat="24.191656" lon="121.661102">
<time>2011-06-15T08:30:03Z</time>
<ele>70.17</ele>
<name><![CDATA[Point 244]]></name>
</rtept>
<rtept lat="24.191641" lon="121.661118">
<time>2011-06-15T08:30:08Z</time>
<ele>70.93</ele>
<name><![CDATA[Point 245]]></name>
</rtept>
<rtept lat="24.191645" lon="121.661118">
<time>2011-06-15T08:30:13Z</time>
<ele>70.94</ele>
<name><![CDATA[Point 246]]></name>
</rtept>
<rtept lat="24.191650" lon="121.661118">
<time>2011-06-15T08:30:18Z</time>
<ele>70.93</ele>
<name><![CDATA[Point 247]]></name>
</rtept>
<rtept lat="24.191645" lon="121.661118">
<time>2011-06-15T08:30:23Z</time>
<ele>70.93</ele>
<name><![CDATA[Point 248]]></name>
</rtept>
<rtept lat="24.191637" lon="121.661110">
<time>2011-06-15T08:30:28Z</time>
<ele>70.93</ele>
<name><![CDATA[Point 249]]></name>
</rtept>
<rtept lat="24.191629" lon="121.661110">
<time>2011-06-15T08:30:33Z</time>
<ele>70.93</ele>
<name><![CDATA[Point 250]]></name>
</rtept>
<rtept lat="24.191626" lon="121.661102">
<time>2011-06-15T08:30:38Z</time>
<ele>70.92</ele>
<name><![CDATA[Point 251]]></name>
</rtept>
<rtept lat="24.191616" lon="121.661095">
<time>2011-06-15T08:30:43Z</time>
<ele>70.91</ele>
<name><![CDATA[Point 252]]></name>
</rtept>
<rtept lat="24.191608" lon="121.661087">
<time>2011-06-15T08:30:48Z</time>
<ele>70.91</ele>
<name><![CDATA[Point 253]]></name>
</rtept>
<rtept lat="24.191601" lon="121.661087">
<time>2011-06-15T08:30:53Z</time>
<ele>70.91</ele>
<name><![CDATA[Point 254]]></name>
</rtept>
<rtept lat="24.191591" lon="121.661079">
<time>2011-06-15T08:30:58Z</time>
<ele>70.92</ele>
<name><![CDATA[Point 255]]></name>
</rtept>
<rtept lat="24.191584" lon="121.661072">
<time>2011-06-15T08:31:03Z</time>
<ele>70.93</ele>
<name><![CDATA[Point 256]]></name>
</rtept>
<rtept lat="24.191570" lon="121.661072">
<time>2011-06-15T08:31:08Z</time>
<ele>70.92</ele>
<name><![CDATA[Point 257]]></name>
</rtept>
<rtept lat="24.191648" lon="121.661217">
<time>2011-06-15T08:31:13Z</time>
<ele>71.72</ele>
<name><![CDATA[Point 258]]></name>
</rtept>
<rtept lat="24.191660" lon="121.661263">
<time>2011-06-15T08:31:18Z</time>
<ele>72.08</ele>
<name><![CDATA[Point 259]]></name>
</rtept>
<rtept lat="24.191685" lon="121.661255">
<time>2011-06-15T08:31:23Z</time>
<ele>73.13</ele>
<name><![CDATA[Point 260]]></name>
</rtept>
<rtept lat="24.191685" lon="121.661247">
<time>2011-06-15T08:31:28Z</time>
<ele>73.03</ele>
<name><![CDATA[Point 261]]></name>
</rtept>
<rtept lat="24.191681" lon="121.661255">
<time>2011-06-15T08:31:33Z</time>
<ele>72.93</ele>
<name><![CDATA[Point 262]]></name>
</rtept>
<rtept lat="24.191681" lon="121.661263">
<time>2011-06-15T08:31:38Z</time>
<ele>72.84</ele>
<name><![CDATA[Point 263]]></name>
</rtept>
<rtept lat="24.191681" lon="121.661255">
<time>2011-06-15T08:31:43Z</time>
<ele>72.72</ele>
<name><![CDATA[Point 264]]></name>
</rtept>
<rtept lat="24.191679" lon="121.661263">
<time>2011-06-15T08:31:48Z</time>
<ele>72.60</ele>
<name><![CDATA[Point 265]]></name>
</rtept>
<rtept lat="24.191679" lon="121.661263">
<time>2011-06-15T08:31:53Z</time>
<ele>72.48</ele>
<name><![CDATA[Point 266]]></name>
</rtept>
<rtept lat="24.191679" lon="121.661263">
<time>2011-06-15T08:31:58Z</time>
<ele>72.40</ele>
<name><![CDATA[Point 267]]></name>
</rtept>
<rtept lat="24.191679" lon="121.661255">
<time>2011-06-15T08:32:03Z</time>
<ele>72.32</ele>
<name><![CDATA[Point 268]]></name>
</rtept>
<rtept lat="24.191679" lon="121.661255">
<time>2011-06-15T08:32:08Z</time>
<ele>72.27</ele>
<name><![CDATA[Point 269]]></name>
</rtept>
<rtept lat="24.191679" lon="121.661255">
<time>2011-06-15T08:32:13Z</time>
<ele>72.23</ele>
<name><![CDATA[Point 270]]></name>
</rtept>
<rtept lat="24.191677" lon="121.661247">
<time>2011-06-15T08:32:18Z</time>
<ele>72.21</ele>
<name><![CDATA[Point 271]]></name>
</rtept>
<rtept lat="24.191677" lon="121.661247">
<time>2011-06-15T08:32:23Z</time>
<ele>72.20</ele>
<name><![CDATA[Point 272]]></name>
</rtept>
<rtept lat="24.191675" lon="121.661247">
<time>2011-06-15T08:32:28Z</time>
<ele>72.18</ele>
<name><![CDATA[Point 273]]></name>
</rtept>
<rtept lat="24.191675" lon="121.661247">
<time>2011-06-15T08:32:33Z</time>
<ele>72.19</ele>
<name><![CDATA[Point 274]]></name>
</rtept>
<rtept lat="24.191673" lon="121.661247">
<time>2011-06-15T08:32:38Z</time>
<ele>72.15</ele>
<name><![CDATA[Point 275]]></name>
</rtept>
<rtept lat="24.191673" lon="121.661247">
<time>2011-06-15T08:32:43Z</time>
<ele>72.10</ele>
<name><![CDATA[Point 276]]></name>
</rtept>
<rtept lat="24.191671" lon="121.661247">
<time>2011-06-15T08:32:48Z</time>
<ele>72.08</ele>
<name><![CDATA[Point 277]]></name>
</rtept>
<rtept lat="24.191669" lon="121.661247">
<time>2011-06-15T08:32:53Z</time>
<ele>72.02</ele>
<name><![CDATA[Point 278]]></name>
</rtept>
<rtept lat="24.191669" lon="121.661247">
<time>2011-06-15T08:32:58Z</time>
<ele>71.95</ele>
<name><![CDATA[Point 279]]></name>
</rtept>
<rtept lat="24.191669" lon="121.661247">
<time>2011-06-15T08:33:03Z</time>
<ele>71.88</ele>
<name><![CDATA[Point 280]]></name>
</rtept>
<rtept lat="24.191669" lon="121.661247">
<time>2011-06-15T08:33:08Z</time>
<ele>71.78</ele>
<name><![CDATA[Point 281]]></name>
</rtept>
<rtept lat="24.191669" lon="121.661247">
<time>2011-06-15T08:33:13Z</time>
<ele>71.70</ele>
<name><![CDATA[Point 282]]></name>
</rtept>
<rtept lat="24.191669" lon="121.661247">
<time>2011-06-15T08:33:18Z</time>
<ele>71.63</ele>
<name><![CDATA[Point 283]]></name>
</rtept>
<rtept lat="24.191669" lon="121.661247">
<time>2011-06-15T08:33:23Z</time>
<ele>71.61</ele>
<name><![CDATA[Point 284]]></name>
</rtept>
<rtept lat="24.191669" lon="121.661247">
<time>2011-06-15T08:33:28Z</time>
<ele>71.57</ele>
<name><![CDATA[Point 285]]></name>
</rtept>
<rtept lat="24.191669" lon="121.661247">
<time>2011-06-15T08:33:33Z</time>
<ele>71.52</ele>
<name><![CDATA[Point 286]]></name>
</rtept>
<rtept lat="24.191669" lon="121.661247">
<time>2011-06-15T08:33:38Z</time>
<ele>71.49</ele>
<name><![CDATA[Point 287]]></name>
</rtept>
<rtept lat="24.191669" lon="121.661247">
<time>2011-06-15T08:33:43Z</time>
<ele>71.46</ele>
<name><![CDATA[Point 288]]></name>
</rtept>
<rtept lat="24.191669" lon="121.661247">
<time>2011-06-15T08:33:48Z</time>
<ele>71.41</ele>
<name><![CDATA[Point 289]]></name>
</rtept>
<rtept lat="24.191669" lon="121.661247">
<time>2011-06-15T08:33:53Z</time>
<ele>71.40</ele>
<name><![CDATA[Point 290]]></name>
</rtept>
<rtept lat="24.191669" lon="121.661240">
<time>2011-06-15T08:33:58Z</time>
<ele>71.35</ele>
<name><![CDATA[Point 291]]></name>
</rtept>
<rtept lat="24.191668" lon="121.661240">
<time>2011-06-15T08:34:03Z</time>
<ele>71.30</ele>
<name><![CDATA[Point 292]]></name>
</rtept>
<rtept lat="24.191668" lon="121.661240">
<time>2011-06-15T08:34:08Z</time>
<ele>71.24</ele>
<name><![CDATA[Point 293]]></name>
</rtept>
<rtept lat="24.191668" lon="121.661240">
<time>2011-06-15T08:34:13Z</time>
<ele>71.18</ele>
<name><![CDATA[Point 294]]></name>
</rtept>
<rtept lat="24.191669" lon="121.661240">
<time>2011-06-15T08:34:18Z</time>
<ele>71.11</ele>
<name><![CDATA[Point 295]]></name>
</rtept>
<rtept lat="24.191669" lon="121.661240">
<time>2011-06-15T08:34:23Z</time>
<ele>71.09</ele>
<name><![CDATA[Point 296]]></name>
</rtept>
<rtept lat="24.191669" lon="121.661240">
<time>2011-06-15T08:34:28Z</time>
<ele>71.03</ele>
<name><![CDATA[Point 297]]></name>
</rtept>
<rtept lat="24.191668" lon="121.661240">
<time>2011-06-15T08:34:33Z</time>
<ele>70.99</ele>
<name><![CDATA[Point 298]]></name>
</rtept>
<rtept lat="24.191668" lon="121.661240">
<time>2011-06-15T08:34:38Z</time>
<ele>70.94</ele>
<name><![CDATA[Point 299]]></name>
</rtept>
<rtept lat="24.191668" lon="121.661240">
<time>2011-06-15T08:34:43Z</time>
<ele>70.86</ele>
<name><![CDATA[Point 300]]></name>
</rtept>
<rtept lat="24.191668" lon="121.661240">
<time>2011-06-15T08:34:48Z</time>
<ele>70.81</ele>
<name><![CDATA[Point 301]]></name>
</rtept>
<rtept lat="24.191668" lon="121.661240">
<time>2011-06-15T08:34:53Z</time>
<ele>70.77</ele>
<name><![CDATA[Point 302]]></name>
</rtept>
<rtept lat="24.191666" lon="121.661240">
<time>2011-06-15T08:34:58Z</time>
<ele>70.72</ele>
<name><![CDATA[Point 303]]></name>
</rtept>
<rtept lat="24.191666" lon="121.661240">
<time>2011-06-15T08:35:03Z</time>
<ele>70.68</ele>
<name><![CDATA[Point 304]]></name>
</rtept>
<rtept lat="24.191666" lon="121.661240">
<time>2011-06-15T08:35:08Z</time>
<ele>70.69</ele>
<name><![CDATA[Point 305]]></name>
</rtept>
<rtept lat="24.191666" lon="121.661240">
<time>2011-06-15T08:35:13Z</time>
<ele>70.66</ele>
<name><![CDATA[Point 306]]></name>
</rtept>
<rtept lat="24.191668" lon="121.661240">
<time>2011-06-15T08:35:18Z</time>
<ele>70.61</ele>
<name><![CDATA[Point 307]]></name>
</rtept>
<rtept lat="24.191668" lon="121.661232">
<time>2011-06-15T08:35:23Z</time>
<ele>70.57</ele>
<name><![CDATA[Point 308]]></name>
</rtept>
<rtept lat="24.191668" lon="121.661232">
<time>2011-06-15T08:35:28Z</time>
<ele>70.49</ele>
<name><![CDATA[Point 309]]></name>
</rtept>
<rtept lat="24.191668" lon="121.661232">
<time>2011-06-15T08:35:33Z</time>
<ele>70.42</ele>
<name><![CDATA[Point 310]]></name>
</rtept>
<rtept lat="24.191669" lon="121.661232">
<time>2011-06-15T08:35:38Z</time>
<ele>70.32</ele>
<name><![CDATA[Point 311]]></name>
</rtept>
<rtept lat="24.191669" lon="121.661232">
<time>2011-06-15T08:35:43Z</time>
<ele>70.25</ele>
<name><![CDATA[Point 312]]></name>
</rtept>
<rtept lat="24.191669" lon="121.661232">
<time>2011-06-15T08:35:48Z</time>
<ele>70.19</ele>
<name><![CDATA[Point 313]]></name>
</rtept>
<rtept lat="24.191669" lon="121.661232">
<time>2011-06-15T08:35:53Z</time>
<ele>70.14</ele>
<name><![CDATA[Point 314]]></name>
</rtept>
<rtept lat="24.191669" lon="121.661232">
<time>2011-06-15T08:35:58Z</time>
<ele>70.10</ele>
<name><![CDATA[Point 315]]></name>
</rtept>
<rtept lat="24.191669" lon="121.661232">
<time>2011-06-15T08:36:03Z</time>
<ele>70.09</ele>
<name><![CDATA[Point 316]]></name>
</rtept>
<rtept lat="24.191669" lon="121.661232">
<time>2011-06-15T08:36:08Z</time>
<ele>70.12</ele>
<name><![CDATA[Point 317]]></name>
</rtept>
<rtept lat="24.191669" lon="121.661232">
<time>2011-06-15T08:36:13Z</time>
<ele>70.10</ele>
<name><![CDATA[Point 318]]></name>
</rtept>
<rtept lat="24.191669" lon="121.661224">
<time>2011-06-15T08:36:18Z</time>
<ele>70.08</ele>
<name><![CDATA[Point 319]]></name>
</rtept>
<rtept lat="24.191671" lon="121.661224">
<time>2011-06-15T08:36:23Z</time>
<ele>70.07</ele>
<name><![CDATA[Point 320]]></name>
</rtept>
<rtept lat="24.191671" lon="121.661224">
<time>2011-06-15T08:36:28Z</time>
<ele>70.03</ele>
<name><![CDATA[Point 321]]></name>
</rtept>
<rtept lat="24.191671" lon="121.661224">
<time>2011-06-15T08:36:33Z</time>
<ele>70.00</ele>
<name><![CDATA[Point 322]]></name>
</rtept>
<rtept lat="24.191671" lon="121.661224">
<time>2011-06-15T08:36:38Z</time>
<ele>69.95</ele>
<name><![CDATA[Point 323]]></name>
</rtept>
<rtept lat="24.191673" lon="121.661224">
<time>2011-06-15T08:36:43Z</time>
<ele>69.90</ele>
<name><![CDATA[Point 324]]></name>
</rtept>
<rtept lat="24.191673" lon="121.661224">
<time>2011-06-15T08:36:48Z</time>
<ele>69.87</ele>
<name><![CDATA[Point 325]]></name>
</rtept>
<rtept lat="24.191673" lon="121.661224">
<time>2011-06-15T08:36:53Z</time>
<ele>69.81</ele>
<name><![CDATA[Point 326]]></name>
</rtept>
<rtept lat="24.191673" lon="121.661224">
<time>2011-06-15T08:36:58Z</time>
<ele>69.78</ele>
<name><![CDATA[Point 327]]></name>
</rtept>
<rtept lat="24.191673" lon="121.661224">
<time>2011-06-15T08:37:03Z</time>
<ele>69.79</ele>
<name><![CDATA[Point 328]]></name>
</rtept>
<rtept lat="24.191673" lon="121.661224">
<time>2011-06-15T08:37:08Z</time>
<ele>69.79</ele>
<name><![CDATA[Point 329]]></name>
</rtept>
<rtept lat="24.191673" lon="121.661224">
<time>2011-06-15T08:37:13Z</time>
<ele>69.77</ele>
<name><![CDATA[Point 330]]></name>
</rtept>
<rtept lat="24.191673" lon="121.661224">
<time>2011-06-15T08:37:18Z</time>
<ele>69.77</ele>
<name><![CDATA[Point 331]]></name>
</rtept>
<rtept lat="24.191673" lon="121.661217">
<time>2011-06-15T08:37:23Z</time>
<ele>69.75</ele>
<name><![CDATA[Point 332]]></name>
</rtept>
<rtept lat="24.191675" lon="121.661217">
<time>2011-06-15T08:37:28Z</time>
<ele>69.70</ele>
<name><![CDATA[Point 333]]></name>
</rtept>
<rtept lat="24.191673" lon="121.661217">
<time>2011-06-15T08:37:33Z</time>
<ele>69.68</ele>
<name><![CDATA[Point 334]]></name>
</rtept>
<rtept lat="24.191673" lon="121.661217">
<time>2011-06-15T08:37:38Z</time>
<ele>69.65</ele>
<name><![CDATA[Point 335]]></name>
</rtept>
<rtept lat="24.191673" lon="121.661217">
<time>2011-06-15T08:37:43Z</time>
<ele>69.62</ele>
<name><![CDATA[Point 336]]></name>
</rtept>
<rtept lat="24.191673" lon="121.661217">
<time>2011-06-15T08:37:48Z</time>
<ele>69.61</ele>
<name><![CDATA[Point 337]]></name>
</rtept>
<rtept lat="24.191673" lon="121.661217">
<time>2011-06-15T08:37:53Z</time>
<ele>69.57</ele>
<name><![CDATA[Point 338]]></name>
</rtept>
<rtept lat="24.191673" lon="121.661217">
<time>2011-06-15T08:37:58Z</time>
<ele>69.54</ele>
<name><![CDATA[Point 339]]></name>
</rtept>
<rtept lat="24.191673" lon="121.661217">
<time>2011-06-15T08:38:03Z</time>
<ele>69.52</ele>
<name><![CDATA[Point 340]]></name>
</rtept>
<rtept lat="24.191673" lon="121.661217">
<time>2011-06-15T08:38:08Z</time>
<ele>69.52</ele>
<name><![CDATA[Point 341]]></name>
</rtept>
<rtept lat="24.191673" lon="121.661217">
<time>2011-06-15T08:38:13Z</time>
<ele>69.53</ele>
<name><![CDATA[Point 342]]></name>
</rtept>
<rtept lat="24.191673" lon="121.661217">
<time>2011-06-15T08:38:18Z</time>
<ele>69.51</ele>
<name><![CDATA[Point 343]]></name>
</rtept>
<rtept lat="24.191669" lon="121.661209">
<time>2011-06-15T08:38:23Z</time>
<ele>69.02</ele>
<name><![CDATA[Point 344]]></name>
</rtept>
<rtept lat="24.191669" lon="121.661179">
<time>2011-06-15T08:38:28Z</time>
<ele>68.72</ele>
<name><![CDATA[Point 345]]></name>
</rtept>
<rtept lat="24.191648" lon="121.661034">
<time>2011-06-15T08:38:33Z</time>
<ele>68.97</ele>
<name><![CDATA[Point 346]]></name>
</rtept>
<rtept lat="24.191532" lon="121.660896">
<time>2011-06-15T08:38:38Z</time>
<ele>69.53</ele>
<name><![CDATA[Point 347]]></name>
</rtept>
<rtept lat="24.189129" lon="121.660362">
<time>2011-06-15T08:39:28Z</time>
<ele>100.05</ele>
<name><![CDATA[Point 348]]></name>
</rtept>
<rtept lat="24.188902" lon="121.660378">
<time>2011-06-15T08:39:33Z</time>
<ele>72.90</ele>
<name><![CDATA[Point 349]]></name>
</rtept>
<rtept lat="24.188644" lon="121.660271">
<time>2011-06-15T08:39:38Z</time>
<ele>70.46</ele>
<name><![CDATA[Point 350]]></name>
</rtept>
</rte>
</gpx>
