<?xml version="1.0"?>
<gpx
version="1.0"
creator="Holux Utility"
xmlns:xsi="http://www.w3.org/2001/XMLSchema-instance"
xmlns="http://www.topografix.com/GPX/1/0"
xsi:schemaLocation="http://www.topografix.com/GPX/1/0 http://www.topografix.com/GPX/1/0/gpx.xsd">
<wpt lat="25.047379" lon="121.782898">
<time>2011-06-13T07:40:41Z</time>
<ele>194.74</ele>
<name><![CDATA[Point 0]]></name>
</wpt>
<wpt lat="25.047384" lon="121.782890">
<time>2011-06-13T07:40:46Z</time>
<ele>181.74</ele>
<name><![CDATA[Point 1]]></name>
</wpt>
<wpt lat="25.047379" lon="121.782829">
<time>2011-06-13T07:40:52Z</time>
<ele>185.71</ele>
<name><![CDATA[Point 2]]></name>
</wpt>
<wpt lat="25.047405" lon="121.782776">
<time>2011-06-13T07:40:57Z</time>
<ele>193.46</ele>
<name><![CDATA[Point 3]]></name>
</wpt>
<wpt lat="25.047470" lon="121.782768">
<time>2011-06-13T07:41:02Z</time>
<ele>192.39</ele>
<name><![CDATA[Point 4]]></name>
</wpt>
<wpt lat="25.047495" lon="121.782829">
<time>2011-06-13T07:41:07Z</time>
<ele>190.54</ele>
<name><![CDATA[Point 5]]></name>
</wpt>
<wpt lat="25.047508" lon="121.782913">
<time>2011-06-13T07:41:12Z</time>
<ele>189.50</ele>
<name><![CDATA[Point 6]]></name>
</wpt>
<wpt lat="25.047491" lon="121.782974">
<time>2011-06-13T07:41:17Z</time>
<ele>189.06</ele>
<name><![CDATA[Point 7]]></name>
</wpt>
<wpt lat="25.047482" lon="121.783051">
<time>2011-06-13T07:41:22Z</time>
<ele>187.55</ele>
<name><![CDATA[Point 8]]></name>
</wpt>
<wpt lat="25.047407" lon="121.783096">
<time>2011-06-13T07:41:27Z</time>
<ele>183.47</ele>
<name><![CDATA[Point 9]]></name>
</wpt>
<wpt lat="25.047400" lon="121.783150">
<time>2011-06-13T07:41:32Z</time>
<ele>184.27</ele>
<name><![CDATA[Point 10]]></name>
</wpt>
<wpt lat="25.047424" lon="121.783195">
<time>2011-06-13T07:41:37Z</time>
<ele>183.39</ele>
<name><![CDATA[Point 11]]></name>
</wpt>
<wpt lat="25.047447" lon="121.783203">
<time>2011-06-13T07:41:42Z</time>
<ele>183.75</ele>
<name><![CDATA[Point 12]]></name>
</wpt>
<wpt lat="25.047422" lon="121.783203">
<time>2011-06-13T07:41:47Z</time>
<ele>182.25</ele>
<name><![CDATA[Point 13]]></name>
</wpt>
<wpt lat="25.047413" lon="121.783195">
<time>2011-06-13T07:41:52Z</time>
<ele>181.24</ele>
<name><![CDATA[Point 14]]></name>
</wpt>
<wpt lat="25.047443" lon="121.783257">
<time>2011-06-13T07:41:57Z</time>
<ele>184.43</ele>
<name><![CDATA[Point 15]]></name>
</wpt>
<wpt lat="25.047441" lon="121.783295">
<time>2011-06-13T07:42:02Z</time>
<ele>186.50</ele>
<name><![CDATA[Point 16]]></name>
</wpt>
<wpt lat="25.047430" lon="121.783340">
<time>2011-06-13T07:42:07Z</time>
<ele>186.88</ele>
<name><![CDATA[Point 17]]></name>
</wpt>
<wpt lat="25.047432" lon="121.783348">
<time>2011-06-13T07:42:12Z</time>
<ele>186.76</ele>
<name><![CDATA[Point 18]]></name>
</wpt>
<wpt lat="25.047440" lon="121.783348">
<time>2011-06-13T07:42:17Z</time>
<ele>187.10</ele>
<name><![CDATA[Point 19]]></name>
</wpt>
<wpt lat="25.047459" lon="121.783371">
<time>2011-06-13T07:42:22Z</time>
<ele>187.76</ele>
<name><![CDATA[Point 20]]></name>
</wpt>
<wpt lat="25.047495" lon="121.783417">
<time>2011-06-13T07:42:27Z</time>
<ele>187.84</ele>
<name><![CDATA[Point 21]]></name>
</wpt>
<wpt lat="25.047516" lon="121.783485">
<time>2011-06-13T07:42:32Z</time>
<ele>188.07</ele>
<name><![CDATA[Point 22]]></name>
</wpt>
<wpt lat="25.047516" lon="121.783516">
<time>2011-06-13T07:42:37Z</time>
<ele>188.32</ele>
<name><![CDATA[Point 23]]></name>
</wpt>
<wpt lat="25.047535" lon="121.783516">
<time>2011-06-13T07:42:42Z</time>
<ele>188.08</ele>
<name><![CDATA[Point 24]]></name>
</wpt>
<wpt lat="25.047552" lon="121.783539">
<time>2011-06-13T07:42:47Z</time>
<ele>187.36</ele>
<name><![CDATA[Point 25]]></name>
</wpt>
<wpt lat="25.047548" lon="121.783585">
<time>2011-06-13T07:42:52Z</time>
<ele>186.60</ele>
<name><![CDATA[Point 26]]></name>
</wpt>
<wpt lat="25.047539" lon="121.783592">
<time>2011-06-13T07:42:57Z</time>
<ele>186.50</ele>
<name><![CDATA[Point 27]]></name>
</wpt>
<wpt lat="25.047558" lon="121.783607">
<time>2011-06-13T07:43:02Z</time>
<ele>186.79</ele>
<name><![CDATA[Point 28]]></name>
</wpt>
<wpt lat="25.047550" lon="121.783592">
<time>2011-06-13T07:43:07Z</time>
<ele>186.70</ele>
<name><![CDATA[Point 29]]></name>
</wpt>
<wpt lat="25.047569" lon="121.783623">
<time>2011-06-13T07:43:12Z</time>
<ele>186.85</ele>
<name><![CDATA[Point 30]]></name>
</wpt>
<wpt lat="25.047579" lon="121.783600">
<time>2011-06-13T07:43:17Z</time>
<ele>187.52</ele>
<name><![CDATA[Point 31]]></name>
</wpt>
<wpt lat="25.047583" lon="121.783592">
<time>2011-06-13T07:43:22Z</time>
<ele>187.49</ele>
<name><![CDATA[Point 32]]></name>
</wpt>
<wpt lat="25.047581" lon="121.783607">
<time>2011-06-13T07:43:27Z</time>
<ele>186.36</ele>
<name><![CDATA[Point 33]]></name>
</wpt>
<wpt lat="25.047590" lon="121.783638">
<time>2011-06-13T07:43:32Z</time>
<ele>186.40</ele>
<name><![CDATA[Point 34]]></name>
</wpt>
<wpt lat="25.047611" lon="121.783661">
<time>2011-06-13T07:43:37Z</time>
<ele>186.11</ele>
<name><![CDATA[Point 35]]></name>
</wpt>
<wpt lat="25.047632" lon="121.783714">
<time>2011-06-13T07:43:42Z</time>
<ele>186.41</ele>
<name><![CDATA[Point 36]]></name>
</wpt>
<wpt lat="25.047655" lon="121.783775">
<time>2011-06-13T07:43:47Z</time>
<ele>186.40</ele>
<name><![CDATA[Point 37]]></name>
</wpt>
<wpt lat="25.047661" lon="121.783813">
<time>2011-06-13T07:43:52Z</time>
<ele>186.92</ele>
<name><![CDATA[Point 38]]></name>
</wpt>
<wpt lat="25.047638" lon="121.783829">
<time>2011-06-13T07:43:57Z</time>
<ele>187.46</ele>
<name><![CDATA[Point 39]]></name>
</wpt>
<wpt lat="25.047611" lon="121.783852">
<time>2011-06-13T07:44:02Z</time>
<ele>187.91</ele>
<name><![CDATA[Point 40]]></name>
</wpt>
<wpt lat="25.047590" lon="121.783882">
<time>2011-06-13T07:44:07Z</time>
<ele>188.45</ele>
<name><![CDATA[Point 41]]></name>
</wpt>
<wpt lat="25.047588" lon="121.783943">
<time>2011-06-13T07:44:12Z</time>
<ele>188.83</ele>
<name><![CDATA[Point 42]]></name>
</wpt>
<wpt lat="25.047562" lon="121.783981">
<time>2011-06-13T07:44:17Z</time>
<ele>188.96</ele>
<name><![CDATA[Point 43]]></name>
</wpt>
<wpt lat="25.047525" lon="121.784042">
<time>2011-06-13T07:44:22Z</time>
<ele>189.05</ele>
<name><![CDATA[Point 44]]></name>
</wpt>
<wpt lat="25.047491" lon="121.784119">
<time>2011-06-13T07:44:27Z</time>
<ele>189.33</ele>
<name><![CDATA[Point 45]]></name>
</wpt>
<wpt lat="25.047478" lon="121.784271">
<time>2011-06-13T07:44:32Z</time>
<ele>189.50</ele>
<name><![CDATA[Point 46]]></name>
</wpt>
<wpt lat="25.047451" lon="121.784317">
<time>2011-06-13T07:44:37Z</time>
<ele>190.04</ele>
<name><![CDATA[Point 47]]></name>
</wpt>
<wpt lat="25.047470" lon="121.784386">
<time>2011-06-13T07:44:42Z</time>
<ele>190.47</ele>
<name><![CDATA[Point 48]]></name>
</wpt>
<wpt lat="25.047430" lon="121.784447">
<time>2011-06-13T07:44:47Z</time>
<ele>190.36</ele>
<name><![CDATA[Point 49]]></name>
</wpt>
<wpt lat="25.047466" lon="121.784508">
<time>2011-06-13T07:44:52Z</time>
<ele>189.65</ele>
<name><![CDATA[Point 50]]></name>
</wpt>
<wpt lat="25.047523" lon="121.784508">
<time>2011-06-13T07:44:57Z</time>
<ele>187.80</ele>
<name><![CDATA[Point 51]]></name>
</wpt>
<wpt lat="25.047562" lon="121.784515">
<time>2011-06-13T07:45:02Z</time>
<ele>186.05</ele>
<name><![CDATA[Point 52]]></name>
</wpt>
<wpt lat="25.047602" lon="121.784569">
<time>2011-06-13T07:45:07Z</time>
<ele>185.75</ele>
<name><![CDATA[Point 53]]></name>
</wpt>
<wpt lat="25.047691" lon="121.784584">
<time>2011-06-13T07:45:12Z</time>
<ele>184.05</ele>
<name><![CDATA[Point 54]]></name>
</wpt>
<wpt lat="25.047739" lon="121.784615">
<time>2011-06-13T07:45:17Z</time>
<ele>183.23</ele>
<name><![CDATA[Point 55]]></name>
</wpt>
<wpt lat="25.047779" lon="121.784653">
<time>2011-06-13T07:45:22Z</time>
<ele>183.70</ele>
<name><![CDATA[Point 56]]></name>
</wpt>
<wpt lat="25.047848" lon="121.784683">
<time>2011-06-13T07:45:27Z</time>
<ele>183.64</ele>
<name><![CDATA[Point 57]]></name>
</wpt>
<wpt lat="25.047918" lon="121.784683">
<time>2011-06-13T07:45:32Z</time>
<ele>184.06</ele>
<name><![CDATA[Point 58]]></name>
</wpt>
<wpt lat="25.047964" lon="121.784691">
<time>2011-06-13T07:45:37Z</time>
<ele>184.27</ele>
<name><![CDATA[Point 59]]></name>
</wpt>
<wpt lat="25.048021" lon="121.784714">
<time>2011-06-13T07:45:42Z</time>
<ele>184.58</ele>
<name><![CDATA[Point 60]]></name>
</wpt>
<wpt lat="25.048077" lon="121.784767">
<time>2011-06-13T07:45:47Z</time>
<ele>184.67</ele>
<name><![CDATA[Point 61]]></name>
</wpt>
<wpt lat="25.048195" lon="121.784782">
<time>2011-06-13T07:45:52Z</time>
<ele>183.99</ele>
<name><![CDATA[Point 62]]></name>
</wpt>
<wpt lat="25.048235" lon="121.784782">
<time>2011-06-13T07:45:57Z</time>
<ele>184.55</ele>
<name><![CDATA[Point 63]]></name>
</wpt>
<wpt lat="25.048283" lon="121.784790">
<time>2011-06-13T07:46:02Z</time>
<ele>184.22</ele>
<name><![CDATA[Point 64]]></name>
</wpt>
<wpt lat="25.048389" lon="121.784760">
<time>2011-06-13T07:46:07Z</time>
<ele>180.21</ele>
<name><![CDATA[Point 65]]></name>
</wpt>
<wpt lat="25.048456" lon="121.784828">
<time>2011-06-13T07:46:12Z</time>
<ele>177.22</ele>
<name><![CDATA[Point 66]]></name>
</wpt>
<wpt lat="25.048519" lon="121.784843">
<time>2011-06-13T07:46:17Z</time>
<ele>176.69</ele>
<name><![CDATA[Point 67]]></name>
</wpt>
<wpt lat="25.048582" lon="121.784859">
<time>2011-06-13T07:46:22Z</time>
<ele>174.14</ele>
<name><![CDATA[Point 68]]></name>
</wpt>
<wpt lat="25.048653" lon="121.784874">
<time>2011-06-13T07:46:27Z</time>
<ele>175.25</ele>
<name><![CDATA[Point 69]]></name>
</wpt>
<wpt lat="25.048679" lon="121.784897">
<time>2011-06-13T07:46:32Z</time>
<ele>175.44</ele>
<name><![CDATA[Point 70]]></name>
</wpt>
<wpt lat="25.048689" lon="121.784859">
<time>2011-06-13T07:46:37Z</time>
<ele>175.66</ele>
<name><![CDATA[Point 71]]></name>
</wpt>
<wpt lat="25.048706" lon="121.784889">
<time>2011-06-13T07:46:42Z</time>
<ele>174.35</ele>
<name><![CDATA[Point 72]]></name>
</wpt>
<wpt lat="25.048689" lon="121.784897">
<time>2011-06-13T07:46:47Z</time>
<ele>173.79</ele>
<name><![CDATA[Point 73]]></name>
</wpt>
<wpt lat="25.048677" lon="121.784874">
<time>2011-06-13T07:46:52Z</time>
<ele>173.76</ele>
<name><![CDATA[Point 74]]></name>
</wpt>
<wpt lat="25.048676" lon="121.784851">
<time>2011-06-13T07:46:57Z</time>
<ele>173.86</ele>
<name><![CDATA[Point 75]]></name>
</wpt>
<wpt lat="25.048714" lon="121.784859">
<time>2011-06-13T07:47:02Z</time>
<ele>173.98</ele>
<name><![CDATA[Point 76]]></name>
</wpt>
<wpt lat="25.048763" lon="121.784843">
<time>2011-06-13T07:47:07Z</time>
<ele>173.70</ele>
<name><![CDATA[Point 77]]></name>
</wpt>
<wpt lat="25.048765" lon="121.784851">
<time>2011-06-13T07:47:12Z</time>
<ele>173.75</ele>
<name><![CDATA[Point 78]]></name>
</wpt>
<wpt lat="25.048763" lon="121.784859">
<time>2011-06-13T07:47:17Z</time>
<ele>173.75</ele>
<name><![CDATA[Point 79]]></name>
</wpt>
<wpt lat="25.048756" lon="121.784859">
<time>2011-06-13T07:47:22Z</time>
<ele>173.81</ele>
<name><![CDATA[Point 80]]></name>
</wpt>
<wpt lat="25.048737" lon="121.784889">
<time>2011-06-13T07:47:27Z</time>
<ele>173.40</ele>
<name><![CDATA[Point 81]]></name>
</wpt>
<wpt lat="25.048712" lon="121.784851">
<time>2011-06-13T07:47:32Z</time>
<ele>173.64</ele>
<name><![CDATA[Point 82]]></name>
</wpt>
<wpt lat="25.048752" lon="121.784790">
<time>2011-06-13T07:47:37Z</time>
<ele>173.64</ele>
<name><![CDATA[Point 83]]></name>
</wpt>
<wpt lat="25.048801" lon="121.784752">
<time>2011-06-13T07:47:42Z</time>
<ele>174.98</ele>
<name><![CDATA[Point 84]]></name>
</wpt>
<wpt lat="25.048826" lon="121.784760">
<time>2011-06-13T07:47:47Z</time>
<ele>174.41</ele>
<name><![CDATA[Point 85]]></name>
</wpt>
<wpt lat="25.048820" lon="121.784767">
<time>2011-06-13T07:47:52Z</time>
<ele>174.50</ele>
<name><![CDATA[Point 86]]></name>
</wpt>
<wpt lat="25.048872" lon="121.784821">
<time>2011-06-13T07:47:57Z</time>
<ele>176.48</ele>
<name><![CDATA[Point 87]]></name>
</wpt>
<wpt lat="25.048851" lon="121.784866">
<time>2011-06-13T07:48:02Z</time>
<ele>177.32</ele>
<name><![CDATA[Point 88]]></name>
</wpt>
<wpt lat="25.048828" lon="121.784927">
<time>2011-06-13T07:48:07Z</time>
<ele>177.10</ele>
<name><![CDATA[Point 89]]></name>
</wpt>
<wpt lat="25.048832" lon="121.784996">
<time>2011-06-13T07:48:12Z</time>
<ele>177.74</ele>
<name><![CDATA[Point 90]]></name>
</wpt>
<wpt lat="25.048836" lon="121.785019">
<time>2011-06-13T07:48:17Z</time>
<ele>177.73</ele>
<name><![CDATA[Point 91]]></name>
</wpt>
<wpt lat="25.048838" lon="121.785065">
<time>2011-06-13T07:48:22Z</time>
<ele>177.49</ele>
<name><![CDATA[Point 92]]></name>
</wpt>
<wpt lat="25.048834" lon="121.785156">
<time>2011-06-13T07:48:27Z</time>
<ele>178.64</ele>
<name><![CDATA[Point 93]]></name>
</wpt>
<wpt lat="25.048830" lon="121.785217">
<time>2011-06-13T07:48:32Z</time>
<ele>178.16</ele>
<name><![CDATA[Point 94]]></name>
</wpt>
<wpt lat="25.048811" lon="121.785301">
<time>2011-06-13T07:48:37Z</time>
<ele>178.58</ele>
<name><![CDATA[Point 95]]></name>
</wpt>
<wpt lat="25.048788" lon="121.785370">
<time>2011-06-13T07:48:42Z</time>
<ele>180.89</ele>
<name><![CDATA[Point 96]]></name>
</wpt>
<wpt lat="25.048777" lon="121.785431">
<time>2011-06-13T07:48:47Z</time>
<ele>180.70</ele>
<name><![CDATA[Point 97]]></name>
</wpt>
<wpt lat="25.048779" lon="121.785446">
<time>2011-06-13T07:48:52Z</time>
<ele>179.84</ele>
<name><![CDATA[Point 98]]></name>
</wpt>
<wpt lat="25.048756" lon="121.785515">
<time>2011-06-13T07:48:57Z</time>
<ele>179.34</ele>
<name><![CDATA[Point 99]]></name>
</wpt>
<wpt lat="25.048733" lon="121.785606">
<time>2011-06-13T07:49:02Z</time>
<ele>179.71</ele>
<name><![CDATA[Point 100]]></name>
</wpt>
<wpt lat="25.048706" lon="121.785675">
<time>2011-06-13T07:49:07Z</time>
<ele>180.73</ele>
<name><![CDATA[Point 101]]></name>
</wpt>
<wpt lat="25.048668" lon="121.785683">
<time>2011-06-13T07:49:12Z</time>
<ele>181.05</ele>
<name><![CDATA[Point 102]]></name>
</wpt>
<wpt lat="25.048655" lon="121.785721">
<time>2011-06-13T07:49:17Z</time>
<ele>181.77</ele>
<name><![CDATA[Point 103]]></name>
</wpt>
<wpt lat="25.048653" lon="121.785789">
<time>2011-06-13T07:49:22Z</time>
<ele>182.85</ele>
<name><![CDATA[Point 104]]></name>
</wpt>
<wpt lat="25.048628" lon="121.785843">
<time>2011-06-13T07:49:27Z</time>
<ele>183.63</ele>
<name><![CDATA[Point 105]]></name>
</wpt>
<wpt lat="25.048607" lon="121.785912">
<time>2011-06-13T07:49:32Z</time>
<ele>184.39</ele>
<name><![CDATA[Point 106]]></name>
</wpt>
<wpt lat="25.048571" lon="121.785950">
<time>2011-06-13T07:49:37Z</time>
<ele>184.52</ele>
<name><![CDATA[Point 107]]></name>
</wpt>
<wpt lat="25.048500" lon="121.786041">
<time>2011-06-13T07:49:42Z</time>
<ele>186.02</ele>
<name><![CDATA[Point 108]]></name>
</wpt>
<wpt lat="25.048496" lon="121.786118">
<time>2011-06-13T07:49:47Z</time>
<ele>187.67</ele>
<name><![CDATA[Point 109]]></name>
</wpt>
<wpt lat="25.048475" lon="121.786171">
<time>2011-06-13T07:49:52Z</time>
<ele>188.28</ele>
<name><![CDATA[Point 110]]></name>
</wpt>
<wpt lat="25.048496" lon="121.786232">
<time>2011-06-13T07:49:57Z</time>
<ele>189.04</ele>
<name><![CDATA[Point 111]]></name>
</wpt>
<wpt lat="25.048462" lon="121.786293">
<time>2011-06-13T07:50:02Z</time>
<ele>190.07</ele>
<name><![CDATA[Point 112]]></name>
</wpt>
<wpt lat="25.048435" lon="121.786430">
<time>2011-06-13T07:50:07Z</time>
<ele>192.78</ele>
<name><![CDATA[Point 113]]></name>
</wpt>
<wpt lat="25.048420" lon="121.786499">
<time>2011-06-13T07:50:12Z</time>
<ele>193.37</ele>
<name><![CDATA[Point 114]]></name>
</wpt>
<wpt lat="25.048389" lon="121.786552">
<time>2011-06-13T07:50:17Z</time>
<ele>194.47</ele>
<name><![CDATA[Point 115]]></name>
</wpt>
<wpt lat="25.048370" lon="121.786644">
<time>2011-06-13T07:50:22Z</time>
<ele>195.21</ele>
<name><![CDATA[Point 116]]></name>
</wpt>
<wpt lat="25.048365" lon="121.786705">
<time>2011-06-13T07:50:27Z</time>
<ele>196.31</ele>
<name><![CDATA[Point 117]]></name>
</wpt>
<wpt lat="25.048367" lon="121.786781">
<time>2011-06-13T07:50:32Z</time>
<ele>197.59</ele>
<name><![CDATA[Point 118]]></name>
</wpt>
<wpt lat="25.048399" lon="121.786865">
<time>2011-06-13T07:50:37Z</time>
<ele>198.85</ele>
<name><![CDATA[Point 119]]></name>
</wpt>
<wpt lat="25.048487" lon="121.786949">
<time>2011-06-13T07:50:42Z</time>
<ele>198.21</ele>
<name><![CDATA[Point 120]]></name>
</wpt>
<wpt lat="25.048479" lon="121.787018">
<time>2011-06-13T07:50:47Z</time>
<ele>198.59</ele>
<name><![CDATA[Point 121]]></name>
</wpt>
<wpt lat="25.048487" lon="121.787125">
<time>2011-06-13T07:50:52Z</time>
<ele>199.22</ele>
<name><![CDATA[Point 122]]></name>
</wpt>
<wpt lat="25.048502" lon="121.787201">
<time>2011-06-13T07:50:57Z</time>
<ele>197.01</ele>
<name><![CDATA[Point 123]]></name>
</wpt>
<wpt lat="25.048481" lon="121.787262">
<time>2011-06-13T07:51:02Z</time>
<ele>193.72</ele>
<name><![CDATA[Point 124]]></name>
</wpt>
<wpt lat="25.048471" lon="121.787300">
<time>2011-06-13T07:51:07Z</time>
<ele>195.27</ele>
<name><![CDATA[Point 125]]></name>
</wpt>
<wpt lat="25.048454" lon="121.787308">
<time>2011-06-13T07:51:12Z</time>
<ele>196.17</ele>
<name><![CDATA[Point 126]]></name>
</wpt>
<wpt lat="25.048454" lon="121.787292">
<time>2011-06-13T07:51:17Z</time>
<ele>196.51</ele>
<name><![CDATA[Point 127]]></name>
</wpt>
<wpt lat="25.048458" lon="121.787285">
<time>2011-06-13T07:51:22Z</time>
<ele>196.83</ele>
<name><![CDATA[Point 128]]></name>
</wpt>
<wpt lat="25.048462" lon="121.787254">
<time>2011-06-13T07:51:27Z</time>
<ele>197.14</ele>
<name><![CDATA[Point 129]]></name>
</wpt>
<wpt lat="25.048449" lon="121.787209">
<time>2011-06-13T07:51:32Z</time>
<ele>196.51</ele>
<name><![CDATA[Point 130]]></name>
</wpt>
<wpt lat="25.048452" lon="121.787163">
<time>2011-06-13T07:51:37Z</time>
<ele>195.83</ele>
<name><![CDATA[Point 131]]></name>
</wpt>
<wpt lat="25.048470" lon="121.787163">
<time>2011-06-13T07:51:42Z</time>
<ele>195.39</ele>
<name><![CDATA[Point 132]]></name>
</wpt>
<wpt lat="25.048477" lon="121.787163">
<time>2011-06-13T07:51:47Z</time>
<ele>195.39</ele>
<name><![CDATA[Point 133]]></name>
</wpt>
<wpt lat="25.048470" lon="121.787170">
<time>2011-06-13T07:51:52Z</time>
<ele>195.24</ele>
<name><![CDATA[Point 134]]></name>
</wpt>
<wpt lat="25.048454" lon="121.787193">
<time>2011-06-13T07:51:57Z</time>
<ele>194.80</ele>
<name><![CDATA[Point 135]]></name>
</wpt>
<wpt lat="25.048454" lon="121.787201">
<time>2011-06-13T07:52:02Z</time>
<ele>194.78</ele>
<name><![CDATA[Point 136]]></name>
</wpt>
<wpt lat="25.048508" lon="121.787231">
<time>2011-06-13T07:52:07Z</time>
<ele>194.56</ele>
<name><![CDATA[Point 137]]></name>
</wpt>
<wpt lat="25.048658" lon="121.787300">
<time>2011-06-13T07:52:12Z</time>
<ele>195.00</ele>
<name><![CDATA[Point 138]]></name>
</wpt>
<wpt lat="25.048729" lon="121.787308">
<time>2011-06-13T07:52:17Z</time>
<ele>194.79</ele>
<name><![CDATA[Point 139]]></name>
</wpt>
<wpt lat="25.048767" lon="121.787308">
<time>2011-06-13T07:52:22Z</time>
<ele>194.39</ele>
<name><![CDATA[Point 140]]></name>
</wpt>
<wpt lat="25.048792" lon="121.787308">
<time>2011-06-13T07:52:27Z</time>
<ele>194.37</ele>
<name><![CDATA[Point 141]]></name>
</wpt>
<wpt lat="25.048779" lon="121.787285">
<time>2011-06-13T07:52:32Z</time>
<ele>194.26</ele>
<name><![CDATA[Point 142]]></name>
</wpt>
<wpt lat="25.048765" lon="121.787300">
<time>2011-06-13T07:52:37Z</time>
<ele>194.49</ele>
<name><![CDATA[Point 143]]></name>
</wpt>
<wpt lat="25.048740" lon="121.787331">
<time>2011-06-13T07:52:42Z</time>
<ele>194.29</ele>
<name><![CDATA[Point 144]]></name>
</wpt>
<wpt lat="25.048765" lon="121.787323">
<time>2011-06-13T07:52:47Z</time>
<ele>193.20</ele>
<name><![CDATA[Point 145]]></name>
</wpt>
<wpt lat="25.048731" lon="121.787346">
<time>2011-06-13T07:52:52Z</time>
<ele>191.04</ele>
<name><![CDATA[Point 146]]></name>
</wpt>
<wpt lat="25.048742" lon="121.787415">
<time>2011-06-13T07:52:57Z</time>
<ele>190.20</ele>
<name><![CDATA[Point 147]]></name>
</wpt>
<wpt lat="25.048826" lon="121.787422">
<time>2011-06-13T07:53:02Z</time>
<ele>188.57</ele>
<name><![CDATA[Point 148]]></name>
</wpt>
<wpt lat="25.048820" lon="121.787422">
<time>2011-06-13T07:53:07Z</time>
<ele>187.13</ele>
<name><![CDATA[Point 149]]></name>
</wpt>
<wpt lat="25.048828" lon="121.787407">
<time>2011-06-13T07:53:12Z</time>
<ele>187.92</ele>
<name><![CDATA[Point 150]]></name>
</wpt>
<wpt lat="25.048868" lon="121.787392">
<time>2011-06-13T07:53:17Z</time>
<ele>186.61</ele>
<name><![CDATA[Point 151]]></name>
</wpt>
<wpt lat="25.048897" lon="121.787376">
<time>2011-06-13T07:53:22Z</time>
<ele>186.61</ele>
<name><![CDATA[Point 152]]></name>
</wpt>
<wpt lat="25.048939" lon="121.787422">
<time>2011-06-13T07:53:27Z</time>
<ele>186.01</ele>
<name><![CDATA[Point 153]]></name>
</wpt>
<wpt lat="25.048937" lon="121.787415">
<time>2011-06-13T07:53:32Z</time>
<ele>186.36</ele>
<name><![CDATA[Point 154]]></name>
</wpt>
<wpt lat="25.048931" lon="121.787415">
<time>2011-06-13T07:53:37Z</time>
<ele>186.30</ele>
<name><![CDATA[Point 155]]></name>
</wpt>
<wpt lat="25.048939" lon="121.787422">
<time>2011-06-13T07:53:42Z</time>
<ele>186.25</ele>
<name><![CDATA[Point 156]]></name>
</wpt>
<wpt lat="25.048944" lon="121.787422">
<time>2011-06-13T07:53:47Z</time>
<ele>186.18</ele>
<name><![CDATA[Point 157]]></name>
</wpt>
<wpt lat="25.048948" lon="121.787422">
<time>2011-06-13T07:53:52Z</time>
<ele>186.10</ele>
<name><![CDATA[Point 158]]></name>
</wpt>
<wpt lat="25.048866" lon="121.787460">
<time>2011-06-13T07:53:57Z</time>
<ele>185.34</ele>
<name><![CDATA[Point 159]]></name>
</wpt>
<wpt lat="25.048866" lon="121.787506">
<time>2011-06-13T07:54:02Z</time>
<ele>182.67</ele>
<name><![CDATA[Point 160]]></name>
</wpt>
<wpt lat="25.048855" lon="121.787514">
<time>2011-06-13T07:54:07Z</time>
<ele>182.06</ele>
<name><![CDATA[Point 161]]></name>
</wpt>
<wpt lat="25.048845" lon="121.787529">
<time>2011-06-13T07:54:12Z</time>
<ele>181.85</ele>
<name><![CDATA[Point 162]]></name>
</wpt>
<wpt lat="25.048843" lon="121.787590">
<time>2011-06-13T07:54:17Z</time>
<ele>180.53</ele>
<name><![CDATA[Point 163]]></name>
</wpt>
<wpt lat="25.048855" lon="121.787598">
<time>2011-06-13T07:54:22Z</time>
<ele>179.84</ele>
<name><![CDATA[Point 164]]></name>
</wpt>
<wpt lat="25.048855" lon="121.787598">
<time>2011-06-13T07:54:27Z</time>
<ele>179.78</ele>
<name><![CDATA[Point 165]]></name>
</wpt>
<wpt lat="25.048840" lon="121.787598">
<time>2011-06-13T07:54:32Z</time>
<ele>179.48</ele>
<name><![CDATA[Point 166]]></name>
</wpt>
<wpt lat="25.048851" lon="121.787590">
<time>2011-06-13T07:54:37Z</time>
<ele>179.44</ele>
<name><![CDATA[Point 167]]></name>
</wpt>
<wpt lat="25.048853" lon="121.787582">
<time>2011-06-13T07:54:42Z</time>
<ele>179.41</ele>
<name><![CDATA[Point 168]]></name>
</wpt>
<wpt lat="25.048857" lon="121.787582">
<time>2011-06-13T07:54:47Z</time>
<ele>179.39</ele>
<name><![CDATA[Point 169]]></name>
</wpt>
<wpt lat="25.048853" lon="121.787582">
<time>2011-06-13T07:54:52Z</time>
<ele>179.38</ele>
<name><![CDATA[Point 170]]></name>
</wpt>
<wpt lat="25.048832" lon="121.787621">
<time>2011-06-13T07:54:57Z</time>
<ele>178.20</ele>
<name><![CDATA[Point 171]]></name>
</wpt>
<wpt lat="25.048843" lon="121.787598">
<time>2011-06-13T07:55:02Z</time>
<ele>178.20</ele>
<name><![CDATA[Point 172]]></name>
</wpt>
<wpt lat="25.048841" lon="121.787598">
<time>2011-06-13T07:55:07Z</time>
<ele>178.08</ele>
<name><![CDATA[Point 173]]></name>
</wpt>
<wpt lat="25.048843" lon="121.787590">
<time>2011-06-13T07:55:12Z</time>
<ele>178.06</ele>
<name><![CDATA[Point 174]]></name>
</wpt>
<wpt lat="25.048830" lon="121.787598">
<time>2011-06-13T07:55:17Z</time>
<ele>177.57</ele>
<name><![CDATA[Point 175]]></name>
</wpt>
<wpt lat="25.048834" lon="121.787598">
<time>2011-06-13T07:55:22Z</time>
<ele>176.73</ele>
<name><![CDATA[Point 176]]></name>
</wpt>
<wpt lat="25.048834" lon="121.787598">
<time>2011-06-13T07:55:27Z</time>
<ele>176.71</ele>
<name><![CDATA[Point 177]]></name>
</wpt>
<wpt lat="25.048843" lon="121.787582">
<time>2011-06-13T07:55:32Z</time>
<ele>176.63</ele>
<name><![CDATA[Point 178]]></name>
</wpt>
<wpt lat="25.048822" lon="121.787560">
<time>2011-06-13T07:55:37Z</time>
<ele>176.50</ele>
<name><![CDATA[Point 179]]></name>
</wpt>
<wpt lat="25.048824" lon="121.787544">
<time>2011-06-13T07:55:42Z</time>
<ele>176.60</ele>
<name><![CDATA[Point 180]]></name>
</wpt>
<wpt lat="25.048822" lon="121.787552">
<time>2011-06-13T07:55:47Z</time>
<ele>176.54</ele>
<name><![CDATA[Point 181]]></name>
</wpt>
<wpt lat="25.048805" lon="121.787521">
<time>2011-06-13T07:55:52Z</time>
<ele>176.50</ele>
<name><![CDATA[Point 182]]></name>
</wpt>
<wpt lat="25.048769" lon="121.787468">
<time>2011-06-13T07:55:57Z</time>
<ele>176.05</ele>
<name><![CDATA[Point 183]]></name>
</wpt>
<wpt lat="25.048748" lon="121.787407">
<time>2011-06-13T07:56:02Z</time>
<ele>175.85</ele>
<name><![CDATA[Point 184]]></name>
</wpt>
<wpt lat="25.048729" lon="121.787308">
<time>2011-06-13T07:56:07Z</time>
<ele>175.89</ele>
<name><![CDATA[Point 185]]></name>
</wpt>
<wpt lat="25.048801" lon="121.787285">
<time>2011-06-13T07:56:12Z</time>
<ele>175.22</ele>
<name><![CDATA[Point 186]]></name>
</wpt>
<wpt lat="25.048834" lon="121.787262">
<time>2011-06-13T07:56:17Z</time>
<ele>175.55</ele>
<name><![CDATA[Point 187]]></name>
</wpt>
<wpt lat="25.048824" lon="121.787270">
<time>2011-06-13T07:56:22Z</time>
<ele>175.01</ele>
<name><![CDATA[Point 188]]></name>
</wpt>
<wpt lat="25.048824" lon="121.787277">
<time>2011-06-13T07:56:27Z</time>
<ele>174.90</ele>
<name><![CDATA[Point 189]]></name>
</wpt>
<wpt lat="25.048824" lon="121.787277">
<time>2011-06-13T07:56:32Z</time>
<ele>174.84</ele>
<name><![CDATA[Point 190]]></name>
</wpt>
<wpt lat="25.048830" lon="121.787285">
<time>2011-06-13T07:56:37Z</time>
<ele>174.83</ele>
<name><![CDATA[Point 191]]></name>
</wpt>
<wpt lat="25.048819" lon="121.787292">
<time>2011-06-13T07:56:42Z</time>
<ele>173.68</ele>
<name><![CDATA[Point 192]]></name>
</wpt>
<wpt lat="25.048817" lon="121.787254">
<time>2011-06-13T07:56:47Z</time>
<ele>173.38</ele>
<name><![CDATA[Point 193]]></name>
</wpt>
<wpt lat="25.048807" lon="121.787209">
<time>2011-06-13T07:56:52Z</time>
<ele>173.17</ele>
<name><![CDATA[Point 194]]></name>
</wpt>
<wpt lat="25.048800" lon="121.787148">
<time>2011-06-13T07:56:57Z</time>
<ele>172.75</ele>
<name><![CDATA[Point 195]]></name>
</wpt>
<wpt lat="25.048786" lon="121.787094">
<time>2011-06-13T07:57:02Z</time>
<ele>171.49</ele>
<name><![CDATA[Point 196]]></name>
</wpt>
<wpt lat="25.048792" lon="121.787117">
<time>2011-06-13T07:57:07Z</time>
<ele>170.78</ele>
<name><![CDATA[Point 197]]></name>
</wpt>
<wpt lat="25.048805" lon="121.787132">
<time>2011-06-13T07:57:12Z</time>
<ele>170.25</ele>
<name><![CDATA[Point 198]]></name>
</wpt>
<wpt lat="25.048813" lon="121.787155">
<time>2011-06-13T07:57:17Z</time>
<ele>169.31</ele>
<name><![CDATA[Point 199]]></name>
</wpt>
<rte>
<name>Route</name>
<rtept lat="25.047379" lon="121.782898">
<time>2011-06-13T07:40:41Z</time>
<ele>194.74</ele>
<name><![CDATA[Point 0]]></name>
</rtept>
<rtept lat="25.047384" lon="121.782890">
<time>2011-06-13T07:40:46Z</time>
<ele>181.74</ele>
<name><![CDATA[Point 1]]></name>
</rtept>
<rtept lat="25.047379" lon="121.782829">
<time>2011-06-13T07:40:52Z</time>
<ele>185.71</ele>
<name><![CDATA[Point 2]]></name>
</rtept>
<rtept lat="25.047405" lon="121.782776">
<time>2011-06-13T07:40:57Z</time>
<ele>193.46</ele>
<name><![CDATA[Point 3]]></name>
</rtept>
<rtept lat="25.047470" lon="121.782768">
<time>2011-06-13T07:41:02Z</time>
<ele>192.39</ele>
<name><![CDATA[Point 4]]></name>
</rtept>
<rtept lat="25.047495" lon="121.782829">
<time>2011-06-13T07:41:07Z</time>
<ele>190.54</ele>
<name><![CDATA[Point 5]]></name>
</rtept>
<rtept lat="25.047508" lon="121.782913">
<time>2011-06-13T07:41:12Z</time>
<ele>189.50</ele>
<name><![CDATA[Point 6]]></name>
</rtept>
<rtept lat="25.047491" lon="121.782974">
<time>2011-06-13T07:41:17Z</time>
<ele>189.06</ele>
<name><![CDATA[Point 7]]></name>
</rtept>
<rtept lat="25.047482" lon="121.783051">
<time>2011-06-13T07:41:22Z</time>
<ele>187.55</ele>
<name><![CDATA[Point 8]]></name>
</rtept>
<rtept lat="25.047407" lon="121.783096">
<time>2011-06-13T07:41:27Z</time>
<ele>183.47</ele>
<name><![CDATA[Point 9]]></name>
</rtept>
<rtept lat="25.047400" lon="121.783150">
<time>2011-06-13T07:41:32Z</time>
<ele>184.27</ele>
<name><![CDATA[Point 10]]></name>
</rtept>
<rtept lat="25.047424" lon="121.783195">
<time>2011-06-13T07:41:37Z</time>
<ele>183.39</ele>
<name><![CDATA[Point 11]]></name>
</rtept>
<rtept lat="25.047447" lon="121.783203">
<time>2011-06-13T07:41:42Z</time>
<ele>183.75</ele>
<name><![CDATA[Point 12]]></name>
</rtept>
<rtept lat="25.047422" lon="121.783203">
<time>2011-06-13T07:41:47Z</time>
<ele>182.25</ele>
<name><![CDATA[Point 13]]></name>
</rtept>
<rtept lat="25.047413" lon="121.783195">
<time>2011-06-13T07:41:52Z</time>
<ele>181.24</ele>
<name><![CDATA[Point 14]]></name>
</rtept>
<rtept lat="25.047443" lon="121.783257">
<time>2011-06-13T07:41:57Z</time>
<ele>184.43</ele>
<name><![CDATA[Point 15]]></name>
</rtept>
<rtept lat="25.047441" lon="121.783295">
<time>2011-06-13T07:42:02Z</time>
<ele>186.50</ele>
<name><![CDATA[Point 16]]></name>
</rtept>
<rtept lat="25.047430" lon="121.783340">
<time>2011-06-13T07:42:07Z</time>
<ele>186.88</ele>
<name><![CDATA[Point 17]]></name>
</rtept>
<rtept lat="25.047432" lon="121.783348">
<time>2011-06-13T07:42:12Z</time>
<ele>186.76</ele>
<name><![CDATA[Point 18]]></name>
</rtept>
<rtept lat="25.047440" lon="121.783348">
<time>2011-06-13T07:42:17Z</time>
<ele>187.10</ele>
<name><![CDATA[Point 19]]></name>
</rtept>
<rtept lat="25.047459" lon="121.783371">
<time>2011-06-13T07:42:22Z</time>
<ele>187.76</ele>
<name><![CDATA[Point 20]]></name>
</rtept>
<rtept lat="25.047495" lon="121.783417">
<time>2011-06-13T07:42:27Z</time>
<ele>187.84</ele>
<name><![CDATA[Point 21]]></name>
</rtept>
<rtept lat="25.047516" lon="121.783485">
<time>2011-06-13T07:42:32Z</time>
<ele>188.07</ele>
<name><![CDATA[Point 22]]></name>
</rtept>
<rtept lat="25.047516" lon="121.783516">
<time>2011-06-13T07:42:37Z</time>
<ele>188.32</ele>
<name><![CDATA[Point 23]]></name>
</rtept>
<rtept lat="25.047535" lon="121.783516">
<time>2011-06-13T07:42:42Z</time>
<ele>188.08</ele>
<name><![CDATA[Point 24]]></name>
</rtept>
<rtept lat="25.047552" lon="121.783539">
<time>2011-06-13T07:42:47Z</time>
<ele>187.36</ele>
<name><![CDATA[Point 25]]></name>
</rtept>
<rtept lat="25.047548" lon="121.783585">
<time>2011-06-13T07:42:52Z</time>
<ele>186.60</ele>
<name><![CDATA[Point 26]]></name>
</rtept>
<rtept lat="25.047539" lon="121.783592">
<time>2011-06-13T07:42:57Z</time>
<ele>186.50</ele>
<name><![CDATA[Point 27]]></name>
</rtept>
<rtept lat="25.047558" lon="121.783607">
<time>2011-06-13T07:43:02Z</time>
<ele>186.79</ele>
<name><![CDATA[Point 28]]></name>
</rtept>
<rtept lat="25.047550" lon="121.783592">
<time>2011-06-13T07:43:07Z</time>
<ele>186.70</ele>
<name><![CDATA[Point 29]]></name>
</rtept>
<rtept lat="25.047569" lon="121.783623">
<time>2011-06-13T07:43:12Z</time>
<ele>186.85</ele>
<name><![CDATA[Point 30]]></name>
</rtept>
<rtept lat="25.047579" lon="121.783600">
<time>2011-06-13T07:43:17Z</time>
<ele>187.52</ele>
<name><![CDATA[Point 31]]></name>
</rtept>
<rtept lat="25.047583" lon="121.783592">
<time>2011-06-13T07:43:22Z</time>
<ele>187.49</ele>
<name><![CDATA[Point 32]]></name>
</rtept>
<rtept lat="25.047581" lon="121.783607">
<time>2011-06-13T07:43:27Z</time>
<ele>186.36</ele>
<name><![CDATA[Point 33]]></name>
</rtept>
<rtept lat="25.047590" lon="121.783638">
<time>2011-06-13T07:43:32Z</time>
<ele>186.40</ele>
<name><![CDATA[Point 34]]></name>
</rtept>
<rtept lat="25.047611" lon="121.783661">
<time>2011-06-13T07:43:37Z</time>
<ele>186.11</ele>
<name><![CDATA[Point 35]]></name>
</rtept>
<rtept lat="25.047632" lon="121.783714">
<time>2011-06-13T07:43:42Z</time>
<ele>186.41</ele>
<name><![CDATA[Point 36]]></name>
</rtept>
<rtept lat="25.047655" lon="121.783775">
<time>2011-06-13T07:43:47Z</time>
<ele>186.40</ele>
<name><![CDATA[Point 37]]></name>
</rtept>
<rtept lat="25.047661" lon="121.783813">
<time>2011-06-13T07:43:52Z</time>
<ele>186.92</ele>
<name><![CDATA[Point 38]]></name>
</rtept>
<rtept lat="25.047638" lon="121.783829">
<time>2011-06-13T07:43:57Z</time>
<ele>187.46</ele>
<name><![CDATA[Point 39]]></name>
</rtept>
<rtept lat="25.047611" lon="121.783852">
<time>2011-06-13T07:44:02Z</time>
<ele>187.91</ele>
<name><![CDATA[Point 40]]></name>
</rtept>
<rtept lat="25.047590" lon="121.783882">
<time>2011-06-13T07:44:07Z</time>
<ele>188.45</ele>
<name><![CDATA[Point 41]]></name>
</rtept>
<rtept lat="25.047588" lon="121.783943">
<time>2011-06-13T07:44:12Z</time>
<ele>188.83</ele>
<name><![CDATA[Point 42]]></name>
</rtept>
<rtept lat="25.047562" lon="121.783981">
<time>2011-06-13T07:44:17Z</time>
<ele>188.96</ele>
<name><![CDATA[Point 43]]></name>
</rtept>
<rtept lat="25.047525" lon="121.784042">
<time>2011-06-13T07:44:22Z</time>
<ele>189.05</ele>
<name><![CDATA[Point 44]]></name>
</rtept>
<rtept lat="25.047491" lon="121.784119">
<time>2011-06-13T07:44:27Z</time>
<ele>189.33</ele>
<name><![CDATA[Point 45]]></name>
</rtept>
<rtept lat="25.047478" lon="121.784271">
<time>2011-06-13T07:44:32Z</time>
<ele>189.50</ele>
<name><![CDATA[Point 46]]></name>
</rtept>
<rtept lat="25.047451" lon="121.784317">
<time>2011-06-13T07:44:37Z</time>
<ele>190.04</ele>
<name><![CDATA[Point 47]]></name>
</rtept>
<rtept lat="25.047470" lon="121.784386">
<time>2011-06-13T07:44:42Z</time>
<ele>190.47</ele>
<name><![CDATA[Point 48]]></name>
</rtept>
<rtept lat="25.047430" lon="121.784447">
<time>2011-06-13T07:44:47Z</time>
<ele>190.36</ele>
<name><![CDATA[Point 49]]></name>
</rtept>
<rtept lat="25.047466" lon="121.784508">
<time>2011-06-13T07:44:52Z</time>
<ele>189.65</ele>
<name><![CDATA[Point 50]]></name>
</rtept>
<rtept lat="25.047523" lon="121.784508">
<time>2011-06-13T07:44:57Z</time>
<ele>187.80</ele>
<name><![CDATA[Point 51]]></name>
</rtept>
<rtept lat="25.047562" lon="121.784515">
<time>2011-06-13T07:45:02Z</time>
<ele>186.05</ele>
<name><![CDATA[Point 52]]></name>
</rtept>
<rtept lat="25.047602" lon="121.784569">
<time>2011-06-13T07:45:07Z</time>
<ele>185.75</ele>
<name><![CDATA[Point 53]]></name>
</rtept>
<rtept lat="25.047691" lon="121.784584">
<time>2011-06-13T07:45:12Z</time>
<ele>184.05</ele>
<name><![CDATA[Point 54]]></name>
</rtept>
<rtept lat="25.047739" lon="121.784615">
<time>2011-06-13T07:45:17Z</time>
<ele>183.23</ele>
<name><![CDATA[Point 55]]></name>
</rtept>
<rtept lat="25.047779" lon="121.784653">
<time>2011-06-13T07:45:22Z</time>
<ele>183.70</ele>
<name><![CDATA[Point 56]]></name>
</rtept>
<rtept lat="25.047848" lon="121.784683">
<time>2011-06-13T07:45:27Z</time>
<ele>183.64</ele>
<name><![CDATA[Point 57]]></name>
</rtept>
<rtept lat="25.047918" lon="121.784683">
<time>2011-06-13T07:45:32Z</time>
<ele>184.06</ele>
<name><![CDATA[Point 58]]></name>
</rtept>
<rtept lat="25.047964" lon="121.784691">
<time>2011-06-13T07:45:37Z</time>
<ele>184.27</ele>
<name><![CDATA[Point 59]]></name>
</rtept>
<rtept lat="25.048021" lon="121.784714">
<time>2011-06-13T07:45:42Z</time>
<ele>184.58</ele>
<name><![CDATA[Point 60]]></name>
</rtept>
<rtept lat="25.048077" lon="121.784767">
<time>2011-06-13T07:45:47Z</time>
<ele>184.67</ele>
<name><![CDATA[Point 61]]></name>
</rtept>
<rtept lat="25.048195" lon="121.784782">
<time>2011-06-13T07:45:52Z</time>
<ele>183.99</ele>
<name><![CDATA[Point 62]]></name>
</rtept>
<rtept lat="25.048235" lon="121.784782">
<time>2011-06-13T07:45:57Z</time>
<ele>184.55</ele>
<name><![CDATA[Point 63]]></name>
</rtept>
<rtept lat="25.048283" lon="121.784790">
<time>2011-06-13T07:46:02Z</time>
<ele>184.22</ele>
<name><![CDATA[Point 64]]></name>
</rtept>
<rtept lat="25.048389" lon="121.784760">
<time>2011-06-13T07:46:07Z</time>
<ele>180.21</ele>
<name><![CDATA[Point 65]]></name>
</rtept>
<rtept lat="25.048456" lon="121.784828">
<time>2011-06-13T07:46:12Z</time>
<ele>177.22</ele>
<name><![CDATA[Point 66]]></name>
</rtept>
<rtept lat="25.048519" lon="121.784843">
<time>2011-06-13T07:46:17Z</time>
<ele>176.69</ele>
<name><![CDATA[Point 67]]></name>
</rtept>
<rtept lat="25.048582" lon="121.784859">
<time>2011-06-13T07:46:22Z</time>
<ele>174.14</ele>
<name><![CDATA[Point 68]]></name>
</rtept>
<rtept lat="25.048653" lon="121.784874">
<time>2011-06-13T07:46:27Z</time>
<ele>175.25</ele>
<name><![CDATA[Point 69]]></name>
</rtept>
<rtept lat="25.048679" lon="121.784897">
<time>2011-06-13T07:46:32Z</time>
<ele>175.44</ele>
<name><![CDATA[Point 70]]></name>
</rtept>
<rtept lat="25.048689" lon="121.784859">
<time>2011-06-13T07:46:37Z</time>
<ele>175.66</ele>
<name><![CDATA[Point 71]]></name>
</rtept>
<rtept lat="25.048706" lon="121.784889">
<time>2011-06-13T07:46:42Z</time>
<ele>174.35</ele>
<name><![CDATA[Point 72]]></name>
</rtept>
<rtept lat="25.048689" lon="121.784897">
<time>2011-06-13T07:46:47Z</time>
<ele>173.79</ele>
<name><![CDATA[Point 73]]></name>
</rtept>
<rtept lat="25.048677" lon="121.784874">
<time>2011-06-13T07:46:52Z</time>
<ele>173.76</ele>
<name><![CDATA[Point 74]]></name>
</rtept>
<rtept lat="25.048676" lon="121.784851">
<time>2011-06-13T07:46:57Z</time>
<ele>173.86</ele>
<name><![CDATA[Point 75]]></name>
</rtept>
<rtept lat="25.048714" lon="121.784859">
<time>2011-06-13T07:47:02Z</time>
<ele>173.98</ele>
<name><![CDATA[Point 76]]></name>
</rtept>
<rtept lat="25.048763" lon="121.784843">
<time>2011-06-13T07:47:07Z</time>
<ele>173.70</ele>
<name><![CDATA[Point 77]]></name>
</rtept>
<rtept lat="25.048765" lon="121.784851">
<time>2011-06-13T07:47:12Z</time>
<ele>173.75</ele>
<name><![CDATA[Point 78]]></name>
</rtept>
<rtept lat="25.048763" lon="121.784859">
<time>2011-06-13T07:47:17Z</time>
<ele>173.75</ele>
<name><![CDATA[Point 79]]></name>
</rtept>
<rtept lat="25.048756" lon="121.784859">
<time>2011-06-13T07:47:22Z</time>
<ele>173.81</ele>
<name><![CDATA[Point 80]]></name>
</rtept>
<rtept lat="25.048737" lon="121.784889">
<time>2011-06-13T07:47:27Z</time>
<ele>173.40</ele>
<name><![CDATA[Point 81]]></name>
</rtept>
<rtept lat="25.048712" lon="121.784851">
<time>2011-06-13T07:47:32Z</time>
<ele>173.64</ele>
<name><![CDATA[Point 82]]></name>
</rtept>
<rtept lat="25.048752" lon="121.784790">
<time>2011-06-13T07:47:37Z</time>
<ele>173.64</ele>
<name><![CDATA[Point 83]]></name>
</rtept>
<rtept lat="25.048801" lon="121.784752">
<time>2011-06-13T07:47:42Z</time>
<ele>174.98</ele>
<name><![CDATA[Point 84]]></name>
</rtept>
<rtept lat="25.048826" lon="121.784760">
<time>2011-06-13T07:47:47Z</time>
<ele>174.41</ele>
<name><![CDATA[Point 85]]></name>
</rtept>
<rtept lat="25.048820" lon="121.784767">
<time>2011-06-13T07:47:52Z</time>
<ele>174.50</ele>
<name><![CDATA[Point 86]]></name>
</rtept>
<rtept lat="25.048872" lon="121.784821">
<time>2011-06-13T07:47:57Z</time>
<ele>176.48</ele>
<name><![CDATA[Point 87]]></name>
</rtept>
<rtept lat="25.048851" lon="121.784866">
<time>2011-06-13T07:48:02Z</time>
<ele>177.32</ele>
<name><![CDATA[Point 88]]></name>
</rtept>
<rtept lat="25.048828" lon="121.784927">
<time>2011-06-13T07:48:07Z</time>
<ele>177.10</ele>
<name><![CDATA[Point 89]]></name>
</rtept>
<rtept lat="25.048832" lon="121.784996">
<time>2011-06-13T07:48:12Z</time>
<ele>177.74</ele>
<name><![CDATA[Point 90]]></name>
</rtept>
<rtept lat="25.048836" lon="121.785019">
<time>2011-06-13T07:48:17Z</time>
<ele>177.73</ele>
<name><![CDATA[Point 91]]></name>
</rtept>
<rtept lat="25.048838" lon="121.785065">
<time>2011-06-13T07:48:22Z</time>
<ele>177.49</ele>
<name><![CDATA[Point 92]]></name>
</rtept>
<rtept lat="25.048834" lon="121.785156">
<time>2011-06-13T07:48:27Z</time>
<ele>178.64</ele>
<name><![CDATA[Point 93]]></name>
</rtept>
<rtept lat="25.048830" lon="121.785217">
<time>2011-06-13T07:48:32Z</time>
<ele>178.16</ele>
<name><![CDATA[Point 94]]></name>
</rtept>
<rtept lat="25.048811" lon="121.785301">
<time>2011-06-13T07:48:37Z</time>
<ele>178.58</ele>
<name><![CDATA[Point 95]]></name>
</rtept>
<rtept lat="25.048788" lon="121.785370">
<time>2011-06-13T07:48:42Z</time>
<ele>180.89</ele>
<name><![CDATA[Point 96]]></name>
</rtept>
<rtept lat="25.048777" lon="121.785431">
<time>2011-06-13T07:48:47Z</time>
<ele>180.70</ele>
<name><![CDATA[Point 97]]></name>
</rtept>
<rtept lat="25.048779" lon="121.785446">
<time>2011-06-13T07:48:52Z</time>
<ele>179.84</ele>
<name><![CDATA[Point 98]]></name>
</rtept>
<rtept lat="25.048756" lon="121.785515">
<time>2011-06-13T07:48:57Z</time>
<ele>179.34</ele>
<name><![CDATA[Point 99]]></name>
</rtept>
<rtept lat="25.048733" lon="121.785606">
<time>2011-06-13T07:49:02Z</time>
<ele>179.71</ele>
<name><![CDATA[Point 100]]></name>
</rtept>
<rtept lat="25.048706" lon="121.785675">
<time>2011-06-13T07:49:07Z</time>
<ele>180.73</ele>
<name><![CDATA[Point 101]]></name>
</rtept>
<rtept lat="25.048668" lon="121.785683">
<time>2011-06-13T07:49:12Z</time>
<ele>181.05</ele>
<name><![CDATA[Point 102]]></name>
</rtept>
<rtept lat="25.048655" lon="121.785721">
<time>2011-06-13T07:49:17Z</time>
<ele>181.77</ele>
<name><![CDATA[Point 103]]></name>
</rtept>
<rtept lat="25.048653" lon="121.785789">
<time>2011-06-13T07:49:22Z</time>
<ele>182.85</ele>
<name><![CDATA[Point 104]]></name>
</rtept>
<rtept lat="25.048628" lon="121.785843">
<time>2011-06-13T07:49:27Z</time>
<ele>183.63</ele>
<name><![CDATA[Point 105]]></name>
</rtept>
<rtept lat="25.048607" lon="121.785912">
<time>2011-06-13T07:49:32Z</time>
<ele>184.39</ele>
<name><![CDATA[Point 106]]></name>
</rtept>
<rtept lat="25.048571" lon="121.785950">
<time>2011-06-13T07:49:37Z</time>
<ele>184.52</ele>
<name><![CDATA[Point 107]]></name>
</rtept>
<rtept lat="25.048500" lon="121.786041">
<time>2011-06-13T07:49:42Z</time>
<ele>186.02</ele>
<name><![CDATA[Point 108]]></name>
</rtept>
<rtept lat="25.048496" lon="121.786118">
<time>2011-06-13T07:49:47Z</time>
<ele>187.67</ele>
<name><![CDATA[Point 109]]></name>
</rtept>
<rtept lat="25.048475" lon="121.786171">
<time>2011-06-13T07:49:52Z</time>
<ele>188.28</ele>
<name><![CDATA[Point 110]]></name>
</rtept>
<rtept lat="25.048496" lon="121.786232">
<time>2011-06-13T07:49:57Z</time>
<ele>189.04</ele>
<name><![CDATA[Point 111]]></name>
</rtept>
<rtept lat="25.048462" lon="121.786293">
<time>2011-06-13T07:50:02Z</time>
<ele>190.07</ele>
<name><![CDATA[Point 112]]></name>
</rtept>
<rtept lat="25.048435" lon="121.786430">
<time>2011-06-13T07:50:07Z</time>
<ele>192.78</ele>
<name><![CDATA[Point 113]]></name>
</rtept>
<rtept lat="25.048420" lon="121.786499">
<time>2011-06-13T07:50:12Z</time>
<ele>193.37</ele>
<name><![CDATA[Point 114]]></name>
</rtept>
<rtept lat="25.048389" lon="121.786552">
<time>2011-06-13T07:50:17Z</time>
<ele>194.47</ele>
<name><![CDATA[Point 115]]></name>
</rtept>
<rtept lat="25.048370" lon="121.786644">
<time>2011-06-13T07:50:22Z</time>
<ele>195.21</ele>
<name><![CDATA[Point 116]]></name>
</rtept>
<rtept lat="25.048365" lon="121.786705">
<time>2011-06-13T07:50:27Z</time>
<ele>196.31</ele>
<name><![CDATA[Point 117]]></name>
</rtept>
<rtept lat="25.048367" lon="121.786781">
<time>2011-06-13T07:50:32Z</time>
<ele>197.59</ele>
<name><![CDATA[Point 118]]></name>
</rtept>
<rtept lat="25.048399" lon="121.786865">
<time>2011-06-13T07:50:37Z</time>
<ele>198.85</ele>
<name><![CDATA[Point 119]]></name>
</rtept>
<rtept lat="25.048487" lon="121.786949">
<time>2011-06-13T07:50:42Z</time>
<ele>198.21</ele>
<name><![CDATA[Point 120]]></name>
</rtept>
<rtept lat="25.048479" lon="121.787018">
<time>2011-06-13T07:50:47Z</time>
<ele>198.59</ele>
<name><![CDATA[Point 121]]></name>
</rtept>
<rtept lat="25.048487" lon="121.787125">
<time>2011-06-13T07:50:52Z</time>
<ele>199.22</ele>
<name><![CDATA[Point 122]]></name>
</rtept>
<rtept lat="25.048502" lon="121.787201">
<time>2011-06-13T07:50:57Z</time>
<ele>197.01</ele>
<name><![CDATA[Point 123]]></name>
</rtept>
<rtept lat="25.048481" lon="121.787262">
<time>2011-06-13T07:51:02Z</time>
<ele>193.72</ele>
<name><![CDATA[Point 124]]></name>
</rtept>
<rtept lat="25.048471" lon="121.787300">
<time>2011-06-13T07:51:07Z</time>
<ele>195.27</ele>
<name><![CDATA[Point 125]]></name>
</rtept>
<rtept lat="25.048454" lon="121.787308">
<time>2011-06-13T07:51:12Z</time>
<ele>196.17</ele>
<name><![CDATA[Point 126]]></name>
</rtept>
<rtept lat="25.048454" lon="121.787292">
<time>2011-06-13T07:51:17Z</time>
<ele>196.51</ele>
<name><![CDATA[Point 127]]></name>
</rtept>
<rtept lat="25.048458" lon="121.787285">
<time>2011-06-13T07:51:22Z</time>
<ele>196.83</ele>
<name><![CDATA[Point 128]]></name>
</rtept>
<rtept lat="25.048462" lon="121.787254">
<time>2011-06-13T07:51:27Z</time>
<ele>197.14</ele>
<name><![CDATA[Point 129]]></name>
</rtept>
<rtept lat="25.048449" lon="121.787209">
<time>2011-06-13T07:51:32Z</time>
<ele>196.51</ele>
<name><![CDATA[Point 130]]></name>
</rtept>
<rtept lat="25.048452" lon="121.787163">
<time>2011-06-13T07:51:37Z</time>
<ele>195.83</ele>
<name><![CDATA[Point 131]]></name>
</rtept>
<rtept lat="25.048470" lon="121.787163">
<time>2011-06-13T07:51:42Z</time>
<ele>195.39</ele>
<name><![CDATA[Point 132]]></name>
</rtept>
<rtept lat="25.048477" lon="121.787163">
<time>2011-06-13T07:51:47Z</time>
<ele>195.39</ele>
<name><![CDATA[Point 133]]></name>
</rtept>
<rtept lat="25.048470" lon="121.787170">
<time>2011-06-13T07:51:52Z</time>
<ele>195.24</ele>
<name><![CDATA[Point 134]]></name>
</rtept>
<rtept lat="25.048454" lon="121.787193">
<time>2011-06-13T07:51:57Z</time>
<ele>194.80</ele>
<name><![CDATA[Point 135]]></name>
</rtept>
<rtept lat="25.048454" lon="121.787201">
<time>2011-06-13T07:52:02Z</time>
<ele>194.78</ele>
<name><![CDATA[Point 136]]></name>
</rtept>
<rtept lat="25.048508" lon="121.787231">
<time>2011-06-13T07:52:07Z</time>
<ele>194.56</ele>
<name><![CDATA[Point 137]]></name>
</rtept>
<rtept lat="25.048658" lon="121.787300">
<time>2011-06-13T07:52:12Z</time>
<ele>195.00</ele>
<name><![CDATA[Point 138]]></name>
</rtept>
<rtept lat="25.048729" lon="121.787308">
<time>2011-06-13T07:52:17Z</time>
<ele>194.79</ele>
<name><![CDATA[Point 139]]></name>
</rtept>
<rtept lat="25.048767" lon="121.787308">
<time>2011-06-13T07:52:22Z</time>
<ele>194.39</ele>
<name><![CDATA[Point 140]]></name>
</rtept>
<rtept lat="25.048792" lon="121.787308">
<time>2011-06-13T07:52:27Z</time>
<ele>194.37</ele>
<name><![CDATA[Point 141]]></name>
</rtept>
<rtept lat="25.048779" lon="121.787285">
<time>2011-06-13T07:52:32Z</time>
<ele>194.26</ele>
<name><![CDATA[Point 142]]></name>
</rtept>
<rtept lat="25.048765" lon="121.787300">
<time>2011-06-13T07:52:37Z</time>
<ele>194.49</ele>
<name><![CDATA[Point 143]]></name>
</rtept>
<rtept lat="25.048740" lon="121.787331">
<time>2011-06-13T07:52:42Z</time>
<ele>194.29</ele>
<name><![CDATA[Point 144]]></name>
</rtept>
<rtept lat="25.048765" lon="121.787323">
<time>2011-06-13T07:52:47Z</time>
<ele>193.20</ele>
<name><![CDATA[Point 145]]></name>
</rtept>
<rtept lat="25.048731" lon="121.787346">
<time>2011-06-13T07:52:52Z</time>
<ele>191.04</ele>
<name><![CDATA[Point 146]]></name>
</rtept>
<rtept lat="25.048742" lon="121.787415">
<time>2011-06-13T07:52:57Z</time>
<ele>190.20</ele>
<name><![CDATA[Point 147]]></name>
</rtept>
<rtept lat="25.048826" lon="121.787422">
<time>2011-06-13T07:53:02Z</time>
<ele>188.57</ele>
<name><![CDATA[Point 148]]></name>
</rtept>
<rtept lat="25.048820" lon="121.787422">
<time>2011-06-13T07:53:07Z</time>
<ele>187.13</ele>
<name><![CDATA[Point 149]]></name>
</rtept>
<rtept lat="25.048828" lon="121.787407">
<time>2011-06-13T07:53:12Z</time>
<ele>187.92</ele>
<name><![CDATA[Point 150]]></name>
</rtept>
<rtept lat="25.048868" lon="121.787392">
<time>2011-06-13T07:53:17Z</time>
<ele>186.61</ele>
<name><![CDATA[Point 151]]></name>
</rtept>
<rtept lat="25.048897" lon="121.787376">
<time>2011-06-13T07:53:22Z</time>
<ele>186.61</ele>
<name><![CDATA[Point 152]]></name>
</rtept>
<rtept lat="25.048939" lon="121.787422">
<time>2011-06-13T07:53:27Z</time>
<ele>186.01</ele>
<name><![CDATA[Point 153]]></name>
</rtept>
<rtept lat="25.048937" lon="121.787415">
<time>2011-06-13T07:53:32Z</time>
<ele>186.36</ele>
<name><![CDATA[Point 154]]></name>
</rtept>
<rtept lat="25.048931" lon="121.787415">
<time>2011-06-13T07:53:37Z</time>
<ele>186.30</ele>
<name><![CDATA[Point 155]]></name>
</rtept>
<rtept lat="25.048939" lon="121.787422">
<time>2011-06-13T07:53:42Z</time>
<ele>186.25</ele>
<name><![CDATA[Point 156]]></name>
</rtept>
<rtept lat="25.048944" lon="121.787422">
<time>2011-06-13T07:53:47Z</time>
<ele>186.18</ele>
<name><![CDATA[Point 157]]></name>
</rtept>
<rtept lat="25.048948" lon="121.787422">
<time>2011-06-13T07:53:52Z</time>
<ele>186.10</ele>
<name><![CDATA[Point 158]]></name>
</rtept>
<rtept lat="25.048866" lon="121.787460">
<time>2011-06-13T07:53:57Z</time>
<ele>185.34</ele>
<name><![CDATA[Point 159]]></name>
</rtept>
<rtept lat="25.048866" lon="121.787506">
<time>2011-06-13T07:54:02Z</time>
<ele>182.67</ele>
<name><![CDATA[Point 160]]></name>
</rtept>
<rtept lat="25.048855" lon="121.787514">
<time>2011-06-13T07:54:07Z</time>
<ele>182.06</ele>
<name><![CDATA[Point 161]]></name>
</rtept>
<rtept lat="25.048845" lon="121.787529">
<time>2011-06-13T07:54:12Z</time>
<ele>181.85</ele>
<name><![CDATA[Point 162]]></name>
</rtept>
<rtept lat="25.048843" lon="121.787590">
<time>2011-06-13T07:54:17Z</time>
<ele>180.53</ele>
<name><![CDATA[Point 163]]></name>
</rtept>
<rtept lat="25.048855" lon="121.787598">
<time>2011-06-13T07:54:22Z</time>
<ele>179.84</ele>
<name><![CDATA[Point 164]]></name>
</rtept>
<rtept lat="25.048855" lon="121.787598">
<time>2011-06-13T07:54:27Z</time>
<ele>179.78</ele>
<name><![CDATA[Point 165]]></name>
</rtept>
<rtept lat="25.048840" lon="121.787598">
<time>2011-06-13T07:54:32Z</time>
<ele>179.48</ele>
<name><![CDATA[Point 166]]></name>
</rtept>
<rtept lat="25.048851" lon="121.787590">
<time>2011-06-13T07:54:37Z</time>
<ele>179.44</ele>
<name><![CDATA[Point 167]]></name>
</rtept>
<rtept lat="25.048853" lon="121.787582">
<time>2011-06-13T07:54:42Z</time>
<ele>179.41</ele>
<name><![CDATA[Point 168]]></name>
</rtept>
<rtept lat="25.048857" lon="121.787582">
<time>2011-06-13T07:54:47Z</time>
<ele>179.39</ele>
<name><![CDATA[Point 169]]></name>
</rtept>
<rtept lat="25.048853" lon="121.787582">
<time>2011-06-13T07:54:52Z</time>
<ele>179.38</ele>
<name><![CDATA[Point 170]]></name>
</rtept>
<rtept lat="25.048832" lon="121.787621">
<time>2011-06-13T07:54:57Z</time>
<ele>178.20</ele>
<name><![CDATA[Point 171]]></name>
</rtept>
<rtept lat="25.048843" lon="121.787598">
<time>2011-06-13T07:55:02Z</time>
<ele>178.20</ele>
<name><![CDATA[Point 172]]></name>
</rtept>
<rtept lat="25.048841" lon="121.787598">
<time>2011-06-13T07:55:07Z</time>
<ele>178.08</ele>
<name><![CDATA[Point 173]]></name>
</rtept>
<rtept lat="25.048843" lon="121.787590">
<time>2011-06-13T07:55:12Z</time>
<ele>178.06</ele>
<name><![CDATA[Point 174]]></name>
</rtept>
<rtept lat="25.048830" lon="121.787598">
<time>2011-06-13T07:55:17Z</time>
<ele>177.57</ele>
<name><![CDATA[Point 175]]></name>
</rtept>
<rtept lat="25.048834" lon="121.787598">
<time>2011-06-13T07:55:22Z</time>
<ele>176.73</ele>
<name><![CDATA[Point 176]]></name>
</rtept>
<rtept lat="25.048834" lon="121.787598">
<time>2011-06-13T07:55:27Z</time>
<ele>176.71</ele>
<name><![CDATA[Point 177]]></name>
</rtept>
<rtept lat="25.048843" lon="121.787582">
<time>2011-06-13T07:55:32Z</time>
<ele>176.63</ele>
<name><![CDATA[Point 178]]></name>
</rtept>
<rtept lat="25.048822" lon="121.787560">
<time>2011-06-13T07:55:37Z</time>
<ele>176.50</ele>
<name><![CDATA[Point 179]]></name>
</rtept>
<rtept lat="25.048824" lon="121.787544">
<time>2011-06-13T07:55:42Z</time>
<ele>176.60</ele>
<name><![CDATA[Point 180]]></name>
</rtept>
<rtept lat="25.048822" lon="121.787552">
<time>2011-06-13T07:55:47Z</time>
<ele>176.54</ele>
<name><![CDATA[Point 181]]></name>
</rtept>
<rtept lat="25.048805" lon="121.787521">
<time>2011-06-13T07:55:52Z</time>
<ele>176.50</ele>
<name><![CDATA[Point 182]]></name>
</rtept>
<rtept lat="25.048769" lon="121.787468">
<time>2011-06-13T07:55:57Z</time>
<ele>176.05</ele>
<name><![CDATA[Point 183]]></name>
</rtept>
<rtept lat="25.048748" lon="121.787407">
<time>2011-06-13T07:56:02Z</time>
<ele>175.85</ele>
<name><![CDATA[Point 184]]></name>
</rtept>
<rtept lat="25.048729" lon="121.787308">
<time>2011-06-13T07:56:07Z</time>
<ele>175.89</ele>
<name><![CDATA[Point 185]]></name>
</rtept>
<rtept lat="25.048801" lon="121.787285">
<time>2011-06-13T07:56:12Z</time>
<ele>175.22</ele>
<name><![CDATA[Point 186]]></name>
</rtept>
<rtept lat="25.048834" lon="121.787262">
<time>2011-06-13T07:56:17Z</time>
<ele>175.55</ele>
<name><![CDATA[Point 187]]></name>
</rtept>
<rtept lat="25.048824" lon="121.787270">
<time>2011-06-13T07:56:22Z</time>
<ele>175.01</ele>
<name><![CDATA[Point 188]]></name>
</rtept>
<rtept lat="25.048824" lon="121.787277">
<time>2011-06-13T07:56:27Z</time>
<ele>174.90</ele>
<name><![CDATA[Point 189]]></name>
</rtept>
<rtept lat="25.048824" lon="121.787277">
<time>2011-06-13T07:56:32Z</time>
<ele>174.84</ele>
<name><![CDATA[Point 190]]></name>
</rtept>
<rtept lat="25.048830" lon="121.787285">
<time>2011-06-13T07:56:37Z</time>
<ele>174.83</ele>
<name><![CDATA[Point 191]]></name>
</rtept>
<rtept lat="25.048819" lon="121.787292">
<time>2011-06-13T07:56:42Z</time>
<ele>173.68</ele>
<name><![CDATA[Point 192]]></name>
</rtept>
<rtept lat="25.048817" lon="121.787254">
<time>2011-06-13T07:56:47Z</time>
<ele>173.38</ele>
<name><![CDATA[Point 193]]></name>
</rtept>
<rtept lat="25.048807" lon="121.787209">
<time>2011-06-13T07:56:52Z</time>
<ele>173.17</ele>
<name><![CDATA[Point 194]]></name>
</rtept>
<rtept lat="25.048800" lon="121.787148">
<time>2011-06-13T07:56:57Z</time>
<ele>172.75</ele>
<name><![CDATA[Point 195]]></name>
</rtept>
<rtept lat="25.048786" lon="121.787094">
<time>2011-06-13T07:57:02Z</time>
<ele>171.49</ele>
<name><![CDATA[Point 196]]></name>
</rtept>
<rtept lat="25.048792" lon="121.787117">
<time>2011-06-13T07:57:07Z</time>
<ele>170.78</ele>
<name><![CDATA[Point 197]]></name>
</rtept>
<rtept lat="25.048805" lon="121.787132">
<time>2011-06-13T07:57:12Z</time>
<ele>170.25</ele>
<name><![CDATA[Point 198]]></name>
</rtept>
<rtept lat="25.048813" lon="121.787155">
<time>2011-06-13T07:57:17Z</time>
<ele>169.31</ele>
<name><![CDATA[Point 199]]></name>
</rtept>
</rte>
</gpx>
