<?xml version="1.0"?>
<gpx
version="1.0"
creator="Holux Utility"
xmlns:xsi="http://www.w3.org/2001/XMLSchema-instance"
xmlns="http://www.topografix.com/GPX/1/0"
xsi:schemaLocation="http://www.topografix.com/GPX/1/0 http://www.topografix.com/GPX/1/0/gpx.xsd">
<wpt lat="25.045782" lon="121.582886">
<time>2010-07-10T09:02:04Z</time>
<ele>43.59</ele>
<name><![CDATA[Point 0]]></name>
</wpt>
<wpt lat="25.045879" lon="121.583015">
<time>2010-07-10T09:02:09Z</time>
<ele>36.58</ele>
<name><![CDATA[Point 1]]></name>
</wpt>
<wpt lat="25.045929" lon="121.583313">
<time>2010-07-10T09:02:14Z</time>
<ele>17.40</ele>
<name><![CDATA[Point 2]]></name>
</wpt>
<wpt lat="25.046114" lon="121.583420">
<time>2010-07-10T09:02:20Z</time>
<ele>15.01</ele>
<name><![CDATA[Point 3]]></name>
</wpt>
<wpt lat="25.046286" lon="121.583527">
<time>2010-07-10T09:02:25Z</time>
<ele>14.72</ele>
<name><![CDATA[Point 4]]></name>
</wpt>
<wpt lat="25.046440" lon="121.583687">
<time>2010-07-10T09:02:30Z</time>
<ele>15.67</ele>
<name><![CDATA[Point 5]]></name>
</wpt>
<wpt lat="25.046629" lon="121.583786">
<time>2010-07-10T09:02:35Z</time>
<ele>15.14</ele>
<name><![CDATA[Point 6]]></name>
</wpt>
<wpt lat="25.046787" lon="121.583908">
<time>2010-07-10T09:02:40Z</time>
<ele>15.26</ele>
<name><![CDATA[Point 7]]></name>
</wpt>
<wpt lat="25.046936" lon="121.584068">
<time>2010-07-10T09:02:45Z</time>
<ele>15.98</ele>
<name><![CDATA[Point 8]]></name>
</wpt>
<wpt lat="25.047045" lon="121.584236">
<time>2010-07-10T09:02:50Z</time>
<ele>17.57</ele>
<name><![CDATA[Point 9]]></name>
</wpt>
<wpt lat="25.047182" lon="121.584389">
<time>2010-07-10T09:02:55Z</time>
<ele>19.06</ele>
<name><![CDATA[Point 10]]></name>
</wpt>
<wpt lat="25.047329" lon="121.584557">
<time>2010-07-10T09:03:00Z</time>
<ele>20.82</ele>
<name><![CDATA[Point 11]]></name>
</wpt>
<wpt lat="25.047451" lon="121.584587">
<time>2010-07-10T09:03:05Z</time>
<ele>22.54</ele>
<name><![CDATA[Point 12]]></name>
</wpt>
<wpt lat="25.047684" lon="121.584549">
<time>2010-07-10T09:03:10Z</time>
<ele>23.53</ele>
<name><![CDATA[Point 13]]></name>
</wpt>
<wpt lat="25.047716" lon="121.584648">
<time>2010-07-10T09:03:15Z</time>
<ele>24.35</ele>
<name><![CDATA[Point 14]]></name>
</wpt>
<wpt lat="25.047741" lon="121.584686">
<time>2010-07-10T09:03:20Z</time>
<ele>25.29</ele>
<name><![CDATA[Point 15]]></name>
</wpt>
<wpt lat="25.047810" lon="121.584732">
<time>2010-07-10T09:03:25Z</time>
<ele>25.89</ele>
<name><![CDATA[Point 16]]></name>
</wpt>
<wpt lat="25.047819" lon="121.584969">
<time>2010-07-10T09:03:30Z</time>
<ele>27.32</ele>
<name><![CDATA[Point 17]]></name>
</wpt>
<wpt lat="25.047867" lon="121.585304">
<time>2010-07-10T09:03:35Z</time>
<ele>27.05</ele>
<name><![CDATA[Point 18]]></name>
</wpt>
<wpt lat="25.048037" lon="121.585510">
<time>2010-07-10T09:03:40Z</time>
<ele>27.48</ele>
<name><![CDATA[Point 19]]></name>
</wpt>
<wpt lat="25.048115" lon="121.585686">
<time>2010-07-10T09:03:45Z</time>
<ele>27.47</ele>
<name><![CDATA[Point 20]]></name>
</wpt>
<wpt lat="25.048176" lon="121.585892">
<time>2010-07-10T09:03:50Z</time>
<ele>27.65</ele>
<name><![CDATA[Point 21]]></name>
</wpt>
<wpt lat="25.048252" lon="121.586105">
<time>2010-07-10T09:03:55Z</time>
<ele>27.18</ele>
<name><![CDATA[Point 22]]></name>
</wpt>
<wpt lat="25.048397" lon="121.586304">
<time>2010-07-10T09:04:00Z</time>
<ele>27.71</ele>
<name><![CDATA[Point 23]]></name>
</wpt>
<wpt lat="25.048479" lon="121.586510">
<time>2010-07-10T09:04:05Z</time>
<ele>25.39</ele>
<name><![CDATA[Point 24]]></name>
</wpt>
<wpt lat="25.048502" lon="121.586632">
<time>2010-07-10T09:04:10Z</time>
<ele>26.97</ele>
<name><![CDATA[Point 25]]></name>
</wpt>
<wpt lat="25.048504" lon="121.586647">
<time>2010-07-10T09:04:15Z</time>
<ele>24.82</ele>
<name><![CDATA[Point 26]]></name>
</wpt>
<wpt lat="25.048508" lon="121.586647">
<time>2010-07-10T09:04:20Z</time>
<ele>24.71</ele>
<name><![CDATA[Point 27]]></name>
</wpt>
<wpt lat="25.048510" lon="121.586647">
<time>2010-07-10T09:04:25Z</time>
<ele>24.63</ele>
<name><![CDATA[Point 28]]></name>
</wpt>
<wpt lat="25.048508" lon="121.586647">
<time>2010-07-10T09:04:30Z</time>
<ele>24.45</ele>
<name><![CDATA[Point 29]]></name>
</wpt>
<wpt lat="25.048510" lon="121.586647">
<time>2010-07-10T09:04:35Z</time>
<ele>24.34</ele>
<name><![CDATA[Point 30]]></name>
</wpt>
<wpt lat="25.048513" lon="121.586655">
<time>2010-07-10T09:04:40Z</time>
<ele>24.31</ele>
<name><![CDATA[Point 31]]></name>
</wpt>
<wpt lat="25.048523" lon="121.586655">
<time>2010-07-10T09:04:45Z</time>
<ele>24.34</ele>
<name><![CDATA[Point 32]]></name>
</wpt>
<wpt lat="25.048532" lon="121.586662">
<time>2010-07-10T09:04:50Z</time>
<ele>24.42</ele>
<name><![CDATA[Point 33]]></name>
</wpt>
<wpt lat="25.048574" lon="121.586792">
<time>2010-07-10T09:04:55Z</time>
<ele>24.05</ele>
<name><![CDATA[Point 34]]></name>
</wpt>
<wpt lat="25.048639" lon="121.586975">
<time>2010-07-10T09:05:00Z</time>
<ele>23.91</ele>
<name><![CDATA[Point 35]]></name>
</wpt>
<wpt lat="25.048679" lon="121.587151">
<time>2010-07-10T09:05:05Z</time>
<ele>23.32</ele>
<name><![CDATA[Point 36]]></name>
</wpt>
<wpt lat="25.048717" lon="121.587349">
<time>2010-07-10T09:05:10Z</time>
<ele>22.22</ele>
<name><![CDATA[Point 37]]></name>
</wpt>
<wpt lat="25.048769" lon="121.587540">
<time>2010-07-10T09:05:15Z</time>
<ele>20.70</ele>
<name><![CDATA[Point 38]]></name>
</wpt>
<wpt lat="25.048809" lon="121.587814">
<time>2010-07-10T09:05:20Z</time>
<ele>19.23</ele>
<name><![CDATA[Point 39]]></name>
</wpt>
<wpt lat="25.048830" lon="121.588058">
<time>2010-07-10T09:05:25Z</time>
<ele>17.42</ele>
<name><![CDATA[Point 40]]></name>
</wpt>
<wpt lat="25.048906" lon="121.588310">
<time>2010-07-10T09:05:30Z</time>
<ele>15.33</ele>
<name><![CDATA[Point 41]]></name>
</wpt>
<wpt lat="25.048988" lon="121.588570">
<time>2010-07-10T09:05:35Z</time>
<ele>13.78</ele>
<name><![CDATA[Point 42]]></name>
</wpt>
<wpt lat="25.049030" lon="121.588852">
<time>2010-07-10T09:05:40Z</time>
<ele>11.27</ele>
<name><![CDATA[Point 43]]></name>
</wpt>
<wpt lat="25.049112" lon="121.589088">
<time>2010-07-10T09:05:45Z</time>
<ele>8.62</ele>
<name><![CDATA[Point 44]]></name>
</wpt>
<wpt lat="25.049194" lon="121.589378">
<time>2010-07-10T09:05:50Z</time>
<ele>7.90</ele>
<name><![CDATA[Point 45]]></name>
</wpt>
<wpt lat="25.049248" lon="121.589615">
<time>2010-07-10T09:05:55Z</time>
<ele>6.85</ele>
<name><![CDATA[Point 46]]></name>
</wpt>
<wpt lat="25.049314" lon="121.589897">
<time>2010-07-10T09:06:00Z</time>
<ele>5.54</ele>
<name><![CDATA[Point 47]]></name>
</wpt>
<wpt lat="25.049383" lon="121.590172">
<time>2010-07-10T09:06:05Z</time>
<ele>3.21</ele>
<name><![CDATA[Point 48]]></name>
</wpt>
<wpt lat="25.049461" lon="121.590439">
<time>2010-07-10T09:06:10Z</time>
<ele>1.01</ele>
<name><![CDATA[Point 49]]></name>
</wpt>
<wpt lat="25.049494" lon="121.590691">
<time>2010-07-10T09:06:15Z</time>
<ele>-0.99</ele>
<name><![CDATA[Point 50]]></name>
</wpt>
<wpt lat="25.049568" lon="121.590950">
<time>2010-07-10T09:06:20Z</time>
<ele>-4.18</ele>
<name><![CDATA[Point 51]]></name>
</wpt>
<wpt lat="25.049646" lon="121.591179">
<time>2010-07-10T09:06:25Z</time>
<ele>-7.31</ele>
<name><![CDATA[Point 52]]></name>
</wpt>
<wpt lat="25.049702" lon="121.591370">
<time>2010-07-10T09:06:30Z</time>
<ele>-10.42</ele>
<name><![CDATA[Point 53]]></name>
</wpt>
<wpt lat="25.049744" lon="121.591583">
<time>2010-07-10T09:06:35Z</time>
<ele>-11.93</ele>
<name><![CDATA[Point 54]]></name>
</wpt>
<wpt lat="25.049791" lon="121.591805">
<time>2010-07-10T09:06:40Z</time>
<ele>-15.18</ele>
<name><![CDATA[Point 55]]></name>
</wpt>
<wpt lat="25.049847" lon="121.592018">
<time>2010-07-10T09:06:45Z</time>
<ele>-8.64</ele>
<name><![CDATA[Point 56]]></name>
</wpt>
<wpt lat="25.049891" lon="121.592255">
<time>2010-07-10T09:06:50Z</time>
<ele>-10.81</ele>
<name><![CDATA[Point 57]]></name>
</wpt>
<wpt lat="25.049931" lon="121.592499">
<time>2010-07-10T09:06:55Z</time>
<ele>-13.21</ele>
<name><![CDATA[Point 58]]></name>
</wpt>
<wpt lat="25.050013" lon="121.592735">
<time>2010-07-10T09:07:00Z</time>
<ele>-17.61</ele>
<name><![CDATA[Point 59]]></name>
</wpt>
<wpt lat="25.050089" lon="121.592941">
<time>2010-07-10T09:07:05Z</time>
<ele>-20.29</ele>
<name><![CDATA[Point 60]]></name>
</wpt>
<wpt lat="25.050089" lon="121.593132">
<time>2010-07-10T09:07:10Z</time>
<ele>-13.68</ele>
<name><![CDATA[Point 61]]></name>
</wpt>
<wpt lat="25.050156" lon="121.593323">
<time>2010-07-10T09:07:15Z</time>
<ele>-13.41</ele>
<name><![CDATA[Point 62]]></name>
</wpt>
<wpt lat="25.050211" lon="121.593567">
<time>2010-07-10T09:07:20Z</time>
<ele>-15.61</ele>
<name><![CDATA[Point 63]]></name>
</wpt>
<wpt lat="25.050249" lon="121.593773">
<time>2010-07-10T09:07:25Z</time>
<ele>-17.58</ele>
<name><![CDATA[Point 64]]></name>
</wpt>
<wpt lat="25.050295" lon="121.593994">
<time>2010-07-10T09:07:30Z</time>
<ele>-19.86</ele>
<name><![CDATA[Point 65]]></name>
</wpt>
<wpt lat="25.050337" lon="121.594193">
<time>2010-07-10T09:07:35Z</time>
<ele>-22.25</ele>
<name><![CDATA[Point 66]]></name>
</wpt>
<wpt lat="25.050421" lon="121.594414">
<time>2010-07-10T09:07:40Z</time>
<ele>-24.05</ele>
<name><![CDATA[Point 67]]></name>
</wpt>
<wpt lat="25.050524" lon="121.594635">
<time>2010-07-10T09:07:45Z</time>
<ele>-26.03</ele>
<name><![CDATA[Point 68]]></name>
</wpt>
<wpt lat="25.050550" lon="121.594864">
<time>2010-07-10T09:07:50Z</time>
<ele>-27.42</ele>
<name><![CDATA[Point 69]]></name>
</wpt>
<wpt lat="25.050657" lon="121.595100">
<time>2010-07-10T09:07:55Z</time>
<ele>-26.27</ele>
<name><![CDATA[Point 70]]></name>
</wpt>
<wpt lat="25.050688" lon="121.595322">
<time>2010-07-10T09:08:00Z</time>
<ele>-25.25</ele>
<name><![CDATA[Point 71]]></name>
</wpt>
<wpt lat="25.050671" lon="121.595596">
<time>2010-07-10T09:08:05Z</time>
<ele>-20.61</ele>
<name><![CDATA[Point 72]]></name>
</wpt>
<wpt lat="25.050686" lon="121.595802">
<time>2010-07-10T09:08:10Z</time>
<ele>-18.75</ele>
<name><![CDATA[Point 73]]></name>
</wpt>
<wpt lat="25.050709" lon="121.595978">
<time>2010-07-10T09:08:15Z</time>
<ele>-18.36</ele>
<name><![CDATA[Point 74]]></name>
</wpt>
<wpt lat="25.050713" lon="121.596214">
<time>2010-07-10T09:08:20Z</time>
<ele>-17.54</ele>
<name><![CDATA[Point 75]]></name>
</wpt>
<wpt lat="25.050760" lon="121.596428">
<time>2010-07-10T09:08:25Z</time>
<ele>-18.35</ele>
<name><![CDATA[Point 76]]></name>
</wpt>
<wpt lat="25.050797" lon="121.596657">
<time>2010-07-10T09:08:30Z</time>
<ele>-19.89</ele>
<name><![CDATA[Point 77]]></name>
</wpt>
<wpt lat="25.050800" lon="121.596840">
<time>2010-07-10T09:08:35Z</time>
<ele>-19.52</ele>
<name><![CDATA[Point 78]]></name>
</wpt>
<wpt lat="25.050829" lon="121.597023">
<time>2010-07-10T09:08:40Z</time>
<ele>-18.33</ele>
<name><![CDATA[Point 79]]></name>
</wpt>
<wpt lat="25.050835" lon="121.597244">
<time>2010-07-10T09:08:45Z</time>
<ele>-13.85</ele>
<name><![CDATA[Point 80]]></name>
</wpt>
<wpt lat="25.050869" lon="121.597435">
<time>2010-07-10T09:08:50Z</time>
<ele>-10.53</ele>
<name><![CDATA[Point 81]]></name>
</wpt>
<wpt lat="25.050890" lon="121.597656">
<time>2010-07-10T09:08:55Z</time>
<ele>-6.66</ele>
<name><![CDATA[Point 82]]></name>
</wpt>
<wpt lat="25.050913" lon="121.597893">
<time>2010-07-10T09:09:00Z</time>
<ele>-8.08</ele>
<name><![CDATA[Point 83]]></name>
</wpt>
<wpt lat="25.050940" lon="121.598106">
<time>2010-07-10T09:09:05Z</time>
<ele>-6.32</ele>
<name><![CDATA[Point 84]]></name>
</wpt>
<wpt lat="25.050951" lon="121.598312">
<time>2010-07-10T09:09:10Z</time>
<ele>-6.74</ele>
<name><![CDATA[Point 85]]></name>
</wpt>
<wpt lat="25.050983" lon="121.598480">
<time>2010-07-10T09:09:15Z</time>
<ele>-9.26</ele>
<name><![CDATA[Point 86]]></name>
</wpt>
<wpt lat="25.051006" lon="121.598656">
<time>2010-07-10T09:09:20Z</time>
<ele>-8.88</ele>
<name><![CDATA[Point 87]]></name>
</wpt>
<wpt lat="25.051023" lon="121.598831">
<time>2010-07-10T09:09:25Z</time>
<ele>-9.91</ele>
<name><![CDATA[Point 88]]></name>
</wpt>
<wpt lat="25.051054" lon="121.599022">
<time>2010-07-10T09:09:30Z</time>
<ele>-13.70</ele>
<name><![CDATA[Point 89]]></name>
</wpt>
<wpt lat="25.051088" lon="121.599182">
<time>2010-07-10T09:09:35Z</time>
<ele>-14.78</ele>
<name><![CDATA[Point 90]]></name>
</wpt>
<wpt lat="25.051107" lon="121.599380">
<time>2010-07-10T09:09:40Z</time>
<ele>-13.52</ele>
<name><![CDATA[Point 91]]></name>
</wpt>
<wpt lat="25.051144" lon="121.599586">
<time>2010-07-10T09:09:45Z</time>
<ele>-10.79</ele>
<name><![CDATA[Point 92]]></name>
</wpt>
<wpt lat="25.051172" lon="121.599785">
<time>2010-07-10T09:09:50Z</time>
<ele>-10.53</ele>
<name><![CDATA[Point 93]]></name>
</wpt>
<wpt lat="25.051212" lon="121.600006">
<time>2010-07-10T09:09:55Z</time>
<ele>-13.17</ele>
<name><![CDATA[Point 94]]></name>
</wpt>
<wpt lat="25.051243" lon="121.600227">
<time>2010-07-10T09:10:00Z</time>
<ele>-11.68</ele>
<name><![CDATA[Point 95]]></name>
</wpt>
<wpt lat="25.051241" lon="121.600471">
<time>2010-07-10T09:10:05Z</time>
<ele>-10.20</ele>
<name><![CDATA[Point 96]]></name>
</wpt>
<wpt lat="25.051245" lon="121.600708">
<time>2010-07-10T09:10:10Z</time>
<ele>-11.07</ele>
<name><![CDATA[Point 97]]></name>
</wpt>
<wpt lat="25.051266" lon="121.600914">
<time>2010-07-10T09:10:15Z</time>
<ele>-13.17</ele>
<name><![CDATA[Point 98]]></name>
</wpt>
<wpt lat="25.051277" lon="121.601151">
<time>2010-07-10T09:10:20Z</time>
<ele>-14.50</ele>
<name><![CDATA[Point 99]]></name>
</wpt>
<wpt lat="25.051311" lon="121.601379">
<time>2010-07-10T09:10:25Z</time>
<ele>-15.25</ele>
<name><![CDATA[Point 100]]></name>
</wpt>
<wpt lat="25.051334" lon="121.601639">
<time>2010-07-10T09:10:30Z</time>
<ele>-14.44</ele>
<name><![CDATA[Point 101]]></name>
</wpt>
<wpt lat="25.051373" lon="121.601883">
<time>2010-07-10T09:10:35Z</time>
<ele>-10.42</ele>
<name><![CDATA[Point 102]]></name>
</wpt>
<wpt lat="25.051418" lon="121.602097">
<time>2010-07-10T09:10:40Z</time>
<ele>-6.00</ele>
<name><![CDATA[Point 103]]></name>
</wpt>
<wpt lat="25.051426" lon="121.602356">
<time>2010-07-10T09:10:45Z</time>
<ele>-3.31</ele>
<name><![CDATA[Point 104]]></name>
</wpt>
<wpt lat="25.051445" lon="121.602600">
<time>2010-07-10T09:10:50Z</time>
<ele>-1.60</ele>
<name><![CDATA[Point 105]]></name>
</wpt>
<wpt lat="25.051500" lon="121.602829">
<time>2010-07-10T09:10:55Z</time>
<ele>-2.02</ele>
<name><![CDATA[Point 106]]></name>
</wpt>
<wpt lat="25.051535" lon="121.603065">
<time>2010-07-10T09:11:00Z</time>
<ele>0.49</ele>
<name><![CDATA[Point 107]]></name>
</wpt>
<wpt lat="25.051579" lon="121.603279">
<time>2010-07-10T09:11:05Z</time>
<ele>0.39</ele>
<name><![CDATA[Point 108]]></name>
</wpt>
<wpt lat="25.051596" lon="121.603508">
<time>2010-07-10T09:11:10Z</time>
<ele>1.61</ele>
<name><![CDATA[Point 109]]></name>
</wpt>
<wpt lat="25.051615" lon="121.603737">
<time>2010-07-10T09:11:15Z</time>
<ele>0.04</ele>
<name><![CDATA[Point 110]]></name>
</wpt>
<wpt lat="25.051636" lon="121.603973">
<time>2010-07-10T09:11:20Z</time>
<ele>0.54</ele>
<name><![CDATA[Point 111]]></name>
</wpt>
<wpt lat="25.051641" lon="121.604156">
<time>2010-07-10T09:11:25Z</time>
<ele>-1.43</ele>
<name><![CDATA[Point 112]]></name>
</wpt>
<wpt lat="25.051682" lon="121.604370">
<time>2010-07-10T09:11:30Z</time>
<ele>-1.26</ele>
<name><![CDATA[Point 113]]></name>
</wpt>
<wpt lat="25.051699" lon="121.604614">
<time>2010-07-10T09:11:35Z</time>
<ele>0.89</ele>
<name><![CDATA[Point 114]]></name>
</wpt>
<wpt lat="25.051727" lon="121.604813">
<time>2010-07-10T09:11:40Z</time>
<ele>0.03</ele>
<name><![CDATA[Point 115]]></name>
</wpt>
<wpt lat="25.051752" lon="121.605034">
<time>2010-07-10T09:11:45Z</time>
<ele>2.05</ele>
<name><![CDATA[Point 116]]></name>
</wpt>
<wpt lat="25.051796" lon="121.605247">
<time>2010-07-10T09:11:50Z</time>
<ele>-2.41</ele>
<name><![CDATA[Point 117]]></name>
</wpt>
<wpt lat="25.051840" lon="121.605484">
<time>2010-07-10T09:11:55Z</time>
<ele>-5.18</ele>
<name><![CDATA[Point 118]]></name>
</wpt>
<wpt lat="25.051863" lon="121.605728">
<time>2010-07-10T09:12:00Z</time>
<ele>-8.49</ele>
<name><![CDATA[Point 119]]></name>
</wpt>
<wpt lat="25.051844" lon="121.605995">
<time>2010-07-10T09:12:05Z</time>
<ele>-7.63</ele>
<name><![CDATA[Point 120]]></name>
</wpt>
<wpt lat="25.051893" lon="121.606232">
<time>2010-07-10T09:12:10Z</time>
<ele>-6.18</ele>
<name><![CDATA[Point 121]]></name>
</wpt>
<wpt lat="25.051901" lon="121.606468">
<time>2010-07-10T09:12:15Z</time>
<ele>-7.57</ele>
<name><![CDATA[Point 122]]></name>
</wpt>
<wpt lat="25.051937" lon="121.606667">
<time>2010-07-10T09:12:20Z</time>
<ele>-4.18</ele>
<name><![CDATA[Point 123]]></name>
</wpt>
<wpt lat="25.051931" lon="121.606888">
<time>2010-07-10T09:12:25Z</time>
<ele>-5.30</ele>
<name><![CDATA[Point 124]]></name>
</wpt>
<wpt lat="25.051950" lon="121.607056">
<time>2010-07-10T09:12:30Z</time>
<ele>-4.76</ele>
<name><![CDATA[Point 125]]></name>
</wpt>
<wpt lat="25.051989" lon="121.607201">
<time>2010-07-10T09:12:35Z</time>
<ele>2.02</ele>
<name><![CDATA[Point 126]]></name>
</wpt>
<wpt lat="25.051970" lon="121.607376">
<time>2010-07-10T09:12:40Z</time>
<ele>1.83</ele>
<name><![CDATA[Point 127]]></name>
</wpt>
<wpt lat="25.052010" lon="121.607559">
<time>2010-07-10T09:12:45Z</time>
<ele>0.39</ele>
<name><![CDATA[Point 128]]></name>
</wpt>
<wpt lat="25.052031" lon="121.607758">
<time>2010-07-10T09:12:50Z</time>
<ele>0.84</ele>
<name><![CDATA[Point 129]]></name>
</wpt>
<wpt lat="25.052034" lon="121.607925">
<time>2010-07-10T09:12:55Z</time>
<ele>-0.19</ele>
<name><![CDATA[Point 130]]></name>
</wpt>
<wpt lat="25.052078" lon="121.608047">
<time>2010-07-10T09:13:00Z</time>
<ele>3.80</ele>
<name><![CDATA[Point 131]]></name>
</wpt>
<wpt lat="25.052048" lon="121.608238">
<time>2010-07-10T09:13:05Z</time>
<ele>8.06</ele>
<name><![CDATA[Point 132]]></name>
</wpt>
<wpt lat="25.052097" lon="121.608398">
<time>2010-07-10T09:13:10Z</time>
<ele>11.60</ele>
<name><![CDATA[Point 133]]></name>
</wpt>
<wpt lat="25.052141" lon="121.608582">
<time>2010-07-10T09:13:15Z</time>
<ele>13.27</ele>
<name><![CDATA[Point 134]]></name>
</wpt>
<wpt lat="25.052135" lon="121.608803">
<time>2010-07-10T09:13:20Z</time>
<ele>18.73</ele>
<name><![CDATA[Point 135]]></name>
</wpt>
<wpt lat="25.052172" lon="121.609032">
<time>2010-07-10T09:13:25Z</time>
<ele>19.36</ele>
<name><![CDATA[Point 136]]></name>
</wpt>
<wpt lat="25.052221" lon="121.609230">
<time>2010-07-10T09:13:30Z</time>
<ele>15.63</ele>
<name><![CDATA[Point 137]]></name>
</wpt>
<wpt lat="25.052261" lon="121.609428">
<time>2010-07-10T09:13:35Z</time>
<ele>15.41</ele>
<name><![CDATA[Point 138]]></name>
</wpt>
<wpt lat="25.052288" lon="121.609604">
<time>2010-07-10T09:13:40Z</time>
<ele>12.04</ele>
<name><![CDATA[Point 139]]></name>
</wpt>
<wpt lat="25.052275" lon="121.609764">
<time>2010-07-10T09:13:45Z</time>
<ele>9.93</ele>
<name><![CDATA[Point 140]]></name>
</wpt>
<wpt lat="25.052309" lon="121.609978">
<time>2010-07-10T09:13:50Z</time>
<ele>9.24</ele>
<name><![CDATA[Point 141]]></name>
</wpt>
<wpt lat="25.052336" lon="121.610153">
<time>2010-07-10T09:13:55Z</time>
<ele>8.03</ele>
<name><![CDATA[Point 142]]></name>
</wpt>
<wpt lat="25.052359" lon="121.610321">
<time>2010-07-10T09:14:00Z</time>
<ele>7.60</ele>
<name><![CDATA[Point 143]]></name>
</wpt>
<wpt lat="25.052366" lon="121.610535">
<time>2010-07-10T09:14:05Z</time>
<ele>6.81</ele>
<name><![CDATA[Point 144]]></name>
</wpt>
<wpt lat="25.052406" lon="121.610703">
<time>2010-07-10T09:14:10Z</time>
<ele>5.12</ele>
<name><![CDATA[Point 145]]></name>
</wpt>
<wpt lat="25.052420" lon="121.610893">
<time>2010-07-10T09:14:15Z</time>
<ele>5.02</ele>
<name><![CDATA[Point 146]]></name>
</wpt>
<wpt lat="25.052439" lon="121.611069">
<time>2010-07-10T09:14:20Z</time>
<ele>2.51</ele>
<name><![CDATA[Point 147]]></name>
</wpt>
<wpt lat="25.052460" lon="121.611229">
<time>2010-07-10T09:14:25Z</time>
<ele>-1.70</ele>
<name><![CDATA[Point 148]]></name>
</wpt>
<wpt lat="25.052486" lon="121.611397">
<time>2010-07-10T09:14:30Z</time>
<ele>-4.13</ele>
<name><![CDATA[Point 149]]></name>
</wpt>
<wpt lat="25.052500" lon="121.611565">
<time>2010-07-10T09:14:35Z</time>
<ele>-6.36</ele>
<name><![CDATA[Point 150]]></name>
</wpt>
<wpt lat="25.052519" lon="121.611710">
<time>2010-07-10T09:14:40Z</time>
<ele>-6.35</ele>
<name><![CDATA[Point 151]]></name>
</wpt>
<wpt lat="25.052536" lon="121.611885">
<time>2010-07-10T09:14:45Z</time>
<ele>-8.19</ele>
<name><![CDATA[Point 152]]></name>
</wpt>
<wpt lat="25.052525" lon="121.612076">
<time>2010-07-10T09:14:50Z</time>
<ele>-8.91</ele>
<name><![CDATA[Point 153]]></name>
</wpt>
<wpt lat="25.052536" lon="121.612236">
<time>2010-07-10T09:14:55Z</time>
<ele>-9.97</ele>
<name><![CDATA[Point 154]]></name>
</wpt>
<wpt lat="25.052526" lon="121.612411">
<time>2010-07-10T09:15:00Z</time>
<ele>-11.06</ele>
<name><![CDATA[Point 155]]></name>
</wpt>
<wpt lat="25.052563" lon="121.612595">
<time>2010-07-10T09:15:05Z</time>
<ele>-12.58</ele>
<name><![CDATA[Point 156]]></name>
</wpt>
<wpt lat="25.052582" lon="121.612770">
<time>2010-07-10T09:15:10Z</time>
<ele>-13.01</ele>
<name><![CDATA[Point 157]]></name>
</wpt>
<wpt lat="25.052641" lon="121.613029">
<time>2010-07-10T09:15:15Z</time>
<ele>-14.00</ele>
<name><![CDATA[Point 158]]></name>
</wpt>
<wpt lat="25.052658" lon="121.613258">
<time>2010-07-10T09:15:20Z</time>
<ele>-15.35</ele>
<name><![CDATA[Point 159]]></name>
</wpt>
<wpt lat="25.052633" lon="121.613510">
<time>2010-07-10T09:15:25Z</time>
<ele>-17.75</ele>
<name><![CDATA[Point 160]]></name>
</wpt>
<wpt lat="25.052715" lon="121.613724">
<time>2010-07-10T09:15:30Z</time>
<ele>-17.06</ele>
<name><![CDATA[Point 161]]></name>
</wpt>
<wpt lat="25.052734" lon="121.613907">
<time>2010-07-10T09:15:35Z</time>
<ele>-15.65</ele>
<name><![CDATA[Point 162]]></name>
</wpt>
<wpt lat="25.052896" lon="121.614029">
<time>2010-07-10T09:15:40Z</time>
<ele>-14.00</ele>
<name><![CDATA[Point 163]]></name>
</wpt>
<wpt lat="25.052908" lon="121.614296">
<time>2010-07-10T09:15:45Z</time>
<ele>-8.28</ele>
<name><![CDATA[Point 164]]></name>
</wpt>
<wpt lat="25.052916" lon="121.614540">
<time>2010-07-10T09:15:50Z</time>
<ele>-8.68</ele>
<name><![CDATA[Point 165]]></name>
</wpt>
<wpt lat="25.052900" lon="121.614784">
<time>2010-07-10T09:15:55Z</time>
<ele>-6.84</ele>
<name><![CDATA[Point 166]]></name>
</wpt>
<wpt lat="25.052938" lon="121.614830">
<time>2010-07-10T09:16:00Z</time>
<ele>-9.73</ele>
<name><![CDATA[Point 167]]></name>
</wpt>
<wpt lat="25.052977" lon="121.614937">
<time>2010-07-10T09:16:05Z</time>
<ele>-9.72</ele>
<name><![CDATA[Point 168]]></name>
</wpt>
<wpt lat="25.052973" lon="121.615135">
<time>2010-07-10T09:16:10Z</time>
<ele>-9.24</ele>
<name><![CDATA[Point 169]]></name>
</wpt>
<wpt lat="25.053001" lon="121.615173">
<time>2010-07-10T09:16:15Z</time>
<ele>-5.60</ele>
<name><![CDATA[Point 170]]></name>
</wpt>
<wpt lat="25.053001" lon="121.615181">
<time>2010-07-10T09:16:20Z</time>
<ele>-5.89</ele>
<name><![CDATA[Point 171]]></name>
</wpt>
<wpt lat="25.053003" lon="121.615189">
<time>2010-07-10T09:16:25Z</time>
<ele>-5.85</ele>
<name><![CDATA[Point 172]]></name>
</wpt>
<wpt lat="25.053007" lon="121.615196">
<time>2010-07-10T09:16:30Z</time>
<ele>-5.84</ele>
<name><![CDATA[Point 173]]></name>
</wpt>
<wpt lat="25.053013" lon="121.615326">
<time>2010-07-10T09:16:35Z</time>
<ele>-3.63</ele>
<name><![CDATA[Point 174]]></name>
</wpt>
<wpt lat="25.053026" lon="121.615509">
<time>2010-07-10T09:16:40Z</time>
<ele>-4.21</ele>
<name><![CDATA[Point 175]]></name>
</wpt>
<wpt lat="25.053038" lon="121.615685">
<time>2010-07-10T09:16:45Z</time>
<ele>-4.48</ele>
<name><![CDATA[Point 176]]></name>
</wpt>
<wpt lat="25.053030" lon="121.615860">
<time>2010-07-10T09:16:50Z</time>
<ele>-6.02</ele>
<name><![CDATA[Point 177]]></name>
</wpt>
<wpt lat="25.053066" lon="121.616028">
<time>2010-07-10T09:16:55Z</time>
<ele>-7.99</ele>
<name><![CDATA[Point 178]]></name>
</wpt>
<wpt lat="25.052980" lon="121.616104">
<time>2010-07-10T09:17:00Z</time>
<ele>-9.38</ele>
<name><![CDATA[Point 179]]></name>
</wpt>
<wpt lat="25.052828" lon="121.616035">
<time>2010-07-10T09:17:05Z</time>
<ele>-8.88</ele>
<name><![CDATA[Point 180]]></name>
</wpt>
<wpt lat="25.052607" lon="121.616074">
<time>2010-07-10T09:17:10Z</time>
<ele>-3.21</ele>
<name><![CDATA[Point 181]]></name>
</wpt>
<wpt lat="25.052408" lon="121.616035">
<time>2010-07-10T09:17:15Z</time>
<ele>2.18</ele>
<name><![CDATA[Point 182]]></name>
</wpt>
<wpt lat="25.052198" lon="121.616028">
<time>2010-07-10T09:17:20Z</time>
<ele>4.82</ele>
<name><![CDATA[Point 183]]></name>
</wpt>
<wpt lat="25.052008" lon="121.616043">
<time>2010-07-10T09:17:25Z</time>
<ele>5.51</ele>
<name><![CDATA[Point 184]]></name>
</wpt>
<wpt lat="25.051861" lon="121.615967">
<time>2010-07-10T09:17:30Z</time>
<ele>3.07</ele>
<name><![CDATA[Point 185]]></name>
</wpt>
<wpt lat="25.051645" lon="121.615814">
<time>2010-07-10T09:17:35Z</time>
<ele>3.32</ele>
<name><![CDATA[Point 186]]></name>
</wpt>
<wpt lat="25.051453" lon="121.615768">
<time>2010-07-10T09:17:40Z</time>
<ele>0.30</ele>
<name><![CDATA[Point 187]]></name>
</wpt>
<wpt lat="25.051252" lon="121.615631">
<time>2010-07-10T09:17:45Z</time>
<ele>4.37</ele>
<name><![CDATA[Point 188]]></name>
</wpt>
<wpt lat="25.051037" lon="121.615570">
<time>2010-07-10T09:17:50Z</time>
<ele>4.18</ele>
<name><![CDATA[Point 189]]></name>
</wpt>
<wpt lat="25.050819" lon="121.615494">
<time>2010-07-10T09:17:55Z</time>
<ele>7.40</ele>
<name><![CDATA[Point 190]]></name>
</wpt>
<wpt lat="25.050606" lon="121.615479">
<time>2010-07-10T09:18:00Z</time>
<ele>9.94</ele>
<name><![CDATA[Point 191]]></name>
</wpt>
<wpt lat="25.050421" lon="121.615471">
<time>2010-07-10T09:18:05Z</time>
<ele>10.86</ele>
<name><![CDATA[Point 192]]></name>
</wpt>
<wpt lat="25.050236" lon="121.615494">
<time>2010-07-10T09:18:10Z</time>
<ele>14.01</ele>
<name><![CDATA[Point 193]]></name>
</wpt>
<wpt lat="25.050041" lon="121.615517">
<time>2010-07-10T09:18:15Z</time>
<ele>16.60</ele>
<name><![CDATA[Point 194]]></name>
</wpt>
<wpt lat="25.049908" lon="121.615601">
<time>2010-07-10T09:18:20Z</time>
<ele>17.75</ele>
<name><![CDATA[Point 195]]></name>
</wpt>
<wpt lat="25.049648" lon="121.615692">
<time>2010-07-10T09:18:25Z</time>
<ele>21.61</ele>
<name><![CDATA[Point 196]]></name>
</wpt>
<wpt lat="25.049437" lon="121.615692">
<time>2010-07-10T09:18:30Z</time>
<ele>24.30</ele>
<name><![CDATA[Point 197]]></name>
</wpt>
<wpt lat="25.049292" lon="121.615662">
<time>2010-07-10T09:18:35Z</time>
<ele>25.18</ele>
<name><![CDATA[Point 198]]></name>
</wpt>
<wpt lat="25.049093" lon="121.615662">
<time>2010-07-10T09:18:40Z</time>
<ele>23.03</ele>
<name><![CDATA[Point 199]]></name>
</wpt>
<wpt lat="25.048923" lon="121.615685">
<time>2010-07-10T09:18:45Z</time>
<ele>22.24</ele>
<name><![CDATA[Point 200]]></name>
</wpt>
<wpt lat="25.048740" lon="121.615730">
<time>2010-07-10T09:18:50Z</time>
<ele>22.79</ele>
<name><![CDATA[Point 201]]></name>
</wpt>
<wpt lat="25.048525" lon="121.615791">
<time>2010-07-10T09:18:55Z</time>
<ele>22.06</ele>
<name><![CDATA[Point 202]]></name>
</wpt>
<wpt lat="25.048292" lon="121.615784">
<time>2010-07-10T09:19:00Z</time>
<ele>16.15</ele>
<name><![CDATA[Point 203]]></name>
</wpt>
<wpt lat="25.048111" lon="121.615753">
<time>2010-07-10T09:19:05Z</time>
<ele>15.11</ele>
<name><![CDATA[Point 204]]></name>
</wpt>
<wpt lat="25.047951" lon="121.615692">
<time>2010-07-10T09:19:10Z</time>
<ele>12.87</ele>
<name><![CDATA[Point 205]]></name>
</wpt>
<wpt lat="25.047752" lon="121.615608">
<time>2010-07-10T09:19:15Z</time>
<ele>16.10</ele>
<name><![CDATA[Point 206]]></name>
</wpt>
<wpt lat="25.047598" lon="121.615631">
<time>2010-07-10T09:19:20Z</time>
<ele>22.92</ele>
<name><![CDATA[Point 207]]></name>
</wpt>
<wpt lat="25.047438" lon="121.615562">
<time>2010-07-10T09:19:25Z</time>
<ele>26.46</ele>
<name><![CDATA[Point 208]]></name>
</wpt>
<wpt lat="25.047285" lon="121.615494">
<time>2010-07-10T09:19:30Z</time>
<ele>28.13</ele>
<name><![CDATA[Point 209]]></name>
</wpt>
<wpt lat="25.047112" lon="121.615433">
<time>2010-07-10T09:19:35Z</time>
<ele>30.78</ele>
<name><![CDATA[Point 210]]></name>
</wpt>
<wpt lat="25.046946" lon="121.615395">
<time>2010-07-10T09:19:40Z</time>
<ele>32.67</ele>
<name><![CDATA[Point 211]]></name>
</wpt>
<wpt lat="25.046778" lon="121.615379">
<time>2010-07-10T09:19:45Z</time>
<ele>35.11</ele>
<name><![CDATA[Point 212]]></name>
</wpt>
<wpt lat="25.046566" lon="121.615334">
<time>2010-07-10T09:19:50Z</time>
<ele>38.26</ele>
<name><![CDATA[Point 213]]></name>
</wpt>
<wpt lat="25.046350" lon="121.615334">
<time>2010-07-10T09:19:55Z</time>
<ele>40.75</ele>
<name><![CDATA[Point 214]]></name>
</wpt>
<wpt lat="25.046124" lon="121.615364">
<time>2010-07-10T09:20:00Z</time>
<ele>45.06</ele>
<name><![CDATA[Point 215]]></name>
</wpt>
<wpt lat="25.045942" lon="121.615273">
<time>2010-07-10T09:20:05Z</time>
<ele>50.06</ele>
<name><![CDATA[Point 216]]></name>
</wpt>
<wpt lat="25.045794" lon="121.615265">
<time>2010-07-10T09:20:10Z</time>
<ele>51.35</ele>
<name><![CDATA[Point 217]]></name>
</wpt>
<wpt lat="25.045740" lon="121.615189">
<time>2010-07-10T09:20:15Z</time>
<ele>48.07</ele>
<name><![CDATA[Point 218]]></name>
</wpt>
<wpt lat="25.045635" lon="121.615303">
<time>2010-07-10T09:20:20Z</time>
<ele>47.72</ele>
<name><![CDATA[Point 219]]></name>
</wpt>
<wpt lat="25.045559" lon="121.615356">
<time>2010-07-10T09:20:25Z</time>
<ele>48.63</ele>
<name><![CDATA[Point 220]]></name>
</wpt>
<wpt lat="25.045483" lon="121.615379">
<time>2010-07-10T09:20:30Z</time>
<ele>48.86</ele>
<name><![CDATA[Point 221]]></name>
</wpt>
<wpt lat="25.045416" lon="121.615433">
<time>2010-07-10T09:20:35Z</time>
<ele>49.31</ele>
<name><![CDATA[Point 222]]></name>
</wpt>
<wpt lat="25.045294" lon="121.615395">
<time>2010-07-10T09:20:40Z</time>
<ele>47.60</ele>
<name><![CDATA[Point 223]]></name>
</wpt>
<wpt lat="25.045090" lon="121.615463">
<time>2010-07-10T09:20:45Z</time>
<ele>51.84</ele>
<name><![CDATA[Point 224]]></name>
</wpt>
<wpt lat="25.044886" lon="121.615494">
<time>2010-07-10T09:20:50Z</time>
<ele>55.84</ele>
<name><![CDATA[Point 225]]></name>
</wpt>
<wpt lat="25.044762" lon="121.615555">
<time>2010-07-10T09:20:55Z</time>
<ele>56.24</ele>
<name><![CDATA[Point 226]]></name>
</wpt>
<wpt lat="25.044641" lon="121.615623">
<time>2010-07-10T09:21:00Z</time>
<ele>56.92</ele>
<name><![CDATA[Point 227]]></name>
</wpt>
<wpt lat="25.044504" lon="121.615715">
<time>2010-07-10T09:21:05Z</time>
<ele>59.62</ele>
<name><![CDATA[Point 228]]></name>
</wpt>
<wpt lat="25.044346" lon="121.615784">
<time>2010-07-10T09:21:10Z</time>
<ele>49.88</ele>
<name><![CDATA[Point 229]]></name>
</wpt>
<wpt lat="25.044199" lon="121.615852">
<time>2010-07-10T09:21:15Z</time>
<ele>44.29</ele>
<name><![CDATA[Point 230]]></name>
</wpt>
<wpt lat="25.044052" lon="121.615952">
<time>2010-07-10T09:21:20Z</time>
<ele>41.52</ele>
<name><![CDATA[Point 231]]></name>
</wpt>
<wpt lat="25.043905" lon="121.616043">
<time>2010-07-10T09:21:25Z</time>
<ele>41.56</ele>
<name><![CDATA[Point 232]]></name>
</wpt>
<wpt lat="25.043768" lon="121.616089">
<time>2010-07-10T09:21:30Z</time>
<ele>38.79</ele>
<name><![CDATA[Point 233]]></name>
</wpt>
<wpt lat="25.043652" lon="121.616112">
<time>2010-07-10T09:21:35Z</time>
<ele>38.94</ele>
<name><![CDATA[Point 234]]></name>
</wpt>
<wpt lat="25.043537" lon="121.616180">
<time>2010-07-10T09:21:40Z</time>
<ele>38.20</ele>
<name><![CDATA[Point 235]]></name>
</wpt>
<wpt lat="25.043394" lon="121.616257">
<time>2010-07-10T09:21:45Z</time>
<ele>37.98</ele>
<name><![CDATA[Point 236]]></name>
</wpt>
<wpt lat="25.043245" lon="121.616364">
<time>2010-07-10T09:21:50Z</time>
<ele>33.95</ele>
<name><![CDATA[Point 237]]></name>
</wpt>
<wpt lat="25.043106" lon="121.616447">
<time>2010-07-10T09:21:55Z</time>
<ele>32.67</ele>
<name><![CDATA[Point 238]]></name>
</wpt>
<wpt lat="25.042992" lon="121.616508">
<time>2010-07-10T09:22:00Z</time>
<ele>32.13</ele>
<name><![CDATA[Point 239]]></name>
</wpt>
<wpt lat="25.042822" lon="121.616554">
<time>2010-07-10T09:22:05Z</time>
<ele>32.75</ele>
<name><![CDATA[Point 240]]></name>
</wpt>
<wpt lat="25.042679" lon="121.616638">
<time>2010-07-10T09:22:10Z</time>
<ele>33.22</ele>
<name><![CDATA[Point 241]]></name>
</wpt>
<wpt lat="25.042551" lon="121.616692">
<time>2010-07-10T09:22:15Z</time>
<ele>32.15</ele>
<name><![CDATA[Point 242]]></name>
</wpt>
<wpt lat="25.042479" lon="121.616737">
<time>2010-07-10T09:22:20Z</time>
<ele>34.02</ele>
<name><![CDATA[Point 243]]></name>
</wpt>
<wpt lat="25.042429" lon="121.616745">
<time>2010-07-10T09:22:25Z</time>
<ele>31.68</ele>
<name><![CDATA[Point 244]]></name>
</wpt>
<wpt lat="25.042421" lon="121.616753">
<time>2010-07-10T09:22:30Z</time>
<ele>31.54</ele>
<name><![CDATA[Point 245]]></name>
</wpt>
<wpt lat="25.042416" lon="121.616753">
<time>2010-07-10T09:22:35Z</time>
<ele>31.50</ele>
<name><![CDATA[Point 246]]></name>
</wpt>
<wpt lat="25.042410" lon="121.616753">
<time>2010-07-10T09:22:40Z</time>
<ele>31.52</ele>
<name><![CDATA[Point 247]]></name>
</wpt>
<wpt lat="25.042408" lon="121.616753">
<time>2010-07-10T09:22:45Z</time>
<ele>31.55</ele>
<name><![CDATA[Point 248]]></name>
</wpt>
<wpt lat="25.042406" lon="121.616753">
<time>2010-07-10T09:22:50Z</time>
<ele>31.55</ele>
<name><![CDATA[Point 249]]></name>
</wpt>
<wpt lat="25.042406" lon="121.616753">
<time>2010-07-10T09:22:55Z</time>
<ele>31.54</ele>
<name><![CDATA[Point 250]]></name>
</wpt>
<wpt lat="25.042391" lon="121.616768">
<time>2010-07-10T09:23:00Z</time>
<ele>31.48</ele>
<name><![CDATA[Point 251]]></name>
</wpt>
<wpt lat="25.042355" lon="121.616905">
<time>2010-07-10T09:23:05Z</time>
<ele>30.55</ele>
<name><![CDATA[Point 252]]></name>
</wpt>
<wpt lat="25.042212" lon="121.617027">
<time>2010-07-10T09:23:10Z</time>
<ele>29.80</ele>
<name><![CDATA[Point 253]]></name>
</wpt>
<wpt lat="25.042095" lon="121.617149">
<time>2010-07-10T09:23:15Z</time>
<ele>29.23</ele>
<name><![CDATA[Point 254]]></name>
</wpt>
<wpt lat="25.042021" lon="121.617294">
<time>2010-07-10T09:23:20Z</time>
<ele>28.35</ele>
<name><![CDATA[Point 255]]></name>
</wpt>
<wpt lat="25.041950" lon="121.617455">
<time>2010-07-10T09:23:25Z</time>
<ele>27.40</ele>
<name><![CDATA[Point 256]]></name>
</wpt>
<wpt lat="25.041904" lon="121.617561">
<time>2010-07-10T09:23:30Z</time>
<ele>26.71</ele>
<name><![CDATA[Point 257]]></name>
</wpt>
<wpt lat="25.041832" lon="121.617645">
<time>2010-07-10T09:23:35Z</time>
<ele>25.56</ele>
<name><![CDATA[Point 258]]></name>
</wpt>
<wpt lat="25.041756" lon="121.617752">
<time>2010-07-10T09:23:40Z</time>
<ele>25.17</ele>
<name><![CDATA[Point 259]]></name>
</wpt>
<wpt lat="25.041727" lon="121.617836">
<time>2010-07-10T09:23:45Z</time>
<ele>24.74</ele>
<name><![CDATA[Point 260]]></name>
</wpt>
<wpt lat="25.041656" lon="121.617943">
<time>2010-07-10T09:23:50Z</time>
<ele>24.63</ele>
<name><![CDATA[Point 261]]></name>
</wpt>
<wpt lat="25.041592" lon="121.618042">
<time>2010-07-10T09:23:55Z</time>
<ele>24.19</ele>
<name><![CDATA[Point 262]]></name>
</wpt>
<wpt lat="25.041542" lon="121.618118">
<time>2010-07-10T09:24:00Z</time>
<ele>22.80</ele>
<name><![CDATA[Point 263]]></name>
</wpt>
<wpt lat="25.041487" lon="121.618179">
<time>2010-07-10T09:24:05Z</time>
<ele>22.22</ele>
<name><![CDATA[Point 264]]></name>
</wpt>
<wpt lat="25.041397" lon="121.618301">
<time>2010-07-10T09:24:10Z</time>
<ele>22.01</ele>
<name><![CDATA[Point 265]]></name>
</wpt>
<wpt lat="25.041365" lon="121.618370">
<time>2010-07-10T09:24:15Z</time>
<ele>20.78</ele>
<name><![CDATA[Point 266]]></name>
</wpt>
<wpt lat="25.041336" lon="121.618431">
<time>2010-07-10T09:24:20Z</time>
<ele>20.82</ele>
<name><![CDATA[Point 267]]></name>
</wpt>
<wpt lat="25.041265" lon="121.618523">
<time>2010-07-10T09:24:25Z</time>
<ele>21.02</ele>
<name><![CDATA[Point 268]]></name>
</wpt>
<wpt lat="25.041162" lon="121.618660">
<time>2010-07-10T09:24:30Z</time>
<ele>21.19</ele>
<name><![CDATA[Point 269]]></name>
</wpt>
<wpt lat="25.041027" lon="121.618851">
<time>2010-07-10T09:24:35Z</time>
<ele>20.80</ele>
<name><![CDATA[Point 270]]></name>
</wpt>
<wpt lat="25.040920" lon="121.619003">
<time>2010-07-10T09:24:40Z</time>
<ele>20.69</ele>
<name><![CDATA[Point 271]]></name>
</wpt>
<wpt lat="25.040874" lon="121.619072">
<time>2010-07-10T09:24:45Z</time>
<ele>19.89</ele>
<name><![CDATA[Point 272]]></name>
</wpt>
<wpt lat="25.040766" lon="121.619286">
<time>2010-07-10T09:24:50Z</time>
<ele>19.45</ele>
<name><![CDATA[Point 273]]></name>
</wpt>
<wpt lat="25.040604" lon="121.619415">
<time>2010-07-10T09:24:55Z</time>
<ele>19.55</ele>
<name><![CDATA[Point 274]]></name>
</wpt>
<wpt lat="25.040409" lon="121.619476">
<time>2010-07-10T09:25:00Z</time>
<ele>26.50</ele>
<name><![CDATA[Point 275]]></name>
</wpt>
<wpt lat="25.040276" lon="121.619614">
<time>2010-07-10T09:25:05Z</time>
<ele>28.02</ele>
<name><![CDATA[Point 276]]></name>
</wpt>
<wpt lat="25.040157" lon="121.619789">
<time>2010-07-10T09:25:10Z</time>
<ele>27.65</ele>
<name><![CDATA[Point 277]]></name>
</wpt>
<wpt lat="25.040058" lon="121.619904">
<time>2010-07-10T09:25:15Z</time>
<ele>25.33</ele>
<name><![CDATA[Point 278]]></name>
</wpt>
<wpt lat="25.039930" lon="121.620056">
<time>2010-07-10T09:25:20Z</time>
<ele>22.35</ele>
<name><![CDATA[Point 279]]></name>
</wpt>
<wpt lat="25.039879" lon="121.620140">
<time>2010-07-10T09:25:25Z</time>
<ele>21.98</ele>
<name><![CDATA[Point 280]]></name>
</wpt>
<wpt lat="25.039837" lon="121.620216">
<time>2010-07-10T09:25:30Z</time>
<ele>18.97</ele>
<name><![CDATA[Point 281]]></name>
</wpt>
<wpt lat="25.039757" lon="121.620361">
<time>2010-07-10T09:25:35Z</time>
<ele>19.39</ele>
<name><![CDATA[Point 282]]></name>
</wpt>
<wpt lat="25.039713" lon="121.620468">
<time>2010-07-10T09:25:40Z</time>
<ele>19.92</ele>
<name><![CDATA[Point 283]]></name>
</wpt>
<wpt lat="25.039703" lon="121.620567">
<time>2010-07-10T09:25:45Z</time>
<ele>20.35</ele>
<name><![CDATA[Point 284]]></name>
</wpt>
<wpt lat="25.039667" lon="121.620674">
<time>2010-07-10T09:25:50Z</time>
<ele>20.65</ele>
<name><![CDATA[Point 285]]></name>
</wpt>
<wpt lat="25.039631" lon="121.620796">
<time>2010-07-10T09:25:55Z</time>
<ele>23.36</ele>
<name><![CDATA[Point 286]]></name>
</wpt>
<wpt lat="25.039555" lon="121.621033">
<time>2010-07-10T09:26:00Z</time>
<ele>20.05</ele>
<name><![CDATA[Point 287]]></name>
</wpt>
<wpt lat="25.039490" lon="121.621094">
<time>2010-07-10T09:26:05Z</time>
<ele>19.97</ele>
<name><![CDATA[Point 288]]></name>
</wpt>
<wpt lat="25.039408" lon="121.621216">
<time>2010-07-10T09:26:10Z</time>
<ele>20.95</ele>
<name><![CDATA[Point 289]]></name>
</wpt>
<wpt lat="25.039249" lon="121.621330">
<time>2010-07-10T09:26:15Z</time>
<ele>25.52</ele>
<name><![CDATA[Point 290]]></name>
</wpt>
<wpt lat="25.039211" lon="121.621346">
<time>2010-07-10T09:26:20Z</time>
<ele>27.00</ele>
<name><![CDATA[Point 291]]></name>
</wpt>
<wpt lat="25.039202" lon="121.621346">
<time>2010-07-10T09:26:25Z</time>
<ele>27.06</ele>
<name><![CDATA[Point 292]]></name>
</wpt>
<wpt lat="25.039185" lon="121.621361">
<time>2010-07-10T09:26:30Z</time>
<ele>27.15</ele>
<name><![CDATA[Point 293]]></name>
</wpt>
<wpt lat="25.039112" lon="121.621422">
<time>2010-07-10T09:26:35Z</time>
<ele>27.89</ele>
<name><![CDATA[Point 294]]></name>
</wpt>
<wpt lat="25.039085" lon="121.621498">
<time>2010-07-10T09:26:40Z</time>
<ele>27.94</ele>
<name><![CDATA[Point 295]]></name>
</wpt>
<wpt lat="25.038908" lon="121.621658">
<time>2010-07-10T09:26:45Z</time>
<ele>29.94</ele>
<name><![CDATA[Point 296]]></name>
</wpt>
<wpt lat="25.038797" lon="121.621902">
<time>2010-07-10T09:26:50Z</time>
<ele>28.93</ele>
<name><![CDATA[Point 297]]></name>
</wpt>
<wpt lat="25.038757" lon="121.622017">
<time>2010-07-10T09:26:55Z</time>
<ele>27.30</ele>
<name><![CDATA[Point 298]]></name>
</wpt>
<wpt lat="25.038651" lon="121.622131">
<time>2010-07-10T09:27:00Z</time>
<ele>25.63</ele>
<name><![CDATA[Point 299]]></name>
</wpt>
<wpt lat="25.038570" lon="121.622208">
<time>2010-07-10T09:27:05Z</time>
<ele>24.82</ele>
<name><![CDATA[Point 300]]></name>
</wpt>
<wpt lat="25.038496" lon="121.622231">
<time>2010-07-10T09:27:10Z</time>
<ele>24.74</ele>
<name><![CDATA[Point 301]]></name>
</wpt>
<wpt lat="25.038492" lon="121.622276">
<time>2010-07-10T09:27:15Z</time>
<ele>25.47</ele>
<name><![CDATA[Point 302]]></name>
</wpt>
<wpt lat="25.038549" lon="121.622292">
<time>2010-07-10T09:27:20Z</time>
<ele>29.98</ele>
<name><![CDATA[Point 303]]></name>
</wpt>
<wpt lat="25.038664" lon="121.622200">
<time>2010-07-10T09:27:25Z</time>
<ele>29.07</ele>
<name><![CDATA[Point 304]]></name>
</wpt>
<rte>
<name>Route</name>
<rtept lat="25.045782" lon="121.582886">
<time>2010-07-10T09:02:04Z</time>
<ele>43.59</ele>
<name><![CDATA[Point 0]]></name>
</rtept>
<rtept lat="25.045879" lon="121.583015">
<time>2010-07-10T09:02:09Z</time>
<ele>36.58</ele>
<name><![CDATA[Point 1]]></name>
</rtept>
<rtept lat="25.045929" lon="121.583313">
<time>2010-07-10T09:02:14Z</time>
<ele>17.40</ele>
<name><![CDATA[Point 2]]></name>
</rtept>
<rtept lat="25.046114" lon="121.583420">
<time>2010-07-10T09:02:20Z</time>
<ele>15.01</ele>
<name><![CDATA[Point 3]]></name>
</rtept>
<rtept lat="25.046286" lon="121.583527">
<time>2010-07-10T09:02:25Z</time>
<ele>14.72</ele>
<name><![CDATA[Point 4]]></name>
</rtept>
<rtept lat="25.046440" lon="121.583687">
<time>2010-07-10T09:02:30Z</time>
<ele>15.67</ele>
<name><![CDATA[Point 5]]></name>
</rtept>
<rtept lat="25.046629" lon="121.583786">
<time>2010-07-10T09:02:35Z</time>
<ele>15.14</ele>
<name><![CDATA[Point 6]]></name>
</rtept>
<rtept lat="25.046787" lon="121.583908">
<time>2010-07-10T09:02:40Z</time>
<ele>15.26</ele>
<name><![CDATA[Point 7]]></name>
</rtept>
<rtept lat="25.046936" lon="121.584068">
<time>2010-07-10T09:02:45Z</time>
<ele>15.98</ele>
<name><![CDATA[Point 8]]></name>
</rtept>
<rtept lat="25.047045" lon="121.584236">
<time>2010-07-10T09:02:50Z</time>
<ele>17.57</ele>
<name><![CDATA[Point 9]]></name>
</rtept>
<rtept lat="25.047182" lon="121.584389">
<time>2010-07-10T09:02:55Z</time>
<ele>19.06</ele>
<name><![CDATA[Point 10]]></name>
</rtept>
<rtept lat="25.047329" lon="121.584557">
<time>2010-07-10T09:03:00Z</time>
<ele>20.82</ele>
<name><![CDATA[Point 11]]></name>
</rtept>
<rtept lat="25.047451" lon="121.584587">
<time>2010-07-10T09:03:05Z</time>
<ele>22.54</ele>
<name><![CDATA[Point 12]]></name>
</rtept>
<rtept lat="25.047684" lon="121.584549">
<time>2010-07-10T09:03:10Z</time>
<ele>23.53</ele>
<name><![CDATA[Point 13]]></name>
</rtept>
<rtept lat="25.047716" lon="121.584648">
<time>2010-07-10T09:03:15Z</time>
<ele>24.35</ele>
<name><![CDATA[Point 14]]></name>
</rtept>
<rtept lat="25.047741" lon="121.584686">
<time>2010-07-10T09:03:20Z</time>
<ele>25.29</ele>
<name><![CDATA[Point 15]]></name>
</rtept>
<rtept lat="25.047810" lon="121.584732">
<time>2010-07-10T09:03:25Z</time>
<ele>25.89</ele>
<name><![CDATA[Point 16]]></name>
</rtept>
<rtept lat="25.047819" lon="121.584969">
<time>2010-07-10T09:03:30Z</time>
<ele>27.32</ele>
<name><![CDATA[Point 17]]></name>
</rtept>
<rtept lat="25.047867" lon="121.585304">
<time>2010-07-10T09:03:35Z</time>
<ele>27.05</ele>
<name><![CDATA[Point 18]]></name>
</rtept>
<rtept lat="25.048037" lon="121.585510">
<time>2010-07-10T09:03:40Z</time>
<ele>27.48</ele>
<name><![CDATA[Point 19]]></name>
</rtept>
<rtept lat="25.048115" lon="121.585686">
<time>2010-07-10T09:03:45Z</time>
<ele>27.47</ele>
<name><![CDATA[Point 20]]></name>
</rtept>
<rtept lat="25.048176" lon="121.585892">
<time>2010-07-10T09:03:50Z</time>
<ele>27.65</ele>
<name><![CDATA[Point 21]]></name>
</rtept>
<rtept lat="25.048252" lon="121.586105">
<time>2010-07-10T09:03:55Z</time>
<ele>27.18</ele>
<name><![CDATA[Point 22]]></name>
</rtept>
<rtept lat="25.048397" lon="121.586304">
<time>2010-07-10T09:04:00Z</time>
<ele>27.71</ele>
<name><![CDATA[Point 23]]></name>
</rtept>
<rtept lat="25.048479" lon="121.586510">
<time>2010-07-10T09:04:05Z</time>
<ele>25.39</ele>
<name><![CDATA[Point 24]]></name>
</rtept>
<rtept lat="25.048502" lon="121.586632">
<time>2010-07-10T09:04:10Z</time>
<ele>26.97</ele>
<name><![CDATA[Point 25]]></name>
</rtept>
<rtept lat="25.048504" lon="121.586647">
<time>2010-07-10T09:04:15Z</time>
<ele>24.82</ele>
<name><![CDATA[Point 26]]></name>
</rtept>
<rtept lat="25.048508" lon="121.586647">
<time>2010-07-10T09:04:20Z</time>
<ele>24.71</ele>
<name><![CDATA[Point 27]]></name>
</rtept>
<rtept lat="25.048510" lon="121.586647">
<time>2010-07-10T09:04:25Z</time>
<ele>24.63</ele>
<name><![CDATA[Point 28]]></name>
</rtept>
<rtept lat="25.048508" lon="121.586647">
<time>2010-07-10T09:04:30Z</time>
<ele>24.45</ele>
<name><![CDATA[Point 29]]></name>
</rtept>
<rtept lat="25.048510" lon="121.586647">
<time>2010-07-10T09:04:35Z</time>
<ele>24.34</ele>
<name><![CDATA[Point 30]]></name>
</rtept>
<rtept lat="25.048513" lon="121.586655">
<time>2010-07-10T09:04:40Z</time>
<ele>24.31</ele>
<name><![CDATA[Point 31]]></name>
</rtept>
<rtept lat="25.048523" lon="121.586655">
<time>2010-07-10T09:04:45Z</time>
<ele>24.34</ele>
<name><![CDATA[Point 32]]></name>
</rtept>
<rtept lat="25.048532" lon="121.586662">
<time>2010-07-10T09:04:50Z</time>
<ele>24.42</ele>
<name><![CDATA[Point 33]]></name>
</rtept>
<rtept lat="25.048574" lon="121.586792">
<time>2010-07-10T09:04:55Z</time>
<ele>24.05</ele>
<name><![CDATA[Point 34]]></name>
</rtept>
<rtept lat="25.048639" lon="121.586975">
<time>2010-07-10T09:05:00Z</time>
<ele>23.91</ele>
<name><![CDATA[Point 35]]></name>
</rtept>
<rtept lat="25.048679" lon="121.587151">
<time>2010-07-10T09:05:05Z</time>
<ele>23.32</ele>
<name><![CDATA[Point 36]]></name>
</rtept>
<rtept lat="25.048717" lon="121.587349">
<time>2010-07-10T09:05:10Z</time>
<ele>22.22</ele>
<name><![CDATA[Point 37]]></name>
</rtept>
<rtept lat="25.048769" lon="121.587540">
<time>2010-07-10T09:05:15Z</time>
<ele>20.70</ele>
<name><![CDATA[Point 38]]></name>
</rtept>
<rtept lat="25.048809" lon="121.587814">
<time>2010-07-10T09:05:20Z</time>
<ele>19.23</ele>
<name><![CDATA[Point 39]]></name>
</rtept>
<rtept lat="25.048830" lon="121.588058">
<time>2010-07-10T09:05:25Z</time>
<ele>17.42</ele>
<name><![CDATA[Point 40]]></name>
</rtept>
<rtept lat="25.048906" lon="121.588310">
<time>2010-07-10T09:05:30Z</time>
<ele>15.33</ele>
<name><![CDATA[Point 41]]></name>
</rtept>
<rtept lat="25.048988" lon="121.588570">
<time>2010-07-10T09:05:35Z</time>
<ele>13.78</ele>
<name><![CDATA[Point 42]]></name>
</rtept>
<rtept lat="25.049030" lon="121.588852">
<time>2010-07-10T09:05:40Z</time>
<ele>11.27</ele>
<name><![CDATA[Point 43]]></name>
</rtept>
<rtept lat="25.049112" lon="121.589088">
<time>2010-07-10T09:05:45Z</time>
<ele>8.62</ele>
<name><![CDATA[Point 44]]></name>
</rtept>
<rtept lat="25.049194" lon="121.589378">
<time>2010-07-10T09:05:50Z</time>
<ele>7.90</ele>
<name><![CDATA[Point 45]]></name>
</rtept>
<rtept lat="25.049248" lon="121.589615">
<time>2010-07-10T09:05:55Z</time>
<ele>6.85</ele>
<name><![CDATA[Point 46]]></name>
</rtept>
<rtept lat="25.049314" lon="121.589897">
<time>2010-07-10T09:06:00Z</time>
<ele>5.54</ele>
<name><![CDATA[Point 47]]></name>
</rtept>
<rtept lat="25.049383" lon="121.590172">
<time>2010-07-10T09:06:05Z</time>
<ele>3.21</ele>
<name><![CDATA[Point 48]]></name>
</rtept>
<rtept lat="25.049461" lon="121.590439">
<time>2010-07-10T09:06:10Z</time>
<ele>1.01</ele>
<name><![CDATA[Point 49]]></name>
</rtept>
<rtept lat="25.049494" lon="121.590691">
<time>2010-07-10T09:06:15Z</time>
<ele>-0.99</ele>
<name><![CDATA[Point 50]]></name>
</rtept>
<rtept lat="25.049568" lon="121.590950">
<time>2010-07-10T09:06:20Z</time>
<ele>-4.18</ele>
<name><![CDATA[Point 51]]></name>
</rtept>
<rtept lat="25.049646" lon="121.591179">
<time>2010-07-10T09:06:25Z</time>
<ele>-7.31</ele>
<name><![CDATA[Point 52]]></name>
</rtept>
<rtept lat="25.049702" lon="121.591370">
<time>2010-07-10T09:06:30Z</time>
<ele>-10.42</ele>
<name><![CDATA[Point 53]]></name>
</rtept>
<rtept lat="25.049744" lon="121.591583">
<time>2010-07-10T09:06:35Z</time>
<ele>-11.93</ele>
<name><![CDATA[Point 54]]></name>
</rtept>
<rtept lat="25.049791" lon="121.591805">
<time>2010-07-10T09:06:40Z</time>
<ele>-15.18</ele>
<name><![CDATA[Point 55]]></name>
</rtept>
<rtept lat="25.049847" lon="121.592018">
<time>2010-07-10T09:06:45Z</time>
<ele>-8.64</ele>
<name><![CDATA[Point 56]]></name>
</rtept>
<rtept lat="25.049891" lon="121.592255">
<time>2010-07-10T09:06:50Z</time>
<ele>-10.81</ele>
<name><![CDATA[Point 57]]></name>
</rtept>
<rtept lat="25.049931" lon="121.592499">
<time>2010-07-10T09:06:55Z</time>
<ele>-13.21</ele>
<name><![CDATA[Point 58]]></name>
</rtept>
<rtept lat="25.050013" lon="121.592735">
<time>2010-07-10T09:07:00Z</time>
<ele>-17.61</ele>
<name><![CDATA[Point 59]]></name>
</rtept>
<rtept lat="25.050089" lon="121.592941">
<time>2010-07-10T09:07:05Z</time>
<ele>-20.29</ele>
<name><![CDATA[Point 60]]></name>
</rtept>
<rtept lat="25.050089" lon="121.593132">
<time>2010-07-10T09:07:10Z</time>
<ele>-13.68</ele>
<name><![CDATA[Point 61]]></name>
</rtept>
<rtept lat="25.050156" lon="121.593323">
<time>2010-07-10T09:07:15Z</time>
<ele>-13.41</ele>
<name><![CDATA[Point 62]]></name>
</rtept>
<rtept lat="25.050211" lon="121.593567">
<time>2010-07-10T09:07:20Z</time>
<ele>-15.61</ele>
<name><![CDATA[Point 63]]></name>
</rtept>
<rtept lat="25.050249" lon="121.593773">
<time>2010-07-10T09:07:25Z</time>
<ele>-17.58</ele>
<name><![CDATA[Point 64]]></name>
</rtept>
<rtept lat="25.050295" lon="121.593994">
<time>2010-07-10T09:07:30Z</time>
<ele>-19.86</ele>
<name><![CDATA[Point 65]]></name>
</rtept>
<rtept lat="25.050337" lon="121.594193">
<time>2010-07-10T09:07:35Z</time>
<ele>-22.25</ele>
<name><![CDATA[Point 66]]></name>
</rtept>
<rtept lat="25.050421" lon="121.594414">
<time>2010-07-10T09:07:40Z</time>
<ele>-24.05</ele>
<name><![CDATA[Point 67]]></name>
</rtept>
<rtept lat="25.050524" lon="121.594635">
<time>2010-07-10T09:07:45Z</time>
<ele>-26.03</ele>
<name><![CDATA[Point 68]]></name>
</rtept>
<rtept lat="25.050550" lon="121.594864">
<time>2010-07-10T09:07:50Z</time>
<ele>-27.42</ele>
<name><![CDATA[Point 69]]></name>
</rtept>
<rtept lat="25.050657" lon="121.595100">
<time>2010-07-10T09:07:55Z</time>
<ele>-26.27</ele>
<name><![CDATA[Point 70]]></name>
</rtept>
<rtept lat="25.050688" lon="121.595322">
<time>2010-07-10T09:08:00Z</time>
<ele>-25.25</ele>
<name><![CDATA[Point 71]]></name>
</rtept>
<rtept lat="25.050671" lon="121.595596">
<time>2010-07-10T09:08:05Z</time>
<ele>-20.61</ele>
<name><![CDATA[Point 72]]></name>
</rtept>
<rtept lat="25.050686" lon="121.595802">
<time>2010-07-10T09:08:10Z</time>
<ele>-18.75</ele>
<name><![CDATA[Point 73]]></name>
</rtept>
<rtept lat="25.050709" lon="121.595978">
<time>2010-07-10T09:08:15Z</time>
<ele>-18.36</ele>
<name><![CDATA[Point 74]]></name>
</rtept>
<rtept lat="25.050713" lon="121.596214">
<time>2010-07-10T09:08:20Z</time>
<ele>-17.54</ele>
<name><![CDATA[Point 75]]></name>
</rtept>
<rtept lat="25.050760" lon="121.596428">
<time>2010-07-10T09:08:25Z</time>
<ele>-18.35</ele>
<name><![CDATA[Point 76]]></name>
</rtept>
<rtept lat="25.050797" lon="121.596657">
<time>2010-07-10T09:08:30Z</time>
<ele>-19.89</ele>
<name><![CDATA[Point 77]]></name>
</rtept>
<rtept lat="25.050800" lon="121.596840">
<time>2010-07-10T09:08:35Z</time>
<ele>-19.52</ele>
<name><![CDATA[Point 78]]></name>
</rtept>
<rtept lat="25.050829" lon="121.597023">
<time>2010-07-10T09:08:40Z</time>
<ele>-18.33</ele>
<name><![CDATA[Point 79]]></name>
</rtept>
<rtept lat="25.050835" lon="121.597244">
<time>2010-07-10T09:08:45Z</time>
<ele>-13.85</ele>
<name><![CDATA[Point 80]]></name>
</rtept>
<rtept lat="25.050869" lon="121.597435">
<time>2010-07-10T09:08:50Z</time>
<ele>-10.53</ele>
<name><![CDATA[Point 81]]></name>
</rtept>
<rtept lat="25.050890" lon="121.597656">
<time>2010-07-10T09:08:55Z</time>
<ele>-6.66</ele>
<name><![CDATA[Point 82]]></name>
</rtept>
<rtept lat="25.050913" lon="121.597893">
<time>2010-07-10T09:09:00Z</time>
<ele>-8.08</ele>
<name><![CDATA[Point 83]]></name>
</rtept>
<rtept lat="25.050940" lon="121.598106">
<time>2010-07-10T09:09:05Z</time>
<ele>-6.32</ele>
<name><![CDATA[Point 84]]></name>
</rtept>
<rtept lat="25.050951" lon="121.598312">
<time>2010-07-10T09:09:10Z</time>
<ele>-6.74</ele>
<name><![CDATA[Point 85]]></name>
</rtept>
<rtept lat="25.050983" lon="121.598480">
<time>2010-07-10T09:09:15Z</time>
<ele>-9.26</ele>
<name><![CDATA[Point 86]]></name>
</rtept>
<rtept lat="25.051006" lon="121.598656">
<time>2010-07-10T09:09:20Z</time>
<ele>-8.88</ele>
<name><![CDATA[Point 87]]></name>
</rtept>
<rtept lat="25.051023" lon="121.598831">
<time>2010-07-10T09:09:25Z</time>
<ele>-9.91</ele>
<name><![CDATA[Point 88]]></name>
</rtept>
<rtept lat="25.051054" lon="121.599022">
<time>2010-07-10T09:09:30Z</time>
<ele>-13.70</ele>
<name><![CDATA[Point 89]]></name>
</rtept>
<rtept lat="25.051088" lon="121.599182">
<time>2010-07-10T09:09:35Z</time>
<ele>-14.78</ele>
<name><![CDATA[Point 90]]></name>
</rtept>
<rtept lat="25.051107" lon="121.599380">
<time>2010-07-10T09:09:40Z</time>
<ele>-13.52</ele>
<name><![CDATA[Point 91]]></name>
</rtept>
<rtept lat="25.051144" lon="121.599586">
<time>2010-07-10T09:09:45Z</time>
<ele>-10.79</ele>
<name><![CDATA[Point 92]]></name>
</rtept>
<rtept lat="25.051172" lon="121.599785">
<time>2010-07-10T09:09:50Z</time>
<ele>-10.53</ele>
<name><![CDATA[Point 93]]></name>
</rtept>
<rtept lat="25.051212" lon="121.600006">
<time>2010-07-10T09:09:55Z</time>
<ele>-13.17</ele>
<name><![CDATA[Point 94]]></name>
</rtept>
<rtept lat="25.051243" lon="121.600227">
<time>2010-07-10T09:10:00Z</time>
<ele>-11.68</ele>
<name><![CDATA[Point 95]]></name>
</rtept>
<rtept lat="25.051241" lon="121.600471">
<time>2010-07-10T09:10:05Z</time>
<ele>-10.20</ele>
<name><![CDATA[Point 96]]></name>
</rtept>
<rtept lat="25.051245" lon="121.600708">
<time>2010-07-10T09:10:10Z</time>
<ele>-11.07</ele>
<name><![CDATA[Point 97]]></name>
</rtept>
<rtept lat="25.051266" lon="121.600914">
<time>2010-07-10T09:10:15Z</time>
<ele>-13.17</ele>
<name><![CDATA[Point 98]]></name>
</rtept>
<rtept lat="25.051277" lon="121.601151">
<time>2010-07-10T09:10:20Z</time>
<ele>-14.50</ele>
<name><![CDATA[Point 99]]></name>
</rtept>
<rtept lat="25.051311" lon="121.601379">
<time>2010-07-10T09:10:25Z</time>
<ele>-15.25</ele>
<name><![CDATA[Point 100]]></name>
</rtept>
<rtept lat="25.051334" lon="121.601639">
<time>2010-07-10T09:10:30Z</time>
<ele>-14.44</ele>
<name><![CDATA[Point 101]]></name>
</rtept>
<rtept lat="25.051373" lon="121.601883">
<time>2010-07-10T09:10:35Z</time>
<ele>-10.42</ele>
<name><![CDATA[Point 102]]></name>
</rtept>
<rtept lat="25.051418" lon="121.602097">
<time>2010-07-10T09:10:40Z</time>
<ele>-6.00</ele>
<name><![CDATA[Point 103]]></name>
</rtept>
<rtept lat="25.051426" lon="121.602356">
<time>2010-07-10T09:10:45Z</time>
<ele>-3.31</ele>
<name><![CDATA[Point 104]]></name>
</rtept>
<rtept lat="25.051445" lon="121.602600">
<time>2010-07-10T09:10:50Z</time>
<ele>-1.60</ele>
<name><![CDATA[Point 105]]></name>
</rtept>
<rtept lat="25.051500" lon="121.602829">
<time>2010-07-10T09:10:55Z</time>
<ele>-2.02</ele>
<name><![CDATA[Point 106]]></name>
</rtept>
<rtept lat="25.051535" lon="121.603065">
<time>2010-07-10T09:11:00Z</time>
<ele>0.49</ele>
<name><![CDATA[Point 107]]></name>
</rtept>
<rtept lat="25.051579" lon="121.603279">
<time>2010-07-10T09:11:05Z</time>
<ele>0.39</ele>
<name><![CDATA[Point 108]]></name>
</rtept>
<rtept lat="25.051596" lon="121.603508">
<time>2010-07-10T09:11:10Z</time>
<ele>1.61</ele>
<name><![CDATA[Point 109]]></name>
</rtept>
<rtept lat="25.051615" lon="121.603737">
<time>2010-07-10T09:11:15Z</time>
<ele>0.04</ele>
<name><![CDATA[Point 110]]></name>
</rtept>
<rtept lat="25.051636" lon="121.603973">
<time>2010-07-10T09:11:20Z</time>
<ele>0.54</ele>
<name><![CDATA[Point 111]]></name>
</rtept>
<rtept lat="25.051641" lon="121.604156">
<time>2010-07-10T09:11:25Z</time>
<ele>-1.43</ele>
<name><![CDATA[Point 112]]></name>
</rtept>
<rtept lat="25.051682" lon="121.604370">
<time>2010-07-10T09:11:30Z</time>
<ele>-1.26</ele>
<name><![CDATA[Point 113]]></name>
</rtept>
<rtept lat="25.051699" lon="121.604614">
<time>2010-07-10T09:11:35Z</time>
<ele>0.89</ele>
<name><![CDATA[Point 114]]></name>
</rtept>
<rtept lat="25.051727" lon="121.604813">
<time>2010-07-10T09:11:40Z</time>
<ele>0.03</ele>
<name><![CDATA[Point 115]]></name>
</rtept>
<rtept lat="25.051752" lon="121.605034">
<time>2010-07-10T09:11:45Z</time>
<ele>2.05</ele>
<name><![CDATA[Point 116]]></name>
</rtept>
<rtept lat="25.051796" lon="121.605247">
<time>2010-07-10T09:11:50Z</time>
<ele>-2.41</ele>
<name><![CDATA[Point 117]]></name>
</rtept>
<rtept lat="25.051840" lon="121.605484">
<time>2010-07-10T09:11:55Z</time>
<ele>-5.18</ele>
<name><![CDATA[Point 118]]></name>
</rtept>
<rtept lat="25.051863" lon="121.605728">
<time>2010-07-10T09:12:00Z</time>
<ele>-8.49</ele>
<name><![CDATA[Point 119]]></name>
</rtept>
<rtept lat="25.051844" lon="121.605995">
<time>2010-07-10T09:12:05Z</time>
<ele>-7.63</ele>
<name><![CDATA[Point 120]]></name>
</rtept>
<rtept lat="25.051893" lon="121.606232">
<time>2010-07-10T09:12:10Z</time>
<ele>-6.18</ele>
<name><![CDATA[Point 121]]></name>
</rtept>
<rtept lat="25.051901" lon="121.606468">
<time>2010-07-10T09:12:15Z</time>
<ele>-7.57</ele>
<name><![CDATA[Point 122]]></name>
</rtept>
<rtept lat="25.051937" lon="121.606667">
<time>2010-07-10T09:12:20Z</time>
<ele>-4.18</ele>
<name><![CDATA[Point 123]]></name>
</rtept>
<rtept lat="25.051931" lon="121.606888">
<time>2010-07-10T09:12:25Z</time>
<ele>-5.30</ele>
<name><![CDATA[Point 124]]></name>
</rtept>
<rtept lat="25.051950" lon="121.607056">
<time>2010-07-10T09:12:30Z</time>
<ele>-4.76</ele>
<name><![CDATA[Point 125]]></name>
</rtept>
<rtept lat="25.051989" lon="121.607201">
<time>2010-07-10T09:12:35Z</time>
<ele>2.02</ele>
<name><![CDATA[Point 126]]></name>
</rtept>
<rtept lat="25.051970" lon="121.607376">
<time>2010-07-10T09:12:40Z</time>
<ele>1.83</ele>
<name><![CDATA[Point 127]]></name>
</rtept>
<rtept lat="25.052010" lon="121.607559">
<time>2010-07-10T09:12:45Z</time>
<ele>0.39</ele>
<name><![CDATA[Point 128]]></name>
</rtept>
<rtept lat="25.052031" lon="121.607758">
<time>2010-07-10T09:12:50Z</time>
<ele>0.84</ele>
<name><![CDATA[Point 129]]></name>
</rtept>
<rtept lat="25.052034" lon="121.607925">
<time>2010-07-10T09:12:55Z</time>
<ele>-0.19</ele>
<name><![CDATA[Point 130]]></name>
</rtept>
<rtept lat="25.052078" lon="121.608047">
<time>2010-07-10T09:13:00Z</time>
<ele>3.80</ele>
<name><![CDATA[Point 131]]></name>
</rtept>
<rtept lat="25.052048" lon="121.608238">
<time>2010-07-10T09:13:05Z</time>
<ele>8.06</ele>
<name><![CDATA[Point 132]]></name>
</rtept>
<rtept lat="25.052097" lon="121.608398">
<time>2010-07-10T09:13:10Z</time>
<ele>11.60</ele>
<name><![CDATA[Point 133]]></name>
</rtept>
<rtept lat="25.052141" lon="121.608582">
<time>2010-07-10T09:13:15Z</time>
<ele>13.27</ele>
<name><![CDATA[Point 134]]></name>
</rtept>
<rtept lat="25.052135" lon="121.608803">
<time>2010-07-10T09:13:20Z</time>
<ele>18.73</ele>
<name><![CDATA[Point 135]]></name>
</rtept>
<rtept lat="25.052172" lon="121.609032">
<time>2010-07-10T09:13:25Z</time>
<ele>19.36</ele>
<name><![CDATA[Point 136]]></name>
</rtept>
<rtept lat="25.052221" lon="121.609230">
<time>2010-07-10T09:13:30Z</time>
<ele>15.63</ele>
<name><![CDATA[Point 137]]></name>
</rtept>
<rtept lat="25.052261" lon="121.609428">
<time>2010-07-10T09:13:35Z</time>
<ele>15.41</ele>
<name><![CDATA[Point 138]]></name>
</rtept>
<rtept lat="25.052288" lon="121.609604">
<time>2010-07-10T09:13:40Z</time>
<ele>12.04</ele>
<name><![CDATA[Point 139]]></name>
</rtept>
<rtept lat="25.052275" lon="121.609764">
<time>2010-07-10T09:13:45Z</time>
<ele>9.93</ele>
<name><![CDATA[Point 140]]></name>
</rtept>
<rtept lat="25.052309" lon="121.609978">
<time>2010-07-10T09:13:50Z</time>
<ele>9.24</ele>
<name><![CDATA[Point 141]]></name>
</rtept>
<rtept lat="25.052336" lon="121.610153">
<time>2010-07-10T09:13:55Z</time>
<ele>8.03</ele>
<name><![CDATA[Point 142]]></name>
</rtept>
<rtept lat="25.052359" lon="121.610321">
<time>2010-07-10T09:14:00Z</time>
<ele>7.60</ele>
<name><![CDATA[Point 143]]></name>
</rtept>
<rtept lat="25.052366" lon="121.610535">
<time>2010-07-10T09:14:05Z</time>
<ele>6.81</ele>
<name><![CDATA[Point 144]]></name>
</rtept>
<rtept lat="25.052406" lon="121.610703">
<time>2010-07-10T09:14:10Z</time>
<ele>5.12</ele>
<name><![CDATA[Point 145]]></name>
</rtept>
<rtept lat="25.052420" lon="121.610893">
<time>2010-07-10T09:14:15Z</time>
<ele>5.02</ele>
<name><![CDATA[Point 146]]></name>
</rtept>
<rtept lat="25.052439" lon="121.611069">
<time>2010-07-10T09:14:20Z</time>
<ele>2.51</ele>
<name><![CDATA[Point 147]]></name>
</rtept>
<rtept lat="25.052460" lon="121.611229">
<time>2010-07-10T09:14:25Z</time>
<ele>-1.70</ele>
<name><![CDATA[Point 148]]></name>
</rtept>
<rtept lat="25.052486" lon="121.611397">
<time>2010-07-10T09:14:30Z</time>
<ele>-4.13</ele>
<name><![CDATA[Point 149]]></name>
</rtept>
<rtept lat="25.052500" lon="121.611565">
<time>2010-07-10T09:14:35Z</time>
<ele>-6.36</ele>
<name><![CDATA[Point 150]]></name>
</rtept>
<rtept lat="25.052519" lon="121.611710">
<time>2010-07-10T09:14:40Z</time>
<ele>-6.35</ele>
<name><![CDATA[Point 151]]></name>
</rtept>
<rtept lat="25.052536" lon="121.611885">
<time>2010-07-10T09:14:45Z</time>
<ele>-8.19</ele>
<name><![CDATA[Point 152]]></name>
</rtept>
<rtept lat="25.052525" lon="121.612076">
<time>2010-07-10T09:14:50Z</time>
<ele>-8.91</ele>
<name><![CDATA[Point 153]]></name>
</rtept>
<rtept lat="25.052536" lon="121.612236">
<time>2010-07-10T09:14:55Z</time>
<ele>-9.97</ele>
<name><![CDATA[Point 154]]></name>
</rtept>
<rtept lat="25.052526" lon="121.612411">
<time>2010-07-10T09:15:00Z</time>
<ele>-11.06</ele>
<name><![CDATA[Point 155]]></name>
</rtept>
<rtept lat="25.052563" lon="121.612595">
<time>2010-07-10T09:15:05Z</time>
<ele>-12.58</ele>
<name><![CDATA[Point 156]]></name>
</rtept>
<rtept lat="25.052582" lon="121.612770">
<time>2010-07-10T09:15:10Z</time>
<ele>-13.01</ele>
<name><![CDATA[Point 157]]></name>
</rtept>
<rtept lat="25.052641" lon="121.613029">
<time>2010-07-10T09:15:15Z</time>
<ele>-14.00</ele>
<name><![CDATA[Point 158]]></name>
</rtept>
<rtept lat="25.052658" lon="121.613258">
<time>2010-07-10T09:15:20Z</time>
<ele>-15.35</ele>
<name><![CDATA[Point 159]]></name>
</rtept>
<rtept lat="25.052633" lon="121.613510">
<time>2010-07-10T09:15:25Z</time>
<ele>-17.75</ele>
<name><![CDATA[Point 160]]></name>
</rtept>
<rtept lat="25.052715" lon="121.613724">
<time>2010-07-10T09:15:30Z</time>
<ele>-17.06</ele>
<name><![CDATA[Point 161]]></name>
</rtept>
<rtept lat="25.052734" lon="121.613907">
<time>2010-07-10T09:15:35Z</time>
<ele>-15.65</ele>
<name><![CDATA[Point 162]]></name>
</rtept>
<rtept lat="25.052896" lon="121.614029">
<time>2010-07-10T09:15:40Z</time>
<ele>-14.00</ele>
<name><![CDATA[Point 163]]></name>
</rtept>
<rtept lat="25.052908" lon="121.614296">
<time>2010-07-10T09:15:45Z</time>
<ele>-8.28</ele>
<name><![CDATA[Point 164]]></name>
</rtept>
<rtept lat="25.052916" lon="121.614540">
<time>2010-07-10T09:15:50Z</time>
<ele>-8.68</ele>
<name><![CDATA[Point 165]]></name>
</rtept>
<rtept lat="25.052900" lon="121.614784">
<time>2010-07-10T09:15:55Z</time>
<ele>-6.84</ele>
<name><![CDATA[Point 166]]></name>
</rtept>
<rtept lat="25.052938" lon="121.614830">
<time>2010-07-10T09:16:00Z</time>
<ele>-9.73</ele>
<name><![CDATA[Point 167]]></name>
</rtept>
<rtept lat="25.052977" lon="121.614937">
<time>2010-07-10T09:16:05Z</time>
<ele>-9.72</ele>
<name><![CDATA[Point 168]]></name>
</rtept>
<rtept lat="25.052973" lon="121.615135">
<time>2010-07-10T09:16:10Z</time>
<ele>-9.24</ele>
<name><![CDATA[Point 169]]></name>
</rtept>
<rtept lat="25.053001" lon="121.615173">
<time>2010-07-10T09:16:15Z</time>
<ele>-5.60</ele>
<name><![CDATA[Point 170]]></name>
</rtept>
<rtept lat="25.053001" lon="121.615181">
<time>2010-07-10T09:16:20Z</time>
<ele>-5.89</ele>
<name><![CDATA[Point 171]]></name>
</rtept>
<rtept lat="25.053003" lon="121.615189">
<time>2010-07-10T09:16:25Z</time>
<ele>-5.85</ele>
<name><![CDATA[Point 172]]></name>
</rtept>
<rtept lat="25.053007" lon="121.615196">
<time>2010-07-10T09:16:30Z</time>
<ele>-5.84</ele>
<name><![CDATA[Point 173]]></name>
</rtept>
<rtept lat="25.053013" lon="121.615326">
<time>2010-07-10T09:16:35Z</time>
<ele>-3.63</ele>
<name><![CDATA[Point 174]]></name>
</rtept>
<rtept lat="25.053026" lon="121.615509">
<time>2010-07-10T09:16:40Z</time>
<ele>-4.21</ele>
<name><![CDATA[Point 175]]></name>
</rtept>
<rtept lat="25.053038" lon="121.615685">
<time>2010-07-10T09:16:45Z</time>
<ele>-4.48</ele>
<name><![CDATA[Point 176]]></name>
</rtept>
<rtept lat="25.053030" lon="121.615860">
<time>2010-07-10T09:16:50Z</time>
<ele>-6.02</ele>
<name><![CDATA[Point 177]]></name>
</rtept>
<rtept lat="25.053066" lon="121.616028">
<time>2010-07-10T09:16:55Z</time>
<ele>-7.99</ele>
<name><![CDATA[Point 178]]></name>
</rtept>
<rtept lat="25.052980" lon="121.616104">
<time>2010-07-10T09:17:00Z</time>
<ele>-9.38</ele>
<name><![CDATA[Point 179]]></name>
</rtept>
<rtept lat="25.052828" lon="121.616035">
<time>2010-07-10T09:17:05Z</time>
<ele>-8.88</ele>
<name><![CDATA[Point 180]]></name>
</rtept>
<rtept lat="25.052607" lon="121.616074">
<time>2010-07-10T09:17:10Z</time>
<ele>-3.21</ele>
<name><![CDATA[Point 181]]></name>
</rtept>
<rtept lat="25.052408" lon="121.616035">
<time>2010-07-10T09:17:15Z</time>
<ele>2.18</ele>
<name><![CDATA[Point 182]]></name>
</rtept>
<rtept lat="25.052198" lon="121.616028">
<time>2010-07-10T09:17:20Z</time>
<ele>4.82</ele>
<name><![CDATA[Point 183]]></name>
</rtept>
<rtept lat="25.052008" lon="121.616043">
<time>2010-07-10T09:17:25Z</time>
<ele>5.51</ele>
<name><![CDATA[Point 184]]></name>
</rtept>
<rtept lat="25.051861" lon="121.615967">
<time>2010-07-10T09:17:30Z</time>
<ele>3.07</ele>
<name><![CDATA[Point 185]]></name>
</rtept>
<rtept lat="25.051645" lon="121.615814">
<time>2010-07-10T09:17:35Z</time>
<ele>3.32</ele>
<name><![CDATA[Point 186]]></name>
</rtept>
<rtept lat="25.051453" lon="121.615768">
<time>2010-07-10T09:17:40Z</time>
<ele>0.30</ele>
<name><![CDATA[Point 187]]></name>
</rtept>
<rtept lat="25.051252" lon="121.615631">
<time>2010-07-10T09:17:45Z</time>
<ele>4.37</ele>
<name><![CDATA[Point 188]]></name>
</rtept>
<rtept lat="25.051037" lon="121.615570">
<time>2010-07-10T09:17:50Z</time>
<ele>4.18</ele>
<name><![CDATA[Point 189]]></name>
</rtept>
<rtept lat="25.050819" lon="121.615494">
<time>2010-07-10T09:17:55Z</time>
<ele>7.40</ele>
<name><![CDATA[Point 190]]></name>
</rtept>
<rtept lat="25.050606" lon="121.615479">
<time>2010-07-10T09:18:00Z</time>
<ele>9.94</ele>
<name><![CDATA[Point 191]]></name>
</rtept>
<rtept lat="25.050421" lon="121.615471">
<time>2010-07-10T09:18:05Z</time>
<ele>10.86</ele>
<name><![CDATA[Point 192]]></name>
</rtept>
<rtept lat="25.050236" lon="121.615494">
<time>2010-07-10T09:18:10Z</time>
<ele>14.01</ele>
<name><![CDATA[Point 193]]></name>
</rtept>
<rtept lat="25.050041" lon="121.615517">
<time>2010-07-10T09:18:15Z</time>
<ele>16.60</ele>
<name><![CDATA[Point 194]]></name>
</rtept>
<rtept lat="25.049908" lon="121.615601">
<time>2010-07-10T09:18:20Z</time>
<ele>17.75</ele>
<name><![CDATA[Point 195]]></name>
</rtept>
<rtept lat="25.049648" lon="121.615692">
<time>2010-07-10T09:18:25Z</time>
<ele>21.61</ele>
<name><![CDATA[Point 196]]></name>
</rtept>
<rtept lat="25.049437" lon="121.615692">
<time>2010-07-10T09:18:30Z</time>
<ele>24.30</ele>
<name><![CDATA[Point 197]]></name>
</rtept>
<rtept lat="25.049292" lon="121.615662">
<time>2010-07-10T09:18:35Z</time>
<ele>25.18</ele>
<name><![CDATA[Point 198]]></name>
</rtept>
<rtept lat="25.049093" lon="121.615662">
<time>2010-07-10T09:18:40Z</time>
<ele>23.03</ele>
<name><![CDATA[Point 199]]></name>
</rtept>
<rtept lat="25.048923" lon="121.615685">
<time>2010-07-10T09:18:45Z</time>
<ele>22.24</ele>
<name><![CDATA[Point 200]]></name>
</rtept>
<rtept lat="25.048740" lon="121.615730">
<time>2010-07-10T09:18:50Z</time>
<ele>22.79</ele>
<name><![CDATA[Point 201]]></name>
</rtept>
<rtept lat="25.048525" lon="121.615791">
<time>2010-07-10T09:18:55Z</time>
<ele>22.06</ele>
<name><![CDATA[Point 202]]></name>
</rtept>
<rtept lat="25.048292" lon="121.615784">
<time>2010-07-10T09:19:00Z</time>
<ele>16.15</ele>
<name><![CDATA[Point 203]]></name>
</rtept>
<rtept lat="25.048111" lon="121.615753">
<time>2010-07-10T09:19:05Z</time>
<ele>15.11</ele>
<name><![CDATA[Point 204]]></name>
</rtept>
<rtept lat="25.047951" lon="121.615692">
<time>2010-07-10T09:19:10Z</time>
<ele>12.87</ele>
<name><![CDATA[Point 205]]></name>
</rtept>
<rtept lat="25.047752" lon="121.615608">
<time>2010-07-10T09:19:15Z</time>
<ele>16.10</ele>
<name><![CDATA[Point 206]]></name>
</rtept>
<rtept lat="25.047598" lon="121.615631">
<time>2010-07-10T09:19:20Z</time>
<ele>22.92</ele>
<name><![CDATA[Point 207]]></name>
</rtept>
<rtept lat="25.047438" lon="121.615562">
<time>2010-07-10T09:19:25Z</time>
<ele>26.46</ele>
<name><![CDATA[Point 208]]></name>
</rtept>
<rtept lat="25.047285" lon="121.615494">
<time>2010-07-10T09:19:30Z</time>
<ele>28.13</ele>
<name><![CDATA[Point 209]]></name>
</rtept>
<rtept lat="25.047112" lon="121.615433">
<time>2010-07-10T09:19:35Z</time>
<ele>30.78</ele>
<name><![CDATA[Point 210]]></name>
</rtept>
<rtept lat="25.046946" lon="121.615395">
<time>2010-07-10T09:19:40Z</time>
<ele>32.67</ele>
<name><![CDATA[Point 211]]></name>
</rtept>
<rtept lat="25.046778" lon="121.615379">
<time>2010-07-10T09:19:45Z</time>
<ele>35.11</ele>
<name><![CDATA[Point 212]]></name>
</rtept>
<rtept lat="25.046566" lon="121.615334">
<time>2010-07-10T09:19:50Z</time>
<ele>38.26</ele>
<name><![CDATA[Point 213]]></name>
</rtept>
<rtept lat="25.046350" lon="121.615334">
<time>2010-07-10T09:19:55Z</time>
<ele>40.75</ele>
<name><![CDATA[Point 214]]></name>
</rtept>
<rtept lat="25.046124" lon="121.615364">
<time>2010-07-10T09:20:00Z</time>
<ele>45.06</ele>
<name><![CDATA[Point 215]]></name>
</rtept>
<rtept lat="25.045942" lon="121.615273">
<time>2010-07-10T09:20:05Z</time>
<ele>50.06</ele>
<name><![CDATA[Point 216]]></name>
</rtept>
<rtept lat="25.045794" lon="121.615265">
<time>2010-07-10T09:20:10Z</time>
<ele>51.35</ele>
<name><![CDATA[Point 217]]></name>
</rtept>
<rtept lat="25.045740" lon="121.615189">
<time>2010-07-10T09:20:15Z</time>
<ele>48.07</ele>
<name><![CDATA[Point 218]]></name>
</rtept>
<rtept lat="25.045635" lon="121.615303">
<time>2010-07-10T09:20:20Z</time>
<ele>47.72</ele>
<name><![CDATA[Point 219]]></name>
</rtept>
<rtept lat="25.045559" lon="121.615356">
<time>2010-07-10T09:20:25Z</time>
<ele>48.63</ele>
<name><![CDATA[Point 220]]></name>
</rtept>
<rtept lat="25.045483" lon="121.615379">
<time>2010-07-10T09:20:30Z</time>
<ele>48.86</ele>
<name><![CDATA[Point 221]]></name>
</rtept>
<rtept lat="25.045416" lon="121.615433">
<time>2010-07-10T09:20:35Z</time>
<ele>49.31</ele>
<name><![CDATA[Point 222]]></name>
</rtept>
<rtept lat="25.045294" lon="121.615395">
<time>2010-07-10T09:20:40Z</time>
<ele>47.60</ele>
<name><![CDATA[Point 223]]></name>
</rtept>
<rtept lat="25.045090" lon="121.615463">
<time>2010-07-10T09:20:45Z</time>
<ele>51.84</ele>
<name><![CDATA[Point 224]]></name>
</rtept>
<rtept lat="25.044886" lon="121.615494">
<time>2010-07-10T09:20:50Z</time>
<ele>55.84</ele>
<name><![CDATA[Point 225]]></name>
</rtept>
<rtept lat="25.044762" lon="121.615555">
<time>2010-07-10T09:20:55Z</time>
<ele>56.24</ele>
<name><![CDATA[Point 226]]></name>
</rtept>
<rtept lat="25.044641" lon="121.615623">
<time>2010-07-10T09:21:00Z</time>
<ele>56.92</ele>
<name><![CDATA[Point 227]]></name>
</rtept>
<rtept lat="25.044504" lon="121.615715">
<time>2010-07-10T09:21:05Z</time>
<ele>59.62</ele>
<name><![CDATA[Point 228]]></name>
</rtept>
<rtept lat="25.044346" lon="121.615784">
<time>2010-07-10T09:21:10Z</time>
<ele>49.88</ele>
<name><![CDATA[Point 229]]></name>
</rtept>
<rtept lat="25.044199" lon="121.615852">
<time>2010-07-10T09:21:15Z</time>
<ele>44.29</ele>
<name><![CDATA[Point 230]]></name>
</rtept>
<rtept lat="25.044052" lon="121.615952">
<time>2010-07-10T09:21:20Z</time>
<ele>41.52</ele>
<name><![CDATA[Point 231]]></name>
</rtept>
<rtept lat="25.043905" lon="121.616043">
<time>2010-07-10T09:21:25Z</time>
<ele>41.56</ele>
<name><![CDATA[Point 232]]></name>
</rtept>
<rtept lat="25.043768" lon="121.616089">
<time>2010-07-10T09:21:30Z</time>
<ele>38.79</ele>
<name><![CDATA[Point 233]]></name>
</rtept>
<rtept lat="25.043652" lon="121.616112">
<time>2010-07-10T09:21:35Z</time>
<ele>38.94</ele>
<name><![CDATA[Point 234]]></name>
</rtept>
<rtept lat="25.043537" lon="121.616180">
<time>2010-07-10T09:21:40Z</time>
<ele>38.20</ele>
<name><![CDATA[Point 235]]></name>
</rtept>
<rtept lat="25.043394" lon="121.616257">
<time>2010-07-10T09:21:45Z</time>
<ele>37.98</ele>
<name><![CDATA[Point 236]]></name>
</rtept>
<rtept lat="25.043245" lon="121.616364">
<time>2010-07-10T09:21:50Z</time>
<ele>33.95</ele>
<name><![CDATA[Point 237]]></name>
</rtept>
<rtept lat="25.043106" lon="121.616447">
<time>2010-07-10T09:21:55Z</time>
<ele>32.67</ele>
<name><![CDATA[Point 238]]></name>
</rtept>
<rtept lat="25.042992" lon="121.616508">
<time>2010-07-10T09:22:00Z</time>
<ele>32.13</ele>
<name><![CDATA[Point 239]]></name>
</rtept>
<rtept lat="25.042822" lon="121.616554">
<time>2010-07-10T09:22:05Z</time>
<ele>32.75</ele>
<name><![CDATA[Point 240]]></name>
</rtept>
<rtept lat="25.042679" lon="121.616638">
<time>2010-07-10T09:22:10Z</time>
<ele>33.22</ele>
<name><![CDATA[Point 241]]></name>
</rtept>
<rtept lat="25.042551" lon="121.616692">
<time>2010-07-10T09:22:15Z</time>
<ele>32.15</ele>
<name><![CDATA[Point 242]]></name>
</rtept>
<rtept lat="25.042479" lon="121.616737">
<time>2010-07-10T09:22:20Z</time>
<ele>34.02</ele>
<name><![CDATA[Point 243]]></name>
</rtept>
<rtept lat="25.042429" lon="121.616745">
<time>2010-07-10T09:22:25Z</time>
<ele>31.68</ele>
<name><![CDATA[Point 244]]></name>
</rtept>
<rtept lat="25.042421" lon="121.616753">
<time>2010-07-10T09:22:30Z</time>
<ele>31.54</ele>
<name><![CDATA[Point 245]]></name>
</rtept>
<rtept lat="25.042416" lon="121.616753">
<time>2010-07-10T09:22:35Z</time>
<ele>31.50</ele>
<name><![CDATA[Point 246]]></name>
</rtept>
<rtept lat="25.042410" lon="121.616753">
<time>2010-07-10T09:22:40Z</time>
<ele>31.52</ele>
<name><![CDATA[Point 247]]></name>
</rtept>
<rtept lat="25.042408" lon="121.616753">
<time>2010-07-10T09:22:45Z</time>
<ele>31.55</ele>
<name><![CDATA[Point 248]]></name>
</rtept>
<rtept lat="25.042406" lon="121.616753">
<time>2010-07-10T09:22:50Z</time>
<ele>31.55</ele>
<name><![CDATA[Point 249]]></name>
</rtept>
<rtept lat="25.042406" lon="121.616753">
<time>2010-07-10T09:22:55Z</time>
<ele>31.54</ele>
<name><![CDATA[Point 250]]></name>
</rtept>
<rtept lat="25.042391" lon="121.616768">
<time>2010-07-10T09:23:00Z</time>
<ele>31.48</ele>
<name><![CDATA[Point 251]]></name>
</rtept>
<rtept lat="25.042355" lon="121.616905">
<time>2010-07-10T09:23:05Z</time>
<ele>30.55</ele>
<name><![CDATA[Point 252]]></name>
</rtept>
<rtept lat="25.042212" lon="121.617027">
<time>2010-07-10T09:23:10Z</time>
<ele>29.80</ele>
<name><![CDATA[Point 253]]></name>
</rtept>
<rtept lat="25.042095" lon="121.617149">
<time>2010-07-10T09:23:15Z</time>
<ele>29.23</ele>
<name><![CDATA[Point 254]]></name>
</rtept>
<rtept lat="25.042021" lon="121.617294">
<time>2010-07-10T09:23:20Z</time>
<ele>28.35</ele>
<name><![CDATA[Point 255]]></name>
</rtept>
<rtept lat="25.041950" lon="121.617455">
<time>2010-07-10T09:23:25Z</time>
<ele>27.40</ele>
<name><![CDATA[Point 256]]></name>
</rtept>
<rtept lat="25.041904" lon="121.617561">
<time>2010-07-10T09:23:30Z</time>
<ele>26.71</ele>
<name><![CDATA[Point 257]]></name>
</rtept>
<rtept lat="25.041832" lon="121.617645">
<time>2010-07-10T09:23:35Z</time>
<ele>25.56</ele>
<name><![CDATA[Point 258]]></name>
</rtept>
<rtept lat="25.041756" lon="121.617752">
<time>2010-07-10T09:23:40Z</time>
<ele>25.17</ele>
<name><![CDATA[Point 259]]></name>
</rtept>
<rtept lat="25.041727" lon="121.617836">
<time>2010-07-10T09:23:45Z</time>
<ele>24.74</ele>
<name><![CDATA[Point 260]]></name>
</rtept>
<rtept lat="25.041656" lon="121.617943">
<time>2010-07-10T09:23:50Z</time>
<ele>24.63</ele>
<name><![CDATA[Point 261]]></name>
</rtept>
<rtept lat="25.041592" lon="121.618042">
<time>2010-07-10T09:23:55Z</time>
<ele>24.19</ele>
<name><![CDATA[Point 262]]></name>
</rtept>
<rtept lat="25.041542" lon="121.618118">
<time>2010-07-10T09:24:00Z</time>
<ele>22.80</ele>
<name><![CDATA[Point 263]]></name>
</rtept>
<rtept lat="25.041487" lon="121.618179">
<time>2010-07-10T09:24:05Z</time>
<ele>22.22</ele>
<name><![CDATA[Point 264]]></name>
</rtept>
<rtept lat="25.041397" lon="121.618301">
<time>2010-07-10T09:24:10Z</time>
<ele>22.01</ele>
<name><![CDATA[Point 265]]></name>
</rtept>
<rtept lat="25.041365" lon="121.618370">
<time>2010-07-10T09:24:15Z</time>
<ele>20.78</ele>
<name><![CDATA[Point 266]]></name>
</rtept>
<rtept lat="25.041336" lon="121.618431">
<time>2010-07-10T09:24:20Z</time>
<ele>20.82</ele>
<name><![CDATA[Point 267]]></name>
</rtept>
<rtept lat="25.041265" lon="121.618523">
<time>2010-07-10T09:24:25Z</time>
<ele>21.02</ele>
<name><![CDATA[Point 268]]></name>
</rtept>
<rtept lat="25.041162" lon="121.618660">
<time>2010-07-10T09:24:30Z</time>
<ele>21.19</ele>
<name><![CDATA[Point 269]]></name>
</rtept>
<rtept lat="25.041027" lon="121.618851">
<time>2010-07-10T09:24:35Z</time>
<ele>20.80</ele>
<name><![CDATA[Point 270]]></name>
</rtept>
<rtept lat="25.040920" lon="121.619003">
<time>2010-07-10T09:24:40Z</time>
<ele>20.69</ele>
<name><![CDATA[Point 271]]></name>
</rtept>
<rtept lat="25.040874" lon="121.619072">
<time>2010-07-10T09:24:45Z</time>
<ele>19.89</ele>
<name><![CDATA[Point 272]]></name>
</rtept>
<rtept lat="25.040766" lon="121.619286">
<time>2010-07-10T09:24:50Z</time>
<ele>19.45</ele>
<name><![CDATA[Point 273]]></name>
</rtept>
<rtept lat="25.040604" lon="121.619415">
<time>2010-07-10T09:24:55Z</time>
<ele>19.55</ele>
<name><![CDATA[Point 274]]></name>
</rtept>
<rtept lat="25.040409" lon="121.619476">
<time>2010-07-10T09:25:00Z</time>
<ele>26.50</ele>
<name><![CDATA[Point 275]]></name>
</rtept>
<rtept lat="25.040276" lon="121.619614">
<time>2010-07-10T09:25:05Z</time>
<ele>28.02</ele>
<name><![CDATA[Point 276]]></name>
</rtept>
<rtept lat="25.040157" lon="121.619789">
<time>2010-07-10T09:25:10Z</time>
<ele>27.65</ele>
<name><![CDATA[Point 277]]></name>
</rtept>
<rtept lat="25.040058" lon="121.619904">
<time>2010-07-10T09:25:15Z</time>
<ele>25.33</ele>
<name><![CDATA[Point 278]]></name>
</rtept>
<rtept lat="25.039930" lon="121.620056">
<time>2010-07-10T09:25:20Z</time>
<ele>22.35</ele>
<name><![CDATA[Point 279]]></name>
</rtept>
<rtept lat="25.039879" lon="121.620140">
<time>2010-07-10T09:25:25Z</time>
<ele>21.98</ele>
<name><![CDATA[Point 280]]></name>
</rtept>
<rtept lat="25.039837" lon="121.620216">
<time>2010-07-10T09:25:30Z</time>
<ele>18.97</ele>
<name><![CDATA[Point 281]]></name>
</rtept>
<rtept lat="25.039757" lon="121.620361">
<time>2010-07-10T09:25:35Z</time>
<ele>19.39</ele>
<name><![CDATA[Point 282]]></name>
</rtept>
<rtept lat="25.039713" lon="121.620468">
<time>2010-07-10T09:25:40Z</time>
<ele>19.92</ele>
<name><![CDATA[Point 283]]></name>
</rtept>
<rtept lat="25.039703" lon="121.620567">
<time>2010-07-10T09:25:45Z</time>
<ele>20.35</ele>
<name><![CDATA[Point 284]]></name>
</rtept>
<rtept lat="25.039667" lon="121.620674">
<time>2010-07-10T09:25:50Z</time>
<ele>20.65</ele>
<name><![CDATA[Point 285]]></name>
</rtept>
<rtept lat="25.039631" lon="121.620796">
<time>2010-07-10T09:25:55Z</time>
<ele>23.36</ele>
<name><![CDATA[Point 286]]></name>
</rtept>
<rtept lat="25.039555" lon="121.621033">
<time>2010-07-10T09:26:00Z</time>
<ele>20.05</ele>
<name><![CDATA[Point 287]]></name>
</rtept>
<rtept lat="25.039490" lon="121.621094">
<time>2010-07-10T09:26:05Z</time>
<ele>19.97</ele>
<name><![CDATA[Point 288]]></name>
</rtept>
<rtept lat="25.039408" lon="121.621216">
<time>2010-07-10T09:26:10Z</time>
<ele>20.95</ele>
<name><![CDATA[Point 289]]></name>
</rtept>
<rtept lat="25.039249" lon="121.621330">
<time>2010-07-10T09:26:15Z</time>
<ele>25.52</ele>
<name><![CDATA[Point 290]]></name>
</rtept>
<rtept lat="25.039211" lon="121.621346">
<time>2010-07-10T09:26:20Z</time>
<ele>27.00</ele>
<name><![CDATA[Point 291]]></name>
</rtept>
<rtept lat="25.039202" lon="121.621346">
<time>2010-07-10T09:26:25Z</time>
<ele>27.06</ele>
<name><![CDATA[Point 292]]></name>
</rtept>
<rtept lat="25.039185" lon="121.621361">
<time>2010-07-10T09:26:30Z</time>
<ele>27.15</ele>
<name><![CDATA[Point 293]]></name>
</rtept>
<rtept lat="25.039112" lon="121.621422">
<time>2010-07-10T09:26:35Z</time>
<ele>27.89</ele>
<name><![CDATA[Point 294]]></name>
</rtept>
<rtept lat="25.039085" lon="121.621498">
<time>2010-07-10T09:26:40Z</time>
<ele>27.94</ele>
<name><![CDATA[Point 295]]></name>
</rtept>
<rtept lat="25.038908" lon="121.621658">
<time>2010-07-10T09:26:45Z</time>
<ele>29.94</ele>
<name><![CDATA[Point 296]]></name>
</rtept>
<rtept lat="25.038797" lon="121.621902">
<time>2010-07-10T09:26:50Z</time>
<ele>28.93</ele>
<name><![CDATA[Point 297]]></name>
</rtept>
<rtept lat="25.038757" lon="121.622017">
<time>2010-07-10T09:26:55Z</time>
<ele>27.30</ele>
<name><![CDATA[Point 298]]></name>
</rtept>
<rtept lat="25.038651" lon="121.622131">
<time>2010-07-10T09:27:00Z</time>
<ele>25.63</ele>
<name><![CDATA[Point 299]]></name>
</rtept>
<rtept lat="25.038570" lon="121.622208">
<time>2010-07-10T09:27:05Z</time>
<ele>24.82</ele>
<name><![CDATA[Point 300]]></name>
</rtept>
<rtept lat="25.038496" lon="121.622231">
<time>2010-07-10T09:27:10Z</time>
<ele>24.74</ele>
<name><![CDATA[Point 301]]></name>
</rtept>
<rtept lat="25.038492" lon="121.622276">
<time>2010-07-10T09:27:15Z</time>
<ele>25.47</ele>
<name><![CDATA[Point 302]]></name>
</rtept>
<rtept lat="25.038549" lon="121.622292">
<time>2010-07-10T09:27:20Z</time>
<ele>29.98</ele>
<name><![CDATA[Point 303]]></name>
</rtept>
<rtept lat="25.038664" lon="121.622200">
<time>2010-07-10T09:27:25Z</time>
<ele>29.07</ele>
<name><![CDATA[Point 304]]></name>
</rtept>
</rte>
</gpx>
