<?xml version="1.0"?>
<gpx
version="1.0"
creator="Holux Utility"
xmlns:xsi="http://www.w3.org/2001/XMLSchema-instance"
xmlns="http://www.topografix.com/GPX/1/0"
xsi:schemaLocation="http://www.topografix.com/GPX/1/0 http://www.topografix.com/GPX/1/0/gpx.xsd">
<wpt lat="24.703369" lon="121.050529">
<time>2010-07-03T02:39:51Z</time>
<ele>95.67</ele>
<name><![CDATA[Point 0]]></name>
</wpt>
<wpt lat="24.703487" lon="121.050407">
<time>2010-07-03T02:39:57Z</time>
<ele>127.57</ele>
<name><![CDATA[Point 1]]></name>
</wpt>
<wpt lat="24.703426" lon="121.050446">
<time>2010-07-03T02:40:03Z</time>
<ele>122.75</ele>
<name><![CDATA[Point 2]]></name>
</wpt>
<wpt lat="24.703451" lon="121.050430">
<time>2010-07-03T02:40:08Z</time>
<ele>127.20</ele>
<name><![CDATA[Point 3]]></name>
</wpt>
<wpt lat="24.703444" lon="121.050407">
<time>2010-07-03T02:40:13Z</time>
<ele>133.98</ele>
<name><![CDATA[Point 4]]></name>
</wpt>
<wpt lat="24.703455" lon="121.050423">
<time>2010-07-03T02:40:18Z</time>
<ele>134.62</ele>
<name><![CDATA[Point 5]]></name>
</wpt>
<wpt lat="24.703442" lon="121.050476">
<time>2010-07-03T02:40:23Z</time>
<ele>134.83</ele>
<name><![CDATA[Point 6]]></name>
</wpt>
<wpt lat="24.703453" lon="121.050491">
<time>2010-07-03T02:40:28Z</time>
<ele>135.78</ele>
<name><![CDATA[Point 7]]></name>
</wpt>
<wpt lat="24.703459" lon="121.050507">
<time>2010-07-03T02:40:33Z</time>
<ele>135.92</ele>
<name><![CDATA[Point 8]]></name>
</wpt>
<wpt lat="24.703470" lon="121.050522">
<time>2010-07-03T02:40:38Z</time>
<ele>136.07</ele>
<name><![CDATA[Point 9]]></name>
</wpt>
<wpt lat="24.703493" lon="121.050560">
<time>2010-07-03T02:40:43Z</time>
<ele>135.71</ele>
<name><![CDATA[Point 10]]></name>
</wpt>
<wpt lat="24.703485" lon="121.050568">
<time>2010-07-03T02:40:48Z</time>
<ele>135.41</ele>
<name><![CDATA[Point 11]]></name>
</wpt>
<wpt lat="24.703489" lon="121.050568">
<time>2010-07-03T02:40:53Z</time>
<ele>135.43</ele>
<name><![CDATA[Point 12]]></name>
</wpt>
<wpt lat="24.703484" lon="121.050560">
<time>2010-07-03T02:40:58Z</time>
<ele>135.52</ele>
<name><![CDATA[Point 13]]></name>
</wpt>
<wpt lat="24.703480" lon="121.050560">
<time>2010-07-03T02:41:03Z</time>
<ele>135.54</ele>
<name><![CDATA[Point 14]]></name>
</wpt>
<wpt lat="24.703482" lon="121.050552">
<time>2010-07-03T02:41:08Z</time>
<ele>135.54</ele>
<name><![CDATA[Point 15]]></name>
</wpt>
<wpt lat="24.703497" lon="121.050545">
<time>2010-07-03T02:41:13Z</time>
<ele>135.43</ele>
<name><![CDATA[Point 16]]></name>
</wpt>
<wpt lat="24.703541" lon="121.050629">
<time>2010-07-03T02:41:18Z</time>
<ele>135.05</ele>
<name><![CDATA[Point 17]]></name>
</wpt>
<wpt lat="24.703484" lon="121.050888">
<time>2010-07-03T02:41:23Z</time>
<ele>138.02</ele>
<name><![CDATA[Point 18]]></name>
</wpt>
<wpt lat="24.703430" lon="121.051025">
<time>2010-07-03T02:41:28Z</time>
<ele>140.42</ele>
<name><![CDATA[Point 19]]></name>
</wpt>
<wpt lat="24.703468" lon="121.051041">
<time>2010-07-03T02:41:33Z</time>
<ele>142.95</ele>
<name><![CDATA[Point 20]]></name>
</wpt>
<wpt lat="24.703485" lon="121.051033">
<time>2010-07-03T02:41:38Z</time>
<ele>144.03</ele>
<name><![CDATA[Point 21]]></name>
</wpt>
<wpt lat="24.703480" lon="121.051041">
<time>2010-07-03T02:41:43Z</time>
<ele>144.80</ele>
<name><![CDATA[Point 22]]></name>
</wpt>
<wpt lat="24.703485" lon="121.051033">
<time>2010-07-03T02:41:48Z</time>
<ele>145.27</ele>
<name><![CDATA[Point 23]]></name>
</wpt>
<wpt lat="24.703489" lon="121.051041">
<time>2010-07-03T02:41:53Z</time>
<ele>145.70</ele>
<name><![CDATA[Point 24]]></name>
</wpt>
<wpt lat="24.703495" lon="121.051064">
<time>2010-07-03T02:41:58Z</time>
<ele>145.97</ele>
<name><![CDATA[Point 25]]></name>
</wpt>
<wpt lat="24.703485" lon="121.051155">
<time>2010-07-03T02:42:03Z</time>
<ele>147.09</ele>
<name><![CDATA[Point 26]]></name>
</wpt>
<wpt lat="24.703417" lon="121.051376">
<time>2010-07-03T02:42:08Z</time>
<ele>148.08</ele>
<name><![CDATA[Point 27]]></name>
</wpt>
<wpt lat="24.703312" lon="121.051628">
<time>2010-07-03T02:42:13Z</time>
<ele>149.27</ele>
<name><![CDATA[Point 28]]></name>
</wpt>
<wpt lat="24.703196" lon="121.051796">
<time>2010-07-03T02:42:18Z</time>
<ele>150.77</ele>
<name><![CDATA[Point 29]]></name>
</wpt>
<wpt lat="24.702976" lon="121.051964">
<time>2010-07-03T02:42:23Z</time>
<ele>154.07</ele>
<name><![CDATA[Point 30]]></name>
</wpt>
<wpt lat="24.702755" lon="121.052109">
<time>2010-07-03T02:42:28Z</time>
<ele>157.41</ele>
<name><![CDATA[Point 31]]></name>
</wpt>
<wpt lat="24.702480" lon="121.052116">
<time>2010-07-03T02:42:33Z</time>
<ele>158.44</ele>
<name><![CDATA[Point 32]]></name>
</wpt>
<wpt lat="24.702166" lon="121.052155">
<time>2010-07-03T02:42:38Z</time>
<ele>159.29</ele>
<name><![CDATA[Point 33]]></name>
</wpt>
<wpt lat="24.701836" lon="121.052200">
<time>2010-07-03T02:42:43Z</time>
<ele>159.97</ele>
<name><![CDATA[Point 34]]></name>
</wpt>
<wpt lat="24.701496" lon="121.052032">
<time>2010-07-03T02:42:48Z</time>
<ele>157.29</ele>
<name><![CDATA[Point 35]]></name>
</wpt>
<wpt lat="24.701113" lon="121.051682">
<time>2010-07-03T02:42:53Z</time>
<ele>154.40</ele>
<name><![CDATA[Point 36]]></name>
</wpt>
<wpt lat="24.700878" lon="121.051277">
<time>2010-07-03T02:42:58Z</time>
<ele>146.47</ele>
<name><![CDATA[Point 37]]></name>
</wpt>
<wpt lat="24.700985" lon="121.050774">
<time>2010-07-03T02:43:03Z</time>
<ele>142.83</ele>
<name><![CDATA[Point 38]]></name>
</wpt>
<wpt lat="24.701204" lon="121.050354">
<time>2010-07-03T02:43:08Z</time>
<ele>139.41</ele>
<name><![CDATA[Point 39]]></name>
</wpt>
<wpt lat="24.701189" lon="121.050095">
<time>2010-07-03T02:43:13Z</time>
<ele>137.39</ele>
<name><![CDATA[Point 40]]></name>
</wpt>
<wpt lat="24.701118" lon="121.049828">
<time>2010-07-03T02:43:18Z</time>
<ele>135.39</ele>
<name><![CDATA[Point 41]]></name>
</wpt>
<wpt lat="24.700964" lon="121.049530">
<time>2010-07-03T02:43:23Z</time>
<ele>130.50</ele>
<name><![CDATA[Point 42]]></name>
</wpt>
<wpt lat="24.700682" lon="121.049240">
<time>2010-07-03T02:43:28Z</time>
<ele>129.35</ele>
<name><![CDATA[Point 43]]></name>
</wpt>
<wpt lat="24.700367" lon="121.048981">
<time>2010-07-03T02:43:33Z</time>
<ele>128.61</ele>
<name><![CDATA[Point 44]]></name>
</wpt>
<wpt lat="24.700050" lon="121.048653">
<time>2010-07-03T02:43:38Z</time>
<ele>127.22</ele>
<name><![CDATA[Point 45]]></name>
</wpt>
<wpt lat="24.699739" lon="121.048325">
<time>2010-07-03T02:43:43Z</time>
<ele>126.13</ele>
<name><![CDATA[Point 46]]></name>
</wpt>
<wpt lat="24.699383" lon="121.048035">
<time>2010-07-03T02:43:48Z</time>
<ele>124.25</ele>
<name><![CDATA[Point 47]]></name>
</wpt>
<wpt lat="24.699100" lon="121.047729">
<time>2010-07-03T02:43:53Z</time>
<ele>127.93</ele>
<name><![CDATA[Point 48]]></name>
</wpt>
<wpt lat="24.698868" lon="121.047577">
<time>2010-07-03T02:43:58Z</time>
<ele>130.86</ele>
<name><![CDATA[Point 49]]></name>
</wpt>
<wpt lat="24.698656" lon="121.047516">
<time>2010-07-03T02:44:03Z</time>
<ele>132.74</ele>
<name><![CDATA[Point 50]]></name>
</wpt>
<wpt lat="24.698427" lon="121.047272">
<time>2010-07-03T02:44:08Z</time>
<ele>133.29</ele>
<name><![CDATA[Point 51]]></name>
</wpt>
<wpt lat="24.698168" lon="121.046875">
<time>2010-07-03T02:44:13Z</time>
<ele>133.91</ele>
<name><![CDATA[Point 52]]></name>
</wpt>
<wpt lat="24.697866" lon="121.046364">
<time>2010-07-03T02:44:18Z</time>
<ele>131.73</ele>
<name><![CDATA[Point 53]]></name>
</wpt>
<wpt lat="24.697683" lon="121.045967">
<time>2010-07-03T02:44:23Z</time>
<ele>130.15</ele>
<name><![CDATA[Point 54]]></name>
</wpt>
<wpt lat="24.697561" lon="121.045631">
<time>2010-07-03T02:44:28Z</time>
<ele>131.92</ele>
<name><![CDATA[Point 55]]></name>
</wpt>
<wpt lat="24.697617" lon="121.045288">
<time>2010-07-03T02:44:33Z</time>
<ele>134.76</ele>
<name><![CDATA[Point 56]]></name>
</wpt>
<wpt lat="24.697731" lon="121.044975">
<time>2010-07-03T02:44:38Z</time>
<ele>138.65</ele>
<name><![CDATA[Point 57]]></name>
</wpt>
<wpt lat="24.697783" lon="121.044579">
<time>2010-07-03T02:44:43Z</time>
<ele>143.57</ele>
<name><![CDATA[Point 58]]></name>
</wpt>
<wpt lat="24.697746" lon="121.044350">
<time>2010-07-03T02:44:48Z</time>
<ele>146.21</ele>
<name><![CDATA[Point 59]]></name>
</wpt>
<wpt lat="24.697756" lon="121.044113">
<time>2010-07-03T02:44:53Z</time>
<ele>147.43</ele>
<name><![CDATA[Point 60]]></name>
</wpt>
<wpt lat="24.697788" lon="121.043945">
<time>2010-07-03T02:44:58Z</time>
<ele>149.33</ele>
<name><![CDATA[Point 61]]></name>
</wpt>
<wpt lat="24.697775" lon="121.043839">
<time>2010-07-03T02:45:03Z</time>
<ele>150.26</ele>
<name><![CDATA[Point 62]]></name>
</wpt>
<wpt lat="24.697742" lon="121.043869">
<time>2010-07-03T02:45:08Z</time>
<ele>148.68</ele>
<name><![CDATA[Point 63]]></name>
</wpt>
<wpt lat="24.697662" lon="121.043953">
<time>2010-07-03T02:45:13Z</time>
<ele>147.44</ele>
<name><![CDATA[Point 64]]></name>
</wpt>
<wpt lat="24.697580" lon="121.044037">
<time>2010-07-03T02:45:18Z</time>
<ele>146.77</ele>
<name><![CDATA[Point 65]]></name>
</wpt>
<wpt lat="24.697519" lon="121.044090">
<time>2010-07-03T02:45:23Z</time>
<ele>144.35</ele>
<name><![CDATA[Point 66]]></name>
</wpt>
<wpt lat="24.697542" lon="121.044174">
<time>2010-07-03T02:45:28Z</time>
<ele>144.46</ele>
<name><![CDATA[Point 67]]></name>
</wpt>
<wpt lat="24.697598" lon="121.044128">
<time>2010-07-03T02:45:33Z</time>
<ele>144.07</ele>
<name><![CDATA[Point 68]]></name>
</wpt>
<wpt lat="24.697668" lon="121.044075">
<time>2010-07-03T02:45:38Z</time>
<ele>143.95</ele>
<name><![CDATA[Point 69]]></name>
</wpt>
<wpt lat="24.697735" lon="121.044006">
<time>2010-07-03T02:45:43Z</time>
<ele>143.23</ele>
<name><![CDATA[Point 70]]></name>
</wpt>
<wpt lat="24.697723" lon="121.043922">
<time>2010-07-03T02:45:48Z</time>
<ele>143.29</ele>
<name><![CDATA[Point 71]]></name>
</wpt>
<wpt lat="24.697725" lon="121.043861">
<time>2010-07-03T02:45:53Z</time>
<ele>142.80</ele>
<name><![CDATA[Point 72]]></name>
</wpt>
<wpt lat="24.697750" lon="121.043861">
<time>2010-07-03T02:45:58Z</time>
<ele>142.27</ele>
<name><![CDATA[Point 73]]></name>
</wpt>
<wpt lat="24.697741" lon="121.043877">
<time>2010-07-03T02:46:03Z</time>
<ele>142.33</ele>
<name><![CDATA[Point 74]]></name>
</wpt>
<wpt lat="24.697733" lon="121.043892">
<time>2010-07-03T02:46:08Z</time>
<ele>142.40</ele>
<name><![CDATA[Point 75]]></name>
</wpt>
<wpt lat="24.697739" lon="121.043892">
<time>2010-07-03T02:46:13Z</time>
<ele>142.42</ele>
<name><![CDATA[Point 76]]></name>
</wpt>
<rte>
<name>Route</name>
<rtept lat="24.703369" lon="121.050529">
<time>2010-07-03T02:39:51Z</time>
<ele>95.67</ele>
<name><![CDATA[Point 0]]></name>
</rtept>
<rtept lat="24.703487" lon="121.050407">
<time>2010-07-03T02:39:57Z</time>
<ele>127.57</ele>
<name><![CDATA[Point 1]]></name>
</rtept>
<rtept lat="24.703426" lon="121.050446">
<time>2010-07-03T02:40:03Z</time>
<ele>122.75</ele>
<name><![CDATA[Point 2]]></name>
</rtept>
<rtept lat="24.703451" lon="121.050430">
<time>2010-07-03T02:40:08Z</time>
<ele>127.20</ele>
<name><![CDATA[Point 3]]></name>
</rtept>
<rtept lat="24.703444" lon="121.050407">
<time>2010-07-03T02:40:13Z</time>
<ele>133.98</ele>
<name><![CDATA[Point 4]]></name>
</rtept>
<rtept lat="24.703455" lon="121.050423">
<time>2010-07-03T02:40:18Z</time>
<ele>134.62</ele>
<name><![CDATA[Point 5]]></name>
</rtept>
<rtept lat="24.703442" lon="121.050476">
<time>2010-07-03T02:40:23Z</time>
<ele>134.83</ele>
<name><![CDATA[Point 6]]></name>
</rtept>
<rtept lat="24.703453" lon="121.050491">
<time>2010-07-03T02:40:28Z</time>
<ele>135.78</ele>
<name><![CDATA[Point 7]]></name>
</rtept>
<rtept lat="24.703459" lon="121.050507">
<time>2010-07-03T02:40:33Z</time>
<ele>135.92</ele>
<name><![CDATA[Point 8]]></name>
</rtept>
<rtept lat="24.703470" lon="121.050522">
<time>2010-07-03T02:40:38Z</time>
<ele>136.07</ele>
<name><![CDATA[Point 9]]></name>
</rtept>
<rtept lat="24.703493" lon="121.050560">
<time>2010-07-03T02:40:43Z</time>
<ele>135.71</ele>
<name><![CDATA[Point 10]]></name>
</rtept>
<rtept lat="24.703485" lon="121.050568">
<time>2010-07-03T02:40:48Z</time>
<ele>135.41</ele>
<name><![CDATA[Point 11]]></name>
</rtept>
<rtept lat="24.703489" lon="121.050568">
<time>2010-07-03T02:40:53Z</time>
<ele>135.43</ele>
<name><![CDATA[Point 12]]></name>
</rtept>
<rtept lat="24.703484" lon="121.050560">
<time>2010-07-03T02:40:58Z</time>
<ele>135.52</ele>
<name><![CDATA[Point 13]]></name>
</rtept>
<rtept lat="24.703480" lon="121.050560">
<time>2010-07-03T02:41:03Z</time>
<ele>135.54</ele>
<name><![CDATA[Point 14]]></name>
</rtept>
<rtept lat="24.703482" lon="121.050552">
<time>2010-07-03T02:41:08Z</time>
<ele>135.54</ele>
<name><![CDATA[Point 15]]></name>
</rtept>
<rtept lat="24.703497" lon="121.050545">
<time>2010-07-03T02:41:13Z</time>
<ele>135.43</ele>
<name><![CDATA[Point 16]]></name>
</rtept>
<rtept lat="24.703541" lon="121.050629">
<time>2010-07-03T02:41:18Z</time>
<ele>135.05</ele>
<name><![CDATA[Point 17]]></name>
</rtept>
<rtept lat="24.703484" lon="121.050888">
<time>2010-07-03T02:41:23Z</time>
<ele>138.02</ele>
<name><![CDATA[Point 18]]></name>
</rtept>
<rtept lat="24.703430" lon="121.051025">
<time>2010-07-03T02:41:28Z</time>
<ele>140.42</ele>
<name><![CDATA[Point 19]]></name>
</rtept>
<rtept lat="24.703468" lon="121.051041">
<time>2010-07-03T02:41:33Z</time>
<ele>142.95</ele>
<name><![CDATA[Point 20]]></name>
</rtept>
<rtept lat="24.703485" lon="121.051033">
<time>2010-07-03T02:41:38Z</time>
<ele>144.03</ele>
<name><![CDATA[Point 21]]></name>
</rtept>
<rtept lat="24.703480" lon="121.051041">
<time>2010-07-03T02:41:43Z</time>
<ele>144.80</ele>
<name><![CDATA[Point 22]]></name>
</rtept>
<rtept lat="24.703485" lon="121.051033">
<time>2010-07-03T02:41:48Z</time>
<ele>145.27</ele>
<name><![CDATA[Point 23]]></name>
</rtept>
<rtept lat="24.703489" lon="121.051041">
<time>2010-07-03T02:41:53Z</time>
<ele>145.70</ele>
<name><![CDATA[Point 24]]></name>
</rtept>
<rtept lat="24.703495" lon="121.051064">
<time>2010-07-03T02:41:58Z</time>
<ele>145.97</ele>
<name><![CDATA[Point 25]]></name>
</rtept>
<rtept lat="24.703485" lon="121.051155">
<time>2010-07-03T02:42:03Z</time>
<ele>147.09</ele>
<name><![CDATA[Point 26]]></name>
</rtept>
<rtept lat="24.703417" lon="121.051376">
<time>2010-07-03T02:42:08Z</time>
<ele>148.08</ele>
<name><![CDATA[Point 27]]></name>
</rtept>
<rtept lat="24.703312" lon="121.051628">
<time>2010-07-03T02:42:13Z</time>
<ele>149.27</ele>
<name><![CDATA[Point 28]]></name>
</rtept>
<rtept lat="24.703196" lon="121.051796">
<time>2010-07-03T02:42:18Z</time>
<ele>150.77</ele>
<name><![CDATA[Point 29]]></name>
</rtept>
<rtept lat="24.702976" lon="121.051964">
<time>2010-07-03T02:42:23Z</time>
<ele>154.07</ele>
<name><![CDATA[Point 30]]></name>
</rtept>
<rtept lat="24.702755" lon="121.052109">
<time>2010-07-03T02:42:28Z</time>
<ele>157.41</ele>
<name><![CDATA[Point 31]]></name>
</rtept>
<rtept lat="24.702480" lon="121.052116">
<time>2010-07-03T02:42:33Z</time>
<ele>158.44</ele>
<name><![CDATA[Point 32]]></name>
</rtept>
<rtept lat="24.702166" lon="121.052155">
<time>2010-07-03T02:42:38Z</time>
<ele>159.29</ele>
<name><![CDATA[Point 33]]></name>
</rtept>
<rtept lat="24.701836" lon="121.052200">
<time>2010-07-03T02:42:43Z</time>
<ele>159.97</ele>
<name><![CDATA[Point 34]]></name>
</rtept>
<rtept lat="24.701496" lon="121.052032">
<time>2010-07-03T02:42:48Z</time>
<ele>157.29</ele>
<name><![CDATA[Point 35]]></name>
</rtept>
<rtept lat="24.701113" lon="121.051682">
<time>2010-07-03T02:42:53Z</time>
<ele>154.40</ele>
<name><![CDATA[Point 36]]></name>
</rtept>
<rtept lat="24.700878" lon="121.051277">
<time>2010-07-03T02:42:58Z</time>
<ele>146.47</ele>
<name><![CDATA[Point 37]]></name>
</rtept>
<rtept lat="24.700985" lon="121.050774">
<time>2010-07-03T02:43:03Z</time>
<ele>142.83</ele>
<name><![CDATA[Point 38]]></name>
</rtept>
<rtept lat="24.701204" lon="121.050354">
<time>2010-07-03T02:43:08Z</time>
<ele>139.41</ele>
<name><![CDATA[Point 39]]></name>
</rtept>
<rtept lat="24.701189" lon="121.050095">
<time>2010-07-03T02:43:13Z</time>
<ele>137.39</ele>
<name><![CDATA[Point 40]]></name>
</rtept>
<rtept lat="24.701118" lon="121.049828">
<time>2010-07-03T02:43:18Z</time>
<ele>135.39</ele>
<name><![CDATA[Point 41]]></name>
</rtept>
<rtept lat="24.700964" lon="121.049530">
<time>2010-07-03T02:43:23Z</time>
<ele>130.50</ele>
<name><![CDATA[Point 42]]></name>
</rtept>
<rtept lat="24.700682" lon="121.049240">
<time>2010-07-03T02:43:28Z</time>
<ele>129.35</ele>
<name><![CDATA[Point 43]]></name>
</rtept>
<rtept lat="24.700367" lon="121.048981">
<time>2010-07-03T02:43:33Z</time>
<ele>128.61</ele>
<name><![CDATA[Point 44]]></name>
</rtept>
<rtept lat="24.700050" lon="121.048653">
<time>2010-07-03T02:43:38Z</time>
<ele>127.22</ele>
<name><![CDATA[Point 45]]></name>
</rtept>
<rtept lat="24.699739" lon="121.048325">
<time>2010-07-03T02:43:43Z</time>
<ele>126.13</ele>
<name><![CDATA[Point 46]]></name>
</rtept>
<rtept lat="24.699383" lon="121.048035">
<time>2010-07-03T02:43:48Z</time>
<ele>124.25</ele>
<name><![CDATA[Point 47]]></name>
</rtept>
<rtept lat="24.699100" lon="121.047729">
<time>2010-07-03T02:43:53Z</time>
<ele>127.93</ele>
<name><![CDATA[Point 48]]></name>
</rtept>
<rtept lat="24.698868" lon="121.047577">
<time>2010-07-03T02:43:58Z</time>
<ele>130.86</ele>
<name><![CDATA[Point 49]]></name>
</rtept>
<rtept lat="24.698656" lon="121.047516">
<time>2010-07-03T02:44:03Z</time>
<ele>132.74</ele>
<name><![CDATA[Point 50]]></name>
</rtept>
<rtept lat="24.698427" lon="121.047272">
<time>2010-07-03T02:44:08Z</time>
<ele>133.29</ele>
<name><![CDATA[Point 51]]></name>
</rtept>
<rtept lat="24.698168" lon="121.046875">
<time>2010-07-03T02:44:13Z</time>
<ele>133.91</ele>
<name><![CDATA[Point 52]]></name>
</rtept>
<rtept lat="24.697866" lon="121.046364">
<time>2010-07-03T02:44:18Z</time>
<ele>131.73</ele>
<name><![CDATA[Point 53]]></name>
</rtept>
<rtept lat="24.697683" lon="121.045967">
<time>2010-07-03T02:44:23Z</time>
<ele>130.15</ele>
<name><![CDATA[Point 54]]></name>
</rtept>
<rtept lat="24.697561" lon="121.045631">
<time>2010-07-03T02:44:28Z</time>
<ele>131.92</ele>
<name><![CDATA[Point 55]]></name>
</rtept>
<rtept lat="24.697617" lon="121.045288">
<time>2010-07-03T02:44:33Z</time>
<ele>134.76</ele>
<name><![CDATA[Point 56]]></name>
</rtept>
<rtept lat="24.697731" lon="121.044975">
<time>2010-07-03T02:44:38Z</time>
<ele>138.65</ele>
<name><![CDATA[Point 57]]></name>
</rtept>
<rtept lat="24.697783" lon="121.044579">
<time>2010-07-03T02:44:43Z</time>
<ele>143.57</ele>
<name><![CDATA[Point 58]]></name>
</rtept>
<rtept lat="24.697746" lon="121.044350">
<time>2010-07-03T02:44:48Z</time>
<ele>146.21</ele>
<name><![CDATA[Point 59]]></name>
</rtept>
<rtept lat="24.697756" lon="121.044113">
<time>2010-07-03T02:44:53Z</time>
<ele>147.43</ele>
<name><![CDATA[Point 60]]></name>
</rtept>
<rtept lat="24.697788" lon="121.043945">
<time>2010-07-03T02:44:58Z</time>
<ele>149.33</ele>
<name><![CDATA[Point 61]]></name>
</rtept>
<rtept lat="24.697775" lon="121.043839">
<time>2010-07-03T02:45:03Z</time>
<ele>150.26</ele>
<name><![CDATA[Point 62]]></name>
</rtept>
<rtept lat="24.697742" lon="121.043869">
<time>2010-07-03T02:45:08Z</time>
<ele>148.68</ele>
<name><![CDATA[Point 63]]></name>
</rtept>
<rtept lat="24.697662" lon="121.043953">
<time>2010-07-03T02:45:13Z</time>
<ele>147.44</ele>
<name><![CDATA[Point 64]]></name>
</rtept>
<rtept lat="24.697580" lon="121.044037">
<time>2010-07-03T02:45:18Z</time>
<ele>146.77</ele>
<name><![CDATA[Point 65]]></name>
</rtept>
<rtept lat="24.697519" lon="121.044090">
<time>2010-07-03T02:45:23Z</time>
<ele>144.35</ele>
<name><![CDATA[Point 66]]></name>
</rtept>
<rtept lat="24.697542" lon="121.044174">
<time>2010-07-03T02:45:28Z</time>
<ele>144.46</ele>
<name><![CDATA[Point 67]]></name>
</rtept>
<rtept lat="24.697598" lon="121.044128">
<time>2010-07-03T02:45:33Z</time>
<ele>144.07</ele>
<name><![CDATA[Point 68]]></name>
</rtept>
<rtept lat="24.697668" lon="121.044075">
<time>2010-07-03T02:45:38Z</time>
<ele>143.95</ele>
<name><![CDATA[Point 69]]></name>
</rtept>
<rtept lat="24.697735" lon="121.044006">
<time>2010-07-03T02:45:43Z</time>
<ele>143.23</ele>
<name><![CDATA[Point 70]]></name>
</rtept>
<rtept lat="24.697723" lon="121.043922">
<time>2010-07-03T02:45:48Z</time>
<ele>143.29</ele>
<name><![CDATA[Point 71]]></name>
</rtept>
<rtept lat="24.697725" lon="121.043861">
<time>2010-07-03T02:45:53Z</time>
<ele>142.80</ele>
<name><![CDATA[Point 72]]></name>
</rtept>
<rtept lat="24.697750" lon="121.043861">
<time>2010-07-03T02:45:58Z</time>
<ele>142.27</ele>
<name><![CDATA[Point 73]]></name>
</rtept>
<rtept lat="24.697741" lon="121.043877">
<time>2010-07-03T02:46:03Z</time>
<ele>142.33</ele>
<name><![CDATA[Point 74]]></name>
</rtept>
<rtept lat="24.697733" lon="121.043892">
<time>2010-07-03T02:46:08Z</time>
<ele>142.40</ele>
<name><![CDATA[Point 75]]></name>
</rtept>
<rtept lat="24.697739" lon="121.043892">
<time>2010-07-03T02:46:13Z</time>
<ele>142.42</ele>
<name><![CDATA[Point 76]]></name>
</rtept>
</rte>
</gpx>
