<?xml version="1.0" encoding="UTF-8"?>
<gpx
  version="1.0"
  creator="GPSBabel - http://www.gpsbabel.org"
  xmlns:xsi="http://www.w3.org/2001/XMLSchema-instance"
  xmlns="http://www.topografix.com/GPX/1/0"
  xsi:schemaLocation="http://www.topografix.com/GPX/1/0 http://www.topografix.com/GPX/1/0/gpx.xsd">
<time>2010-07-12T03:43:52Z</time>
<bounds minlat="24.702120000" minlon="121.012787000" maxlat="24.804638000" maxlon="121.099976000"/>

<trk>
<trkseg>
<trkpt lat="24.793423000" lon="121.012787000">
  <ele>77.490000</ele>
  <time>2010-07-03T01:38:36Z</time>
  <name>Point 0</name>
  <cmt>Point 0</cmt>
  <desc>Point 0</desc>
</trkpt>
<trkpt lat="24.793478000" lon="121.012802000">
  <ele>83.280000</ele>
  <time>2010-07-03T01:38:41Z</time>
  <name>Point 1</name>
  <cmt>Point 1</cmt>
  <desc>Point 1</desc>
</trkpt>
<trkpt lat="24.793484000" lon="121.012817000">
  <ele>81.550000</ele>
  <time>2010-07-03T01:38:46Z</time>
  <name>Point 2</name>
  <cmt>Point 2</cmt>
  <desc>Point 2</desc>
</trkpt>
<trkpt lat="24.793482000" lon="121.012825000">
  <ele>87.250000</ele>
  <time>2010-07-03T01:38:51Z</time>
  <name>Point 3</name>
  <cmt>Point 3</cmt>
  <desc>Point 3</desc>
</trkpt>
<trkpt lat="24.793556000" lon="121.012871000">
  <ele>89.960000</ele>
  <time>2010-07-03T01:38:56Z</time>
  <name>Point 4</name>
  <cmt>Point 4</cmt>
  <desc>Point 4</desc>
</trkpt>
<trkpt lat="24.793667000" lon="121.012932000">
  <ele>91.450000</ele>
  <time>2010-07-03T01:39:01Z</time>
  <name>Point 5</name>
  <cmt>Point 5</cmt>
  <desc>Point 5</desc>
</trkpt>
<trkpt lat="24.793959000" lon="121.013023000">
  <ele>92.630000</ele>
  <time>2010-07-03T01:39:06Z</time>
  <name>Point 6</name>
  <cmt>Point 6</cmt>
  <desc>Point 6</desc>
</trkpt>
<trkpt lat="24.794340000" lon="121.013138000">
  <ele>93.450000</ele>
  <time>2010-07-03T01:39:11Z</time>
  <name>Point 7</name>
  <cmt>Point 7</cmt>
  <desc>Point 7</desc>
</trkpt>
<trkpt lat="24.794899000" lon="121.013214000">
  <ele>93.980000</ele>
  <time>2010-07-03T01:39:16Z</time>
  <name>Point 8</name>
  <cmt>Point 8</cmt>
  <desc>Point 8</desc>
</trkpt>
<trkpt lat="24.795628000" lon="121.013260000">
  <ele>93.910000</ele>
  <time>2010-07-03T01:39:21Z</time>
  <name>Point 9</name>
  <cmt>Point 9</cmt>
  <desc>Point 9</desc>
</trkpt>
<trkpt lat="24.796244000" lon="121.013283000">
  <ele>93.750000</ele>
  <time>2010-07-03T01:39:26Z</time>
  <name>Point 10</name>
  <cmt>Point 10</cmt>
  <desc>Point 10</desc>
</trkpt>
<trkpt lat="24.796913000" lon="121.013329000">
  <ele>94.250000</ele>
  <time>2010-07-03T01:39:31Z</time>
  <name>Point 11</name>
  <cmt>Point 11</cmt>
  <desc>Point 11</desc>
</trkpt>
<trkpt lat="24.797556000" lon="121.013382000">
  <ele>94.240000</ele>
  <time>2010-07-03T01:39:36Z</time>
  <name>Point 12</name>
  <cmt>Point 12</cmt>
  <desc>Point 12</desc>
</trkpt>
<trkpt lat="24.798225000" lon="121.013435000">
  <ele>94.300000</ele>
  <time>2010-07-03T01:39:41Z</time>
  <name>Point 13</name>
  <cmt>Point 13</cmt>
  <desc>Point 13</desc>
</trkpt>
<trkpt lat="24.798920000" lon="121.013496000">
  <ele>94.130000</ele>
  <time>2010-07-03T01:39:46Z</time>
  <name>Point 14</name>
  <cmt>Point 14</cmt>
  <desc>Point 14</desc>
</trkpt>
<trkpt lat="24.799637000" lon="121.013596000">
  <ele>93.530000</ele>
  <time>2010-07-03T01:39:51Z</time>
  <name>Point 15</name>
  <cmt>Point 15</cmt>
  <desc>Point 15</desc>
</trkpt>
<trkpt lat="24.800371000" lon="121.013687000">
  <ele>91.350000</ele>
  <time>2010-07-03T01:39:56Z</time>
  <name>Point 16</name>
  <cmt>Point 16</cmt>
  <desc>Point 16</desc>
</trkpt>
<trkpt lat="24.801039000" lon="121.013832000">
  <ele>89.290000</ele>
  <time>2010-07-03T01:40:01Z</time>
  <name>Point 17</name>
  <cmt>Point 17</cmt>
  <desc>Point 17</desc>
</trkpt>
<trkpt lat="24.801643000" lon="121.014069000">
  <ele>86.330000</ele>
  <time>2010-07-03T01:40:06Z</time>
  <name>Point 18</name>
  <cmt>Point 18</cmt>
  <desc>Point 18</desc>
</trkpt>
<trkpt lat="24.802118000" lon="121.014374000">
  <ele>79.360000</ele>
  <time>2010-07-03T01:40:11Z</time>
  <name>Point 19</name>
  <cmt>Point 19</cmt>
  <desc>Point 19</desc>
</trkpt>
<trkpt lat="24.802593000" lon="121.014740000">
  <ele>69.820000</ele>
  <time>2010-07-03T01:40:16Z</time>
  <name>Point 20</name>
  <cmt>Point 20</cmt>
  <desc>Point 20</desc>
</trkpt>
<trkpt lat="24.803150000" lon="121.015198000">
  <ele>70.510000</ele>
  <time>2010-07-03T01:40:21Z</time>
  <name>Point 21</name>
  <cmt>Point 21</cmt>
  <desc>Point 21</desc>
</trkpt>
<trkpt lat="24.803699000" lon="121.015739000">
  <ele>67.720000</ele>
  <time>2010-07-03T01:40:26Z</time>
  <name>Point 22</name>
  <cmt>Point 22</cmt>
  <desc>Point 22</desc>
</trkpt>
<trkpt lat="24.804209000" lon="121.016205000">
  <ele>67.650000</ele>
  <time>2010-07-03T01:40:31Z</time>
  <name>Point 23</name>
  <cmt>Point 23</cmt>
  <desc>Point 23</desc>
</trkpt>
<trkpt lat="24.804638000" lon="121.016701000">
  <ele>67.140000</ele>
  <time>2010-07-03T01:40:36Z</time>
  <name>Point 24</name>
  <cmt>Point 24</cmt>
  <desc>Point 24</desc>
</trkpt>
<trkpt lat="24.804537000" lon="121.017296000">
  <ele>67.680000</ele>
  <time>2010-07-03T01:40:41Z</time>
  <name>Point 25</name>
  <cmt>Point 25</cmt>
  <desc>Point 25</desc>
</trkpt>
<trkpt lat="24.804153000" lon="121.017876000">
  <ele>66.740000</ele>
  <time>2010-07-03T01:40:46Z</time>
  <name>Point 26</name>
  <cmt>Point 26</cmt>
  <desc>Point 26</desc>
</trkpt>
<trkpt lat="24.803738000" lon="121.018578000">
  <ele>65.640000</ele>
  <time>2010-07-03T01:40:51Z</time>
  <name>Point 27</name>
  <cmt>Point 27</cmt>
  <desc>Point 27</desc>
</trkpt>
<trkpt lat="24.803297000" lon="121.019287000">
  <ele>66.570000</ele>
  <time>2010-07-03T01:40:56Z</time>
  <name>Point 28</name>
  <cmt>Point 28</cmt>
  <desc>Point 28</desc>
</trkpt>
<trkpt lat="24.802816000" lon="121.020027000">
  <ele>66.830000</ele>
  <time>2010-07-03T01:41:01Z</time>
  <name>Point 29</name>
  <cmt>Point 29</cmt>
  <desc>Point 29</desc>
</trkpt>
<trkpt lat="24.802319000" lon="121.020813000">
  <ele>67.870000</ele>
  <time>2010-07-03T01:41:06Z</time>
  <name>Point 30</name>
  <cmt>Point 30</cmt>
  <desc>Point 30</desc>
</trkpt>
<trkpt lat="24.801792000" lon="121.021652000">
  <ele>68.790000</ele>
  <time>2010-07-03T01:41:11Z</time>
  <name>Point 31</name>
  <cmt>Point 31</cmt>
  <desc>Point 31</desc>
</trkpt>
<trkpt lat="24.801231000" lon="121.022537000">
  <ele>68.400000</ele>
  <time>2010-07-03T01:41:16Z</time>
  <name>Point 32</name>
  <cmt>Point 32</cmt>
  <desc>Point 32</desc>
</trkpt>
<trkpt lat="24.800646000" lon="121.023430000">
  <ele>68.880000</ele>
  <time>2010-07-03T01:41:21Z</time>
  <name>Point 33</name>
  <cmt>Point 33</cmt>
  <desc>Point 33</desc>
</trkpt>
<trkpt lat="24.800137000" lon="121.024368000">
  <ele>69.630000</ele>
  <time>2010-07-03T01:41:26Z</time>
  <name>Point 34</name>
  <cmt>Point 34</cmt>
  <desc>Point 34</desc>
</trkpt>
<trkpt lat="24.799641000" lon="121.025383000">
  <ele>70.080000</ele>
  <time>2010-07-03T01:41:31Z</time>
  <name>Point 35</name>
  <cmt>Point 35</cmt>
  <desc>Point 35</desc>
</trkpt>
<trkpt lat="24.799154000" lon="121.026451000">
  <ele>70.690000</ele>
  <time>2010-07-03T01:41:36Z</time>
  <name>Point 36</name>
  <cmt>Point 36</cmt>
  <desc>Point 36</desc>
</trkpt>
<trkpt lat="24.798641000" lon="121.027565000">
  <ele>71.330000</ele>
  <time>2010-07-03T01:41:41Z</time>
  <name>Point 37</name>
  <cmt>Point 37</cmt>
  <desc>Point 37</desc>
</trkpt>
<trkpt lat="24.798149000" lon="121.028656000">
  <ele>71.850000</ele>
  <time>2010-07-03T01:41:46Z</time>
  <name>Point 38</name>
  <cmt>Point 38</cmt>
  <desc>Point 38</desc>
</trkpt>
<trkpt lat="24.797665000" lon="121.029747000">
  <ele>72.600000</ele>
  <time>2010-07-03T01:41:51Z</time>
  <name>Point 39</name>
  <cmt>Point 39</cmt>
  <desc>Point 39</desc>
</trkpt>
<trkpt lat="24.797194000" lon="121.030807000">
  <ele>72.300000</ele>
  <time>2010-07-03T01:41:56Z</time>
  <name>Point 40</name>
  <cmt>Point 40</cmt>
  <desc>Point 40</desc>
</trkpt>
<trkpt lat="24.796721000" lon="121.031853000">
  <ele>72.200000</ele>
  <time>2010-07-03T01:42:01Z</time>
  <name>Point 41</name>
  <cmt>Point 41</cmt>
  <desc>Point 41</desc>
</trkpt>
<trkpt lat="24.796246000" lon="121.032928000">
  <ele>72.160000</ele>
  <time>2010-07-03T01:42:06Z</time>
  <name>Point 42</name>
  <cmt>Point 42</cmt>
  <desc>Point 42</desc>
</trkpt>
<trkpt lat="24.795771000" lon="121.034027000">
  <ele>72.780000</ele>
  <time>2010-07-03T01:42:11Z</time>
  <name>Point 43</name>
  <cmt>Point 43</cmt>
  <desc>Point 43</desc>
</trkpt>
<trkpt lat="24.795298000" lon="121.035133000">
  <ele>73.100000</ele>
  <time>2010-07-03T01:42:16Z</time>
  <name>Point 44</name>
  <cmt>Point 44</cmt>
  <desc>Point 44</desc>
</trkpt>
<trkpt lat="24.794811000" lon="121.036255000">
  <ele>73.500000</ele>
  <time>2010-07-03T01:42:21Z</time>
  <name>Point 45</name>
  <cmt>Point 45</cmt>
  <desc>Point 45</desc>
</trkpt>
<trkpt lat="24.794306000" lon="121.037384000">
  <ele>73.950000</ele>
  <time>2010-07-03T01:42:26Z</time>
  <name>Point 46</name>
  <cmt>Point 46</cmt>
  <desc>Point 46</desc>
</trkpt>
<trkpt lat="24.793827000" lon="121.038467000">
  <ele>74.620000</ele>
  <time>2010-07-03T01:42:31Z</time>
  <name>Point 47</name>
  <cmt>Point 47</cmt>
  <desc>Point 47</desc>
</trkpt>
<trkpt lat="24.793386000" lon="121.039490000">
  <ele>75.750000</ele>
  <time>2010-07-03T01:42:36Z</time>
  <name>Point 48</name>
  <cmt>Point 48</cmt>
  <desc>Point 48</desc>
</trkpt>
<trkpt lat="24.792915000" lon="121.040550000">
  <ele>76.510000</ele>
  <time>2010-07-03T01:42:41Z</time>
  <name>Point 49</name>
  <cmt>Point 49</cmt>
  <desc>Point 49</desc>
</trkpt>
<trkpt lat="24.792437000" lon="121.041641000">
  <ele>75.860000</ele>
  <time>2010-07-03T01:42:46Z</time>
  <name>Point 50</name>
  <cmt>Point 50</cmt>
  <desc>Point 50</desc>
</trkpt>
<trkpt lat="24.791965000" lon="121.042770000">
  <ele>77.140000</ele>
  <time>2010-07-03T01:42:51Z</time>
  <name>Point 51</name>
  <cmt>Point 51</cmt>
  <desc>Point 51</desc>
</trkpt>
<trkpt lat="24.791443000" lon="121.043907000">
  <ele>81.770000</ele>
  <time>2010-07-03T01:42:56Z</time>
  <name>Point 52</name>
  <cmt>Point 52</cmt>
  <desc>Point 52</desc>
</trkpt>
<trkpt lat="24.790941000" lon="121.045029000">
  <ele>84.840000</ele>
  <time>2010-07-03T01:43:01Z</time>
  <name>Point 53</name>
  <cmt>Point 53</cmt>
  <desc>Point 53</desc>
</trkpt>
<trkpt lat="24.790449000" lon="121.046135000">
  <ele>86.800000</ele>
  <time>2010-07-03T01:43:06Z</time>
  <name>Point 54</name>
  <cmt>Point 54</cmt>
  <desc>Point 54</desc>
</trkpt>
<trkpt lat="24.789957000" lon="121.047241000">
  <ele>86.800000</ele>
  <time>2010-07-03T01:43:11Z</time>
  <name>Point 55</name>
  <cmt>Point 55</cmt>
  <desc>Point 55</desc>
</trkpt>
<trkpt lat="24.789484000" lon="121.048302000">
  <ele>87.380000</ele>
  <time>2010-07-03T01:43:16Z</time>
  <name>Point 56</name>
  <cmt>Point 56</cmt>
  <desc>Point 56</desc>
</trkpt>
<trkpt lat="24.788975000" lon="121.049355000">
  <ele>88.420000</ele>
  <time>2010-07-03T01:43:21Z</time>
  <name>Point 57</name>
  <cmt>Point 57</cmt>
  <desc>Point 57</desc>
</trkpt>
<trkpt lat="24.788422000" lon="121.050369000">
  <ele>91.240000</ele>
  <time>2010-07-03T01:43:26Z</time>
  <name>Point 58</name>
  <cmt>Point 58</cmt>
  <desc>Point 58</desc>
</trkpt>
<trkpt lat="24.787798000" lon="121.051346000">
  <ele>91.570000</ele>
  <time>2010-07-03T01:43:31Z</time>
  <name>Point 59</name>
  <cmt>Point 59</cmt>
  <desc>Point 59</desc>
</trkpt>
<trkpt lat="24.787094000" lon="121.052307000">
  <ele>91.630000</ele>
  <time>2010-07-03T01:43:36Z</time>
  <name>Point 60</name>
  <cmt>Point 60</cmt>
  <desc>Point 60</desc>
</trkpt>
<trkpt lat="24.786350000" lon="121.053192000">
  <ele>89.000000</ele>
  <time>2010-07-03T01:43:41Z</time>
  <name>Point 61</name>
  <cmt>Point 61</cmt>
  <desc>Point 61</desc>
</trkpt>
<trkpt lat="24.785597000" lon="121.053963000">
  <ele>88.220000</ele>
  <time>2010-07-03T01:43:46Z</time>
  <name>Point 62</name>
  <cmt>Point 62</cmt>
  <desc>Point 62</desc>
</trkpt>
<trkpt lat="24.784782000" lon="121.054695000">
  <ele>87.290000</ele>
  <time>2010-07-03T01:43:51Z</time>
  <name>Point 63</name>
  <cmt>Point 63</cmt>
  <desc>Point 63</desc>
</trkpt>
<trkpt lat="24.783888000" lon="121.055405000">
  <ele>88.000000</ele>
  <time>2010-07-03T01:43:56Z</time>
  <name>Point 64</name>
  <cmt>Point 64</cmt>
  <desc>Point 64</desc>
</trkpt>
<trkpt lat="24.782978000" lon="121.056046000">
  <ele>90.820000</ele>
  <time>2010-07-03T01:44:01Z</time>
  <name>Point 65</name>
  <cmt>Point 65</cmt>
  <desc>Point 65</desc>
</trkpt>
<trkpt lat="24.782063000" lon="121.056602000">
  <ele>95.060000</ele>
  <time>2010-07-03T01:44:06Z</time>
  <name>Point 66</name>
  <cmt>Point 66</cmt>
  <desc>Point 66</desc>
</trkpt>
<trkpt lat="24.781109000" lon="121.057091000">
  <ele>97.640000</ele>
  <time>2010-07-03T01:44:11Z</time>
  <name>Point 67</name>
  <cmt>Point 67</cmt>
  <desc>Point 67</desc>
</trkpt>
<trkpt lat="24.780151000" lon="121.057510000">
  <ele>101.250000</ele>
  <time>2010-07-03T01:44:16Z</time>
  <name>Point 68</name>
  <cmt>Point 68</cmt>
  <desc>Point 68</desc>
</trkpt>
<trkpt lat="24.779169000" lon="121.057915000">
  <ele>105.860000</ele>
  <time>2010-07-03T01:44:21Z</time>
  <name>Point 69</name>
  <cmt>Point 69</cmt>
  <desc>Point 69</desc>
</trkpt>
<trkpt lat="24.778198000" lon="121.058327000">
  <ele>109.700000</ele>
  <time>2010-07-03T01:44:26Z</time>
  <name>Point 70</name>
  <cmt>Point 70</cmt>
  <desc>Point 70</desc>
</trkpt>
<trkpt lat="24.777260000" lon="121.058815000">
  <ele>112.110000</ele>
  <time>2010-07-03T01:44:31Z</time>
  <name>Point 71</name>
  <cmt>Point 71</cmt>
  <desc>Point 71</desc>
</trkpt>
<trkpt lat="24.776346000" lon="121.059410000">
  <ele>114.070000</ele>
  <time>2010-07-03T01:44:36Z</time>
  <name>Point 72</name>
  <cmt>Point 72</cmt>
  <desc>Point 72</desc>
</trkpt>
<trkpt lat="24.775423000" lon="121.060051000">
  <ele>113.790000</ele>
  <time>2010-07-03T01:44:41Z</time>
  <name>Point 73</name>
  <cmt>Point 73</cmt>
  <desc>Point 73</desc>
</trkpt>
<trkpt lat="24.774448000" lon="121.060623000">
  <ele>110.700000</ele>
  <time>2010-07-03T01:44:46Z</time>
  <name>Point 74</name>
  <cmt>Point 74</cmt>
  <desc>Point 74</desc>
</trkpt>
<trkpt lat="24.773407000" lon="121.061111000">
  <ele>109.080000</ele>
  <time>2010-07-03T01:44:51Z</time>
  <name>Point 75</name>
  <cmt>Point 75</cmt>
  <desc>Point 75</desc>
</trkpt>
<trkpt lat="24.772308000" lon="121.061569000">
  <ele>107.470000</ele>
  <time>2010-07-03T01:44:56Z</time>
  <name>Point 76</name>
  <cmt>Point 76</cmt>
  <desc>Point 76</desc>
</trkpt>
<trkpt lat="24.771219000" lon="121.062035000">
  <ele>107.430000</ele>
  <time>2010-07-03T01:45:01Z</time>
  <name>Point 77</name>
  <cmt>Point 77</cmt>
  <desc>Point 77</desc>
</trkpt>
<trkpt lat="24.770155000" lon="121.062492000">
  <ele>109.940000</ele>
  <time>2010-07-03T01:45:06Z</time>
  <name>Point 78</name>
  <cmt>Point 78</cmt>
  <desc>Point 78</desc>
</trkpt>
<trkpt lat="24.769114000" lon="121.062935000">
  <ele>114.200000</ele>
  <time>2010-07-03T01:45:11Z</time>
  <name>Point 79</name>
  <cmt>Point 79</cmt>
  <desc>Point 79</desc>
</trkpt>
<trkpt lat="24.768074000" lon="121.063385000">
  <ele>117.050000</ele>
  <time>2010-07-03T01:45:16Z</time>
  <name>Point 80</name>
  <cmt>Point 80</cmt>
  <desc>Point 80</desc>
</trkpt>
<trkpt lat="24.767040000" lon="121.063835000">
  <ele>120.550000</ele>
  <time>2010-07-03T01:45:21Z</time>
  <name>Point 81</name>
  <cmt>Point 81</cmt>
  <desc>Point 81</desc>
</trkpt>
<trkpt lat="24.766022000" lon="121.064278000">
  <ele>124.770000</ele>
  <time>2010-07-03T01:45:26Z</time>
  <name>Point 82</name>
  <cmt>Point 82</cmt>
  <desc>Point 82</desc>
</trkpt>
<trkpt lat="24.765034000" lon="121.064697000">
  <ele>128.940000</ele>
  <time>2010-07-03T01:45:31Z</time>
  <name>Point 83</name>
  <cmt>Point 83</cmt>
  <desc>Point 83</desc>
</trkpt>
<trkpt lat="24.764084000" lon="121.065125000">
  <ele>129.160000</ele>
  <time>2010-07-03T01:45:36Z</time>
  <name>Point 84</name>
  <cmt>Point 84</cmt>
  <desc>Point 84</desc>
</trkpt>
<trkpt lat="24.763205000" lon="121.065704000">
  <ele>129.870000</ele>
  <time>2010-07-03T01:45:41Z</time>
  <name>Point 85</name>
  <cmt>Point 85</cmt>
  <desc>Point 85</desc>
</trkpt>
<trkpt lat="24.762390000" lon="121.066574000">
  <ele>128.650000</ele>
  <time>2010-07-03T01:45:46Z</time>
  <name>Point 86</name>
  <cmt>Point 86</cmt>
  <desc>Point 86</desc>
</trkpt>
<trkpt lat="24.761803000" lon="121.067596000">
  <ele>129.700000</ele>
  <time>2010-07-03T01:45:51Z</time>
  <name>Point 87</name>
  <cmt>Point 87</cmt>
  <desc>Point 87</desc>
</trkpt>
<trkpt lat="24.761337000" lon="121.068634000">
  <ele>132.120000</ele>
  <time>2010-07-03T01:45:56Z</time>
  <name>Point 88</name>
  <cmt>Point 88</cmt>
  <desc>Point 88</desc>
</trkpt>
<trkpt lat="24.760904000" lon="121.069580000">
  <ele>133.820000</ele>
  <time>2010-07-03T01:46:01Z</time>
  <name>Point 89</name>
  <cmt>Point 89</cmt>
  <desc>Point 89</desc>
</trkpt>
<trkpt lat="24.760384000" lon="121.070511000">
  <ele>132.280000</ele>
  <time>2010-07-03T01:46:06Z</time>
  <name>Point 90</name>
  <cmt>Point 90</cmt>
  <desc>Point 90</desc>
</trkpt>
<trkpt lat="24.759499000" lon="121.071548000">
  <ele>127.620000</ele>
  <time>2010-07-03T01:46:11Z</time>
  <name>Point 91</name>
  <cmt>Point 91</cmt>
  <desc>Point 91</desc>
</trkpt>
<trkpt lat="24.758635000" lon="121.072212000">
  <ele>124.560000</ele>
  <time>2010-07-03T01:46:16Z</time>
  <name>Point 92</name>
  <cmt>Point 92</cmt>
  <desc>Point 92</desc>
</trkpt>
<trkpt lat="24.757679000" lon="121.072762000">
  <ele>123.200000</ele>
  <time>2010-07-03T01:46:21Z</time>
  <name>Point 93</name>
  <cmt>Point 93</cmt>
  <desc>Point 93</desc>
</trkpt>
<trkpt lat="24.756794000" lon="121.073349000">
  <ele>120.270000</ele>
  <time>2010-07-03T01:46:26Z</time>
  <name>Point 94</name>
  <cmt>Point 94</cmt>
  <desc>Point 94</desc>
</trkpt>
<trkpt lat="24.756124000" lon="121.074142000">
  <ele>121.070000</ele>
  <time>2010-07-03T01:46:31Z</time>
  <name>Point 95</name>
  <cmt>Point 95</cmt>
  <desc>Point 95</desc>
</trkpt>
<trkpt lat="24.755644000" lon="121.075081000">
  <ele>122.740000</ele>
  <time>2010-07-03T01:46:36Z</time>
  <name>Point 96</name>
  <cmt>Point 96</cmt>
  <desc>Point 96</desc>
</trkpt>
<trkpt lat="24.755222000" lon="121.076050000">
  <ele>125.200000</ele>
  <time>2010-07-03T01:46:41Z</time>
  <name>Point 97</name>
  <cmt>Point 97</cmt>
  <desc>Point 97</desc>
</trkpt>
<trkpt lat="24.754631000" lon="121.076843000">
  <ele>129.390000</ele>
  <time>2010-07-03T01:46:46Z</time>
  <name>Point 98</name>
  <cmt>Point 98</cmt>
  <desc>Point 98</desc>
</trkpt>
<trkpt lat="24.753868000" lon="121.077332000">
  <ele>132.270000</ele>
  <time>2010-07-03T01:46:51Z</time>
  <name>Point 99</name>
  <cmt>Point 99</cmt>
  <desc>Point 99</desc>
</trkpt>
<trkpt lat="24.753036000" lon="121.077576000">
  <ele>135.220000</ele>
  <time>2010-07-03T01:46:56Z</time>
  <name>Point 100</name>
  <cmt>Point 100</cmt>
  <desc>Point 100</desc>
</trkpt>
<trkpt lat="24.752169000" lon="121.077843000">
  <ele>135.810000</ele>
  <time>2010-07-03T01:47:01Z</time>
  <name>Point 101</name>
  <cmt>Point 101</cmt>
  <desc>Point 101</desc>
</trkpt>
<trkpt lat="24.751360000" lon="121.078346000">
  <ele>131.730000</ele>
  <time>2010-07-03T01:47:06Z</time>
  <name>Point 102</name>
  <cmt>Point 102</cmt>
  <desc>Point 102</desc>
</trkpt>
<trkpt lat="24.750731000" lon="121.079056000">
  <ele>128.850000</ele>
  <time>2010-07-03T01:47:11Z</time>
  <name>Point 103</name>
  <cmt>Point 103</cmt>
  <desc>Point 103</desc>
</trkpt>
<trkpt lat="24.750185000" lon="121.079842000">
  <ele>126.100000</ele>
  <time>2010-07-03T01:47:16Z</time>
  <name>Point 104</name>
  <cmt>Point 104</cmt>
  <desc>Point 104</desc>
</trkpt>
<trkpt lat="24.749687000" lon="121.080551000">
  <ele>123.660000</ele>
  <time>2010-07-03T01:47:21Z</time>
  <name>Point 105</name>
  <cmt>Point 105</cmt>
  <desc>Point 105</desc>
</trkpt>
<trkpt lat="24.749237000" lon="121.081192000">
  <ele>123.350000</ele>
  <time>2010-07-03T01:47:26Z</time>
  <name>Point 106</name>
  <cmt>Point 106</cmt>
  <desc>Point 106</desc>
</trkpt>
<trkpt lat="24.748865000" lon="121.081673000">
  <ele>123.970000</ele>
  <time>2010-07-03T01:47:31Z</time>
  <name>Point 107</name>
  <cmt>Point 107</cmt>
  <desc>Point 107</desc>
</trkpt>
<trkpt lat="24.748709000" lon="121.081879000">
  <ele>124.430000</ele>
  <time>2010-07-03T01:47:36Z</time>
  <name>Point 108</name>
  <cmt>Point 108</cmt>
  <desc>Point 108</desc>
</trkpt>
<trkpt lat="24.748697000" lon="121.081909000">
  <ele>125.920000</ele>
  <time>2010-07-03T01:47:41Z</time>
  <name>Point 109</name>
  <cmt>Point 109</cmt>
  <desc>Point 109</desc>
</trkpt>
<trkpt lat="24.748697000" lon="121.081909000">
  <ele>125.980000</ele>
  <time>2010-07-03T01:47:46Z</time>
  <name>Point 110</name>
  <cmt>Point 110</cmt>
  <desc>Point 110</desc>
</trkpt>
<trkpt lat="24.748699000" lon="121.081909000">
  <ele>125.990000</ele>
  <time>2010-07-03T01:47:51Z</time>
  <name>Point 111</name>
  <cmt>Point 111</cmt>
  <desc>Point 111</desc>
</trkpt>
<trkpt lat="24.748695000" lon="121.081917000">
  <ele>126.020000</ele>
  <time>2010-07-03T01:47:56Z</time>
  <name>Point 112</name>
  <cmt>Point 112</cmt>
  <desc>Point 112</desc>
</trkpt>
<trkpt lat="24.748695000" lon="121.081917000">
  <ele>126.030000</ele>
  <time>2010-07-03T01:48:01Z</time>
  <name>Point 113</name>
  <cmt>Point 113</cmt>
  <desc>Point 113</desc>
</trkpt>
<trkpt lat="24.748659000" lon="121.081932000">
  <ele>126.440000</ele>
  <time>2010-07-03T01:48:06Z</time>
  <name>Point 114</name>
  <cmt>Point 114</cmt>
  <desc>Point 114</desc>
</trkpt>
<trkpt lat="24.748362000" lon="121.082161000">
  <ele>127.850000</ele>
  <time>2010-07-03T01:48:11Z</time>
  <name>Point 115</name>
  <cmt>Point 115</cmt>
  <desc>Point 115</desc>
</trkpt>
<trkpt lat="24.748039000" lon="121.082748000">
  <ele>127.980000</ele>
  <time>2010-07-03T01:48:16Z</time>
  <name>Point 116</name>
  <cmt>Point 116</cmt>
  <desc>Point 116</desc>
</trkpt>
<trkpt lat="24.747616000" lon="121.083344000">
  <ele>127.450000</ele>
  <time>2010-07-03T01:48:21Z</time>
  <name>Point 117</name>
  <cmt>Point 117</cmt>
  <desc>Point 117</desc>
</trkpt>
<trkpt lat="24.747175000" lon="121.084015000">
  <ele>129.290000</ele>
  <time>2010-07-03T01:48:26Z</time>
  <name>Point 118</name>
  <cmt>Point 118</cmt>
  <desc>Point 118</desc>
</trkpt>
<trkpt lat="24.746691000" lon="121.084641000">
  <ele>128.560000</ele>
  <time>2010-07-03T01:48:31Z</time>
  <name>Point 119</name>
  <cmt>Point 119</cmt>
  <desc>Point 119</desc>
</trkpt>
<trkpt lat="24.746218000" lon="121.085258000">
  <ele>127.140000</ele>
  <time>2010-07-03T01:48:36Z</time>
  <name>Point 120</name>
  <cmt>Point 120</cmt>
  <desc>Point 120</desc>
</trkpt>
<trkpt lat="24.745798000" lon="121.085793000">
  <ele>129.840000</ele>
  <time>2010-07-03T01:48:41Z</time>
  <name>Point 121</name>
  <cmt>Point 121</cmt>
  <desc>Point 121</desc>
</trkpt>
<trkpt lat="24.745394000" lon="121.086273000">
  <ele>145.480000</ele>
  <time>2010-07-03T01:48:46Z</time>
  <name>Point 122</name>
  <cmt>Point 122</cmt>
  <desc>Point 122</desc>
</trkpt>
<trkpt lat="24.745087000" lon="121.086769000">
  <ele>148.880000</ele>
  <time>2010-07-03T01:48:51Z</time>
  <name>Point 123</name>
  <cmt>Point 123</cmt>
  <desc>Point 123</desc>
</trkpt>
<trkpt lat="24.744749000" lon="121.087265000">
  <ele>143.940000</ele>
  <time>2010-07-03T01:48:56Z</time>
  <name>Point 124</name>
  <cmt>Point 124</cmt>
  <desc>Point 124</desc>
</trkpt>
<trkpt lat="24.744463000" lon="121.087677000">
  <ele>136.250000</ele>
  <time>2010-07-03T01:49:01Z</time>
  <name>Point 125</name>
  <cmt>Point 125</cmt>
  <desc>Point 125</desc>
</trkpt>
<trkpt lat="24.744267000" lon="121.087936000">
  <ele>134.950000</ele>
  <time>2010-07-03T01:49:06Z</time>
  <name>Point 126</name>
  <cmt>Point 126</cmt>
  <desc>Point 126</desc>
</trkpt>
<trkpt lat="24.744194000" lon="121.088013000">
  <ele>133.920000</ele>
  <time>2010-07-03T01:49:11Z</time>
  <name>Point 127</name>
  <cmt>Point 127</cmt>
  <desc>Point 127</desc>
</trkpt>
<trkpt lat="24.744190000" lon="121.088020000">
  <ele>132.540000</ele>
  <time>2010-07-03T01:49:16Z</time>
  <name>Point 128</name>
  <cmt>Point 128</cmt>
  <desc>Point 128</desc>
</trkpt>
<trkpt lat="24.744190000" lon="121.088020000">
  <ele>132.510000</ele>
  <time>2010-07-03T01:49:21Z</time>
  <name>Point 129</name>
  <cmt>Point 129</cmt>
  <desc>Point 129</desc>
</trkpt>
<trkpt lat="24.744190000" lon="121.088020000">
  <ele>132.470000</ele>
  <time>2010-07-03T01:49:26Z</time>
  <name>Point 130</name>
  <cmt>Point 130</cmt>
  <desc>Point 130</desc>
</trkpt>
<trkpt lat="24.744190000" lon="121.088020000">
  <ele>132.410000</ele>
  <time>2010-07-03T01:49:31Z</time>
  <name>Point 131</name>
  <cmt>Point 131</cmt>
  <desc>Point 131</desc>
</trkpt>
<trkpt lat="24.744190000" lon="121.088020000">
  <ele>132.300000</ele>
  <time>2010-07-03T01:49:36Z</time>
  <name>Point 132</name>
  <cmt>Point 132</cmt>
  <desc>Point 132</desc>
</trkpt>
<trkpt lat="24.744190000" lon="121.088013000">
  <ele>130.680000</ele>
  <time>2010-07-03T01:49:41Z</time>
  <name>Point 133</name>
  <cmt>Point 133</cmt>
  <desc>Point 133</desc>
</trkpt>
<trkpt lat="24.744207000" lon="121.088020000">
  <ele>131.520000</ele>
  <time>2010-07-03T01:49:46Z</time>
  <name>Point 134</name>
  <cmt>Point 134</cmt>
  <desc>Point 134</desc>
</trkpt>
<trkpt lat="24.744184000" lon="121.088043000">
  <ele>130.860000</ele>
  <time>2010-07-03T01:49:51Z</time>
  <name>Point 135</name>
  <cmt>Point 135</cmt>
  <desc>Point 135</desc>
</trkpt>
<trkpt lat="24.744041000" lon="121.088211000">
  <ele>129.760000</ele>
  <time>2010-07-03T01:49:56Z</time>
  <name>Point 136</name>
  <cmt>Point 136</cmt>
  <desc>Point 136</desc>
</trkpt>
<trkpt lat="24.743752000" lon="121.088524000">
  <ele>129.970000</ele>
  <time>2010-07-03T01:50:01Z</time>
  <name>Point 137</name>
  <cmt>Point 137</cmt>
  <desc>Point 137</desc>
</trkpt>
<trkpt lat="24.743237000" lon="121.088974000">
  <ele>130.890000</ele>
  <time>2010-07-03T01:50:06Z</time>
  <name>Point 138</name>
  <cmt>Point 138</cmt>
  <desc>Point 138</desc>
</trkpt>
<trkpt lat="24.742678000" lon="121.089439000">
  <ele>132.880000</ele>
  <time>2010-07-03T01:50:11Z</time>
  <name>Point 139</name>
  <cmt>Point 139</cmt>
  <desc>Point 139</desc>
</trkpt>
<trkpt lat="24.742500000" lon="121.089638000">
  <ele>136.120000</ele>
  <time>2010-07-03T01:50:16Z</time>
  <name>Point 140</name>
  <cmt>Point 140</cmt>
  <desc>Point 140</desc>
</trkpt>
<trkpt lat="24.742506000" lon="121.089653000">
  <ele>136.170000</ele>
  <time>2010-07-03T01:50:21Z</time>
  <name>Point 141</name>
  <cmt>Point 141</cmt>
  <desc>Point 141</desc>
</trkpt>
<trkpt lat="24.742510000" lon="121.089645000">
  <ele>136.400000</ele>
  <time>2010-07-03T01:50:26Z</time>
  <name>Point 142</name>
  <cmt>Point 142</cmt>
  <desc>Point 142</desc>
</trkpt>
<trkpt lat="24.742512000" lon="121.089645000">
  <ele>136.580000</ele>
  <time>2010-07-03T01:50:31Z</time>
  <name>Point 143</name>
  <cmt>Point 143</cmt>
  <desc>Point 143</desc>
</trkpt>
<trkpt lat="24.742512000" lon="121.089645000">
  <ele>136.760000</ele>
  <time>2010-07-03T01:50:36Z</time>
  <name>Point 144</name>
  <cmt>Point 144</cmt>
  <desc>Point 144</desc>
</trkpt>
<trkpt lat="24.742514000" lon="121.089645000">
  <ele>136.980000</ele>
  <time>2010-07-03T01:50:41Z</time>
  <name>Point 145</name>
  <cmt>Point 145</cmt>
  <desc>Point 145</desc>
</trkpt>
<trkpt lat="24.742514000" lon="121.089645000">
  <ele>137.170000</ele>
  <time>2010-07-03T01:50:46Z</time>
  <name>Point 146</name>
  <cmt>Point 146</cmt>
  <desc>Point 146</desc>
</trkpt>
<trkpt lat="24.742516000" lon="121.089645000">
  <ele>137.360000</ele>
  <time>2010-07-03T01:50:51Z</time>
  <name>Point 147</name>
  <cmt>Point 147</cmt>
  <desc>Point 147</desc>
</trkpt>
<trkpt lat="24.742516000" lon="121.089653000">
  <ele>137.460000</ele>
  <time>2010-07-03T01:50:56Z</time>
  <name>Point 148</name>
  <cmt>Point 148</cmt>
  <desc>Point 148</desc>
</trkpt>
<trkpt lat="24.742428000" lon="121.089783000">
  <ele>139.000000</ele>
  <time>2010-07-03T01:51:01Z</time>
  <name>Point 149</name>
  <cmt>Point 149</cmt>
  <desc>Point 149</desc>
</trkpt>
<trkpt lat="24.742151000" lon="121.090027000">
  <ele>140.970000</ele>
  <time>2010-07-03T01:51:06Z</time>
  <name>Point 150</name>
  <cmt>Point 150</cmt>
  <desc>Point 150</desc>
</trkpt>
<trkpt lat="24.741884000" lon="121.090309000">
  <ele>140.730000</ele>
  <time>2010-07-03T01:51:11Z</time>
  <name>Point 151</name>
  <cmt>Point 151</cmt>
  <desc>Point 151</desc>
</trkpt>
<trkpt lat="24.741613000" lon="121.090607000">
  <ele>140.770000</ele>
  <time>2010-07-03T01:51:16Z</time>
  <name>Point 152</name>
  <cmt>Point 152</cmt>
  <desc>Point 152</desc>
</trkpt>
<trkpt lat="24.741255000" lon="121.090988000">
  <ele>143.270000</ele>
  <time>2010-07-03T01:51:21Z</time>
  <name>Point 153</name>
  <cmt>Point 153</cmt>
  <desc>Point 153</desc>
</trkpt>
<trkpt lat="24.740887000" lon="121.091377000">
  <ele>145.410000</ele>
  <time>2010-07-03T01:51:26Z</time>
  <name>Point 154</name>
  <cmt>Point 154</cmt>
  <desc>Point 154</desc>
</trkpt>
<trkpt lat="24.740547000" lon="121.091751000">
  <ele>148.760000</ele>
  <time>2010-07-03T01:51:31Z</time>
  <name>Point 155</name>
  <cmt>Point 155</cmt>
  <desc>Point 155</desc>
</trkpt>
<trkpt lat="24.740191000" lon="121.092094000">
  <ele>149.620000</ele>
  <time>2010-07-03T01:51:36Z</time>
  <name>Point 156</name>
  <cmt>Point 156</cmt>
  <desc>Point 156</desc>
</trkpt>
<trkpt lat="24.739880000" lon="121.092384000">
  <ele>152.320000</ele>
  <time>2010-07-03T01:51:41Z</time>
  <name>Point 157</name>
  <cmt>Point 157</cmt>
  <desc>Point 157</desc>
</trkpt>
<trkpt lat="24.739578000" lon="121.092690000">
  <ele>157.730000</ele>
  <time>2010-07-03T01:51:46Z</time>
  <name>Point 158</name>
  <cmt>Point 158</cmt>
  <desc>Point 158</desc>
</trkpt>
<trkpt lat="24.739477000" lon="121.092819000">
  <ele>161.110000</ele>
  <time>2010-07-03T01:51:51Z</time>
  <name>Point 159</name>
  <cmt>Point 159</cmt>
  <desc>Point 159</desc>
</trkpt>
<trkpt lat="24.739475000" lon="121.092827000">
  <ele>161.340000</ele>
  <time>2010-07-03T01:51:56Z</time>
  <name>Point 160</name>
  <cmt>Point 160</cmt>
  <desc>Point 160</desc>
</trkpt>
<trkpt lat="24.739473000" lon="121.092827000">
  <ele>161.550000</ele>
  <time>2010-07-03T01:52:01Z</time>
  <name>Point 161</name>
  <cmt>Point 161</cmt>
  <desc>Point 161</desc>
</trkpt>
<trkpt lat="24.739473000" lon="121.092827000">
  <ele>161.620000</ele>
  <time>2010-07-03T01:52:06Z</time>
  <name>Point 162</name>
  <cmt>Point 162</cmt>
  <desc>Point 162</desc>
</trkpt>
<trkpt lat="24.739473000" lon="121.092827000">
  <ele>161.640000</ele>
  <time>2010-07-03T01:52:11Z</time>
  <name>Point 163</name>
  <cmt>Point 163</cmt>
  <desc>Point 163</desc>
</trkpt>
<trkpt lat="24.739405000" lon="121.092903000">
  <ele>161.110000</ele>
  <time>2010-07-03T01:52:16Z</time>
  <name>Point 164</name>
  <cmt>Point 164</cmt>
  <desc>Point 164</desc>
</trkpt>
<trkpt lat="24.739067000" lon="121.093246000">
  <ele>161.130000</ele>
  <time>2010-07-03T01:52:21Z</time>
  <name>Point 165</name>
  <cmt>Point 165</cmt>
  <desc>Point 165</desc>
</trkpt>
<trkpt lat="24.738569000" lon="121.093689000">
  <ele>158.850000</ele>
  <time>2010-07-03T01:52:26Z</time>
  <name>Point 166</name>
  <cmt>Point 166</cmt>
  <desc>Point 166</desc>
</trkpt>
<trkpt lat="24.738058000" lon="121.094162000">
  <ele>157.610000</ele>
  <time>2010-07-03T01:52:31Z</time>
  <name>Point 167</name>
  <cmt>Point 167</cmt>
  <desc>Point 167</desc>
</trkpt>
<trkpt lat="24.737530000" lon="121.094666000">
  <ele>155.330000</ele>
  <time>2010-07-03T01:52:36Z</time>
  <name>Point 168</name>
  <cmt>Point 168</cmt>
  <desc>Point 168</desc>
</trkpt>
<trkpt lat="24.736952000" lon="121.095245000">
  <ele>157.120000</ele>
  <time>2010-07-03T01:52:41Z</time>
  <name>Point 169</name>
  <cmt>Point 169</cmt>
  <desc>Point 169</desc>
</trkpt>
<trkpt lat="24.736391000" lon="121.095833000">
  <ele>160.790000</ele>
  <time>2010-07-03T01:52:46Z</time>
  <name>Point 170</name>
  <cmt>Point 170</cmt>
  <desc>Point 170</desc>
</trkpt>
<trkpt lat="24.735849000" lon="121.096420000">
  <ele>161.520000</ele>
  <time>2010-07-03T01:52:51Z</time>
  <name>Point 171</name>
  <cmt>Point 171</cmt>
  <desc>Point 171</desc>
</trkpt>
<trkpt lat="24.735292000" lon="121.096992000">
  <ele>163.010000</ele>
  <time>2010-07-03T01:52:56Z</time>
  <name>Point 172</name>
  <cmt>Point 172</cmt>
  <desc>Point 172</desc>
</trkpt>
<trkpt lat="24.734755000" lon="121.097542000">
  <ele>162.130000</ele>
  <time>2010-07-03T01:53:01Z</time>
  <name>Point 173</name>
  <cmt>Point 173</cmt>
  <desc>Point 173</desc>
</trkpt>
<trkpt lat="24.734221000" lon="121.098106000">
  <ele>164.030000</ele>
  <time>2010-07-03T01:53:06Z</time>
  <name>Point 174</name>
  <cmt>Point 174</cmt>
  <desc>Point 174</desc>
</trkpt>
<trkpt lat="24.733730000" lon="121.098625000">
  <ele>166.620000</ele>
  <time>2010-07-03T01:53:11Z</time>
  <name>Point 175</name>
  <cmt>Point 175</cmt>
  <desc>Point 175</desc>
</trkpt>
<trkpt lat="24.733253000" lon="121.099152000">
  <ele>172.040000</ele>
  <time>2010-07-03T01:53:16Z</time>
  <name>Point 176</name>
  <cmt>Point 176</cmt>
  <desc>Point 176</desc>
</trkpt>
<trkpt lat="24.732761000" lon="121.099640000">
  <ele>172.630000</ele>
  <time>2010-07-03T01:53:21Z</time>
  <name>Point 177</name>
  <cmt>Point 177</cmt>
  <desc>Point 177</desc>
</trkpt>
<trkpt lat="24.732224000" lon="121.099976000">
  <ele>173.410000</ele>
  <time>2010-07-03T01:53:26Z</time>
  <name>Point 178</name>
  <cmt>Point 178</cmt>
  <desc>Point 178</desc>
</trkpt>
<trkpt lat="24.731598000" lon="121.099937000">
  <ele>172.390000</ele>
  <time>2010-07-03T01:53:31Z</time>
  <name>Point 179</name>
  <cmt>Point 179</cmt>
  <desc>Point 179</desc>
</trkpt>
<trkpt lat="24.731022000" lon="121.099838000">
  <ele>171.020000</ele>
  <time>2010-07-03T01:53:36Z</time>
  <name>Point 180</name>
  <cmt>Point 180</cmt>
  <desc>Point 180</desc>
</trkpt>
<trkpt lat="24.730827000" lon="121.099800000">
  <ele>170.550000</ele>
  <time>2010-07-03T01:53:41Z</time>
  <name>Point 181</name>
  <cmt>Point 181</cmt>
  <desc>Point 181</desc>
</trkpt>
<trkpt lat="24.730829000" lon="121.099785000">
  <ele>171.530000</ele>
  <time>2010-07-03T01:53:46Z</time>
  <name>Point 182</name>
  <cmt>Point 182</cmt>
  <desc>Point 182</desc>
</trkpt>
<trkpt lat="24.730833000" lon="121.099777000">
  <ele>171.540000</ele>
  <time>2010-07-03T01:53:51Z</time>
  <name>Point 183</name>
  <cmt>Point 183</cmt>
  <desc>Point 183</desc>
</trkpt>
<trkpt lat="24.730835000" lon="121.099777000">
  <ele>171.200000</ele>
  <time>2010-07-03T01:53:56Z</time>
  <name>Point 184</name>
  <cmt>Point 184</cmt>
  <desc>Point 184</desc>
</trkpt>
<trkpt lat="24.730824000" lon="121.099785000">
  <ele>170.970000</ele>
  <time>2010-07-03T01:54:01Z</time>
  <name>Point 185</name>
  <cmt>Point 185</cmt>
  <desc>Point 185</desc>
</trkpt>
<trkpt lat="24.730597000" lon="121.099716000">
  <ele>164.870000</ele>
  <time>2010-07-03T01:54:06Z</time>
  <name>Point 186</name>
  <cmt>Point 186</cmt>
  <desc>Point 186</desc>
</trkpt>
<trkpt lat="24.730118000" lon="121.099724000">
  <ele>160.800000</ele>
  <time>2010-07-03T01:54:11Z</time>
  <name>Point 187</name>
  <cmt>Point 187</cmt>
  <desc>Point 187</desc>
</trkpt>
<trkpt lat="24.729481000" lon="121.099663000">
  <ele>158.670000</ele>
  <time>2010-07-03T01:54:16Z</time>
  <name>Point 188</name>
  <cmt>Point 188</cmt>
  <desc>Point 188</desc>
</trkpt>
<trkpt lat="24.728912000" lon="121.099586000">
  <ele>156.320000</ele>
  <time>2010-07-03T01:54:21Z</time>
  <name>Point 189</name>
  <cmt>Point 189</cmt>
  <desc>Point 189</desc>
</trkpt>
<trkpt lat="24.728460000" lon="121.099525000">
  <ele>153.900000</ele>
  <time>2010-07-03T01:54:26Z</time>
  <name>Point 190</name>
  <cmt>Point 190</cmt>
  <desc>Point 190</desc>
</trkpt>
<trkpt lat="24.728056000" lon="121.099472000">
  <ele>149.590000</ele>
  <time>2010-07-03T01:54:31Z</time>
  <name>Point 191</name>
  <cmt>Point 191</cmt>
  <desc>Point 191</desc>
</trkpt>
<trkpt lat="24.727596000" lon="121.099434000">
  <ele>146.600000</ele>
  <time>2010-07-03T01:54:36Z</time>
  <name>Point 192</name>
  <cmt>Point 192</cmt>
  <desc>Point 192</desc>
</trkpt>
<trkpt lat="24.727039000" lon="121.099396000">
  <ele>147.090000</ele>
  <time>2010-07-03T01:54:41Z</time>
  <name>Point 193</name>
  <cmt>Point 193</cmt>
  <desc>Point 193</desc>
</trkpt>
<trkpt lat="24.726467000" lon="121.099350000">
  <ele>150.270000</ele>
  <time>2010-07-03T01:54:46Z</time>
  <name>Point 194</name>
  <cmt>Point 194</cmt>
  <desc>Point 194</desc>
</trkpt>
<trkpt lat="24.725971000" lon="121.099358000">
  <ele>147.520000</ele>
  <time>2010-07-03T01:54:51Z</time>
  <name>Point 195</name>
  <cmt>Point 195</cmt>
  <desc>Point 195</desc>
</trkpt>
<trkpt lat="24.725487000" lon="121.099335000">
  <ele>145.500000</ele>
  <time>2010-07-03T01:54:56Z</time>
  <name>Point 196</name>
  <cmt>Point 196</cmt>
  <desc>Point 196</desc>
</trkpt>
<trkpt lat="24.724953000" lon="121.099304000">
  <ele>144.260000</ele>
  <time>2010-07-03T01:55:01Z</time>
  <name>Point 197</name>
  <cmt>Point 197</cmt>
  <desc>Point 197</desc>
</trkpt>
<trkpt lat="24.724463000" lon="121.099281000">
  <ele>142.840000</ele>
  <time>2010-07-03T01:55:06Z</time>
  <name>Point 198</name>
  <cmt>Point 198</cmt>
  <desc>Point 198</desc>
</trkpt>
<trkpt lat="24.724009000" lon="121.099266000">
  <ele>143.250000</ele>
  <time>2010-07-03T01:55:11Z</time>
  <name>Point 199</name>
  <cmt>Point 199</cmt>
  <desc>Point 199</desc>
</trkpt>
<trkpt lat="24.723629000" lon="121.099266000">
  <ele>144.900000</ele>
  <time>2010-07-03T01:55:16Z</time>
  <name>Point 200</name>
  <cmt>Point 200</cmt>
  <desc>Point 200</desc>
</trkpt>
<trkpt lat="24.723419000" lon="121.099129000">
  <ele>145.500000</ele>
  <time>2010-07-03T01:55:21Z</time>
  <name>Point 201</name>
  <cmt>Point 201</cmt>
  <desc>Point 201</desc>
</trkpt>
<trkpt lat="24.723288000" lon="121.098686000">
  <ele>144.330000</ele>
  <time>2010-07-03T01:55:26Z</time>
  <name>Point 202</name>
  <cmt>Point 202</cmt>
  <desc>Point 202</desc>
</trkpt>
<trkpt lat="24.723072000" lon="121.098244000">
  <ele>144.580000</ele>
  <time>2010-07-03T01:55:31Z</time>
  <name>Point 203</name>
  <cmt>Point 203</cmt>
  <desc>Point 203</desc>
</trkpt>
<trkpt lat="24.722980000" lon="121.098030000">
  <ele>144.540000</ele>
  <time>2010-07-03T01:55:36Z</time>
  <name>Point 204</name>
  <cmt>Point 204</cmt>
  <desc>Point 204</desc>
</trkpt>
<trkpt lat="24.722952000" lon="121.097961000">
  <ele>146.040000</ele>
  <time>2010-07-03T01:55:41Z</time>
  <name>Point 205</name>
  <cmt>Point 205</cmt>
  <desc>Point 205</desc>
</trkpt>
<trkpt lat="24.722948000" lon="121.097946000">
  <ele>148.260000</ele>
  <time>2010-07-03T01:55:46Z</time>
  <name>Point 206</name>
  <cmt>Point 206</cmt>
  <desc>Point 206</desc>
</trkpt>
<trkpt lat="24.722946000" lon="121.097946000">
  <ele>148.320000</ele>
  <time>2010-07-03T01:55:51Z</time>
  <name>Point 207</name>
  <cmt>Point 207</cmt>
  <desc>Point 207</desc>
</trkpt>
<trkpt lat="24.722946000" lon="121.097946000">
  <ele>148.430000</ele>
  <time>2010-07-03T01:55:56Z</time>
  <name>Point 208</name>
  <cmt>Point 208</cmt>
  <desc>Point 208</desc>
</trkpt>
<trkpt lat="24.722946000" lon="121.097946000">
  <ele>148.510000</ele>
  <time>2010-07-03T01:56:01Z</time>
  <name>Point 209</name>
  <cmt>Point 209</cmt>
  <desc>Point 209</desc>
</trkpt>
<trkpt lat="24.722925000" lon="121.097900000">
  <ele>148.940000</ele>
  <time>2010-07-03T01:56:06Z</time>
  <name>Point 210</name>
  <cmt>Point 210</cmt>
  <desc>Point 210</desc>
</trkpt>
<trkpt lat="24.722834000" lon="121.097641000">
  <ele>148.960000</ele>
  <time>2010-07-03T01:56:11Z</time>
  <name>Point 211</name>
  <cmt>Point 211</cmt>
  <desc>Point 211</desc>
</trkpt>
<trkpt lat="24.722662000" lon="121.097252000">
  <ele>147.880000</ele>
  <time>2010-07-03T01:56:16Z</time>
  <name>Point 212</name>
  <cmt>Point 212</cmt>
  <desc>Point 212</desc>
</trkpt>
<trkpt lat="24.722462000" lon="121.096794000">
  <ele>146.670000</ele>
  <time>2010-07-03T01:56:21Z</time>
  <name>Point 213</name>
  <cmt>Point 213</cmt>
  <desc>Point 213</desc>
</trkpt>
<trkpt lat="24.722294000" lon="121.096336000">
  <ele>146.630000</ele>
  <time>2010-07-03T01:56:26Z</time>
  <name>Point 214</name>
  <cmt>Point 214</cmt>
  <desc>Point 214</desc>
</trkpt>
<trkpt lat="24.722103000" lon="121.095825000">
  <ele>147.170000</ele>
  <time>2010-07-03T01:56:31Z</time>
  <name>Point 215</name>
  <cmt>Point 215</cmt>
  <desc>Point 215</desc>
</trkpt>
<trkpt lat="24.721968000" lon="121.095154000">
  <ele>147.440000</ele>
  <time>2010-07-03T01:56:36Z</time>
  <name>Point 216</name>
  <cmt>Point 216</cmt>
  <desc>Point 216</desc>
</trkpt>
<trkpt lat="24.722025000" lon="121.094429000">
  <ele>147.290000</ele>
  <time>2010-07-03T01:56:41Z</time>
  <name>Point 217</name>
  <cmt>Point 217</cmt>
  <desc>Point 217</desc>
</trkpt>
<trkpt lat="24.722284000" lon="121.093719000">
  <ele>149.380000</ele>
  <time>2010-07-03T01:56:46Z</time>
  <name>Point 218</name>
  <cmt>Point 218</cmt>
  <desc>Point 218</desc>
</trkpt>
<trkpt lat="24.722591000" lon="121.093102000">
  <ele>150.020000</ele>
  <time>2010-07-03T01:56:51Z</time>
  <name>Point 219</name>
  <cmt>Point 219</cmt>
  <desc>Point 219</desc>
</trkpt>
<trkpt lat="24.722874000" lon="121.092651000">
  <ele>148.790000</ele>
  <time>2010-07-03T01:56:56Z</time>
  <name>Point 220</name>
  <cmt>Point 220</cmt>
  <desc>Point 220</desc>
</trkpt>
<trkpt lat="24.723093000" lon="121.092255000">
  <ele>149.980000</ele>
  <time>2010-07-03T01:57:01Z</time>
  <name>Point 221</name>
  <cmt>Point 221</cmt>
  <desc>Point 221</desc>
</trkpt>
<trkpt lat="24.723305000" lon="121.091957000">
  <ele>150.730000</ele>
  <time>2010-07-03T01:57:06Z</time>
  <name>Point 222</name>
  <cmt>Point 222</cmt>
  <desc>Point 222</desc>
</trkpt>
<trkpt lat="24.723492000" lon="121.091637000">
  <ele>151.950000</ele>
  <time>2010-07-03T01:57:11Z</time>
  <name>Point 223</name>
  <cmt>Point 223</cmt>
  <desc>Point 223</desc>
</trkpt>
<trkpt lat="24.723705000" lon="121.091423000">
  <ele>155.940000</ele>
  <time>2010-07-03T01:57:16Z</time>
  <name>Point 224</name>
  <cmt>Point 224</cmt>
  <desc>Point 224</desc>
</trkpt>
<trkpt lat="24.724030000" lon="121.091057000">
  <ele>162.930000</ele>
  <time>2010-07-03T01:57:21Z</time>
  <name>Point 225</name>
  <cmt>Point 225</cmt>
  <desc>Point 225</desc>
</trkpt>
<trkpt lat="24.724369000" lon="121.090683000">
  <ele>165.500000</ele>
  <time>2010-07-03T01:57:26Z</time>
  <name>Point 226</name>
  <cmt>Point 226</cmt>
  <desc>Point 226</desc>
</trkpt>
<trkpt lat="24.724689000" lon="121.090279000">
  <ele>167.830000</ele>
  <time>2010-07-03T01:57:31Z</time>
  <name>Point 227</name>
  <cmt>Point 227</cmt>
  <desc>Point 227</desc>
</trkpt>
<trkpt lat="24.724958000" lon="121.089920000">
  <ele>168.720000</ele>
  <time>2010-07-03T01:57:36Z</time>
  <name>Point 228</name>
  <cmt>Point 228</cmt>
  <desc>Point 228</desc>
</trkpt>
<trkpt lat="24.725252000" lon="121.089569000">
  <ele>171.390000</ele>
  <time>2010-07-03T01:57:41Z</time>
  <name>Point 229</name>
  <cmt>Point 229</cmt>
  <desc>Point 229</desc>
</trkpt>
<trkpt lat="24.725515000" lon="121.089264000">
  <ele>171.460000</ele>
  <time>2010-07-03T01:57:46Z</time>
  <name>Point 230</name>
  <cmt>Point 230</cmt>
  <desc>Point 230</desc>
</trkpt>
<trkpt lat="24.725849000" lon="121.088837000">
  <ele>167.530000</ele>
  <time>2010-07-03T01:57:51Z</time>
  <name>Point 231</name>
  <cmt>Point 231</cmt>
  <desc>Point 231</desc>
</trkpt>
<trkpt lat="24.726212000" lon="121.088356000">
  <ele>165.730000</ele>
  <time>2010-07-03T01:57:56Z</time>
  <name>Point 232</name>
  <cmt>Point 232</cmt>
  <desc>Point 232</desc>
</trkpt>
<trkpt lat="24.726624000" lon="121.087807000">
  <ele>163.630000</ele>
  <time>2010-07-03T01:58:01Z</time>
  <name>Point 233</name>
  <cmt>Point 233</cmt>
  <desc>Point 233</desc>
</trkpt>
<trkpt lat="24.727022000" lon="121.087311000">
  <ele>163.450000</ele>
  <time>2010-07-03T01:58:06Z</time>
  <name>Point 234</name>
  <cmt>Point 234</cmt>
  <desc>Point 234</desc>
</trkpt>
<trkpt lat="24.727156000" lon="121.087036000">
  <ele>161.320000</ele>
  <time>2010-07-03T01:58:11Z</time>
  <name>Point 235</name>
  <cmt>Point 235</cmt>
  <desc>Point 235</desc>
</trkpt>
<trkpt lat="24.727150000" lon="121.086998000">
  <ele>165.620000</ele>
  <time>2010-07-03T01:58:16Z</time>
  <name>Point 236</name>
  <cmt>Point 236</cmt>
  <desc>Point 236</desc>
</trkpt>
<trkpt lat="24.727152000" lon="121.086998000">
  <ele>165.620000</ele>
  <time>2010-07-03T01:58:21Z</time>
  <name>Point 237</name>
  <cmt>Point 237</cmt>
  <desc>Point 237</desc>
</trkpt>
<trkpt lat="24.727152000" lon="121.086998000">
  <ele>165.550000</ele>
  <time>2010-07-03T01:58:26Z</time>
  <name>Point 238</name>
  <cmt>Point 238</cmt>
  <desc>Point 238</desc>
</trkpt>
<trkpt lat="24.727152000" lon="121.086998000">
  <ele>165.560000</ele>
  <time>2010-07-03T01:58:31Z</time>
  <name>Point 239</name>
  <cmt>Point 239</cmt>
  <desc>Point 239</desc>
</trkpt>
<trkpt lat="24.727152000" lon="121.086998000">
  <ele>165.610000</ele>
  <time>2010-07-03T01:58:36Z</time>
  <name>Point 240</name>
  <cmt>Point 240</cmt>
  <desc>Point 240</desc>
</trkpt>
<trkpt lat="24.727160000" lon="121.086975000">
  <ele>166.400000</ele>
  <time>2010-07-03T01:58:41Z</time>
  <name>Point 241</name>
  <cmt>Point 241</cmt>
  <desc>Point 241</desc>
</trkpt>
<trkpt lat="24.727211000" lon="121.086761000">
  <ele>166.300000</ele>
  <time>2010-07-03T01:58:46Z</time>
  <name>Point 242</name>
  <cmt>Point 242</cmt>
  <desc>Point 242</desc>
</trkpt>
<trkpt lat="24.727175000" lon="121.086388000">
  <ele>164.240000</ele>
  <time>2010-07-03T01:58:51Z</time>
  <name>Point 243</name>
  <cmt>Point 243</cmt>
  <desc>Point 243</desc>
</trkpt>
<trkpt lat="24.727070000" lon="121.085991000">
  <ele>162.860000</ele>
  <time>2010-07-03T01:58:56Z</time>
  <name>Point 244</name>
  <cmt>Point 244</cmt>
  <desc>Point 244</desc>
</trkpt>
<trkpt lat="24.726910000" lon="121.085510000">
  <ele>162.550000</ele>
  <time>2010-07-03T01:59:01Z</time>
  <name>Point 245</name>
  <cmt>Point 245</cmt>
  <desc>Point 245</desc>
</trkpt>
<trkpt lat="24.726744000" lon="121.085045000">
  <ele>161.560000</ele>
  <time>2010-07-03T01:59:06Z</time>
  <name>Point 246</name>
  <cmt>Point 246</cmt>
  <desc>Point 246</desc>
</trkpt>
<trkpt lat="24.726686000" lon="121.084938000">
  <ele>165.980000</ele>
  <time>2010-07-03T01:59:11Z</time>
  <name>Point 247</name>
  <cmt>Point 247</cmt>
  <desc>Point 247</desc>
</trkpt>
<trkpt lat="24.726679000" lon="121.084930000">
  <ele>169.060000</ele>
  <time>2010-07-03T01:59:16Z</time>
  <name>Point 248</name>
  <cmt>Point 248</cmt>
  <desc>Point 248</desc>
</trkpt>
<trkpt lat="24.726679000" lon="121.084930000">
  <ele>169.190000</ele>
  <time>2010-07-03T01:59:21Z</time>
  <name>Point 249</name>
  <cmt>Point 249</cmt>
  <desc>Point 249</desc>
</trkpt>
<trkpt lat="24.726679000" lon="121.084930000">
  <ele>169.280000</ele>
  <time>2010-07-03T01:59:26Z</time>
  <name>Point 250</name>
  <cmt>Point 250</cmt>
  <desc>Point 250</desc>
</trkpt>
<trkpt lat="24.726679000" lon="121.084930000">
  <ele>169.340000</ele>
  <time>2010-07-03T01:59:31Z</time>
  <name>Point 251</name>
  <cmt>Point 251</cmt>
  <desc>Point 251</desc>
</trkpt>
<trkpt lat="24.726673000" lon="121.084908000">
  <ele>169.520000</ele>
  <time>2010-07-03T01:59:36Z</time>
  <name>Point 252</name>
  <cmt>Point 252</cmt>
  <desc>Point 252</desc>
</trkpt>
<trkpt lat="24.726566000" lon="121.084702000">
  <ele>170.010000</ele>
  <time>2010-07-03T01:59:41Z</time>
  <name>Point 253</name>
  <cmt>Point 253</cmt>
  <desc>Point 253</desc>
</trkpt>
<trkpt lat="24.726404000" lon="121.084358000">
  <ele>168.560000</ele>
  <time>2010-07-03T01:59:46Z</time>
  <name>Point 254</name>
  <cmt>Point 254</cmt>
  <desc>Point 254</desc>
</trkpt>
<trkpt lat="24.726185000" lon="121.083893000">
  <ele>167.490000</ele>
  <time>2010-07-03T01:59:51Z</time>
  <name>Point 255</name>
  <cmt>Point 255</cmt>
  <desc>Point 255</desc>
</trkpt>
<trkpt lat="24.725933000" lon="121.083351000">
  <ele>167.050000</ele>
  <time>2010-07-03T01:59:56Z</time>
  <name>Point 256</name>
  <cmt>Point 256</cmt>
  <desc>Point 256</desc>
</trkpt>
<trkpt lat="24.725620000" lon="121.082794000">
  <ele>165.210000</ele>
  <time>2010-07-03T02:00:01Z</time>
  <name>Point 257</name>
  <cmt>Point 257</cmt>
  <desc>Point 257</desc>
</trkpt>
<trkpt lat="24.725294000" lon="121.082169000">
  <ele>165.710000</ele>
  <time>2010-07-03T02:00:06Z</time>
  <name>Point 258</name>
  <cmt>Point 258</cmt>
  <desc>Point 258</desc>
</trkpt>
<trkpt lat="24.724991000" lon="121.081551000">
  <ele>167.130000</ele>
  <time>2010-07-03T02:00:11Z</time>
  <name>Point 259</name>
  <cmt>Point 259</cmt>
  <desc>Point 259</desc>
</trkpt>
<trkpt lat="24.724728000" lon="121.080872000">
  <ele>169.730000</ele>
  <time>2010-07-03T02:00:16Z</time>
  <name>Point 260</name>
  <cmt>Point 260</cmt>
  <desc>Point 260</desc>
</trkpt>
<trkpt lat="24.724508000" lon="121.080124000">
  <ele>173.170000</ele>
  <time>2010-07-03T02:00:21Z</time>
  <name>Point 261</name>
  <cmt>Point 261</cmt>
  <desc>Point 261</desc>
</trkpt>
<trkpt lat="24.724281000" lon="121.079391000">
  <ele>176.580000</ele>
  <time>2010-07-03T02:00:26Z</time>
  <name>Point 262</name>
  <cmt>Point 262</cmt>
  <desc>Point 262</desc>
</trkpt>
<trkpt lat="24.724024000" lon="121.078674000">
  <ele>178.550000</ele>
  <time>2010-07-03T02:00:31Z</time>
  <name>Point 263</name>
  <cmt>Point 263</cmt>
  <desc>Point 263</desc>
</trkpt>
<trkpt lat="24.723787000" lon="121.078049000">
  <ele>179.410000</ele>
  <time>2010-07-03T02:00:36Z</time>
  <name>Point 264</name>
  <cmt>Point 264</cmt>
  <desc>Point 264</desc>
</trkpt>
<trkpt lat="24.723410000" lon="121.077446000">
  <ele>179.990000</ele>
  <time>2010-07-03T02:00:41Z</time>
  <name>Point 265</name>
  <cmt>Point 265</cmt>
  <desc>Point 265</desc>
</trkpt>
<trkpt lat="24.722948000" lon="121.076874000">
  <ele>182.980000</ele>
  <time>2010-07-03T02:00:46Z</time>
  <name>Point 266</name>
  <cmt>Point 266</cmt>
  <desc>Point 266</desc>
</trkpt>
<trkpt lat="24.722486000" lon="121.076294000">
  <ele>187.200000</ele>
  <time>2010-07-03T02:00:51Z</time>
  <name>Point 267</name>
  <cmt>Point 267</cmt>
  <desc>Point 267</desc>
</trkpt>
<trkpt lat="24.722158000" lon="121.075684000">
  <ele>185.360000</ele>
  <time>2010-07-03T02:00:56Z</time>
  <name>Point 268</name>
  <cmt>Point 268</cmt>
  <desc>Point 268</desc>
</trkpt>
<trkpt lat="24.721777000" lon="121.075165000">
  <ele>187.360000</ele>
  <time>2010-07-03T02:01:01Z</time>
  <name>Point 269</name>
  <cmt>Point 269</cmt>
  <desc>Point 269</desc>
</trkpt>
<trkpt lat="24.721186000" lon="121.075020000">
  <ele>189.270000</ele>
  <time>2010-07-03T02:01:06Z</time>
  <name>Point 270</name>
  <cmt>Point 270</cmt>
  <desc>Point 270</desc>
</trkpt>
<trkpt lat="24.720505000" lon="121.074951000">
  <ele>194.480000</ele>
  <time>2010-07-03T02:01:11Z</time>
  <name>Point 271</name>
  <cmt>Point 271</cmt>
  <desc>Point 271</desc>
</trkpt>
<trkpt lat="24.719845000" lon="121.074837000">
  <ele>199.020000</ele>
  <time>2010-07-03T02:01:16Z</time>
  <name>Point 272</name>
  <cmt>Point 272</cmt>
  <desc>Point 272</desc>
</trkpt>
<trkpt lat="24.719378000" lon="121.074402000">
  <ele>202.110000</ele>
  <time>2010-07-03T02:01:21Z</time>
  <name>Point 273</name>
  <cmt>Point 273</cmt>
  <desc>Point 273</desc>
</trkpt>
<trkpt lat="24.718842000" lon="121.074028000">
  <ele>206.910000</ele>
  <time>2010-07-03T02:01:26Z</time>
  <name>Point 274</name>
  <cmt>Point 274</cmt>
  <desc>Point 274</desc>
</trkpt>
<trkpt lat="24.718187000" lon="121.073883000">
  <ele>211.250000</ele>
  <time>2010-07-03T02:01:31Z</time>
  <name>Point 275</name>
  <cmt>Point 275</cmt>
  <desc>Point 275</desc>
</trkpt>
<trkpt lat="24.717529000" lon="121.073753000">
  <ele>216.800000</ele>
  <time>2010-07-03T02:01:36Z</time>
  <name>Point 276</name>
  <cmt>Point 276</cmt>
  <desc>Point 276</desc>
</trkpt>
<trkpt lat="24.716883000" lon="121.073639000">
  <ele>221.350000</ele>
  <time>2010-07-03T02:01:41Z</time>
  <name>Point 277</name>
  <cmt>Point 277</cmt>
  <desc>Point 277</desc>
</trkpt>
<trkpt lat="24.716238000" lon="121.073509000">
  <ele>223.960000</ele>
  <time>2010-07-03T02:01:46Z</time>
  <name>Point 278</name>
  <cmt>Point 278</cmt>
  <desc>Point 278</desc>
</trkpt>
<trkpt lat="24.715611000" lon="121.073372000">
  <ele>227.900000</ele>
  <time>2010-07-03T02:01:51Z</time>
  <name>Point 279</name>
  <cmt>Point 279</cmt>
  <desc>Point 279</desc>
</trkpt>
<trkpt lat="24.715170000" lon="121.072983000">
  <ele>230.410000</ele>
  <time>2010-07-03T02:01:56Z</time>
  <name>Point 280</name>
  <cmt>Point 280</cmt>
  <desc>Point 280</desc>
</trkpt>
<trkpt lat="24.715027000" lon="121.072174000">
  <ele>229.660000</ele>
  <time>2010-07-03T02:02:01Z</time>
  <name>Point 281</name>
  <cmt>Point 281</cmt>
  <desc>Point 281</desc>
</trkpt>
<trkpt lat="24.714918000" lon="121.071259000">
  <ele>226.540000</ele>
  <time>2010-07-03T02:02:06Z</time>
  <name>Point 282</name>
  <cmt>Point 282</cmt>
  <desc>Point 282</desc>
</trkpt>
<trkpt lat="24.714643000" lon="121.070595000">
  <ele>221.300000</ele>
  <time>2010-07-03T02:02:11Z</time>
  <name>Point 283</name>
  <cmt>Point 283</cmt>
  <desc>Point 283</desc>
</trkpt>
<trkpt lat="24.713972000" lon="121.070358000">
  <ele>212.010000</ele>
  <time>2010-07-03T02:02:16Z</time>
  <name>Point 284</name>
  <cmt>Point 284</cmt>
  <desc>Point 284</desc>
</trkpt>
<trkpt lat="24.713255000" lon="121.070267000">
  <ele>204.380000</ele>
  <time>2010-07-03T02:02:21Z</time>
  <name>Point 285</name>
  <cmt>Point 285</cmt>
  <desc>Point 285</desc>
</trkpt>
<trkpt lat="24.712877000" lon="121.070259000">
  <ele>200.040000</ele>
  <time>2010-07-03T02:02:26Z</time>
  <name>Point 286</name>
  <cmt>Point 286</cmt>
  <desc>Point 286</desc>
</trkpt>
<trkpt lat="24.712776000" lon="121.070290000">
  <ele>198.370000</ele>
  <time>2010-07-03T02:02:31Z</time>
  <name>Point 287</name>
  <cmt>Point 287</cmt>
  <desc>Point 287</desc>
</trkpt>
<trkpt lat="24.712757000" lon="121.070335000">
  <ele>196.390000</ele>
  <time>2010-07-03T02:02:36Z</time>
  <name>Point 288</name>
  <cmt>Point 288</cmt>
  <desc>Point 288</desc>
</trkpt>
<trkpt lat="24.712744000" lon="121.070366000">
  <ele>196.370000</ele>
  <time>2010-07-03T02:02:41Z</time>
  <name>Point 289</name>
  <cmt>Point 289</cmt>
  <desc>Point 289</desc>
</trkpt>
<trkpt lat="24.712740000" lon="121.070366000">
  <ele>196.550000</ele>
  <time>2010-07-03T02:02:46Z</time>
  <name>Point 290</name>
  <cmt>Point 290</cmt>
  <desc>Point 290</desc>
</trkpt>
<trkpt lat="24.712742000" lon="121.070366000">
  <ele>196.650000</ele>
  <time>2010-07-03T02:02:51Z</time>
  <name>Point 291</name>
  <cmt>Point 291</cmt>
  <desc>Point 291</desc>
</trkpt>
<trkpt lat="24.712727000" lon="121.070366000">
  <ele>196.740000</ele>
  <time>2010-07-03T02:02:56Z</time>
  <name>Point 292</name>
  <cmt>Point 292</cmt>
  <desc>Point 292</desc>
</trkpt>
<trkpt lat="24.712509000" lon="121.070381000">
  <ele>195.800000</ele>
  <time>2010-07-03T02:03:01Z</time>
  <name>Point 293</name>
  <cmt>Point 293</cmt>
  <desc>Point 293</desc>
</trkpt>
<trkpt lat="24.712040000" lon="121.070328000">
  <ele>194.520000</ele>
  <time>2010-07-03T02:03:06Z</time>
  <name>Point 294</name>
  <cmt>Point 294</cmt>
  <desc>Point 294</desc>
</trkpt>
<trkpt lat="24.711494000" lon="121.070030000">
  <ele>193.350000</ele>
  <time>2010-07-03T02:03:11Z</time>
  <name>Point 295</name>
  <cmt>Point 295</cmt>
  <desc>Point 295</desc>
</trkpt>
<trkpt lat="24.710857000" lon="121.069527000">
  <ele>185.630000</ele>
  <time>2010-07-03T02:03:16Z</time>
  <name>Point 296</name>
  <cmt>Point 296</cmt>
  <desc>Point 296</desc>
</trkpt>
<trkpt lat="24.710184000" lon="121.069160000">
  <ele>178.060000</ele>
  <time>2010-07-03T02:03:21Z</time>
  <name>Point 297</name>
  <cmt>Point 297</cmt>
  <desc>Point 297</desc>
</trkpt>
<trkpt lat="24.709484000" lon="121.068970000">
  <ele>170.590000</ele>
  <time>2010-07-03T02:03:26Z</time>
  <name>Point 298</name>
  <cmt>Point 298</cmt>
  <desc>Point 298</desc>
</trkpt>
<trkpt lat="24.708927000" lon="121.068840000">
  <ele>163.570000</ele>
  <time>2010-07-03T02:03:31Z</time>
  <name>Point 299</name>
  <cmt>Point 299</cmt>
  <desc>Point 299</desc>
</trkpt>
<trkpt lat="24.708530000" lon="121.068459000">
  <ele>159.790000</ele>
  <time>2010-07-03T02:03:36Z</time>
  <name>Point 300</name>
  <cmt>Point 300</cmt>
  <desc>Point 300</desc>
</trkpt>
<trkpt lat="24.708414000" lon="121.067879000">
  <ele>154.410000</ele>
  <time>2010-07-03T02:03:41Z</time>
  <name>Point 301</name>
  <cmt>Point 301</cmt>
  <desc>Point 301</desc>
</trkpt>
<trkpt lat="24.708462000" lon="121.067215000">
  <ele>151.050000</ele>
  <time>2010-07-03T02:03:46Z</time>
  <name>Point 302</name>
  <cmt>Point 302</cmt>
  <desc>Point 302</desc>
</trkpt>
<trkpt lat="24.708242000" lon="121.066544000">
  <ele>146.230000</ele>
  <time>2010-07-03T02:03:51Z</time>
  <name>Point 303</name>
  <cmt>Point 303</cmt>
  <desc>Point 303</desc>
</trkpt>
<trkpt lat="24.707890000" lon="121.065865000">
  <ele>143.600000</ele>
  <time>2010-07-03T02:03:56Z</time>
  <name>Point 304</name>
  <cmt>Point 304</cmt>
  <desc>Point 304</desc>
</trkpt>
<trkpt lat="24.707363000" lon="121.065369000">
  <ele>142.640000</ele>
  <time>2010-07-03T02:04:01Z</time>
  <name>Point 305</name>
  <cmt>Point 305</cmt>
  <desc>Point 305</desc>
</trkpt>
<trkpt lat="24.706793000" lon="121.064949000">
  <ele>142.560000</ele>
  <time>2010-07-03T02:04:06Z</time>
  <name>Point 306</name>
  <cmt>Point 306</cmt>
  <desc>Point 306</desc>
</trkpt>
<trkpt lat="24.706390000" lon="121.064453000">
  <ele>144.040000</ele>
  <time>2010-07-03T02:04:11Z</time>
  <name>Point 307</name>
  <cmt>Point 307</cmt>
  <desc>Point 307</desc>
</trkpt>
<trkpt lat="24.706154000" lon="121.063759000">
  <ele>144.680000</ele>
  <time>2010-07-03T02:04:16Z</time>
  <name>Point 308</name>
  <cmt>Point 308</cmt>
  <desc>Point 308</desc>
</trkpt>
<trkpt lat="24.705896000" lon="121.062943000">
  <ele>145.300000</ele>
  <time>2010-07-03T02:04:21Z</time>
  <name>Point 309</name>
  <cmt>Point 309</cmt>
  <desc>Point 309</desc>
</trkpt>
<trkpt lat="24.705620000" lon="121.062080000">
  <ele>145.590000</ele>
  <time>2010-07-03T02:04:26Z</time>
  <name>Point 310</name>
  <cmt>Point 310</cmt>
  <desc>Point 310</desc>
</trkpt>
<trkpt lat="24.705265000" lon="121.061295000">
  <ele>146.350000</ele>
  <time>2010-07-03T02:04:31Z</time>
  <name>Point 311</name>
  <cmt>Point 311</cmt>
  <desc>Point 311</desc>
</trkpt>
<trkpt lat="24.704830000" lon="121.060654000">
  <ele>143.570000</ele>
  <time>2010-07-03T02:04:36Z</time>
  <name>Point 312</name>
  <cmt>Point 312</cmt>
  <desc>Point 312</desc>
</trkpt>
<trkpt lat="24.704332000" lon="121.060188000">
  <ele>141.390000</ele>
  <time>2010-07-03T02:04:41Z</time>
  <name>Point 313</name>
  <cmt>Point 313</cmt>
  <desc>Point 313</desc>
</trkpt>
<trkpt lat="24.703785000" lon="121.059746000">
  <ele>140.400000</ele>
  <time>2010-07-03T02:04:46Z</time>
  <name>Point 314</name>
  <cmt>Point 314</cmt>
  <desc>Point 314</desc>
</trkpt>
<trkpt lat="24.703178000" lon="121.059265000">
  <ele>138.950000</ele>
  <time>2010-07-03T02:04:51Z</time>
  <name>Point 315</name>
  <cmt>Point 315</cmt>
  <desc>Point 315</desc>
</trkpt>
<trkpt lat="24.702581000" lon="121.058777000">
  <ele>136.340000</ele>
  <time>2010-07-03T02:04:56Z</time>
  <name>Point 316</name>
  <cmt>Point 316</cmt>
  <desc>Point 316</desc>
</trkpt>
<trkpt lat="24.702301000" lon="121.058289000">
  <ele>136.160000</ele>
  <time>2010-07-03T02:05:01Z</time>
  <name>Point 317</name>
  <cmt>Point 317</cmt>
  <desc>Point 317</desc>
</trkpt>
<trkpt lat="24.702181000" lon="121.057892000">
  <ele>136.210000</ele>
  <time>2010-07-03T02:05:06Z</time>
  <name>Point 318</name>
  <cmt>Point 318</cmt>
  <desc>Point 318</desc>
</trkpt>
<trkpt lat="24.702120000" lon="121.057541000">
  <ele>137.640000</ele>
  <time>2010-07-03T02:05:11Z</time>
  <name>Point 319</name>
  <cmt>Point 319</cmt>
  <desc>Point 319</desc>
</trkpt>
<trkpt lat="24.702263000" lon="121.057091000">
  <ele>141.090000</ele>
  <time>2010-07-03T02:05:16Z</time>
  <name>Point 320</name>
  <cmt>Point 320</cmt>
  <desc>Point 320</desc>
</trkpt>
<trkpt lat="24.702682000" lon="121.056625000">
  <ele>140.880000</ele>
  <time>2010-07-03T02:05:21Z</time>
  <name>Point 321</name>
  <cmt>Point 321</cmt>
  <desc>Point 321</desc>
</trkpt>
<trkpt lat="24.703236000" lon="121.056091000">
  <ele>139.460000</ele>
  <time>2010-07-03T02:05:26Z</time>
  <name>Point 322</name>
  <cmt>Point 322</cmt>
  <desc>Point 322</desc>
</trkpt>
<trkpt lat="24.703735000" lon="121.055435000">
  <ele>140.570000</ele>
  <time>2010-07-03T02:05:31Z</time>
  <name>Point 323</name>
  <cmt>Point 323</cmt>
  <desc>Point 323</desc>
</trkpt>
<trkpt lat="24.704189000" lon="121.054710000">
  <ele>140.630000</ele>
  <time>2010-07-03T02:05:36Z</time>
  <name>Point 324</name>
  <cmt>Point 324</cmt>
  <desc>Point 324</desc>
</trkpt>
<trkpt lat="24.704567000" lon="121.054039000">
  <ele>140.400000</ele>
  <time>2010-07-03T02:05:41Z</time>
  <name>Point 325</name>
  <cmt>Point 325</cmt>
  <desc>Point 325</desc>
</trkpt>
<trkpt lat="24.704554000" lon="121.053467000">
  <ele>141.100000</ele>
  <time>2010-07-03T02:05:46Z</time>
  <name>Point 326</name>
  <cmt>Point 326</cmt>
  <desc>Point 326</desc>
</trkpt>
<trkpt lat="24.704187000" lon="121.052986000">
  <ele>140.840000</ele>
  <time>2010-07-03T02:05:51Z</time>
  <name>Point 327</name>
  <cmt>Point 327</cmt>
  <desc>Point 327</desc>
</trkpt>
<trkpt lat="24.703831000" lon="121.052505000">
  <ele>144.470000</ele>
  <time>2010-07-03T02:05:56Z</time>
  <name>Point 328</name>
  <cmt>Point 328</cmt>
  <desc>Point 328</desc>
</trkpt>
<trkpt lat="24.703548000" lon="121.052116000">
  <ele>144.330000</ele>
  <time>2010-07-03T02:06:01Z</time>
  <name>Point 329</name>
  <cmt>Point 329</cmt>
  <desc>Point 329</desc>
</trkpt>
<trkpt lat="24.703442000" lon="121.051971000">
  <ele>145.630000</ele>
  <time>2010-07-03T02:06:06Z</time>
  <name>Point 330</name>
  <cmt>Point 330</cmt>
  <desc>Point 330</desc>
</trkpt>
<trkpt lat="24.703436000" lon="121.051956000">
  <ele>151.250000</ele>
  <time>2010-07-03T02:06:11Z</time>
  <name>Point 331</name>
  <cmt>Point 331</cmt>
  <desc>Point 331</desc>
</trkpt>
<trkpt lat="24.703432000" lon="121.051949000">
  <ele>151.750000</ele>
  <time>2010-07-03T02:06:16Z</time>
  <name>Point 332</name>
  <cmt>Point 332</cmt>
  <desc>Point 332</desc>
</trkpt>
<trkpt lat="24.703428000" lon="121.051949000">
  <ele>152.010000</ele>
  <time>2010-07-03T02:06:21Z</time>
  <name>Point 333</name>
  <cmt>Point 333</cmt>
  <desc>Point 333</desc>
</trkpt>
<trkpt lat="24.703424000" lon="121.051949000">
  <ele>152.140000</ele>
  <time>2010-07-03T02:06:26Z</time>
  <name>Point 334</name>
  <cmt>Point 334</cmt>
  <desc>Point 334</desc>
</trkpt>
<trkpt lat="24.703419000" lon="121.051941000">
  <ele>152.220000</ele>
  <time>2010-07-03T02:06:31Z</time>
  <name>Point 335</name>
  <cmt>Point 335</cmt>
  <desc>Point 335</desc>
</trkpt>
<trkpt lat="24.703281000" lon="121.051689000">
  <ele>147.270000</ele>
  <time>2010-07-03T02:06:36Z</time>
  <name>Point 336</name>
  <cmt>Point 336</cmt>
  <desc>Point 336</desc>
</trkpt>
<trkpt lat="24.703445000" lon="121.051208000">
  <ele>145.370000</ele>
  <time>2010-07-03T02:06:41Z</time>
  <name>Point 337</name>
  <cmt>Point 337</cmt>
  <desc>Point 337</desc>
</trkpt>
<trkpt lat="24.703615000" lon="121.050537000">
  <ele>144.720000</ele>
  <time>2010-07-03T02:06:46Z</time>
  <name>Point 338</name>
  <cmt>Point 338</cmt>
  <desc>Point 338</desc>
</trkpt>
<trkpt lat="24.703737000" lon="121.049980000">
  <ele>144.420000</ele>
  <time>2010-07-03T02:06:51Z</time>
  <name>Point 339</name>
  <cmt>Point 339</cmt>
  <desc>Point 339</desc>
</trkpt>
<trkpt lat="24.703674000" lon="121.049927000">
  <ele>141.890000</ele>
  <time>2010-07-03T02:06:56Z</time>
  <name>Point 340</name>
  <cmt>Point 340</cmt>
  <desc>Point 340</desc>
</trkpt>
<trkpt lat="24.703697000" lon="121.049942000">
  <ele>140.910000</ele>
  <time>2010-07-03T02:07:01Z</time>
  <name>Point 341</name>
  <cmt>Point 341</cmt>
  <desc>Point 341</desc>
</trkpt>
<trkpt lat="24.703701000" lon="121.050034000">
  <ele>140.460000</ele>
  <time>2010-07-03T02:07:06Z</time>
  <name>Point 342</name>
  <cmt>Point 342</cmt>
  <desc>Point 342</desc>
</trkpt>
<trkpt lat="24.703598000" lon="121.050339000">
  <ele>140.790000</ele>
  <time>2010-07-03T02:07:11Z</time>
  <name>Point 343</name>
  <cmt>Point 343</cmt>
  <desc>Point 343</desc>
</trkpt>
<trkpt lat="24.703520000" lon="121.050247000">
  <ele>141.470000</ele>
  <time>2010-07-03T02:07:16Z</time>
  <name>Point 344</name>
  <cmt>Point 344</cmt>
  <desc>Point 344</desc>
</trkpt>
<trkpt lat="24.703407000" lon="121.050034000">
  <ele>139.630000</ele>
  <time>2010-07-03T02:07:21Z</time>
  <name>Point 345</name>
  <cmt>Point 345</cmt>
  <desc>Point 345</desc>
</trkpt>
<trkpt lat="24.703270000" lon="121.049706000">
  <ele>134.040000</ele>
  <time>2010-07-03T02:07:26Z</time>
  <name>Point 346</name>
  <cmt>Point 346</cmt>
  <desc>Point 346</desc>
</trkpt>
<trkpt lat="24.703136000" lon="121.049538000">
  <ele>128.140000</ele>
  <time>2010-07-03T02:07:31Z</time>
  <name>Point 347</name>
  <cmt>Point 347</cmt>
  <desc>Point 347</desc>
</trkpt>
<trkpt lat="24.703110000" lon="121.049492000">
  <ele>124.940000</ele>
  <time>2010-07-03T02:07:36Z</time>
  <name>Point 348</name>
  <cmt>Point 348</cmt>
  <desc>Point 348</desc>
</trkpt>
<trkpt lat="24.703089000" lon="121.049484000">
  <ele>122.240000</ele>
  <time>2010-07-03T02:07:41Z</time>
  <name>Point 349</name>
  <cmt>Point 349</cmt>
  <desc>Point 349</desc>
</trkpt>
<trkpt lat="24.703089000" lon="121.049484000">
  <ele>121.840000</ele>
  <time>2010-07-03T02:07:46Z</time>
  <name>Point 350</name>
  <cmt>Point 350</cmt>
  <desc>Point 350</desc>
</trkpt>
<trkpt lat="24.703043000" lon="121.049461000">
  <ele>121.110000</ele>
  <time>2010-07-03T02:07:51Z</time>
  <name>Point 351</name>
  <cmt>Point 351</cmt>
  <desc>Point 351</desc>
</trkpt>
<trkpt lat="24.703014000" lon="121.049400000">
  <ele>119.400000</ele>
  <time>2010-07-03T02:07:56Z</time>
  <name>Point 352</name>
  <cmt>Point 352</cmt>
  <desc>Point 352</desc>
</trkpt>
<trkpt lat="24.703005000" lon="121.049431000">
  <ele>119.420000</ele>
  <time>2010-07-03T02:08:01Z</time>
  <name>Point 353</name>
  <cmt>Point 353</cmt>
  <desc>Point 353</desc>
</trkpt>
<trkpt lat="24.702991000" lon="121.049446000">
  <ele>119.550000</ele>
  <time>2010-07-03T02:08:06Z</time>
  <name>Point 354</name>
  <cmt>Point 354</cmt>
  <desc>Point 354</desc>
</trkpt>
</trkseg>
</trk>
</gpx>
