<?xml version="1.0" encoding="UTF-8"?>
<gpx
  version="1.0"
  creator="GPSBabel - http://www.gpsbabel.org"
  xmlns:xsi="http://www.w3.org/2001/XMLSchema-instance"
  xmlns="http://www.topografix.com/GPX/1/0"
  xsi:schemaLocation="http://www.topografix.com/GPX/1/0 http://www.topografix.com/GPX/1/0/gpx.xsd">
<time>2010-07-12T03:43:52Z</time>
<bounds minlat="24.697519000" minlon="121.043839000" maxlat="24.703541000" maxlon="121.052200000"/>

<trk>
<trkseg>
<trkpt lat="24.703369000" lon="121.050529000">
  <ele>95.670000</ele>
  <time>2010-07-03T02:39:51Z</time>
  <name>Point 0</name>
  <cmt>Point 0</cmt>
  <desc>Point 0</desc>
</trkpt>
<trkpt lat="24.703487000" lon="121.050407000">
  <ele>127.570000</ele>
  <time>2010-07-03T02:39:57Z</time>
  <name>Point 1</name>
  <cmt>Point 1</cmt>
  <desc>Point 1</desc>
</trkpt>
<trkpt lat="24.703426000" lon="121.050446000">
  <ele>122.750000</ele>
  <time>2010-07-03T02:40:03Z</time>
  <name>Point 2</name>
  <cmt>Point 2</cmt>
  <desc>Point 2</desc>
</trkpt>
<trkpt lat="24.703451000" lon="121.050430000">
  <ele>127.200000</ele>
  <time>2010-07-03T02:40:08Z</time>
  <name>Point 3</name>
  <cmt>Point 3</cmt>
  <desc>Point 3</desc>
</trkpt>
<trkpt lat="24.703444000" lon="121.050407000">
  <ele>133.980000</ele>
  <time>2010-07-03T02:40:13Z</time>
  <name>Point 4</name>
  <cmt>Point 4</cmt>
  <desc>Point 4</desc>
</trkpt>
<trkpt lat="24.703455000" lon="121.050423000">
  <ele>134.620000</ele>
  <time>2010-07-03T02:40:18Z</time>
  <name>Point 5</name>
  <cmt>Point 5</cmt>
  <desc>Point 5</desc>
</trkpt>
<trkpt lat="24.703442000" lon="121.050476000">
  <ele>134.830000</ele>
  <time>2010-07-03T02:40:23Z</time>
  <name>Point 6</name>
  <cmt>Point 6</cmt>
  <desc>Point 6</desc>
</trkpt>
<trkpt lat="24.703453000" lon="121.050491000">
  <ele>135.780000</ele>
  <time>2010-07-03T02:40:28Z</time>
  <name>Point 7</name>
  <cmt>Point 7</cmt>
  <desc>Point 7</desc>
</trkpt>
<trkpt lat="24.703459000" lon="121.050507000">
  <ele>135.920000</ele>
  <time>2010-07-03T02:40:33Z</time>
  <name>Point 8</name>
  <cmt>Point 8</cmt>
  <desc>Point 8</desc>
</trkpt>
<trkpt lat="24.703470000" lon="121.050522000">
  <ele>136.070000</ele>
  <time>2010-07-03T02:40:38Z</time>
  <name>Point 9</name>
  <cmt>Point 9</cmt>
  <desc>Point 9</desc>
</trkpt>
<trkpt lat="24.703493000" lon="121.050560000">
  <ele>135.710000</ele>
  <time>2010-07-03T02:40:43Z</time>
  <name>Point 10</name>
  <cmt>Point 10</cmt>
  <desc>Point 10</desc>
</trkpt>
<trkpt lat="24.703485000" lon="121.050568000">
  <ele>135.410000</ele>
  <time>2010-07-03T02:40:48Z</time>
  <name>Point 11</name>
  <cmt>Point 11</cmt>
  <desc>Point 11</desc>
</trkpt>
<trkpt lat="24.703489000" lon="121.050568000">
  <ele>135.430000</ele>
  <time>2010-07-03T02:40:53Z</time>
  <name>Point 12</name>
  <cmt>Point 12</cmt>
  <desc>Point 12</desc>
</trkpt>
<trkpt lat="24.703484000" lon="121.050560000">
  <ele>135.520000</ele>
  <time>2010-07-03T02:40:58Z</time>
  <name>Point 13</name>
  <cmt>Point 13</cmt>
  <desc>Point 13</desc>
</trkpt>
<trkpt lat="24.703480000" lon="121.050560000">
  <ele>135.540000</ele>
  <time>2010-07-03T02:41:03Z</time>
  <name>Point 14</name>
  <cmt>Point 14</cmt>
  <desc>Point 14</desc>
</trkpt>
<trkpt lat="24.703482000" lon="121.050552000">
  <ele>135.540000</ele>
  <time>2010-07-03T02:41:08Z</time>
  <name>Point 15</name>
  <cmt>Point 15</cmt>
  <desc>Point 15</desc>
</trkpt>
<trkpt lat="24.703497000" lon="121.050545000">
  <ele>135.430000</ele>
  <time>2010-07-03T02:41:13Z</time>
  <name>Point 16</name>
  <cmt>Point 16</cmt>
  <desc>Point 16</desc>
</trkpt>
<trkpt lat="24.703541000" lon="121.050629000">
  <ele>135.050000</ele>
  <time>2010-07-03T02:41:18Z</time>
  <name>Point 17</name>
  <cmt>Point 17</cmt>
  <desc>Point 17</desc>
</trkpt>
<trkpt lat="24.703484000" lon="121.050888000">
  <ele>138.020000</ele>
  <time>2010-07-03T02:41:23Z</time>
  <name>Point 18</name>
  <cmt>Point 18</cmt>
  <desc>Point 18</desc>
</trkpt>
<trkpt lat="24.703430000" lon="121.051025000">
  <ele>140.420000</ele>
  <time>2010-07-03T02:41:28Z</time>
  <name>Point 19</name>
  <cmt>Point 19</cmt>
  <desc>Point 19</desc>
</trkpt>
<trkpt lat="24.703468000" lon="121.051041000">
  <ele>142.950000</ele>
  <time>2010-07-03T02:41:33Z</time>
  <name>Point 20</name>
  <cmt>Point 20</cmt>
  <desc>Point 20</desc>
</trkpt>
<trkpt lat="24.703485000" lon="121.051033000">
  <ele>144.030000</ele>
  <time>2010-07-03T02:41:38Z</time>
  <name>Point 21</name>
  <cmt>Point 21</cmt>
  <desc>Point 21</desc>
</trkpt>
<trkpt lat="24.703480000" lon="121.051041000">
  <ele>144.800000</ele>
  <time>2010-07-03T02:41:43Z</time>
  <name>Point 22</name>
  <cmt>Point 22</cmt>
  <desc>Point 22</desc>
</trkpt>
<trkpt lat="24.703485000" lon="121.051033000">
  <ele>145.270000</ele>
  <time>2010-07-03T02:41:48Z</time>
  <name>Point 23</name>
  <cmt>Point 23</cmt>
  <desc>Point 23</desc>
</trkpt>
<trkpt lat="24.703489000" lon="121.051041000">
  <ele>145.700000</ele>
  <time>2010-07-03T02:41:53Z</time>
  <name>Point 24</name>
  <cmt>Point 24</cmt>
  <desc>Point 24</desc>
</trkpt>
<trkpt lat="24.703495000" lon="121.051064000">
  <ele>145.970000</ele>
  <time>2010-07-03T02:41:58Z</time>
  <name>Point 25</name>
  <cmt>Point 25</cmt>
  <desc>Point 25</desc>
</trkpt>
<trkpt lat="24.703485000" lon="121.051155000">
  <ele>147.090000</ele>
  <time>2010-07-03T02:42:03Z</time>
  <name>Point 26</name>
  <cmt>Point 26</cmt>
  <desc>Point 26</desc>
</trkpt>
<trkpt lat="24.703417000" lon="121.051376000">
  <ele>148.080000</ele>
  <time>2010-07-03T02:42:08Z</time>
  <name>Point 27</name>
  <cmt>Point 27</cmt>
  <desc>Point 27</desc>
</trkpt>
<trkpt lat="24.703312000" lon="121.051628000">
  <ele>149.270000</ele>
  <time>2010-07-03T02:42:13Z</time>
  <name>Point 28</name>
  <cmt>Point 28</cmt>
  <desc>Point 28</desc>
</trkpt>
<trkpt lat="24.703196000" lon="121.051796000">
  <ele>150.770000</ele>
  <time>2010-07-03T02:42:18Z</time>
  <name>Point 29</name>
  <cmt>Point 29</cmt>
  <desc>Point 29</desc>
</trkpt>
<trkpt lat="24.702976000" lon="121.051964000">
  <ele>154.070000</ele>
  <time>2010-07-03T02:42:23Z</time>
  <name>Point 30</name>
  <cmt>Point 30</cmt>
  <desc>Point 30</desc>
</trkpt>
<trkpt lat="24.702755000" lon="121.052109000">
  <ele>157.410000</ele>
  <time>2010-07-03T02:42:28Z</time>
  <name>Point 31</name>
  <cmt>Point 31</cmt>
  <desc>Point 31</desc>
</trkpt>
<trkpt lat="24.702480000" lon="121.052116000">
  <ele>158.440000</ele>
  <time>2010-07-03T02:42:33Z</time>
  <name>Point 32</name>
  <cmt>Point 32</cmt>
  <desc>Point 32</desc>
</trkpt>
<trkpt lat="24.702166000" lon="121.052155000">
  <ele>159.290000</ele>
  <time>2010-07-03T02:42:38Z</time>
  <name>Point 33</name>
  <cmt>Point 33</cmt>
  <desc>Point 33</desc>
</trkpt>
<trkpt lat="24.701836000" lon="121.052200000">
  <ele>159.970000</ele>
  <time>2010-07-03T02:42:43Z</time>
  <name>Point 34</name>
  <cmt>Point 34</cmt>
  <desc>Point 34</desc>
</trkpt>
<trkpt lat="24.701496000" lon="121.052032000">
  <ele>157.290000</ele>
  <time>2010-07-03T02:42:48Z</time>
  <name>Point 35</name>
  <cmt>Point 35</cmt>
  <desc>Point 35</desc>
</trkpt>
<trkpt lat="24.701113000" lon="121.051682000">
  <ele>154.400000</ele>
  <time>2010-07-03T02:42:53Z</time>
  <name>Point 36</name>
  <cmt>Point 36</cmt>
  <desc>Point 36</desc>
</trkpt>
<trkpt lat="24.700878000" lon="121.051277000">
  <ele>146.470000</ele>
  <time>2010-07-03T02:42:58Z</time>
  <name>Point 37</name>
  <cmt>Point 37</cmt>
  <desc>Point 37</desc>
</trkpt>
<trkpt lat="24.700985000" lon="121.050774000">
  <ele>142.830000</ele>
  <time>2010-07-03T02:43:03Z</time>
  <name>Point 38</name>
  <cmt>Point 38</cmt>
  <desc>Point 38</desc>
</trkpt>
<trkpt lat="24.701204000" lon="121.050354000">
  <ele>139.410000</ele>
  <time>2010-07-03T02:43:08Z</time>
  <name>Point 39</name>
  <cmt>Point 39</cmt>
  <desc>Point 39</desc>
</trkpt>
<trkpt lat="24.701189000" lon="121.050095000">
  <ele>137.390000</ele>
  <time>2010-07-03T02:43:13Z</time>
  <name>Point 40</name>
  <cmt>Point 40</cmt>
  <desc>Point 40</desc>
</trkpt>
<trkpt lat="24.701118000" lon="121.049828000">
  <ele>135.390000</ele>
  <time>2010-07-03T02:43:18Z</time>
  <name>Point 41</name>
  <cmt>Point 41</cmt>
  <desc>Point 41</desc>
</trkpt>
<trkpt lat="24.700964000" lon="121.049530000">
  <ele>130.500000</ele>
  <time>2010-07-03T02:43:23Z</time>
  <name>Point 42</name>
  <cmt>Point 42</cmt>
  <desc>Point 42</desc>
</trkpt>
<trkpt lat="24.700682000" lon="121.049240000">
  <ele>129.350000</ele>
  <time>2010-07-03T02:43:28Z</time>
  <name>Point 43</name>
  <cmt>Point 43</cmt>
  <desc>Point 43</desc>
</trkpt>
<trkpt lat="24.700367000" lon="121.048981000">
  <ele>128.610000</ele>
  <time>2010-07-03T02:43:33Z</time>
  <name>Point 44</name>
  <cmt>Point 44</cmt>
  <desc>Point 44</desc>
</trkpt>
<trkpt lat="24.700050000" lon="121.048653000">
  <ele>127.220000</ele>
  <time>2010-07-03T02:43:38Z</time>
  <name>Point 45</name>
  <cmt>Point 45</cmt>
  <desc>Point 45</desc>
</trkpt>
<trkpt lat="24.699739000" lon="121.048325000">
  <ele>126.130000</ele>
  <time>2010-07-03T02:43:43Z</time>
  <name>Point 46</name>
  <cmt>Point 46</cmt>
  <desc>Point 46</desc>
</trkpt>
<trkpt lat="24.699383000" lon="121.048035000">
  <ele>124.250000</ele>
  <time>2010-07-03T02:43:48Z</time>
  <name>Point 47</name>
  <cmt>Point 47</cmt>
  <desc>Point 47</desc>
</trkpt>
<trkpt lat="24.699100000" lon="121.047729000">
  <ele>127.930000</ele>
  <time>2010-07-03T02:43:53Z</time>
  <name>Point 48</name>
  <cmt>Point 48</cmt>
  <desc>Point 48</desc>
</trkpt>
<trkpt lat="24.698868000" lon="121.047577000">
  <ele>130.860000</ele>
  <time>2010-07-03T02:43:58Z</time>
  <name>Point 49</name>
  <cmt>Point 49</cmt>
  <desc>Point 49</desc>
</trkpt>
<trkpt lat="24.698656000" lon="121.047516000">
  <ele>132.740000</ele>
  <time>2010-07-03T02:44:03Z</time>
  <name>Point 50</name>
  <cmt>Point 50</cmt>
  <desc>Point 50</desc>
</trkpt>
<trkpt lat="24.698427000" lon="121.047272000">
  <ele>133.290000</ele>
  <time>2010-07-03T02:44:08Z</time>
  <name>Point 51</name>
  <cmt>Point 51</cmt>
  <desc>Point 51</desc>
</trkpt>
<trkpt lat="24.698168000" lon="121.046875000">
  <ele>133.910000</ele>
  <time>2010-07-03T02:44:13Z</time>
  <name>Point 52</name>
  <cmt>Point 52</cmt>
  <desc>Point 52</desc>
</trkpt>
<trkpt lat="24.697866000" lon="121.046364000">
  <ele>131.730000</ele>
  <time>2010-07-03T02:44:18Z</time>
  <name>Point 53</name>
  <cmt>Point 53</cmt>
  <desc>Point 53</desc>
</trkpt>
<trkpt lat="24.697683000" lon="121.045967000">
  <ele>130.150000</ele>
  <time>2010-07-03T02:44:23Z</time>
  <name>Point 54</name>
  <cmt>Point 54</cmt>
  <desc>Point 54</desc>
</trkpt>
<trkpt lat="24.697561000" lon="121.045631000">
  <ele>131.920000</ele>
  <time>2010-07-03T02:44:28Z</time>
  <name>Point 55</name>
  <cmt>Point 55</cmt>
  <desc>Point 55</desc>
</trkpt>
<trkpt lat="24.697617000" lon="121.045288000">
  <ele>134.760000</ele>
  <time>2010-07-03T02:44:33Z</time>
  <name>Point 56</name>
  <cmt>Point 56</cmt>
  <desc>Point 56</desc>
</trkpt>
<trkpt lat="24.697731000" lon="121.044975000">
  <ele>138.650000</ele>
  <time>2010-07-03T02:44:38Z</time>
  <name>Point 57</name>
  <cmt>Point 57</cmt>
  <desc>Point 57</desc>
</trkpt>
<trkpt lat="24.697783000" lon="121.044579000">
  <ele>143.570000</ele>
  <time>2010-07-03T02:44:43Z</time>
  <name>Point 58</name>
  <cmt>Point 58</cmt>
  <desc>Point 58</desc>
</trkpt>
<trkpt lat="24.697746000" lon="121.044350000">
  <ele>146.210000</ele>
  <time>2010-07-03T02:44:48Z</time>
  <name>Point 59</name>
  <cmt>Point 59</cmt>
  <desc>Point 59</desc>
</trkpt>
<trkpt lat="24.697756000" lon="121.044113000">
  <ele>147.430000</ele>
  <time>2010-07-03T02:44:53Z</time>
  <name>Point 60</name>
  <cmt>Point 60</cmt>
  <desc>Point 60</desc>
</trkpt>
<trkpt lat="24.697788000" lon="121.043945000">
  <ele>149.330000</ele>
  <time>2010-07-03T02:44:58Z</time>
  <name>Point 61</name>
  <cmt>Point 61</cmt>
  <desc>Point 61</desc>
</trkpt>
<trkpt lat="24.697775000" lon="121.043839000">
  <ele>150.260000</ele>
  <time>2010-07-03T02:45:03Z</time>
  <name>Point 62</name>
  <cmt>Point 62</cmt>
  <desc>Point 62</desc>
</trkpt>
<trkpt lat="24.697742000" lon="121.043869000">
  <ele>148.680000</ele>
  <time>2010-07-03T02:45:08Z</time>
  <name>Point 63</name>
  <cmt>Point 63</cmt>
  <desc>Point 63</desc>
</trkpt>
<trkpt lat="24.697662000" lon="121.043953000">
  <ele>147.440000</ele>
  <time>2010-07-03T02:45:13Z</time>
  <name>Point 64</name>
  <cmt>Point 64</cmt>
  <desc>Point 64</desc>
</trkpt>
<trkpt lat="24.697580000" lon="121.044037000">
  <ele>146.770000</ele>
  <time>2010-07-03T02:45:18Z</time>
  <name>Point 65</name>
  <cmt>Point 65</cmt>
  <desc>Point 65</desc>
</trkpt>
<trkpt lat="24.697519000" lon="121.044090000">
  <ele>144.350000</ele>
  <time>2010-07-03T02:45:23Z</time>
  <name>Point 66</name>
  <cmt>Point 66</cmt>
  <desc>Point 66</desc>
</trkpt>
<trkpt lat="24.697542000" lon="121.044174000">
  <ele>144.460000</ele>
  <time>2010-07-03T02:45:28Z</time>
  <name>Point 67</name>
  <cmt>Point 67</cmt>
  <desc>Point 67</desc>
</trkpt>
<trkpt lat="24.697598000" lon="121.044128000">
  <ele>144.070000</ele>
  <time>2010-07-03T02:45:33Z</time>
  <name>Point 68</name>
  <cmt>Point 68</cmt>
  <desc>Point 68</desc>
</trkpt>
<trkpt lat="24.697668000" lon="121.044075000">
  <ele>143.950000</ele>
  <time>2010-07-03T02:45:38Z</time>
  <name>Point 69</name>
  <cmt>Point 69</cmt>
  <desc>Point 69</desc>
</trkpt>
<trkpt lat="24.697735000" lon="121.044006000">
  <ele>143.230000</ele>
  <time>2010-07-03T02:45:43Z</time>
  <name>Point 70</name>
  <cmt>Point 70</cmt>
  <desc>Point 70</desc>
</trkpt>
<trkpt lat="24.697723000" lon="121.043922000">
  <ele>143.290000</ele>
  <time>2010-07-03T02:45:48Z</time>
  <name>Point 71</name>
  <cmt>Point 71</cmt>
  <desc>Point 71</desc>
</trkpt>
<trkpt lat="24.697725000" lon="121.043861000">
  <ele>142.800000</ele>
  <time>2010-07-03T02:45:53Z</time>
  <name>Point 72</name>
  <cmt>Point 72</cmt>
  <desc>Point 72</desc>
</trkpt>
<trkpt lat="24.697750000" lon="121.043861000">
  <ele>142.270000</ele>
  <time>2010-07-03T02:45:58Z</time>
  <name>Point 73</name>
  <cmt>Point 73</cmt>
  <desc>Point 73</desc>
</trkpt>
<trkpt lat="24.697741000" lon="121.043877000">
  <ele>142.330000</ele>
  <time>2010-07-03T02:46:03Z</time>
  <name>Point 74</name>
  <cmt>Point 74</cmt>
  <desc>Point 74</desc>
</trkpt>
<trkpt lat="24.697733000" lon="121.043892000">
  <ele>142.400000</ele>
  <time>2010-07-03T02:46:08Z</time>
  <name>Point 75</name>
  <cmt>Point 75</cmt>
  <desc>Point 75</desc>
</trkpt>
<trkpt lat="24.697739000" lon="121.043892000">
  <ele>142.420000</ele>
  <time>2010-07-03T02:46:13Z</time>
  <name>Point 76</name>
  <cmt>Point 76</cmt>
  <desc>Point 76</desc>
</trkpt>
</trkseg>
</trk>
</gpx>
