<?xml version="1.0" encoding="UTF-8"?>
<kml xmlns="http://earth.google.com/kml/2.1">
<Document>
<Style id="normalState_TLP_Start">
<IconStyle>
<scale>1.0</scale>
<Icon>
<href>http://maps.google.com/mapfiles/kml/pal4/icon15.png</href>
</Icon>
</IconStyle>
<LabelStyle>
<scale>1.0</scale>
</LabelStyle>
</Style>
<Style id="highlightState_TLP_Start">
<IconStyle>
<scale>1.1</scale>
<Icon>
<href>http://maps.google.com/mapfiles/kml/pal4/icon7.png</href>
</Icon>
</IconStyle>
<LabelStyle>
<scale>1.1</scale>
<color>ff0000ff</color>
</LabelStyle>
</Style>
<StyleMap id="styleMap_TLP_Start">
<Pair>
<key>normal</key>
<styleUrl>#normalState_TLP_Start</styleUrl>
</Pair>
<Pair>
<key>highlight</key>
<styleUrl>#highlightState_TLP_Start</styleUrl>
</Pair>
</StyleMap>
<Style id="normalState_TLP_Finish">
<IconStyle>
<scale>1.0</scale>
<Icon>
<href>http://maps.google.com/mapfiles/kml/pal4/icon15.png</href>
</Icon>
</IconStyle>
<LabelStyle>
<scale>1.0</scale>
</LabelStyle>
</Style>
<Style id="highlightState_TLP_Finish">
<IconStyle>
<scale>1.1</scale>
<Icon>
<href>http://maps.google.com/mapfiles/kml/pal4/icon7.png</href>
</Icon>
</IconStyle>
<LabelStyle>
<scale>1.1</scale>
<color>ff0000ff</color>
</LabelStyle>
</Style>
<StyleMap id="styleMap_TLP_Finish">
<Pair>
<key>normal</key>
<styleUrl>#normalState_TLP_Finish</styleUrl>
</Pair>
<Pair>
<key>highlight</key>
<styleUrl>#highlightState_TLP_Finish</styleUrl>
</Pair>
</StyleMap>
<Style id="normalState_TLP_Normal">
<IconStyle>
<scale>1.0</scale>
<Icon>
<href>http://maps.google.com/mapfiles/kml/pal4/icon31.png</href>
</Icon>
</IconStyle>
<LabelStyle>
<scale>1.0</scale>
</LabelStyle>
</Style>
<Style id="highlightState_TLP_Normal">
<IconStyle>
<scale>1.1</scale>
<Icon>
<href>http://maps.google.com/mapfiles/kml/pal4/icon23.png</href>
</Icon>
</IconStyle>
<LabelStyle>
<scale>1.1</scale>
<color>ff0000ff</color>
</LabelStyle>
</Style>
<StyleMap id="styleMap_TLP_Normal">
<Pair>
<key>normal</key>
<styleUrl>#normalState_TLP_Normal</styleUrl>
</Pair>
<Pair>
<key>highlight</key>
<styleUrl>#highlightState_TLP_Normal</styleUrl>
</Pair>
</StyleMap>
<Style id="normalState_TLP_Photo">
<IconStyle>
<scale>1.0</scale>
<Icon>
<href>http://maps.google.com/mapfiles/kml/pal4/icon46.png</href>
</Icon>
</IconStyle>
<LabelStyle>
<scale>1.0</scale>
</LabelStyle>
</Style>
<Style id="highlightState_TLP_Photo">
<IconStyle>
<scale>1.1</scale>
<Icon>
<href>http://maps.google.com/mapfiles/kml/pal4/icon38.png</href>
</Icon>
</IconStyle>
<LabelStyle>
<scale>1.1</scale>
<color>ff0000ff</color>
</LabelStyle>
</Style>
<StyleMap id="styleMap_TLP_Photo">
<Pair>
<key>normal</key>
<styleUrl>#normalState_TLP_Photo</styleUrl>
</Pair>
<Pair>
<key>highlight</key>
<styleUrl>#highlightState_TLP_Photo</styleUrl>
</Pair>
</StyleMap>
<Style id="roadStyle">
<LineStyle>
<color>ffffff00</color>
<width>6</width>
</LineStyle>
</Style>
<Open>1</Open>
<description>Route</description>
<name>Track Log</name>
<Placemark>
<name>Route</name>
<styleUrl>#roadStyle</styleUrl>
<MultiGeometry>
<LineString>
<coordinates>
120.3148880,23.1283264,19.72 120.3144455,23.1283493,37.52 120.3140488,23.1284409,36.47 120.3136978,23.1285343,42.68 120.3133316,23.1286316,38.94 120.3129501,23.1287498,27.82 120.3125916,23.1288319,30.69 120.3122177,23.1289310,31.33 120.3118286,23.1290722,32.95 120.3114243,23.1292152,32.37 120.3110123,23.1293411,36.14 120.3105850,23.1294365,36.82 120.3101883,23.1295414,37.13 120.3097763,23.1296730,35.50 120.3093491,23.1297665,36.72 120.3089066,23.1298580,39.67 120.3084717,23.1299725,39.24 120.3080139,23.1301079,38.54 120.3075790,23.1302433,37.62 120.3071518,23.1303711,38.04 120.3067322,23.1304817,38.32 120.3063431,23.1305904,38.25 120.3059998,23.1307011,37.80 120.3056107,23.1308079,33.16 120.3051529,23.1308613,33.65 120.3046951,23.1307774,34.87 120.3042297,23.1306953,35.34 120.3038177,23.1306190,35.55 120.3035049,23.1305656,34.37 120.3032150,23.1305161,36.30 120.3028488,23.1304379,37.03 120.3024445,23.1303673,40.96 120.3020630,23.1302891,45.13 120.3016815,23.1302376,49.74 120.3013000,23.1301422,54.57 120.3009567,23.1300907,58.53 120.3006668,23.1300640,56.26 120.3003464,23.1300240,58.50 120.3000488,23.1299648,57.51 120.2997589,23.1299477,58.27 120.2994156,23.1299496,57.40 120.2990875,23.1299229,57.93 120.2987595,23.1298485,61.67 120.2984314,23.1297760,64.41 120.2981262,23.1296806,67.55 120.2977905,23.1296291,68.30 120.2974396,23.1295719,71.06 120.2971954,23.1295300,74.07 120.2970810,23.1295509,77.46 120.2970505,23.1295357,77.69 120.2970428,23.1295319,79.35 120.2970352,23.1295300,79.86 120.2969666,23.1295204,80.38 120.2967300,23.1295490,70.92 120.2964478,23.1295071,67.14 120.2961502,23.1294670,64.72 120.2958527,23.1294537,61.82 120.2957077,23.1294308,58.20 120.2956161,23.1294346,55.44 120.2955933,23.1294270,55.28 120.2955933,23.1294270,55.19 120.2955856,23.1294270,55.17 120.2955704,23.1294250,55.18 120.2955017,23.1294022,54.50 120.2954788,23.1293583,43.59 120.2954788,23.1293583,43.21 120.2954788,23.1293583,43.06 120.2954788,23.1293583,42.99 120.2954788,23.1293583,42.99 120.2954788,23.1293583,42.99 120.2954788,23.1293583,42.99 120.2954788,23.1293583,42.98 120.2954865,23.1293583,42.97 120.2954865,23.1293583,42.97 120.2954865,23.1293583,42.96 120.2954865,23.1293583,42.96 120.2954865,23.1293583,42.96 120.2954865,23.1293583,42.95 120.2954865,23.1293583,42.95 120.2954865,23.1293602,42.94 120.2954865,23.1293602,42.94 120.2954865,23.1293621,42.93 120.2954865,23.1293621,42.92 120.2954865,23.1293621,42.92 120.2954865,23.1293640,42.91 120.2954865,23.1293640,42.92 120.2954865,23.1293659,42.90 120.2954865,23.1293659,42.86 120.2954865,23.1293659,42.85 120.2954865,23.1293659,42.82 120.2953186,23.1293659,42.69 120.2950592,23.1293011,42.85 120.2947922,23.1292343,42.97 120.2944870,23.1292038,43.75 120.2942047,23.1291904,45.04 120.2939911,23.1292324,45.89 120.2938690,23.1294842,44.50 120.2938309,23.1297684,41.80 120.2938461,23.1300354,40.06 120.2938538,23.1302967,37.87 120.2938232,23.1305733,33.29 120.2938156,23.1308460,29.93 120.2937851,23.1311131,31.64 120.2937775,23.1313782,31.13 120.2937393,23.1316071,36.53 120.2937012,23.1318359,38.30 120.2937012,23.1319962,37.52 120.2936172,23.1321583,37.05 120.2935104,23.1324787,34.87 120.2935638,23.1328506,33.51 120.2935944,23.1332378,33.35 120.2935333,23.1336136,35.36 120.2934875,23.1339607,33.82 120.2934952,23.1342373,30.87 120.2936096,23.1343536,33.07 120.2936249,23.1343555,34.32 120.2936249,23.1343575,34.53 120.2934494,23.1345024,35.98 120.2931519,23.1345806,35.68 120.2928543,23.1346436,35.53 120.2925644,23.1346931,36.06 120.2922516,23.1347408,36.02 120.2918854,23.1348076,36.42 120.2915115,23.1348782,37.36 120.2911148,23.1349316,38.42 120.2907257,23.1349964,38.96 120.2903137,23.1350555,39.72 120.2899170,23.1351318,40.48 120.2895508,23.1352654,41.65 120.2892685,23.1355000,42.09 120.2891083,23.1358528,39.73 120.2890015,23.1362190,38.63 120.2888870,23.1365585,38.40 120.2887802,23.1368942,39.11 120.2886734,23.1372375,37.80 120.2885818,23.1376057,36.28 120.2884827,23.1379356,36.25 120.2884140,23.1382484,34.99 120.2883453,23.1384983,34.71 120.2883224,23.1385860,35.06 120.2883224,23.1385860,35.17 120.2883224,23.1385860,35.18 120.2883224,23.1385803,35.15 120.2883224,23.1385784,35.15 120.2883224,23.1385784,35.11 120.2883224,23.1385784,35.06 120.2883224,23.1385822,35.04 120.2883148,23.1385975,35.01 120.2883301,23.1387997,34.00 120.2883301,23.1390991,32.25 120.2883224,23.1394119,29.90 120.2883148,23.1397457,28.19 120.2882767,23.1401176,26.16 120.2882156,23.1404819,23.05 120.2881927,23.1408157,21.62 120.2881699,23.1411972,15.39 120.2881241,23.1415768,13.56 120.2880859,23.1419697,12.11 120.2880630,23.1423740,12.37 120.2880554,23.1428051,8.88 120.2880707,23.1432476,9.90 120.2880783,23.1436901,13.39 120.2880630,23.1441422,16.65 120.2880554,23.1445885,15.79 120.2880478,23.1450367,14.44 120.2880554,23.1454735,15.22 120.2880630,23.1459064,15.18 120.2880630,23.1463356,15.30 120.2880478,23.1467495,19.43 120.2880478,23.1471043,20.55 120.2880402,23.1474648,17.84 120.2880020,23.1478367,16.44 120.2879257,23.1482334,14.93 120.2878342,23.1486568,17.69 120.2877731,23.1490936,17.38 120.2876129,23.1494884,25.09 120.2875366,23.1498756,26.25 120.2874527,23.1502934,28.46 120.2873459,23.1507111,31.47 120.2872543,23.1511173,31.38 120.2871628,23.1514797,35.78 120.2870865,23.1518326,36.44 120.2870255,23.1522026,34.43 120.2869110,23.1525517,40.52 120.2868576,23.1528301,39.53 120.2869568,23.1529331,34.49 120.2869720,23.1529427,36.78 120.2871017,23.1529408,34.78 120.2874069,23.1529655,31.64 120.2877884,23.1529732,27.23 120.2881241,23.1530266,27.26 120.2883987,23.1530533,26.27 120.2886810,23.1530647,26.24 120.2890244,23.1530933,26.20 120.2893600,23.1531410,24.94 120.2895050,23.1531487,24.62 120.2895050,23.1531792,25.15 120.2895279,23.1532269,24.94 120.2894897,23.1534405,24.74 120.2894821,23.1536293,24.75 120.2894516,23.1538410,24.45 120.2893829,23.1540165,25.63 120.2892380,23.1540546,26.43 120.2890320,23.1540489,26.95 120.2889175,23.1540337,27.78 120.2888870,23.1540508,27.24 120.2888794,23.1540489,27.24 120.2888336,23.1540680,25.53 120.2888260,23.1540737,24.78 120.2888336,23.1540737,24.76 120.2888260,23.1540737,24.77 120.2888184,23.1540718,24.78 120.2888336,23.1540699,24.65 120.2888489,23.1540775,23.95 120.2888412,23.1540775,23.95 120.2888412,23.1540775,23.99 120.2888489,23.1540775,23.97 120.2888489,23.1540775,23.95 120.2888489,23.1540756,23.94 120.2888489,23.1540775,23.88 120.2888489,23.1540833,23.97 120.2888412,23.1540756,24.23 120.2888260,23.1540680,23.83 120.2888260,23.1540718,23.70 120.2888336,23.1540737,23.69 120.2888412,23.1540756,23.70 120.2888565,23.1540775,23.69 120.2888794,23.1540966,23.60 120.2888718,23.1541157,23.61 120.2888718,23.1541176,23.62 120.2888641,23.1541176,23.62 120.2888641,23.1541195,23.63 120.2888641,23.1541214,23.62 120.2888565,23.1541214,23.62 120.2888565,23.1541233,23.61 120.2888641,23.1541252,23.61 120.2888641,23.1541252,23.62 120.2888718,23.1541290,23.61 120.2888641,23.1541271,23.60 120.2888641,23.1541271,23.60 120.2888641,23.1541290,23.59 120.2888641,23.1541309,23.58 120.2888718,23.1541328,23.58 120.2888718,23.1541348,23.56 120.2888794,23.1541348,23.56 120.2888794,23.1541348,23.56 120.2889099,23.1541462,23.50 120.2889175,23.1541786,23.19 120.2889175,23.1541824,23.17 120.2888870,23.1542110,23.15 120.2888794,23.1542435,23.22 120.2888641,23.1542492,23.23 120.2888794,23.1542492,23.24 120.2888718,23.1542492,23.25 120.2888718,23.1542492,23.25 120.2889099,23.1542530,22.48 120.2889481,23.1542740,21.91 120.2889862,23.1542740,22.23 120.2889938,23.1542740,22.21 120.2890244,23.1542950,21.34 120.2890244,23.1543446,22.91 120.2890167,23.1543465,22.93 120.2890244,23.1543465,22.98 120.2890396,23.1543484,22.97 120.2890244,23.1543770,23.50 120.2890244,23.1543770,23.49 120.2890320,23.1543789,23.52 120.2890320,23.1543808,23.53 120.2890320,23.1543808,23.51 120.2890244,23.1543808,23.48 120.2890244,23.1543808,23.43 120.2890167,23.1543808,23.39 120.2890091,23.1543789,23.37 120.2890015,23.1543808,23.00 </coordinates>
</LineString>
</MultiGeometry>
</Placemark>
<Folder>
<name>waypoints</name>
<Placemark>
<name>
Sat Aug 07 14:46:26 2010
</name>
<styleUrl>
#styleMap_TLP_Start
</styleUrl>
<Point>
<coordinates>
120.3148880,23.1283264,19.72
</coordinates>
</Point>
</Placemark>
<Placemark>
<name>
Sat Aug 07 14:46:31 2010
</name>
<styleUrl>
#styleMap_TLP_Normal
</styleUrl>
<Point>
<coordinates>
120.3144455,23.1283493,37.52
</coordinates>
</Point>
</Placemark>
<Placemark>
<name>
Sat Aug 07 14:46:36 2010
</name>
<styleUrl>
#styleMap_TLP_Normal
</styleUrl>
<Point>
<coordinates>
120.3140488,23.1284409,36.47
</coordinates>
</Point>
</Placemark>
<Placemark>
<name>
Sat Aug 07 14:46:41 2010
</name>
<styleUrl>
#styleMap_TLP_Normal
</styleUrl>
<Point>
<coordinates>
120.3136978,23.1285343,42.68
</coordinates>
</Point>
</Placemark>
<Placemark>
<name>
Sat Aug 07 14:46:46 2010
</name>
<styleUrl>
#styleMap_TLP_Normal
</styleUrl>
<Point>
<coordinates>
120.3133316,23.1286316,38.94
</coordinates>
</Point>
</Placemark>
<Placemark>
<name>
Sat Aug 07 14:46:51 2010
</name>
<styleUrl>
#styleMap_TLP_Normal
</styleUrl>
<Point>
<coordinates>
120.3129501,23.1287498,27.82
</coordinates>
</Point>
</Placemark>
<Placemark>
<name>
Sat Aug 07 14:46:56 2010
</name>
<styleUrl>
#styleMap_TLP_Normal
</styleUrl>
<Point>
<coordinates>
120.3125916,23.1288319,30.69
</coordinates>
</Point>
</Placemark>
<Placemark>
<name>
Sat Aug 07 14:47:01 2010
</name>
<styleUrl>
#styleMap_TLP_Normal
</styleUrl>
<Point>
<coordinates>
120.3122177,23.1289310,31.33
</coordinates>
</Point>
</Placemark>
<Placemark>
<name>
Sat Aug 07 14:47:06 2010
</name>
<styleUrl>
#styleMap_TLP_Normal
</styleUrl>
<Point>
<coordinates>
120.3118286,23.1290722,32.95
</coordinates>
</Point>
</Placemark>
<Placemark>
<name>
Sat Aug 07 14:47:11 2010
</name>
<styleUrl>
#styleMap_TLP_Normal
</styleUrl>
<Point>
<coordinates>
120.3114243,23.1292152,32.37
</coordinates>
</Point>
</Placemark>
<Placemark>
<name>
Sat Aug 07 14:47:16 2010
</name>
<styleUrl>
#styleMap_TLP_Normal
</styleUrl>
<Point>
<coordinates>
120.3110123,23.1293411,36.14
</coordinates>
</Point>
</Placemark>
<Placemark>
<name>
Sat Aug 07 14:47:21 2010
</name>
<styleUrl>
#styleMap_TLP_Normal
</styleUrl>
<Point>
<coordinates>
120.3105850,23.1294365,36.82
</coordinates>
</Point>
</Placemark>
<Placemark>
<name>
Sat Aug 07 14:47:26 2010
</name>
<styleUrl>
#styleMap_TLP_Normal
</styleUrl>
<Point>
<coordinates>
120.3101883,23.1295414,37.13
</coordinates>
</Point>
</Placemark>
<Placemark>
<name>
Sat Aug 07 14:47:31 2010
</name>
<styleUrl>
#styleMap_TLP_Normal
</styleUrl>
<Point>
<coordinates>
120.3097763,23.1296730,35.50
</coordinates>
</Point>
</Placemark>
<Placemark>
<name>
Sat Aug 07 14:47:36 2010
</name>
<styleUrl>
#styleMap_TLP_Normal
</styleUrl>
<Point>
<coordinates>
120.3093491,23.1297665,36.72
</coordinates>
</Point>
</Placemark>
<Placemark>
<name>
Sat Aug 07 14:47:41 2010
</name>
<styleUrl>
#styleMap_TLP_Normal
</styleUrl>
<Point>
<coordinates>
120.3089066,23.1298580,39.67
</coordinates>
</Point>
</Placemark>
<Placemark>
<name>
Sat Aug 07 14:47:46 2010
</name>
<styleUrl>
#styleMap_TLP_Normal
</styleUrl>
<Point>
<coordinates>
120.3084717,23.1299725,39.24
</coordinates>
</Point>
</Placemark>
<Placemark>
<name>
Sat Aug 07 14:47:51 2010
</name>
<styleUrl>
#styleMap_TLP_Normal
</styleUrl>
<Point>
<coordinates>
120.3080139,23.1301079,38.54
</coordinates>
</Point>
</Placemark>
<Placemark>
<name>
Sat Aug 07 14:47:56 2010
</name>
<styleUrl>
#styleMap_TLP_Normal
</styleUrl>
<Point>
<coordinates>
120.3075790,23.1302433,37.62
</coordinates>
</Point>
</Placemark>
<Placemark>
<name>
Sat Aug 07 14:48:01 2010
</name>
<styleUrl>
#styleMap_TLP_Normal
</styleUrl>
<Point>
<coordinates>
120.3071518,23.1303711,38.04
</coordinates>
</Point>
</Placemark>
<Placemark>
<name>
Sat Aug 07 14:48:06 2010
</name>
<styleUrl>
#styleMap_TLP_Normal
</styleUrl>
<Point>
<coordinates>
120.3067322,23.1304817,38.32
</coordinates>
</Point>
</Placemark>
<Placemark>
<name>
Sat Aug 07 14:48:11 2010
</name>
<styleUrl>
#styleMap_TLP_Normal
</styleUrl>
<Point>
<coordinates>
120.3063431,23.1305904,38.25
</coordinates>
</Point>
</Placemark>
<Placemark>
<name>
Sat Aug 07 14:48:16 2010
</name>
<styleUrl>
#styleMap_TLP_Normal
</styleUrl>
<Point>
<coordinates>
120.3059998,23.1307011,37.80
</coordinates>
</Point>
</Placemark>
<Placemark>
<name>
Sat Aug 07 14:48:21 2010
</name>
<styleUrl>
#styleMap_TLP_Normal
</styleUrl>
<Point>
<coordinates>
120.3056107,23.1308079,33.16
</coordinates>
</Point>
</Placemark>
<Placemark>
<name>
Sat Aug 07 14:48:26 2010
</name>
<styleUrl>
#styleMap_TLP_Normal
</styleUrl>
<Point>
<coordinates>
120.3051529,23.1308613,33.65
</coordinates>
</Point>
</Placemark>
<Placemark>
<name>
Sat Aug 07 14:48:31 2010
</name>
<styleUrl>
#styleMap_TLP_Normal
</styleUrl>
<Point>
<coordinates>
120.3046951,23.1307774,34.87
</coordinates>
</Point>
</Placemark>
<Placemark>
<name>
Sat Aug 07 14:48:36 2010
</name>
<styleUrl>
#styleMap_TLP_Normal
</styleUrl>
<Point>
<coordinates>
120.3042297,23.1306953,35.34
</coordinates>
</Point>
</Placemark>
<Placemark>
<name>
Sat Aug 07 14:48:41 2010
</name>
<styleUrl>
#styleMap_TLP_Normal
</styleUrl>
<Point>
<coordinates>
120.3038177,23.1306190,35.55
</coordinates>
</Point>
</Placemark>
<Placemark>
<name>
Sat Aug 07 14:48:46 2010
</name>
<styleUrl>
#styleMap_TLP_Normal
</styleUrl>
<Point>
<coordinates>
120.3035049,23.1305656,34.37
</coordinates>
</Point>
</Placemark>
<Placemark>
<name>
Sat Aug 07 14:48:51 2010
</name>
<styleUrl>
#styleMap_TLP_Normal
</styleUrl>
<Point>
<coordinates>
120.3032150,23.1305161,36.30
</coordinates>
</Point>
</Placemark>
<Placemark>
<name>
Sat Aug 07 14:48:56 2010
</name>
<styleUrl>
#styleMap_TLP_Normal
</styleUrl>
<Point>
<coordinates>
120.3028488,23.1304379,37.03
</coordinates>
</Point>
</Placemark>
<Placemark>
<name>
Sat Aug 07 14:49:01 2010
</name>
<styleUrl>
#styleMap_TLP_Normal
</styleUrl>
<Point>
<coordinates>
120.3024445,23.1303673,40.96
</coordinates>
</Point>
</Placemark>
<Placemark>
<name>
Sat Aug 07 14:49:06 2010
</name>
<styleUrl>
#styleMap_TLP_Normal
</styleUrl>
<Point>
<coordinates>
120.3020630,23.1302891,45.13
</coordinates>
</Point>
</Placemark>
<Placemark>
<name>
Sat Aug 07 14:49:11 2010
</name>
<styleUrl>
#styleMap_TLP_Normal
</styleUrl>
<Point>
<coordinates>
120.3016815,23.1302376,49.74
</coordinates>
</Point>
</Placemark>
<Placemark>
<name>
Sat Aug 07 14:49:16 2010
</name>
<styleUrl>
#styleMap_TLP_Normal
</styleUrl>
<Point>
<coordinates>
120.3013000,23.1301422,54.57
</coordinates>
</Point>
</Placemark>
<Placemark>
<name>
Sat Aug 07 14:49:21 2010
</name>
<styleUrl>
#styleMap_TLP_Normal
</styleUrl>
<Point>
<coordinates>
120.3009567,23.1300907,58.53
</coordinates>
</Point>
</Placemark>
<Placemark>
<name>
Sat Aug 07 14:49:26 2010
</name>
<styleUrl>
#styleMap_TLP_Normal
</styleUrl>
<Point>
<coordinates>
120.3006668,23.1300640,56.26
</coordinates>
</Point>
</Placemark>
<Placemark>
<name>
Sat Aug 07 14:49:31 2010
</name>
<styleUrl>
#styleMap_TLP_Normal
</styleUrl>
<Point>
<coordinates>
120.3003464,23.1300240,58.50
</coordinates>
</Point>
</Placemark>
<Placemark>
<name>
Sat Aug 07 14:49:36 2010
</name>
<styleUrl>
#styleMap_TLP_Normal
</styleUrl>
<Point>
<coordinates>
120.3000488,23.1299648,57.51
</coordinates>
</Point>
</Placemark>
<Placemark>
<name>
Sat Aug 07 14:49:41 2010
</name>
<styleUrl>
#styleMap_TLP_Normal
</styleUrl>
<Point>
<coordinates>
120.2997589,23.1299477,58.27
</coordinates>
</Point>
</Placemark>
<Placemark>
<name>
Sat Aug 07 14:49:46 2010
</name>
<styleUrl>
#styleMap_TLP_Normal
</styleUrl>
<Point>
<coordinates>
120.2994156,23.1299496,57.40
</coordinates>
</Point>
</Placemark>
<Placemark>
<name>
Sat Aug 07 14:49:51 2010
</name>
<styleUrl>
#styleMap_TLP_Normal
</styleUrl>
<Point>
<coordinates>
120.2990875,23.1299229,57.93
</coordinates>
</Point>
</Placemark>
<Placemark>
<name>
Sat Aug 07 14:49:56 2010
</name>
<styleUrl>
#styleMap_TLP_Normal
</styleUrl>
<Point>
<coordinates>
120.2987595,23.1298485,61.67
</coordinates>
</Point>
</Placemark>
<Placemark>
<name>
Sat Aug 07 14:50:01 2010
</name>
<styleUrl>
#styleMap_TLP_Normal
</styleUrl>
<Point>
<coordinates>
120.2984314,23.1297760,64.41
</coordinates>
</Point>
</Placemark>
<Placemark>
<name>
Sat Aug 07 14:50:06 2010
</name>
<styleUrl>
#styleMap_TLP_Normal
</styleUrl>
<Point>
<coordinates>
120.2981262,23.1296806,67.55
</coordinates>
</Point>
</Placemark>
<Placemark>
<name>
Sat Aug 07 14:50:11 2010
</name>
<styleUrl>
#styleMap_TLP_Normal
</styleUrl>
<Point>
<coordinates>
120.2977905,23.1296291,68.30
</coordinates>
</Point>
</Placemark>
<Placemark>
<name>
Sat Aug 07 14:50:16 2010
</name>
<styleUrl>
#styleMap_TLP_Normal
</styleUrl>
<Point>
<coordinates>
120.2974396,23.1295719,71.06
</coordinates>
</Point>
</Placemark>
<Placemark>
<name>
Sat Aug 07 14:50:21 2010
</name>
<styleUrl>
#styleMap_TLP_Normal
</styleUrl>
<Point>
<coordinates>
120.2971954,23.1295300,74.07
</coordinates>
</Point>
</Placemark>
<Placemark>
<name>
Sat Aug 07 14:50:26 2010
</name>
<styleUrl>
#styleMap_TLP_Normal
</styleUrl>
<Point>
<coordinates>
120.2970810,23.1295509,77.46
</coordinates>
</Point>
</Placemark>
<Placemark>
<name>
Sat Aug 07 14:50:31 2010
</name>
<styleUrl>
#styleMap_TLP_Normal
</styleUrl>
<Point>
<coordinates>
120.2970505,23.1295357,77.69
</coordinates>
</Point>
</Placemark>
<Placemark>
<name>
Sat Aug 07 14:50:36 2010
</name>
<styleUrl>
#styleMap_TLP_Normal
</styleUrl>
<Point>
<coordinates>
120.2970428,23.1295319,79.35
</coordinates>
</Point>
</Placemark>
<Placemark>
<name>
Sat Aug 07 14:50:41 2010
</name>
<styleUrl>
#styleMap_TLP_Normal
</styleUrl>
<Point>
<coordinates>
120.2970352,23.1295300,79.86
</coordinates>
</Point>
</Placemark>
<Placemark>
<name>
Sat Aug 07 14:50:46 2010
</name>
<styleUrl>
#styleMap_TLP_Normal
</styleUrl>
<Point>
<coordinates>
120.2969666,23.1295204,80.38
</coordinates>
</Point>
</Placemark>
<Placemark>
<name>
Sat Aug 07 14:50:51 2010
</name>
<styleUrl>
#styleMap_TLP_Normal
</styleUrl>
<Point>
<coordinates>
120.2967300,23.1295490,70.92
</coordinates>
</Point>
</Placemark>
<Placemark>
<name>
Sat Aug 07 14:50:56 2010
</name>
<styleUrl>
#styleMap_TLP_Normal
</styleUrl>
<Point>
<coordinates>
120.2964478,23.1295071,67.14
</coordinates>
</Point>
</Placemark>
<Placemark>
<name>
Sat Aug 07 14:51:01 2010
</name>
<styleUrl>
#styleMap_TLP_Normal
</styleUrl>
<Point>
<coordinates>
120.2961502,23.1294670,64.72
</coordinates>
</Point>
</Placemark>
<Placemark>
<name>
Sat Aug 07 14:51:06 2010
</name>
<styleUrl>
#styleMap_TLP_Normal
</styleUrl>
<Point>
<coordinates>
120.2958527,23.1294537,61.82
</coordinates>
</Point>
</Placemark>
<Placemark>
<name>
Sat Aug 07 14:51:11 2010
</name>
<styleUrl>
#styleMap_TLP_Normal
</styleUrl>
<Point>
<coordinates>
120.2957077,23.1294308,58.20
</coordinates>
</Point>
</Placemark>
<Placemark>
<name>
Sat Aug 07 14:51:16 2010
</name>
<styleUrl>
#styleMap_TLP_Normal
</styleUrl>
<Point>
<coordinates>
120.2956161,23.1294346,55.44
</coordinates>
</Point>
</Placemark>
<Placemark>
<name>
Sat Aug 07 14:51:21 2010
</name>
<styleUrl>
#styleMap_TLP_Normal
</styleUrl>
<Point>
<coordinates>
120.2955933,23.1294270,55.28
</coordinates>
</Point>
</Placemark>
<Placemark>
<name>
Sat Aug 07 14:51:26 2010
</name>
<styleUrl>
#styleMap_TLP_Normal
</styleUrl>
<Point>
<coordinates>
120.2955933,23.1294270,55.19
</coordinates>
</Point>
</Placemark>
<Placemark>
<name>
Sat Aug 07 14:51:31 2010
</name>
<styleUrl>
#styleMap_TLP_Normal
</styleUrl>
<Point>
<coordinates>
120.2955856,23.1294270,55.17
</coordinates>
</Point>
</Placemark>
<Placemark>
<name>
Sat Aug 07 14:51:36 2010
</name>
<styleUrl>
#styleMap_TLP_Normal
</styleUrl>
<Point>
<coordinates>
120.2955704,23.1294250,55.18
</coordinates>
</Point>
</Placemark>
<Placemark>
<name>
Sat Aug 07 14:51:41 2010
</name>
<styleUrl>
#styleMap_TLP_Normal
</styleUrl>
<Point>
<coordinates>
120.2955017,23.1294022,54.50
</coordinates>
</Point>
</Placemark>
<Placemark>
<name>
Sat Aug 07 14:51:46 2010
</name>
<styleUrl>
#styleMap_TLP_Normal
</styleUrl>
<Point>
<coordinates>
120.2954788,23.1293583,43.59
</coordinates>
</Point>
</Placemark>
<Placemark>
<name>
Sat Aug 07 14:51:51 2010
</name>
<styleUrl>
#styleMap_TLP_Normal
</styleUrl>
<Point>
<coordinates>
120.2954788,23.1293583,43.21
</coordinates>
</Point>
</Placemark>
<Placemark>
<name>
Sat Aug 07 14:51:56 2010
</name>
<styleUrl>
#styleMap_TLP_Normal
</styleUrl>
<Point>
<coordinates>
120.2954788,23.1293583,43.06
</coordinates>
</Point>
</Placemark>
<Placemark>
<name>
Sat Aug 07 14:52:01 2010
</name>
<styleUrl>
#styleMap_TLP_Normal
</styleUrl>
<Point>
<coordinates>
120.2954788,23.1293583,42.99
</coordinates>
</Point>
</Placemark>
<Placemark>
<name>
Sat Aug 07 14:52:06 2010
</name>
<styleUrl>
#styleMap_TLP_Normal
</styleUrl>
<Point>
<coordinates>
120.2954788,23.1293583,42.99
</coordinates>
</Point>
</Placemark>
<Placemark>
<name>
Sat Aug 07 14:52:11 2010
</name>
<styleUrl>
#styleMap_TLP_Normal
</styleUrl>
<Point>
<coordinates>
120.2954788,23.1293583,42.99
</coordinates>
</Point>
</Placemark>
<Placemark>
<name>
Sat Aug 07 14:52:16 2010
</name>
<styleUrl>
#styleMap_TLP_Normal
</styleUrl>
<Point>
<coordinates>
120.2954788,23.1293583,42.99
</coordinates>
</Point>
</Placemark>
<Placemark>
<name>
Sat Aug 07 14:52:21 2010
</name>
<styleUrl>
#styleMap_TLP_Normal
</styleUrl>
<Point>
<coordinates>
120.2954788,23.1293583,42.98
</coordinates>
</Point>
</Placemark>
<Placemark>
<name>
Sat Aug 07 14:52:26 2010
</name>
<styleUrl>
#styleMap_TLP_Normal
</styleUrl>
<Point>
<coordinates>
120.2954865,23.1293583,42.97
</coordinates>
</Point>
</Placemark>
<Placemark>
<name>
Sat Aug 07 14:52:31 2010
</name>
<styleUrl>
#styleMap_TLP_Normal
</styleUrl>
<Point>
<coordinates>
120.2954865,23.1293583,42.97
</coordinates>
</Point>
</Placemark>
<Placemark>
<name>
Sat Aug 07 14:52:36 2010
</name>
<styleUrl>
#styleMap_TLP_Normal
</styleUrl>
<Point>
<coordinates>
120.2954865,23.1293583,42.96
</coordinates>
</Point>
</Placemark>
<Placemark>
<name>
Sat Aug 07 14:52:41 2010
</name>
<styleUrl>
#styleMap_TLP_Normal
</styleUrl>
<Point>
<coordinates>
120.2954865,23.1293583,42.96
</coordinates>
</Point>
</Placemark>
<Placemark>
<name>
Sat Aug 07 14:52:46 2010
</name>
<styleUrl>
#styleMap_TLP_Normal
</styleUrl>
<Point>
<coordinates>
120.2954865,23.1293583,42.96
</coordinates>
</Point>
</Placemark>
<Placemark>
<name>
Sat Aug 07 14:52:51 2010
</name>
<styleUrl>
#styleMap_TLP_Normal
</styleUrl>
<Point>
<coordinates>
120.2954865,23.1293583,42.95
</coordinates>
</Point>
</Placemark>
<Placemark>
<name>
Sat Aug 07 14:52:56 2010
</name>
<styleUrl>
#styleMap_TLP_Normal
</styleUrl>
<Point>
<coordinates>
120.2954865,23.1293583,42.95
</coordinates>
</Point>
</Placemark>
<Placemark>
<name>
Sat Aug 07 14:53:01 2010
</name>
<styleUrl>
#styleMap_TLP_Normal
</styleUrl>
<Point>
<coordinates>
120.2954865,23.1293602,42.94
</coordinates>
</Point>
</Placemark>
<Placemark>
<name>
Sat Aug 07 14:53:06 2010
</name>
<styleUrl>
#styleMap_TLP_Normal
</styleUrl>
<Point>
<coordinates>
120.2954865,23.1293602,42.94
</coordinates>
</Point>
</Placemark>
<Placemark>
<name>
Sat Aug 07 14:53:11 2010
</name>
<styleUrl>
#styleMap_TLP_Normal
</styleUrl>
<Point>
<coordinates>
120.2954865,23.1293621,42.93
</coordinates>
</Point>
</Placemark>
<Placemark>
<name>
Sat Aug 07 14:53:16 2010
</name>
<styleUrl>
#styleMap_TLP_Normal
</styleUrl>
<Point>
<coordinates>
120.2954865,23.1293621,42.92
</coordinates>
</Point>
</Placemark>
<Placemark>
<name>
Sat Aug 07 14:53:21 2010
</name>
<styleUrl>
#styleMap_TLP_Normal
</styleUrl>
<Point>
<coordinates>
120.2954865,23.1293621,42.92
</coordinates>
</Point>
</Placemark>
<Placemark>
<name>
Sat Aug 07 14:53:26 2010
</name>
<styleUrl>
#styleMap_TLP_Normal
</styleUrl>
<Point>
<coordinates>
120.2954865,23.1293640,42.91
</coordinates>
</Point>
</Placemark>
<Placemark>
<name>
Sat Aug 07 14:53:31 2010
</name>
<styleUrl>
#styleMap_TLP_Normal
</styleUrl>
<Point>
<coordinates>
120.2954865,23.1293640,42.92
</coordinates>
</Point>
</Placemark>
<Placemark>
<name>
Sat Aug 07 14:53:36 2010
</name>
<styleUrl>
#styleMap_TLP_Normal
</styleUrl>
<Point>
<coordinates>
120.2954865,23.1293659,42.90
</coordinates>
</Point>
</Placemark>
<Placemark>
<name>
Sat Aug 07 14:53:41 2010
</name>
<styleUrl>
#styleMap_TLP_Normal
</styleUrl>
<Point>
<coordinates>
120.2954865,23.1293659,42.86
</coordinates>
</Point>
</Placemark>
<Placemark>
<name>
Sat Aug 07 14:53:46 2010
</name>
<styleUrl>
#styleMap_TLP_Normal
</styleUrl>
<Point>
<coordinates>
120.2954865,23.1293659,42.85
</coordinates>
</Point>
</Placemark>
<Placemark>
<name>
Sat Aug 07 14:53:51 2010
</name>
<styleUrl>
#styleMap_TLP_Normal
</styleUrl>
<Point>
<coordinates>
120.2954865,23.1293659,42.82
</coordinates>
</Point>
</Placemark>
<Placemark>
<name>
Sat Aug 07 14:53:56 2010
</name>
<styleUrl>
#styleMap_TLP_Normal
</styleUrl>
<Point>
<coordinates>
120.2953186,23.1293659,42.69
</coordinates>
</Point>
</Placemark>
<Placemark>
<name>
Sat Aug 07 14:54:01 2010
</name>
<styleUrl>
#styleMap_TLP_Normal
</styleUrl>
<Point>
<coordinates>
120.2950592,23.1293011,42.85
</coordinates>
</Point>
</Placemark>
<Placemark>
<name>
Sat Aug 07 14:54:06 2010
</name>
<styleUrl>
#styleMap_TLP_Normal
</styleUrl>
<Point>
<coordinates>
120.2947922,23.1292343,42.97
</coordinates>
</Point>
</Placemark>
<Placemark>
<name>
Sat Aug 07 14:54:11 2010
</name>
<styleUrl>
#styleMap_TLP_Normal
</styleUrl>
<Point>
<coordinates>
120.2944870,23.1292038,43.75
</coordinates>
</Point>
</Placemark>
<Placemark>
<name>
Sat Aug 07 14:54:16 2010
</name>
<styleUrl>
#styleMap_TLP_Normal
</styleUrl>
<Point>
<coordinates>
120.2942047,23.1291904,45.04
</coordinates>
</Point>
</Placemark>
<Placemark>
<name>
Sat Aug 07 14:54:21 2010
</name>
<styleUrl>
#styleMap_TLP_Normal
</styleUrl>
<Point>
<coordinates>
120.2939911,23.1292324,45.89
</coordinates>
</Point>
</Placemark>
<Placemark>
<name>
Sat Aug 07 14:54:26 2010
</name>
<styleUrl>
#styleMap_TLP_Normal
</styleUrl>
<Point>
<coordinates>
120.2938690,23.1294842,44.50
</coordinates>
</Point>
</Placemark>
<Placemark>
<name>
Sat Aug 07 14:54:31 2010
</name>
<styleUrl>
#styleMap_TLP_Normal
</styleUrl>
<Point>
<coordinates>
120.2938309,23.1297684,41.80
</coordinates>
</Point>
</Placemark>
<Placemark>
<name>
Sat Aug 07 14:54:36 2010
</name>
<styleUrl>
#styleMap_TLP_Normal
</styleUrl>
<Point>
<coordinates>
120.2938461,23.1300354,40.06
</coordinates>
</Point>
</Placemark>
<Placemark>
<name>
Sat Aug 07 14:54:41 2010
</name>
<styleUrl>
#styleMap_TLP_Normal
</styleUrl>
<Point>
<coordinates>
120.2938538,23.1302967,37.87
</coordinates>
</Point>
</Placemark>
<Placemark>
<name>
Sat Aug 07 14:54:46 2010
</name>
<styleUrl>
#styleMap_TLP_Normal
</styleUrl>
<Point>
<coordinates>
120.2938232,23.1305733,33.29
</coordinates>
</Point>
</Placemark>
<Placemark>
<name>
Sat Aug 07 14:54:51 2010
</name>
<styleUrl>
#styleMap_TLP_Normal
</styleUrl>
<Point>
<coordinates>
120.2938156,23.1308460,29.93
</coordinates>
</Point>
</Placemark>
<Placemark>
<name>
Sat Aug 07 14:54:56 2010
</name>
<styleUrl>
#styleMap_TLP_Normal
</styleUrl>
<Point>
<coordinates>
120.2937851,23.1311131,31.64
</coordinates>
</Point>
</Placemark>
<Placemark>
<name>
Sat Aug 07 14:55:01 2010
</name>
<styleUrl>
#styleMap_TLP_Normal
</styleUrl>
<Point>
<coordinates>
120.2937775,23.1313782,31.13
</coordinates>
</Point>
</Placemark>
<Placemark>
<name>
Sat Aug 07 14:55:06 2010
</name>
<styleUrl>
#styleMap_TLP_Normal
</styleUrl>
<Point>
<coordinates>
120.2937393,23.1316071,36.53
</coordinates>
</Point>
</Placemark>
<Placemark>
<name>
Sat Aug 07 14:55:11 2010
</name>
<styleUrl>
#styleMap_TLP_Normal
</styleUrl>
<Point>
<coordinates>
120.2937012,23.1318359,38.30
</coordinates>
</Point>
</Placemark>
<Placemark>
<name>
Sat Aug 07 14:55:16 2010
</name>
<styleUrl>
#styleMap_TLP_Normal
</styleUrl>
<Point>
<coordinates>
120.2937012,23.1319962,37.52
</coordinates>
</Point>
</Placemark>
<Placemark>
<name>
Sat Aug 07 14:55:21 2010
</name>
<styleUrl>
#styleMap_TLP_Normal
</styleUrl>
<Point>
<coordinates>
120.2936172,23.1321583,37.05
</coordinates>
</Point>
</Placemark>
<Placemark>
<name>
Sat Aug 07 14:55:26 2010
</name>
<styleUrl>
#styleMap_TLP_Normal
</styleUrl>
<Point>
<coordinates>
120.2935104,23.1324787,34.87
</coordinates>
</Point>
</Placemark>
<Placemark>
<name>
Sat Aug 07 14:55:31 2010
</name>
<styleUrl>
#styleMap_TLP_Normal
</styleUrl>
<Point>
<coordinates>
120.2935638,23.1328506,33.51
</coordinates>
</Point>
</Placemark>
<Placemark>
<name>
Sat Aug 07 14:55:36 2010
</name>
<styleUrl>
#styleMap_TLP_Normal
</styleUrl>
<Point>
<coordinates>
120.2935944,23.1332378,33.35
</coordinates>
</Point>
</Placemark>
<Placemark>
<name>
Sat Aug 07 14:55:41 2010
</name>
<styleUrl>
#styleMap_TLP_Normal
</styleUrl>
<Point>
<coordinates>
120.2935333,23.1336136,35.36
</coordinates>
</Point>
</Placemark>
<Placemark>
<name>
Sat Aug 07 14:55:46 2010
</name>
<styleUrl>
#styleMap_TLP_Normal
</styleUrl>
<Point>
<coordinates>
120.2934875,23.1339607,33.82
</coordinates>
</Point>
</Placemark>
<Placemark>
<name>
Sat Aug 07 14:55:51 2010
</name>
<styleUrl>
#styleMap_TLP_Normal
</styleUrl>
<Point>
<coordinates>
120.2934952,23.1342373,30.87
</coordinates>
</Point>
</Placemark>
<Placemark>
<name>
Sat Aug 07 14:55:56 2010
</name>
<styleUrl>
#styleMap_TLP_Normal
</styleUrl>
<Point>
<coordinates>
120.2936096,23.1343536,33.07
</coordinates>
</Point>
</Placemark>
<Placemark>
<name>
Sat Aug 07 14:56:01 2010
</name>
<styleUrl>
#styleMap_TLP_Normal
</styleUrl>
<Point>
<coordinates>
120.2936249,23.1343555,34.32
</coordinates>
</Point>
</Placemark>
<Placemark>
<name>
Sat Aug 07 14:56:06 2010
</name>
<styleUrl>
#styleMap_TLP_Normal
</styleUrl>
<Point>
<coordinates>
120.2936249,23.1343575,34.53
</coordinates>
</Point>
</Placemark>
<Placemark>
<name>
Sat Aug 07 14:56:11 2010
</name>
<styleUrl>
#styleMap_TLP_Normal
</styleUrl>
<Point>
<coordinates>
120.2934494,23.1345024,35.98
</coordinates>
</Point>
</Placemark>
<Placemark>
<name>
Sat Aug 07 14:56:16 2010
</name>
<styleUrl>
#styleMap_TLP_Normal
</styleUrl>
<Point>
<coordinates>
120.2931519,23.1345806,35.68
</coordinates>
</Point>
</Placemark>
<Placemark>
<name>
Sat Aug 07 14:56:21 2010
</name>
<styleUrl>
#styleMap_TLP_Normal
</styleUrl>
<Point>
<coordinates>
120.2928543,23.1346436,35.53
</coordinates>
</Point>
</Placemark>
<Placemark>
<name>
Sat Aug 07 14:56:26 2010
</name>
<styleUrl>
#styleMap_TLP_Normal
</styleUrl>
<Point>
<coordinates>
120.2925644,23.1346931,36.06
</coordinates>
</Point>
</Placemark>
<Placemark>
<name>
Sat Aug 07 14:56:31 2010
</name>
<styleUrl>
#styleMap_TLP_Normal
</styleUrl>
<Point>
<coordinates>
120.2922516,23.1347408,36.02
</coordinates>
</Point>
</Placemark>
<Placemark>
<name>
Sat Aug 07 14:56:36 2010
</name>
<styleUrl>
#styleMap_TLP_Normal
</styleUrl>
<Point>
<coordinates>
120.2918854,23.1348076,36.42
</coordinates>
</Point>
</Placemark>
<Placemark>
<name>
Sat Aug 07 14:56:41 2010
</name>
<styleUrl>
#styleMap_TLP_Normal
</styleUrl>
<Point>
<coordinates>
120.2915115,23.1348782,37.36
</coordinates>
</Point>
</Placemark>
<Placemark>
<name>
Sat Aug 07 14:56:46 2010
</name>
<styleUrl>
#styleMap_TLP_Normal
</styleUrl>
<Point>
<coordinates>
120.2911148,23.1349316,38.42
</coordinates>
</Point>
</Placemark>
<Placemark>
<name>
Sat Aug 07 14:56:51 2010
</name>
<styleUrl>
#styleMap_TLP_Normal
</styleUrl>
<Point>
<coordinates>
120.2907257,23.1349964,38.96
</coordinates>
</Point>
</Placemark>
<Placemark>
<name>
Sat Aug 07 14:56:56 2010
</name>
<styleUrl>
#styleMap_TLP_Normal
</styleUrl>
<Point>
<coordinates>
120.2903137,23.1350555,39.72
</coordinates>
</Point>
</Placemark>
<Placemark>
<name>
Sat Aug 07 14:57:01 2010
</name>
<styleUrl>
#styleMap_TLP_Normal
</styleUrl>
<Point>
<coordinates>
120.2899170,23.1351318,40.48
</coordinates>
</Point>
</Placemark>
<Placemark>
<name>
Sat Aug 07 14:57:06 2010
</name>
<styleUrl>
#styleMap_TLP_Normal
</styleUrl>
<Point>
<coordinates>
120.2895508,23.1352654,41.65
</coordinates>
</Point>
</Placemark>
<Placemark>
<name>
Sat Aug 07 14:57:11 2010
</name>
<styleUrl>
#styleMap_TLP_Normal
</styleUrl>
<Point>
<coordinates>
120.2892685,23.1355000,42.09
</coordinates>
</Point>
</Placemark>
<Placemark>
<name>
Sat Aug 07 14:57:16 2010
</name>
<styleUrl>
#styleMap_TLP_Normal
</styleUrl>
<Point>
<coordinates>
120.2891083,23.1358528,39.73
</coordinates>
</Point>
</Placemark>
<Placemark>
<name>
Sat Aug 07 14:57:21 2010
</name>
<styleUrl>
#styleMap_TLP_Normal
</styleUrl>
<Point>
<coordinates>
120.2890015,23.1362190,38.63
</coordinates>
</Point>
</Placemark>
<Placemark>
<name>
Sat Aug 07 14:57:26 2010
</name>
<styleUrl>
#styleMap_TLP_Normal
</styleUrl>
<Point>
<coordinates>
120.2888870,23.1365585,38.40
</coordinates>
</Point>
</Placemark>
<Placemark>
<name>
Sat Aug 07 14:57:31 2010
</name>
<styleUrl>
#styleMap_TLP_Normal
</styleUrl>
<Point>
<coordinates>
120.2887802,23.1368942,39.11
</coordinates>
</Point>
</Placemark>
<Placemark>
<name>
Sat Aug 07 14:57:36 2010
</name>
<styleUrl>
#styleMap_TLP_Normal
</styleUrl>
<Point>
<coordinates>
120.2886734,23.1372375,37.80
</coordinates>
</Point>
</Placemark>
<Placemark>
<name>
Sat Aug 07 14:57:41 2010
</name>
<styleUrl>
#styleMap_TLP_Normal
</styleUrl>
<Point>
<coordinates>
120.2885818,23.1376057,36.28
</coordinates>
</Point>
</Placemark>
<Placemark>
<name>
Sat Aug 07 14:57:46 2010
</name>
<styleUrl>
#styleMap_TLP_Normal
</styleUrl>
<Point>
<coordinates>
120.2884827,23.1379356,36.25
</coordinates>
</Point>
</Placemark>
<Placemark>
<name>
Sat Aug 07 14:57:51 2010
</name>
<styleUrl>
#styleMap_TLP_Normal
</styleUrl>
<Point>
<coordinates>
120.2884140,23.1382484,34.99
</coordinates>
</Point>
</Placemark>
<Placemark>
<name>
Sat Aug 07 14:57:56 2010
</name>
<styleUrl>
#styleMap_TLP_Normal
</styleUrl>
<Point>
<coordinates>
120.2883453,23.1384983,34.71
</coordinates>
</Point>
</Placemark>
<Placemark>
<name>
Sat Aug 07 14:58:01 2010
</name>
<styleUrl>
#styleMap_TLP_Normal
</styleUrl>
<Point>
<coordinates>
120.2883224,23.1385860,35.06
</coordinates>
</Point>
</Placemark>
<Placemark>
<name>
Sat Aug 07 14:58:06 2010
</name>
<styleUrl>
#styleMap_TLP_Normal
</styleUrl>
<Point>
<coordinates>
120.2883224,23.1385860,35.17
</coordinates>
</Point>
</Placemark>
<Placemark>
<name>
Sat Aug 07 14:58:11 2010
</name>
<styleUrl>
#styleMap_TLP_Normal
</styleUrl>
<Point>
<coordinates>
120.2883224,23.1385860,35.18
</coordinates>
</Point>
</Placemark>
<Placemark>
<name>
Sat Aug 07 14:58:16 2010
</name>
<styleUrl>
#styleMap_TLP_Normal
</styleUrl>
<Point>
<coordinates>
120.2883224,23.1385803,35.15
</coordinates>
</Point>
</Placemark>
<Placemark>
<name>
Sat Aug 07 14:58:21 2010
</name>
<styleUrl>
#styleMap_TLP_Normal
</styleUrl>
<Point>
<coordinates>
120.2883224,23.1385784,35.15
</coordinates>
</Point>
</Placemark>
<Placemark>
<name>
Sat Aug 07 14:58:26 2010
</name>
<styleUrl>
#styleMap_TLP_Normal
</styleUrl>
<Point>
<coordinates>
120.2883224,23.1385784,35.11
</coordinates>
</Point>
</Placemark>
<Placemark>
<name>
Sat Aug 07 14:58:31 2010
</name>
<styleUrl>
#styleMap_TLP_Normal
</styleUrl>
<Point>
<coordinates>
120.2883224,23.1385784,35.06
</coordinates>
</Point>
</Placemark>
<Placemark>
<name>
Sat Aug 07 14:58:36 2010
</name>
<styleUrl>
#styleMap_TLP_Normal
</styleUrl>
<Point>
<coordinates>
120.2883224,23.1385822,35.04
</coordinates>
</Point>
</Placemark>
<Placemark>
<name>
Sat Aug 07 14:58:41 2010
</name>
<styleUrl>
#styleMap_TLP_Normal
</styleUrl>
<Point>
<coordinates>
120.2883148,23.1385975,35.01
</coordinates>
</Point>
</Placemark>
<Placemark>
<name>
Sat Aug 07 14:58:46 2010
</name>
<styleUrl>
#styleMap_TLP_Normal
</styleUrl>
<Point>
<coordinates>
120.2883301,23.1387997,34.00
</coordinates>
</Point>
</Placemark>
<Placemark>
<name>
Sat Aug 07 14:58:51 2010
</name>
<styleUrl>
#styleMap_TLP_Normal
</styleUrl>
<Point>
<coordinates>
120.2883301,23.1390991,32.25
</coordinates>
</Point>
</Placemark>
<Placemark>
<name>
Sat Aug 07 14:58:56 2010
</name>
<styleUrl>
#styleMap_TLP_Normal
</styleUrl>
<Point>
<coordinates>
120.2883224,23.1394119,29.90
</coordinates>
</Point>
</Placemark>
<Placemark>
<name>
Sat Aug 07 14:59:01 2010
</name>
<styleUrl>
#styleMap_TLP_Normal
</styleUrl>
<Point>
<coordinates>
120.2883148,23.1397457,28.19
</coordinates>
</Point>
</Placemark>
<Placemark>
<name>
Sat Aug 07 14:59:06 2010
</name>
<styleUrl>
#styleMap_TLP_Normal
</styleUrl>
<Point>
<coordinates>
120.2882767,23.1401176,26.16
</coordinates>
</Point>
</Placemark>
<Placemark>
<name>
Sat Aug 07 14:59:11 2010
</name>
<styleUrl>
#styleMap_TLP_Normal
</styleUrl>
<Point>
<coordinates>
120.2882156,23.1404819,23.05
</coordinates>
</Point>
</Placemark>
<Placemark>
<name>
Sat Aug 07 14:59:16 2010
</name>
<styleUrl>
#styleMap_TLP_Normal
</styleUrl>
<Point>
<coordinates>
120.2881927,23.1408157,21.62
</coordinates>
</Point>
</Placemark>
<Placemark>
<name>
Sat Aug 07 14:59:21 2010
</name>
<styleUrl>
#styleMap_TLP_Normal
</styleUrl>
<Point>
<coordinates>
120.2881699,23.1411972,15.39
</coordinates>
</Point>
</Placemark>
<Placemark>
<name>
Sat Aug 07 14:59:26 2010
</name>
<styleUrl>
#styleMap_TLP_Normal
</styleUrl>
<Point>
<coordinates>
120.2881241,23.1415768,13.56
</coordinates>
</Point>
</Placemark>
<Placemark>
<name>
Sat Aug 07 14:59:31 2010
</name>
<styleUrl>
#styleMap_TLP_Normal
</styleUrl>
<Point>
<coordinates>
120.2880859,23.1419697,12.11
</coordinates>
</Point>
</Placemark>
<Placemark>
<name>
Sat Aug 07 14:59:36 2010
</name>
<styleUrl>
#styleMap_TLP_Normal
</styleUrl>
<Point>
<coordinates>
120.2880630,23.1423740,12.37
</coordinates>
</Point>
</Placemark>
<Placemark>
<name>
Sat Aug 07 14:59:41 2010
</name>
<styleUrl>
#styleMap_TLP_Normal
</styleUrl>
<Point>
<coordinates>
120.2880554,23.1428051,8.88
</coordinates>
</Point>
</Placemark>
<Placemark>
<name>
Sat Aug 07 14:59:46 2010
</name>
<styleUrl>
#styleMap_TLP_Normal
</styleUrl>
<Point>
<coordinates>
120.2880707,23.1432476,9.90
</coordinates>
</Point>
</Placemark>
<Placemark>
<name>
Sat Aug 07 14:59:51 2010
</name>
<styleUrl>
#styleMap_TLP_Normal
</styleUrl>
<Point>
<coordinates>
120.2880783,23.1436901,13.39
</coordinates>
</Point>
</Placemark>
<Placemark>
<name>
Sat Aug 07 14:59:56 2010
</name>
<styleUrl>
#styleMap_TLP_Normal
</styleUrl>
<Point>
<coordinates>
120.2880630,23.1441422,16.65
</coordinates>
</Point>
</Placemark>
<Placemark>
<name>
Sat Aug 07 15:00:01 2010
</name>
<styleUrl>
#styleMap_TLP_Normal
</styleUrl>
<Point>
<coordinates>
120.2880554,23.1445885,15.79
</coordinates>
</Point>
</Placemark>
<Placemark>
<name>
Sat Aug 07 15:00:06 2010
</name>
<styleUrl>
#styleMap_TLP_Normal
</styleUrl>
<Point>
<coordinates>
120.2880478,23.1450367,14.44
</coordinates>
</Point>
</Placemark>
<Placemark>
<name>
Sat Aug 07 15:00:11 2010
</name>
<styleUrl>
#styleMap_TLP_Normal
</styleUrl>
<Point>
<coordinates>
120.2880554,23.1454735,15.22
</coordinates>
</Point>
</Placemark>
<Placemark>
<name>
Sat Aug 07 15:00:16 2010
</name>
<styleUrl>
#styleMap_TLP_Normal
</styleUrl>
<Point>
<coordinates>
120.2880630,23.1459064,15.18
</coordinates>
</Point>
</Placemark>
<Placemark>
<name>
Sat Aug 07 15:00:21 2010
</name>
<styleUrl>
#styleMap_TLP_Normal
</styleUrl>
<Point>
<coordinates>
120.2880630,23.1463356,15.30
</coordinates>
</Point>
</Placemark>
<Placemark>
<name>
Sat Aug 07 15:00:26 2010
</name>
<styleUrl>
#styleMap_TLP_Normal
</styleUrl>
<Point>
<coordinates>
120.2880478,23.1467495,19.43
</coordinates>
</Point>
</Placemark>
<Placemark>
<name>
Sat Aug 07 15:00:31 2010
</name>
<styleUrl>
#styleMap_TLP_Normal
</styleUrl>
<Point>
<coordinates>
120.2880478,23.1471043,20.55
</coordinates>
</Point>
</Placemark>
<Placemark>
<name>
Sat Aug 07 15:00:36 2010
</name>
<styleUrl>
#styleMap_TLP_Normal
</styleUrl>
<Point>
<coordinates>
120.2880402,23.1474648,17.84
</coordinates>
</Point>
</Placemark>
<Placemark>
<name>
Sat Aug 07 15:00:41 2010
</name>
<styleUrl>
#styleMap_TLP_Normal
</styleUrl>
<Point>
<coordinates>
120.2880020,23.1478367,16.44
</coordinates>
</Point>
</Placemark>
<Placemark>
<name>
Sat Aug 07 15:00:46 2010
</name>
<styleUrl>
#styleMap_TLP_Normal
</styleUrl>
<Point>
<coordinates>
120.2879257,23.1482334,14.93
</coordinates>
</Point>
</Placemark>
<Placemark>
<name>
Sat Aug 07 15:00:51 2010
</name>
<styleUrl>
#styleMap_TLP_Normal
</styleUrl>
<Point>
<coordinates>
120.2878342,23.1486568,17.69
</coordinates>
</Point>
</Placemark>
<Placemark>
<name>
Sat Aug 07 15:00:56 2010
</name>
<styleUrl>
#styleMap_TLP_Normal
</styleUrl>
<Point>
<coordinates>
120.2877731,23.1490936,17.38
</coordinates>
</Point>
</Placemark>
<Placemark>
<name>
Sat Aug 07 15:01:01 2010
</name>
<styleUrl>
#styleMap_TLP_Normal
</styleUrl>
<Point>
<coordinates>
120.2876129,23.1494884,25.09
</coordinates>
</Point>
</Placemark>
<Placemark>
<name>
Sat Aug 07 15:01:06 2010
</name>
<styleUrl>
#styleMap_TLP_Normal
</styleUrl>
<Point>
<coordinates>
120.2875366,23.1498756,26.25
</coordinates>
</Point>
</Placemark>
<Placemark>
<name>
Sat Aug 07 15:01:11 2010
</name>
<styleUrl>
#styleMap_TLP_Normal
</styleUrl>
<Point>
<coordinates>
120.2874527,23.1502934,28.46
</coordinates>
</Point>
</Placemark>
<Placemark>
<name>
Sat Aug 07 15:01:16 2010
</name>
<styleUrl>
#styleMap_TLP_Normal
</styleUrl>
<Point>
<coordinates>
120.2873459,23.1507111,31.47
</coordinates>
</Point>
</Placemark>
<Placemark>
<name>
Sat Aug 07 15:01:21 2010
</name>
<styleUrl>
#styleMap_TLP_Normal
</styleUrl>
<Point>
<coordinates>
120.2872543,23.1511173,31.38
</coordinates>
</Point>
</Placemark>
<Placemark>
<name>
Sat Aug 07 15:01:26 2010
</name>
<styleUrl>
#styleMap_TLP_Normal
</styleUrl>
<Point>
<coordinates>
120.2871628,23.1514797,35.78
</coordinates>
</Point>
</Placemark>
<Placemark>
<name>
Sat Aug 07 15:01:31 2010
</name>
<styleUrl>
#styleMap_TLP_Normal
</styleUrl>
<Point>
<coordinates>
120.2870865,23.1518326,36.44
</coordinates>
</Point>
</Placemark>
<Placemark>
<name>
Sat Aug 07 15:01:36 2010
</name>
<styleUrl>
#styleMap_TLP_Normal
</styleUrl>
<Point>
<coordinates>
120.2870255,23.1522026,34.43
</coordinates>
</Point>
</Placemark>
<Placemark>
<name>
Sat Aug 07 15:01:41 2010
</name>
<styleUrl>
#styleMap_TLP_Normal
</styleUrl>
<Point>
<coordinates>
120.2869110,23.1525517,40.52
</coordinates>
</Point>
</Placemark>
<Placemark>
<name>
Sat Aug 07 15:01:46 2010
</name>
<styleUrl>
#styleMap_TLP_Normal
</styleUrl>
<Point>
<coordinates>
120.2868576,23.1528301,39.53
</coordinates>
</Point>
</Placemark>
<Placemark>
<name>
Sat Aug 07 15:01:51 2010
</name>
<styleUrl>
#styleMap_TLP_Normal
</styleUrl>
<Point>
<coordinates>
120.2869568,23.1529331,34.49
</coordinates>
</Point>
</Placemark>
<Placemark>
<name>
Sat Aug 07 15:01:56 2010
</name>
<styleUrl>
#styleMap_TLP_Normal
</styleUrl>
<Point>
<coordinates>
120.2869720,23.1529427,36.78
</coordinates>
</Point>
</Placemark>
<Placemark>
<name>
Sat Aug 07 15:02:01 2010
</name>
<styleUrl>
#styleMap_TLP_Normal
</styleUrl>
<Point>
<coordinates>
120.2871017,23.1529408,34.78
</coordinates>
</Point>
</Placemark>
<Placemark>
<name>
Sat Aug 07 15:02:06 2010
</name>
<styleUrl>
#styleMap_TLP_Normal
</styleUrl>
<Point>
<coordinates>
120.2874069,23.1529655,31.64
</coordinates>
</Point>
</Placemark>
<Placemark>
<name>
Sat Aug 07 15:02:11 2010
</name>
<styleUrl>
#styleMap_TLP_Normal
</styleUrl>
<Point>
<coordinates>
120.2877884,23.1529732,27.23
</coordinates>
</Point>
</Placemark>
<Placemark>
<name>
Sat Aug 07 15:02:16 2010
</name>
<styleUrl>
#styleMap_TLP_Normal
</styleUrl>
<Point>
<coordinates>
120.2881241,23.1530266,27.26
</coordinates>
</Point>
</Placemark>
<Placemark>
<name>
Sat Aug 07 15:02:21 2010
</name>
<styleUrl>
#styleMap_TLP_Normal
</styleUrl>
<Point>
<coordinates>
120.2883987,23.1530533,26.27
</coordinates>
</Point>
</Placemark>
<Placemark>
<name>
Sat Aug 07 15:02:26 2010
</name>
<styleUrl>
#styleMap_TLP_Normal
</styleUrl>
<Point>
<coordinates>
120.2886810,23.1530647,26.24
</coordinates>
</Point>
</Placemark>
<Placemark>
<name>
Sat Aug 07 15:02:31 2010
</name>
<styleUrl>
#styleMap_TLP_Normal
</styleUrl>
<Point>
<coordinates>
120.2890244,23.1530933,26.20
</coordinates>
</Point>
</Placemark>
<Placemark>
<name>
Sat Aug 07 15:02:36 2010
</name>
<styleUrl>
#styleMap_TLP_Normal
</styleUrl>
<Point>
<coordinates>
120.2893600,23.1531410,24.94
</coordinates>
</Point>
</Placemark>
<Placemark>
<name>
Sat Aug 07 15:02:41 2010
</name>
<styleUrl>
#styleMap_TLP_Normal
</styleUrl>
<Point>
<coordinates>
120.2895050,23.1531487,24.62
</coordinates>
</Point>
</Placemark>
<Placemark>
<name>
Sat Aug 07 15:02:46 2010
</name>
<styleUrl>
#styleMap_TLP_Normal
</styleUrl>
<Point>
<coordinates>
120.2895050,23.1531792,25.15
</coordinates>
</Point>
</Placemark>
<Placemark>
<name>
Sat Aug 07 15:02:51 2010
</name>
<styleUrl>
#styleMap_TLP_Normal
</styleUrl>
<Point>
<coordinates>
120.2895279,23.1532269,24.94
</coordinates>
</Point>
</Placemark>
<Placemark>
<name>
Sat Aug 07 15:02:56 2010
</name>
<styleUrl>
#styleMap_TLP_Normal
</styleUrl>
<Point>
<coordinates>
120.2894897,23.1534405,24.74
</coordinates>
</Point>
</Placemark>
<Placemark>
<name>
Sat Aug 07 15:03:01 2010
</name>
<styleUrl>
#styleMap_TLP_Normal
</styleUrl>
<Point>
<coordinates>
120.2894821,23.1536293,24.75
</coordinates>
</Point>
</Placemark>
<Placemark>
<name>
Sat Aug 07 15:03:06 2010
</name>
<styleUrl>
#styleMap_TLP_Normal
</styleUrl>
<Point>
<coordinates>
120.2894516,23.1538410,24.45
</coordinates>
</Point>
</Placemark>
<Placemark>
<name>
Sat Aug 07 15:03:11 2010
</name>
<styleUrl>
#styleMap_TLP_Normal
</styleUrl>
<Point>
<coordinates>
120.2893829,23.1540165,25.63
</coordinates>
</Point>
</Placemark>
<Placemark>
<name>
Sat Aug 07 15:03:16 2010
</name>
<styleUrl>
#styleMap_TLP_Normal
</styleUrl>
<Point>
<coordinates>
120.2892380,23.1540546,26.43
</coordinates>
</Point>
</Placemark>
<Placemark>
<name>
Sat Aug 07 15:03:21 2010
</name>
<styleUrl>
#styleMap_TLP_Normal
</styleUrl>
<Point>
<coordinates>
120.2890320,23.1540489,26.95
</coordinates>
</Point>
</Placemark>
<Placemark>
<name>
Sat Aug 07 15:03:26 2010
</name>
<styleUrl>
#styleMap_TLP_Normal
</styleUrl>
<Point>
<coordinates>
120.2889175,23.1540337,27.78
</coordinates>
</Point>
</Placemark>
<Placemark>
<name>
Sat Aug 07 15:03:31 2010
</name>
<styleUrl>
#styleMap_TLP_Normal
</styleUrl>
<Point>
<coordinates>
120.2888870,23.1540508,27.24
</coordinates>
</Point>
</Placemark>
<Placemark>
<name>
Sat Aug 07 15:03:36 2010
</name>
<styleUrl>
#styleMap_TLP_Normal
</styleUrl>
<Point>
<coordinates>
120.2888794,23.1540489,27.24
</coordinates>
</Point>
</Placemark>
<Placemark>
<name>
Sat Aug 07 15:03:41 2010
</name>
<styleUrl>
#styleMap_TLP_Normal
</styleUrl>
<Point>
<coordinates>
120.2888336,23.1540680,25.53
</coordinates>
</Point>
</Placemark>
<Placemark>
<name>
Sat Aug 07 15:03:46 2010
</name>
<styleUrl>
#styleMap_TLP_Normal
</styleUrl>
<Point>
<coordinates>
120.2888260,23.1540737,24.78
</coordinates>
</Point>
</Placemark>
<Placemark>
<name>
Sat Aug 07 15:03:51 2010
</name>
<styleUrl>
#styleMap_TLP_Normal
</styleUrl>
<Point>
<coordinates>
120.2888336,23.1540737,24.76
</coordinates>
</Point>
</Placemark>
<Placemark>
<name>
Sat Aug 07 15:03:56 2010
</name>
<styleUrl>
#styleMap_TLP_Normal
</styleUrl>
<Point>
<coordinates>
120.2888260,23.1540737,24.77
</coordinates>
</Point>
</Placemark>
<Placemark>
<name>
Sat Aug 07 15:04:01 2010
</name>
<styleUrl>
#styleMap_TLP_Normal
</styleUrl>
<Point>
<coordinates>
120.2888184,23.1540718,24.78
</coordinates>
</Point>
</Placemark>
<Placemark>
<name>
Sat Aug 07 15:04:06 2010
</name>
<styleUrl>
#styleMap_TLP_Normal
</styleUrl>
<Point>
<coordinates>
120.2888336,23.1540699,24.65
</coordinates>
</Point>
</Placemark>
<Placemark>
<name>
Sat Aug 07 15:04:11 2010
</name>
<styleUrl>
#styleMap_TLP_Normal
</styleUrl>
<Point>
<coordinates>
120.2888489,23.1540775,23.95
</coordinates>
</Point>
</Placemark>
<Placemark>
<name>
Sat Aug 07 15:04:16 2010
</name>
<styleUrl>
#styleMap_TLP_Normal
</styleUrl>
<Point>
<coordinates>
120.2888412,23.1540775,23.95
</coordinates>
</Point>
</Placemark>
<Placemark>
<name>
Sat Aug 07 15:04:21 2010
</name>
<styleUrl>
#styleMap_TLP_Normal
</styleUrl>
<Point>
<coordinates>
120.2888412,23.1540775,23.99
</coordinates>
</Point>
</Placemark>
<Placemark>
<name>
Sat Aug 07 15:04:26 2010
</name>
<styleUrl>
#styleMap_TLP_Normal
</styleUrl>
<Point>
<coordinates>
120.2888489,23.1540775,23.97
</coordinates>
</Point>
</Placemark>
<Placemark>
<name>
Sat Aug 07 15:04:31 2010
</name>
<styleUrl>
#styleMap_TLP_Normal
</styleUrl>
<Point>
<coordinates>
120.2888489,23.1540775,23.95
</coordinates>
</Point>
</Placemark>
<Placemark>
<name>
Sat Aug 07 15:04:36 2010
</name>
<styleUrl>
#styleMap_TLP_Normal
</styleUrl>
<Point>
<coordinates>
120.2888489,23.1540756,23.94
</coordinates>
</Point>
</Placemark>
<Placemark>
<name>
Sat Aug 07 15:04:41 2010
</name>
<styleUrl>
#styleMap_TLP_Normal
</styleUrl>
<Point>
<coordinates>
120.2888489,23.1540775,23.88
</coordinates>
</Point>
</Placemark>
<Placemark>
<name>
Sat Aug 07 15:04:46 2010
</name>
<styleUrl>
#styleMap_TLP_Normal
</styleUrl>
<Point>
<coordinates>
120.2888489,23.1540833,23.97
</coordinates>
</Point>
</Placemark>
<Placemark>
<name>
Sat Aug 07 15:04:51 2010
</name>
<styleUrl>
#styleMap_TLP_Normal
</styleUrl>
<Point>
<coordinates>
120.2888412,23.1540756,24.23
</coordinates>
</Point>
</Placemark>
<Placemark>
<name>
Sat Aug 07 15:04:56 2010
</name>
<styleUrl>
#styleMap_TLP_Normal
</styleUrl>
<Point>
<coordinates>
120.2888260,23.1540680,23.83
</coordinates>
</Point>
</Placemark>
<Placemark>
<name>
Sat Aug 07 15:05:01 2010
</name>
<styleUrl>
#styleMap_TLP_Normal
</styleUrl>
<Point>
<coordinates>
120.2888260,23.1540718,23.70
</coordinates>
</Point>
</Placemark>
<Placemark>
<name>
Sat Aug 07 15:05:06 2010
</name>
<styleUrl>
#styleMap_TLP_Normal
</styleUrl>
<Point>
<coordinates>
120.2888336,23.1540737,23.69
</coordinates>
</Point>
</Placemark>
<Placemark>
<name>
Sat Aug 07 15:05:11 2010
</name>
<styleUrl>
#styleMap_TLP_Normal
</styleUrl>
<Point>
<coordinates>
120.2888412,23.1540756,23.70
</coordinates>
</Point>
</Placemark>
<Placemark>
<name>
Sat Aug 07 15:05:16 2010
</name>
<styleUrl>
#styleMap_TLP_Normal
</styleUrl>
<Point>
<coordinates>
120.2888565,23.1540775,23.69
</coordinates>
</Point>
</Placemark>
<Placemark>
<name>
Sat Aug 07 15:05:21 2010
</name>
<styleUrl>
#styleMap_TLP_Normal
</styleUrl>
<Point>
<coordinates>
120.2888794,23.1540966,23.60
</coordinates>
</Point>
</Placemark>
<Placemark>
<name>
Sat Aug 07 15:05:26 2010
</name>
<styleUrl>
#styleMap_TLP_Normal
</styleUrl>
<Point>
<coordinates>
120.2888718,23.1541157,23.61
</coordinates>
</Point>
</Placemark>
<Placemark>
<name>
Sat Aug 07 15:05:31 2010
</name>
<styleUrl>
#styleMap_TLP_Normal
</styleUrl>
<Point>
<coordinates>
120.2888718,23.1541176,23.62
</coordinates>
</Point>
</Placemark>
<Placemark>
<name>
Sat Aug 07 15:05:36 2010
</name>
<styleUrl>
#styleMap_TLP_Normal
</styleUrl>
<Point>
<coordinates>
120.2888641,23.1541176,23.62
</coordinates>
</Point>
</Placemark>
<Placemark>
<name>
Sat Aug 07 15:05:41 2010
</name>
<styleUrl>
#styleMap_TLP_Normal
</styleUrl>
<Point>
<coordinates>
120.2888641,23.1541195,23.63
</coordinates>
</Point>
</Placemark>
<Placemark>
<name>
Sat Aug 07 15:05:46 2010
</name>
<styleUrl>
#styleMap_TLP_Normal
</styleUrl>
<Point>
<coordinates>
120.2888641,23.1541214,23.62
</coordinates>
</Point>
</Placemark>
<Placemark>
<name>
Sat Aug 07 15:05:51 2010
</name>
<styleUrl>
#styleMap_TLP_Normal
</styleUrl>
<Point>
<coordinates>
120.2888565,23.1541214,23.62
</coordinates>
</Point>
</Placemark>
<Placemark>
<name>
Sat Aug 07 15:05:56 2010
</name>
<styleUrl>
#styleMap_TLP_Normal
</styleUrl>
<Point>
<coordinates>
120.2888565,23.1541233,23.61
</coordinates>
</Point>
</Placemark>
<Placemark>
<name>
Sat Aug 07 15:06:01 2010
</name>
<styleUrl>
#styleMap_TLP_Normal
</styleUrl>
<Point>
<coordinates>
120.2888641,23.1541252,23.61
</coordinates>
</Point>
</Placemark>
<Placemark>
<name>
Sat Aug 07 15:06:06 2010
</name>
<styleUrl>
#styleMap_TLP_Normal
</styleUrl>
<Point>
<coordinates>
120.2888641,23.1541252,23.62
</coordinates>
</Point>
</Placemark>
<Placemark>
<name>
Sat Aug 07 15:06:11 2010
</name>
<styleUrl>
#styleMap_TLP_Normal
</styleUrl>
<Point>
<coordinates>
120.2888718,23.1541290,23.61
</coordinates>
</Point>
</Placemark>
<Placemark>
<name>
Sat Aug 07 15:06:16 2010
</name>
<styleUrl>
#styleMap_TLP_Normal
</styleUrl>
<Point>
<coordinates>
120.2888641,23.1541271,23.60
</coordinates>
</Point>
</Placemark>
<Placemark>
<name>
Sat Aug 07 15:06:21 2010
</name>
<styleUrl>
#styleMap_TLP_Normal
</styleUrl>
<Point>
<coordinates>
120.2888641,23.1541271,23.60
</coordinates>
</Point>
</Placemark>
<Placemark>
<name>
Sat Aug 07 15:06:26 2010
</name>
<styleUrl>
#styleMap_TLP_Normal
</styleUrl>
<Point>
<coordinates>
120.2888641,23.1541290,23.59
</coordinates>
</Point>
</Placemark>
<Placemark>
<name>
Sat Aug 07 15:06:31 2010
</name>
<styleUrl>
#styleMap_TLP_Normal
</styleUrl>
<Point>
<coordinates>
120.2888641,23.1541309,23.58
</coordinates>
</Point>
</Placemark>
<Placemark>
<name>
Sat Aug 07 15:06:36 2010
</name>
<styleUrl>
#styleMap_TLP_Normal
</styleUrl>
<Point>
<coordinates>
120.2888718,23.1541328,23.58
</coordinates>
</Point>
</Placemark>
<Placemark>
<name>
Sat Aug 07 15:06:41 2010
</name>
<styleUrl>
#styleMap_TLP_Normal
</styleUrl>
<Point>
<coordinates>
120.2888718,23.1541348,23.56
</coordinates>
</Point>
</Placemark>
<Placemark>
<name>
Sat Aug 07 15:06:46 2010
</name>
<styleUrl>
#styleMap_TLP_Normal
</styleUrl>
<Point>
<coordinates>
120.2888794,23.1541348,23.56
</coordinates>
</Point>
</Placemark>
<Placemark>
<name>
Sat Aug 07 15:06:51 2010
</name>
<styleUrl>
#styleMap_TLP_Normal
</styleUrl>
<Point>
<coordinates>
120.2888794,23.1541348,23.56
</coordinates>
</Point>
</Placemark>
<Placemark>
<name>
Sat Aug 07 15:06:56 2010
</name>
<styleUrl>
#styleMap_TLP_Normal
</styleUrl>
<Point>
<coordinates>
120.2889099,23.1541462,23.50
</coordinates>
</Point>
</Placemark>
<Placemark>
<name>
Sat Aug 07 15:07:01 2010
</name>
<styleUrl>
#styleMap_TLP_Normal
</styleUrl>
<Point>
<coordinates>
120.2889175,23.1541786,23.19
</coordinates>
</Point>
</Placemark>
<Placemark>
<name>
Sat Aug 07 15:07:06 2010
</name>
<styleUrl>
#styleMap_TLP_Normal
</styleUrl>
<Point>
<coordinates>
120.2889175,23.1541824,23.17
</coordinates>
</Point>
</Placemark>
<Placemark>
<name>
Sat Aug 07 15:07:11 2010
</name>
<styleUrl>
#styleMap_TLP_Normal
</styleUrl>
<Point>
<coordinates>
120.2888870,23.1542110,23.15
</coordinates>
</Point>
</Placemark>
<Placemark>
<name>
Sat Aug 07 15:07:16 2010
</name>
<styleUrl>
#styleMap_TLP_Normal
</styleUrl>
<Point>
<coordinates>
120.2888794,23.1542435,23.22
</coordinates>
</Point>
</Placemark>
<Placemark>
<name>
Sat Aug 07 15:07:21 2010
</name>
<styleUrl>
#styleMap_TLP_Normal
</styleUrl>
<Point>
<coordinates>
120.2888641,23.1542492,23.23
</coordinates>
</Point>
</Placemark>
<Placemark>
<name>
Sat Aug 07 15:07:26 2010
</name>
<styleUrl>
#styleMap_TLP_Normal
</styleUrl>
<Point>
<coordinates>
120.2888794,23.1542492,23.24
</coordinates>
</Point>
</Placemark>
<Placemark>
<name>
Sat Aug 07 15:07:31 2010
</name>
<styleUrl>
#styleMap_TLP_Normal
</styleUrl>
<Point>
<coordinates>
120.2888718,23.1542492,23.25
</coordinates>
</Point>
</Placemark>
<Placemark>
<name>
Sat Aug 07 15:07:36 2010
</name>
<styleUrl>
#styleMap_TLP_Normal
</styleUrl>
<Point>
<coordinates>
120.2888718,23.1542492,23.25
</coordinates>
</Point>
</Placemark>
<Placemark>
<name>
Sat Aug 07 15:07:41 2010
</name>
<styleUrl>
#styleMap_TLP_Normal
</styleUrl>
<Point>
<coordinates>
120.2889099,23.1542530,22.48
</coordinates>
</Point>
</Placemark>
<Placemark>
<name>
Sat Aug 07 15:07:46 2010
</name>
<styleUrl>
#styleMap_TLP_Normal
</styleUrl>
<Point>
<coordinates>
120.2889481,23.1542740,21.91
</coordinates>
</Point>
</Placemark>
<Placemark>
<name>
Sat Aug 07 15:07:51 2010
</name>
<styleUrl>
#styleMap_TLP_Normal
</styleUrl>
<Point>
<coordinates>
120.2889862,23.1542740,22.23
</coordinates>
</Point>
</Placemark>
<Placemark>
<name>
Sat Aug 07 15:07:56 2010
</name>
<styleUrl>
#styleMap_TLP_Normal
</styleUrl>
<Point>
<coordinates>
120.2889938,23.1542740,22.21
</coordinates>
</Point>
</Placemark>
<Placemark>
<name>
Sat Aug 07 15:08:01 2010
</name>
<styleUrl>
#styleMap_TLP_Normal
</styleUrl>
<Point>
<coordinates>
120.2890244,23.1542950,21.34
</coordinates>
</Point>
</Placemark>
<Placemark>
<name>
Sat Aug 07 15:08:06 2010
</name>
<styleUrl>
#styleMap_TLP_Normal
</styleUrl>
<Point>
<coordinates>
120.2890244,23.1543446,22.91
</coordinates>
</Point>
</Placemark>
<Placemark>
<name>
Sat Aug 07 15:08:11 2010
</name>
<styleUrl>
#styleMap_TLP_Normal
</styleUrl>
<Point>
<coordinates>
120.2890167,23.1543465,22.93
</coordinates>
</Point>
</Placemark>
<Placemark>
<name>
Sat Aug 07 15:08:16 2010
</name>
<styleUrl>
#styleMap_TLP_Normal
</styleUrl>
<Point>
<coordinates>
120.2890244,23.1543465,22.98
</coordinates>
</Point>
</Placemark>
<Placemark>
<name>
Sat Aug 07 15:08:21 2010
</name>
<styleUrl>
#styleMap_TLP_Normal
</styleUrl>
<Point>
<coordinates>
120.2890396,23.1543484,22.97
</coordinates>
</Point>
</Placemark>
<Placemark>
<name>
Sat Aug 07 15:08:26 2010
</name>
<styleUrl>
#styleMap_TLP_Normal
</styleUrl>
<Point>
<coordinates>
120.2890244,23.1543770,23.50
</coordinates>
</Point>
</Placemark>
<Placemark>
<name>
Sat Aug 07 15:08:31 2010
</name>
<styleUrl>
#styleMap_TLP_Normal
</styleUrl>
<Point>
<coordinates>
120.2890244,23.1543770,23.49
</coordinates>
</Point>
</Placemark>
<Placemark>
<name>
Sat Aug 07 15:08:36 2010
</name>
<styleUrl>
#styleMap_TLP_Normal
</styleUrl>
<Point>
<coordinates>
120.2890320,23.1543789,23.52
</coordinates>
</Point>
</Placemark>
<Placemark>
<name>
Sat Aug 07 15:08:41 2010
</name>
<styleUrl>
#styleMap_TLP_Normal
</styleUrl>
<Point>
<coordinates>
120.2890320,23.1543808,23.53
</coordinates>
</Point>
</Placemark>
<Placemark>
<name>
Sat Aug 07 15:08:46 2010
</name>
<styleUrl>
#styleMap_TLP_Normal
</styleUrl>
<Point>
<coordinates>
120.2890320,23.1543808,23.51
</coordinates>
</Point>
</Placemark>
<Placemark>
<name>
Sat Aug 07 15:08:51 2010
</name>
<styleUrl>
#styleMap_TLP_Normal
</styleUrl>
<Point>
<coordinates>
120.2890244,23.1543808,23.48
</coordinates>
</Point>
</Placemark>
<Placemark>
<name>
Sat Aug 07 15:08:56 2010
</name>
<styleUrl>
#styleMap_TLP_Normal
</styleUrl>
<Point>
<coordinates>
120.2890244,23.1543808,23.43
</coordinates>
</Point>
</Placemark>
<Placemark>
<name>
Sat Aug 07 15:09:01 2010
</name>
<styleUrl>
#styleMap_TLP_Normal
</styleUrl>
<Point>
<coordinates>
120.2890167,23.1543808,23.39
</coordinates>
</Point>
</Placemark>
<Placemark>
<name>
Sat Aug 07 15:09:06 2010
</name>
<styleUrl>
#styleMap_TLP_Normal
</styleUrl>
<Point>
<coordinates>
120.2890091,23.1543789,23.37
</coordinates>
</Point>
</Placemark>
<Placemark>
<name>
Sat Aug 07 15:09:11 2010
</name>
<styleUrl>
#styleMap_TLP_Finish
</styleUrl>
<Point>
<coordinates>
120.2890015,23.1543808,23.00
</coordinates>
</Point>
</Placemark>
</Folder>
</Document>
</kml>
