<?xml version="1.0" encoding="UTF-8"?>
<kml xmlns="http://earth.google.com/kml/2.1">
<Document>
<Style id="normalState_TLP_Start">
<IconStyle>
<scale>1.0</scale>
<Icon>
<href>http://maps.google.com/mapfiles/kml/pal4/icon15.png</href>
</Icon>
</IconStyle>
<LabelStyle>
<scale>1.0</scale>
</LabelStyle>
</Style>
<Style id="highlightState_TLP_Start">
<IconStyle>
<scale>1.1</scale>
<Icon>
<href>http://maps.google.com/mapfiles/kml/pal4/icon7.png</href>
</Icon>
</IconStyle>
<LabelStyle>
<scale>1.1</scale>
<color>ff0000ff</color>
</LabelStyle>
</Style>
<StyleMap id="styleMap_TLP_Start">
<Pair>
<key>normal</key>
<styleUrl>#normalState_TLP_Start</styleUrl>
</Pair>
<Pair>
<key>highlight</key>
<styleUrl>#highlightState_TLP_Start</styleUrl>
</Pair>
</StyleMap>
<Style id="normalState_TLP_Finish">
<IconStyle>
<scale>1.0</scale>
<Icon>
<href>http://maps.google.com/mapfiles/kml/pal4/icon15.png</href>
</Icon>
</IconStyle>
<LabelStyle>
<scale>1.0</scale>
</LabelStyle>
</Style>
<Style id="highlightState_TLP_Finish">
<IconStyle>
<scale>1.1</scale>
<Icon>
<href>http://maps.google.com/mapfiles/kml/pal4/icon7.png</href>
</Icon>
</IconStyle>
<LabelStyle>
<scale>1.1</scale>
<color>ff0000ff</color>
</LabelStyle>
</Style>
<StyleMap id="styleMap_TLP_Finish">
<Pair>
<key>normal</key>
<styleUrl>#normalState_TLP_Finish</styleUrl>
</Pair>
<Pair>
<key>highlight</key>
<styleUrl>#highlightState_TLP_Finish</styleUrl>
</Pair>
</StyleMap>
<Style id="normalState_TLP_Normal">
<IconStyle>
<scale>1.0</scale>
<Icon>
<href>http://maps.google.com/mapfiles/kml/pal4/icon31.png</href>
</Icon>
</IconStyle>
<LabelStyle>
<scale>1.0</scale>
</LabelStyle>
</Style>
<Style id="highlightState_TLP_Normal">
<IconStyle>
<scale>1.1</scale>
<Icon>
<href>http://maps.google.com/mapfiles/kml/pal4/icon23.png</href>
</Icon>
</IconStyle>
<LabelStyle>
<scale>1.1</scale>
<color>ff0000ff</color>
</LabelStyle>
</Style>
<StyleMap id="styleMap_TLP_Normal">
<Pair>
<key>normal</key>
<styleUrl>#normalState_TLP_Normal</styleUrl>
</Pair>
<Pair>
<key>highlight</key>
<styleUrl>#highlightState_TLP_Normal</styleUrl>
</Pair>
</StyleMap>
<Style id="normalState_TLP_Photo">
<IconStyle>
<scale>1.0</scale>
<Icon>
<href>http://maps.google.com/mapfiles/kml/pal4/icon46.png</href>
</Icon>
</IconStyle>
<LabelStyle>
<scale>1.0</scale>
</LabelStyle>
</Style>
<Style id="highlightState_TLP_Photo">
<IconStyle>
<scale>1.1</scale>
<Icon>
<href>http://maps.google.com/mapfiles/kml/pal4/icon38.png</href>
</Icon>
</IconStyle>
<LabelStyle>
<scale>1.1</scale>
<color>ff0000ff</color>
</LabelStyle>
</Style>
<StyleMap id="styleMap_TLP_Photo">
<Pair>
<key>normal</key>
<styleUrl>#normalState_TLP_Photo</styleUrl>
</Pair>
<Pair>
<key>highlight</key>
<styleUrl>#highlightState_TLP_Photo</styleUrl>
</Pair>
</StyleMap>
<Style id="roadStyle">
<LineStyle>
<color>ffffff00</color>
<width>6</width>
</LineStyle>
</Style>
<Open>1</Open>
<description>Route</description>
<name>Track Log</name>
<Placemark>
<name>Route</name>
<styleUrl>#roadStyle</styleUrl>
<MultiGeometry>
<LineString>
<coordinates>
121.6032867,24.0355263,52.35 121.6032944,24.0355282,52.22 121.6032944,24.0355320,52.23 121.6032944,24.0355301,52.22 121.6033173,24.0355606,51.70 121.6034927,24.0356503,50.54 121.6037521,24.0357494,49.64 121.6040421,24.0357952,46.55 121.6043243,24.0358734,43.69 121.6045685,24.0359669,40.98 121.6047287,24.0360146,37.21 121.6048355,24.0360432,35.80 121.6048737,24.0360146,35.21 121.6048737,24.0360146,34.94 121.6048737,24.0360146,34.77 121.6048737,24.0360146,34.71 121.6048737,24.0360126,34.65 121.6048737,24.0360126,34.56 121.6048737,24.0360126,34.49 121.6048737,24.0360126,34.45 121.6048737,24.0360126,34.43 121.6048737,24.0360126,34.44 121.6048737,24.0360374,34.07 121.6048584,24.0360966,34.16 121.6048508,24.0361080,33.79 121.6048431,24.0361080,33.73 121.6048431,24.0361080,33.67 121.6048431,24.0361080,33.64 121.6048737,24.0361290,33.38 121.6049881,24.0362682,33.49 121.6049500,24.0364628,33.50 121.6048508,24.0366859,31.77 121.6047745,24.0369396,31.82 121.6046982,24.0371799,30.06 121.6046066,24.0374336,30.56 121.6045151,24.0376816,30.79 121.6044388,24.0379257,30.24 121.6043549,24.0381527,29.91 121.6042786,24.0383739,28.27 121.6041946,24.0386066,28.55 121.6041183,24.0388317,28.22 121.6040268,24.0390701,27.17 121.6039429,24.0393124,28.11 121.6038895,24.0395393,27.43 121.6038132,24.0397968,27.86 121.6037292,24.0400467,27.18 121.6036301,24.0403004,28.54 121.6035690,24.0405579,29.50 121.6035385,24.0408230,30.27 121.6035385,24.0410919,31.04 121.6035614,24.0413532,31.23 121.6035995,24.0416126,30.49 121.6036453,24.0418758,31.17 121.6036835,24.0421467,31.07 121.6037292,24.0424347,30.25 121.6037674,24.0427170,29.87 121.6038208,24.0430126,28.17 121.6038818,24.0433102,28.13 121.6039124,24.0435925,27.58 121.6039581,24.0438614,26.72 121.6039963,24.0441360,27.12 121.6040497,24.0443916,27.56 121.6040878,24.0446434,27.77 121.6041260,24.0448990,27.17 121.6041565,24.0451221,28.40 121.6041718,24.0452404,27.67 121.6042099,24.0452976,28.48 121.6042252,24.0453930,29.78 121.6042480,24.0454960,30.06 121.6042709,24.0456181,29.96 121.6042862,24.0457554,30.16 121.6043015,24.0458889,30.01 121.6043243,24.0460434,30.62 121.6043549,24.0461998,30.76 121.6043777,24.0463734,31.24 121.6044006,24.0465832,29.62 121.6044312,24.0468121,28.63 121.6044846,24.0470600,28.09 121.6045303,24.0473251,26.99 121.6045609,24.0475960,28.09 121.6045990,24.0478611,28.81 121.6046371,24.0481186,28.42 121.6046753,24.0483818,28.77 121.6047134,24.0486317,27.12 121.6047668,24.0488777,27.77 121.6047821,24.0491238,28.39 121.6048203,24.0493832,28.04 121.6048584,24.0496426,27.74 121.6049042,24.0499344,27.75 121.6049652,24.0502224,26.50 121.6049957,24.0504951,26.23 121.6050491,24.0507698,26.76 121.6051178,24.0510273,26.39 121.6051559,24.0512886,24.22 121.6052017,24.0515289,23.98 121.6052628,24.0517654,21.41 121.6052704,24.0520382,24.06 121.6052856,24.0523167,26.31 121.6053314,24.0526142,26.02 121.6053772,24.0529156,26.78 121.6054306,24.0532227,25.74 121.6054688,24.0535240,25.89 121.6055222,24.0538406,26.41 121.6055756,24.0541630,25.29 121.6056442,24.0544777,24.08 121.6056976,24.0547752,24.58 121.6057281,24.0550652,23.89 121.6057892,24.0553570,23.58 121.6058273,24.0556412,23.93 121.6058655,24.0559082,24.35 121.6059189,24.0561810,24.53 121.6059494,24.0564537,25.58 121.6059875,24.0567150,26.02 121.6060333,24.0569897,26.25 121.6060791,24.0572586,25.37 121.6061172,24.0575314,25.59 121.6061783,24.0578041,25.19 121.6062317,24.0580730,24.43 121.6062851,24.0583477,25.09 121.6063461,24.0586166,24.26 121.6063766,24.0588932,24.84 121.6063995,24.0591755,25.56 121.6064377,24.0594635,26.26 121.6064835,24.0597591,26.10 121.6065826,24.0603542,26.21 121.6066284,24.0606632,26.97 121.6066895,24.0609837,27.08 121.6067429,24.0612965,27.85 121.6067963,24.0615959,26.22 121.6068420,24.0618763,26.65 121.6068573,24.0621510,26.86 121.6068878,24.0624104,26.21 121.6069183,24.0626698,26.17 121.6069946,24.0629120,24.90 121.6070480,24.0631752,24.32 121.6070862,24.0634403,25.38 121.6071167,24.0636940,27.17 121.6071548,24.0639343,27.54 121.6071777,24.0641766,27.71 121.6072159,24.0644245,27.99 121.6072617,24.0646687,27.72 121.6072998,24.0649014,27.20 121.6073380,24.0651360,26.93 121.6073914,24.0653954,25.84 121.6074219,24.0656738,26.52 121.6074524,24.0659504,27.53 121.6075058,24.0662231,28.95 121.6075439,24.0664997,28.71 121.6075974,24.0667915,28.65 121.6076355,24.0670929,28.94 121.6076889,24.0673904,28.54 121.6077347,24.0676823,27.45 121.6077728,24.0679798,26.67 121.6078262,24.0682926,26.72 121.6078873,24.0685883,26.85 121.6079254,24.0688992,26.87 121.6079636,24.0691776,26.60 121.6080170,24.0694466,25.55 121.6080780,24.0697231,25.59 121.6081314,24.0700016,24.89 121.6081619,24.0702477,25.09 121.6081848,24.0704899,25.49 121.6082153,24.0707684,25.93 121.6082687,24.0710354,24.76 121.6083145,24.0713196,25.29 121.6083832,24.0716000,24.69 121.6084671,24.0718689,22.67 121.6085129,24.0721397,22.63 121.6085052,24.0724220,26.31 121.6085358,24.0727158,27.99 121.6085663,24.0730114,27.76 121.6086121,24.0733109,26.91 121.6086578,24.0736237,27.23 121.6087112,24.0739250,27.03 121.6087494,24.0742264,27.60 121.6087952,24.0745354,27.59 121.6088409,24.0748425,26.89 121.6089020,24.0751419,26.45 121.6089478,24.0754261,26.42 121.6090012,24.0757141,24.84 121.6090393,24.0760117,24.33 121.6090851,24.0763092,26.52 121.6091309,24.0766010,25.80 121.6091766,24.0768661,24.38 121.6092072,24.0771370,23.65 121.6092224,24.0774040,22.59 121.6092911,24.0776939,21.99 121.6093292,24.0779934,21.96 121.6093750,24.0782585,22.34 121.6094131,24.0785446,22.23 121.6094437,24.0788193,22.08 121.6094742,24.0790787,22.38 121.6095581,24.0793514,23.03 121.6095886,24.0796413,21.24 121.6096497,24.0799274,19.58 121.6096954,24.0802250,20.92 121.6097412,24.0805397,21.30 121.6097946,24.0808334,22.26 121.6098633,24.0811176,23.32 121.6099243,24.0814133,23.54 121.6099701,24.0816994,27.64 121.6100464,24.0819874,27.92 121.6101379,24.0822697,28.74 121.6102524,24.0825462,28.93 121.6103668,24.0828037,30.43 121.6104736,24.0830669,32.51 121.6105423,24.0833378,33.48 121.6106186,24.0836048,32.10 121.6106873,24.0838928,28.06 121.6107712,24.0841599,25.95 121.6108627,24.0844307,22.83 121.6109543,24.0847034,23.04 121.6110382,24.0849819,21.16 121.6111298,24.0852451,21.74 121.6112289,24.0855026,22.69 121.6113205,24.0857620,22.67 121.6114120,24.0860157,23.15 121.6115036,24.0862865,22.10 121.6115952,24.0865536,24.20 121.6117706,24.0871143,23.70 121.6118622,24.0873909,23.42 121.6119690,24.0876675,22.42 121.6120453,24.0879097,22.33 121.6121292,24.0881367,22.06 121.6122131,24.0883923,21.78 121.6122894,24.0886574,21.25 121.6123657,24.0888920,20.85 121.6124496,24.0891132,20.98 121.6125336,24.0893421,22.98 121.6126175,24.0895920,24.06 121.6127090,24.0898399,25.28 121.6127930,24.0900936,25.73 121.6128922,24.0903511,26.66 121.6129761,24.0906200,26.79 121.6130676,24.0908833,26.98 121.6131439,24.0911465,25.96 121.6132355,24.0914230,25.88 121.6133194,24.0916729,25.93 121.6134033,24.0919361,25.27 121.6135101,24.0922222,25.07 121.6136093,24.0924606,24.03 121.6137009,24.0927181,24.99 121.6137924,24.0930042,24.92 121.6138916,24.0932674,25.15 121.6139526,24.0935116,24.57 121.6140366,24.0937691,23.62 121.6141052,24.0940094,22.26 121.6141739,24.0942554,22.31 121.6142044,24.0944805,21.62 121.6142426,24.0947056,21.96 121.6143036,24.0949478,21.73 121.6143494,24.0951996,21.43 121.6144180,24.0954666,21.77 121.6144943,24.0957298,21.51 121.6145630,24.0959854,21.68 121.6146240,24.0962677,20.83 121.6147232,24.0965481,21.33 121.6147995,24.0968380,22.75 121.6148529,24.0971012,23.06 121.6149063,24.0973301,22.81 121.6149445,24.0975780,22.69 121.6150055,24.0978317,23.29 121.6150665,24.0980663,24.73 121.6151276,24.0982838,25.35 121.6151962,24.0985279,25.80 121.6152649,24.0987720,26.07 121.6153412,24.0990391,25.63 121.6154251,24.0993061,24.53 121.6154938,24.0995731,24.26 121.6155548,24.0998363,24.44 121.6156158,24.1001091,24.71 121.6156921,24.1003819,24.45 121.6157684,24.1006641,24.52 121.6158218,24.1009445,26.05 121.6158981,24.1012230,24.92 121.6159668,24.1014938,24.39 121.6160278,24.1017685,25.18 121.6161041,24.1020489,25.04 121.6161652,24.1023235,24.42 121.6162338,24.1026173,23.86 121.6163330,24.1028957,23.77 121.6164322,24.1031494,23.16 121.6165390,24.1034012,22.48 121.6166687,24.1036606,22.88 121.6168213,24.1039066,24.09 121.6169968,24.1041470,24.09 121.6171722,24.1043777,22.78 121.6173325,24.1045856,20.86 121.6175232,24.1047993,20.96 121.6177216,24.1050053,20.68 121.6179428,24.1051998,20.80 121.6181793,24.1054115,19.11 121.6184311,24.1056271,18.71 121.6186829,24.1057930,17.58 121.6189270,24.1059570,17.55 121.6191940,24.1060982,16.44 121.6194687,24.1062450,14.27 121.6197357,24.1063824,13.40 121.6199646,24.1065006,14.15 121.6202087,24.1065826,13.81 121.6204681,24.1067047,12.55 121.6207275,24.1068172,13.14 121.6209717,24.1069469,17.64 121.6212234,24.1070652,17.26 121.6217194,24.1072865,17.27 121.6219635,24.1074104,14.48 121.6222153,24.1075363,13.36 121.6224594,24.1076565,16.09 121.6227036,24.1077785,16.18 121.6229324,24.1079178,16.62 121.6231842,24.1080494,16.33 121.6234207,24.1081791,20.21 121.6236649,24.1082916,20.35 121.6241150,24.1085358,19.55 121.6243362,24.1086502,20.32 121.6245193,24.1087456,19.86 121.6247177,24.1088524,16.54 121.6249008,24.1089516,16.54 121.6250763,24.1090450,20.21 121.6252670,24.1091366,17.89 121.6254501,24.1092510,18.08 121.6256409,24.1093597,17.75 121.6260452,24.1095505,18.25 121.6262512,24.1096573,19.10 121.6264420,24.1097546,18.26 121.6266098,24.1098499,20.31 121.6268005,24.1099510,20.20 121.6269989,24.1100578,20.41 121.6271896,24.1101341,22.98 121.6273651,24.1102180,20.31 121.6275558,24.1103249,21.59 121.6277695,24.1104660,22.03 121.6279984,24.1105862,19.43 121.6281967,24.1106873,18.35 121.6284256,24.1108150,17.45 121.6286697,24.1109352,18.41 121.6288986,24.1110573,17.47 121.6291046,24.1111641,18.33 121.6293335,24.1112919,18.17 121.6295929,24.1114216,16.69 121.6298599,24.1115589,15.92 121.6302795,24.1117840,15.41 121.6304855,24.1118984,15.79 121.6307068,24.1119957,18.39 121.6308899,24.1121025,20.79 121.6310806,24.1122246,23.00 121.6312943,24.1123257,22.17 121.6314926,24.1124420,18.67 121.6317062,24.1125507,16.35 121.6319199,24.1126862,15.74 121.6321411,24.1128120,13.66 121.6323547,24.1129303,14.78 121.6325607,24.1130676,15.26 121.6327820,24.1132088,14.32 121.6329803,24.1133270,13.07 121.6331406,24.1134090,12.74 121.6332779,24.1134052,14.57 121.6333694,24.1133690,12.28 121.6333694,24.1133671,13.28 121.6333694,24.1133690,13.37 121.6333694,24.1133690,13.49 121.6333694,24.1133690,13.61 121.6333694,24.1133690,13.72 121.6333694,24.1133690,13.81 121.6333694,24.1133690,13.93 121.6333694,24.1133709,13.97 121.6333694,24.1133709,14.03 121.6333694,24.1133709,14.07 121.6333694,24.1133709,14.09 121.6333694,24.1133709,14.14 121.6333694,24.1133709,14.16 121.6333694,24.1133709,14.19 121.6333694,24.1133709,14.21 121.6333694,24.1133709,14.24 121.6333694,24.1133728,14.28 121.6333694,24.1133728,14.35 121.6333694,24.1133728,14.40 121.6333694,24.1133728,14.46 121.6333618,24.1133728,14.50 121.6333618,24.1133728,14.57 121.6333618,24.1133728,14.59 121.6333618,24.1133728,14.64 121.6333618,24.1133728,14.69 121.6333618,24.1133728,14.76 121.6333618,24.1133728,14.82 121.6333618,24.1133728,14.87 121.6333618,24.1133728,14.90 121.6333618,24.1133728,14.93 121.6333618,24.1133728,14.97 121.6333618,24.1133709,14.99 121.6333618,24.1133709,15.01 121.6333618,24.1133709,15.07 121.6333618,24.1133709,15.11 121.6333618,24.1133709,15.13 121.6333618,24.1133709,15.16 121.6333618,24.1133709,15.21 121.6333618,24.1133709,15.26 121.6333618,24.1133709,15.32 121.6333618,24.1133709,15.36 121.6333542,24.1133709,15.37 121.6333542,24.1133709,15.38 121.6333542,24.1133709,15.40 121.6333542,24.1133709,15.42 121.6333542,24.1133709,15.45 121.6333542,24.1133709,15.47 121.6333542,24.1133709,15.49 121.6333542,24.1133709,15.51 121.6333542,24.1133709,15.53 121.6333542,24.1133709,15.55 121.6333542,24.1133709,15.56 121.6333542,24.1133709,15.57 121.6333542,24.1133709,15.59 121.6333542,24.1133709,15.61 121.6333542,24.1133709,15.64 121.6333542,24.1133709,15.66 121.6333542,24.1133728,15.69 121.6333542,24.1133728,15.69 121.6333542,24.1133728,15.69 121.6333542,24.1133728,15.71 121.6333542,24.1133728,15.72 121.6333542,24.1133728,15.73 </coordinates>
</LineString>
</MultiGeometry>
</Placemark>
<Folder>
<name>waypoints</name>
<Placemark>
<name>
Thu Sep 23 11:05:06 2010
</name>
<styleUrl>
#styleMap_TLP_Start
</styleUrl>
<Point>
<coordinates>
121.6032867,24.0355263,52.35
</coordinates>
</Point>
</Placemark>
<Placemark>
<name>
Thu Sep 23 11:05:11 2010
</name>
<styleUrl>
#styleMap_TLP_Normal
</styleUrl>
<Point>
<coordinates>
121.6032944,24.0355282,52.22
</coordinates>
</Point>
</Placemark>
<Placemark>
<name>
Thu Sep 23 11:05:16 2010
</name>
<styleUrl>
#styleMap_TLP_Normal
</styleUrl>
<Point>
<coordinates>
121.6032944,24.0355320,52.23
</coordinates>
</Point>
</Placemark>
<Placemark>
<name>
Thu Sep 23 11:05:21 2010
</name>
<styleUrl>
#styleMap_TLP_Normal
</styleUrl>
<Point>
<coordinates>
121.6032944,24.0355301,52.22
</coordinates>
</Point>
</Placemark>
<Placemark>
<name>
Thu Sep 23 11:05:26 2010
</name>
<styleUrl>
#styleMap_TLP_Normal
</styleUrl>
<Point>
<coordinates>
121.6033173,24.0355606,51.70
</coordinates>
</Point>
</Placemark>
<Placemark>
<name>
Thu Sep 23 11:05:31 2010
</name>
<styleUrl>
#styleMap_TLP_Normal
</styleUrl>
<Point>
<coordinates>
121.6034927,24.0356503,50.54
</coordinates>
</Point>
</Placemark>
<Placemark>
<name>
Thu Sep 23 11:05:36 2010
</name>
<styleUrl>
#styleMap_TLP_Normal
</styleUrl>
<Point>
<coordinates>
121.6037521,24.0357494,49.64
</coordinates>
</Point>
</Placemark>
<Placemark>
<name>
Thu Sep 23 11:05:41 2010
</name>
<styleUrl>
#styleMap_TLP_Normal
</styleUrl>
<Point>
<coordinates>
121.6040421,24.0357952,46.55
</coordinates>
</Point>
</Placemark>
<Placemark>
<name>
Thu Sep 23 11:05:46 2010
</name>
<styleUrl>
#styleMap_TLP_Normal
</styleUrl>
<Point>
<coordinates>
121.6043243,24.0358734,43.69
</coordinates>
</Point>
</Placemark>
<Placemark>
<name>
Thu Sep 23 11:05:51 2010
</name>
<styleUrl>
#styleMap_TLP_Normal
</styleUrl>
<Point>
<coordinates>
121.6045685,24.0359669,40.98
</coordinates>
</Point>
</Placemark>
<Placemark>
<name>
Thu Sep 23 11:05:56 2010
</name>
<styleUrl>
#styleMap_TLP_Normal
</styleUrl>
<Point>
<coordinates>
121.6047287,24.0360146,37.21
</coordinates>
</Point>
</Placemark>
<Placemark>
<name>
Thu Sep 23 11:06:01 2010
</name>
<styleUrl>
#styleMap_TLP_Normal
</styleUrl>
<Point>
<coordinates>
121.6048355,24.0360432,35.80
</coordinates>
</Point>
</Placemark>
<Placemark>
<name>
Thu Sep 23 11:06:06 2010
</name>
<styleUrl>
#styleMap_TLP_Normal
</styleUrl>
<Point>
<coordinates>
121.6048737,24.0360146,35.21
</coordinates>
</Point>
</Placemark>
<Placemark>
<name>
Thu Sep 23 11:06:11 2010
</name>
<styleUrl>
#styleMap_TLP_Normal
</styleUrl>
<Point>
<coordinates>
121.6048737,24.0360146,34.94
</coordinates>
</Point>
</Placemark>
<Placemark>
<name>
Thu Sep 23 11:06:16 2010
</name>
<styleUrl>
#styleMap_TLP_Normal
</styleUrl>
<Point>
<coordinates>
121.6048737,24.0360146,34.77
</coordinates>
</Point>
</Placemark>
<Placemark>
<name>
Thu Sep 23 11:06:21 2010
</name>
<styleUrl>
#styleMap_TLP_Normal
</styleUrl>
<Point>
<coordinates>
121.6048737,24.0360146,34.71
</coordinates>
</Point>
</Placemark>
<Placemark>
<name>
Thu Sep 23 11:06:26 2010
</name>
<styleUrl>
#styleMap_TLP_Normal
</styleUrl>
<Point>
<coordinates>
121.6048737,24.0360126,34.65
</coordinates>
</Point>
</Placemark>
<Placemark>
<name>
Thu Sep 23 11:06:31 2010
</name>
<styleUrl>
#styleMap_TLP_Normal
</styleUrl>
<Point>
<coordinates>
121.6048737,24.0360126,34.56
</coordinates>
</Point>
</Placemark>
<Placemark>
<name>
Thu Sep 23 11:06:36 2010
</name>
<styleUrl>
#styleMap_TLP_Normal
</styleUrl>
<Point>
<coordinates>
121.6048737,24.0360126,34.49
</coordinates>
</Point>
</Placemark>
<Placemark>
<name>
Thu Sep 23 11:06:41 2010
</name>
<styleUrl>
#styleMap_TLP_Normal
</styleUrl>
<Point>
<coordinates>
121.6048737,24.0360126,34.45
</coordinates>
</Point>
</Placemark>
<Placemark>
<name>
Thu Sep 23 11:06:46 2010
</name>
<styleUrl>
#styleMap_TLP_Normal
</styleUrl>
<Point>
<coordinates>
121.6048737,24.0360126,34.43
</coordinates>
</Point>
</Placemark>
<Placemark>
<name>
Thu Sep 23 11:06:51 2010
</name>
<styleUrl>
#styleMap_TLP_Normal
</styleUrl>
<Point>
<coordinates>
121.6048737,24.0360126,34.44
</coordinates>
</Point>
</Placemark>
<Placemark>
<name>
Thu Sep 23 11:06:56 2010
</name>
<styleUrl>
#styleMap_TLP_Normal
</styleUrl>
<Point>
<coordinates>
121.6048737,24.0360374,34.07
</coordinates>
</Point>
</Placemark>
<Placemark>
<name>
Thu Sep 23 11:07:01 2010
</name>
<styleUrl>
#styleMap_TLP_Normal
</styleUrl>
<Point>
<coordinates>
121.6048584,24.0360966,34.16
</coordinates>
</Point>
</Placemark>
<Placemark>
<name>
Thu Sep 23 11:07:06 2010
</name>
<styleUrl>
#styleMap_TLP_Normal
</styleUrl>
<Point>
<coordinates>
121.6048508,24.0361080,33.79
</coordinates>
</Point>
</Placemark>
<Placemark>
<name>
Thu Sep 23 11:07:11 2010
</name>
<styleUrl>
#styleMap_TLP_Normal
</styleUrl>
<Point>
<coordinates>
121.6048431,24.0361080,33.73
</coordinates>
</Point>
</Placemark>
<Placemark>
<name>
Thu Sep 23 11:07:16 2010
</name>
<styleUrl>
#styleMap_TLP_Normal
</styleUrl>
<Point>
<coordinates>
121.6048431,24.0361080,33.67
</coordinates>
</Point>
</Placemark>
<Placemark>
<name>
Thu Sep 23 11:07:21 2010
</name>
<styleUrl>
#styleMap_TLP_Normal
</styleUrl>
<Point>
<coordinates>
121.6048431,24.0361080,33.64
</coordinates>
</Point>
</Placemark>
<Placemark>
<name>
Thu Sep 23 11:07:26 2010
</name>
<styleUrl>
#styleMap_TLP_Normal
</styleUrl>
<Point>
<coordinates>
121.6048737,24.0361290,33.38
</coordinates>
</Point>
</Placemark>
<Placemark>
<name>
Thu Sep 23 11:07:31 2010
</name>
<styleUrl>
#styleMap_TLP_Normal
</styleUrl>
<Point>
<coordinates>
121.6049881,24.0362682,33.49
</coordinates>
</Point>
</Placemark>
<Placemark>
<name>
Thu Sep 23 11:07:36 2010
</name>
<styleUrl>
#styleMap_TLP_Normal
</styleUrl>
<Point>
<coordinates>
121.6049500,24.0364628,33.50
</coordinates>
</Point>
</Placemark>
<Placemark>
<name>
Thu Sep 23 11:07:41 2010
</name>
<styleUrl>
#styleMap_TLP_Normal
</styleUrl>
<Point>
<coordinates>
121.6048508,24.0366859,31.77
</coordinates>
</Point>
</Placemark>
<Placemark>
<name>
Thu Sep 23 11:07:46 2010
</name>
<styleUrl>
#styleMap_TLP_Normal
</styleUrl>
<Point>
<coordinates>
121.6047745,24.0369396,31.82
</coordinates>
</Point>
</Placemark>
<Placemark>
<name>
Thu Sep 23 11:07:51 2010
</name>
<styleUrl>
#styleMap_TLP_Normal
</styleUrl>
<Point>
<coordinates>
121.6046982,24.0371799,30.06
</coordinates>
</Point>
</Placemark>
<Placemark>
<name>
Thu Sep 23 11:07:56 2010
</name>
<styleUrl>
#styleMap_TLP_Normal
</styleUrl>
<Point>
<coordinates>
121.6046066,24.0374336,30.56
</coordinates>
</Point>
</Placemark>
<Placemark>
<name>
Thu Sep 23 11:08:01 2010
</name>
<styleUrl>
#styleMap_TLP_Normal
</styleUrl>
<Point>
<coordinates>
121.6045151,24.0376816,30.79
</coordinates>
</Point>
</Placemark>
<Placemark>
<name>
Thu Sep 23 11:08:06 2010
</name>
<styleUrl>
#styleMap_TLP_Normal
</styleUrl>
<Point>
<coordinates>
121.6044388,24.0379257,30.24
</coordinates>
</Point>
</Placemark>
<Placemark>
<name>
Thu Sep 23 11:08:11 2010
</name>
<styleUrl>
#styleMap_TLP_Normal
</styleUrl>
<Point>
<coordinates>
121.6043549,24.0381527,29.91
</coordinates>
</Point>
</Placemark>
<Placemark>
<name>
Thu Sep 23 11:08:16 2010
</name>
<styleUrl>
#styleMap_TLP_Normal
</styleUrl>
<Point>
<coordinates>
121.6042786,24.0383739,28.27
</coordinates>
</Point>
</Placemark>
<Placemark>
<name>
Thu Sep 23 11:08:21 2010
</name>
<styleUrl>
#styleMap_TLP_Normal
</styleUrl>
<Point>
<coordinates>
121.6041946,24.0386066,28.55
</coordinates>
</Point>
</Placemark>
<Placemark>
<name>
Thu Sep 23 11:08:26 2010
</name>
<styleUrl>
#styleMap_TLP_Normal
</styleUrl>
<Point>
<coordinates>
121.6041183,24.0388317,28.22
</coordinates>
</Point>
</Placemark>
<Placemark>
<name>
Thu Sep 23 11:08:31 2010
</name>
<styleUrl>
#styleMap_TLP_Normal
</styleUrl>
<Point>
<coordinates>
121.6040268,24.0390701,27.17
</coordinates>
</Point>
</Placemark>
<Placemark>
<name>
Thu Sep 23 11:08:36 2010
</name>
<styleUrl>
#styleMap_TLP_Normal
</styleUrl>
<Point>
<coordinates>
121.6039429,24.0393124,28.11
</coordinates>
</Point>
</Placemark>
<Placemark>
<name>
Thu Sep 23 11:08:41 2010
</name>
<styleUrl>
#styleMap_TLP_Normal
</styleUrl>
<Point>
<coordinates>
121.6038895,24.0395393,27.43
</coordinates>
</Point>
</Placemark>
<Placemark>
<name>
Thu Sep 23 11:08:46 2010
</name>
<styleUrl>
#styleMap_TLP_Normal
</styleUrl>
<Point>
<coordinates>
121.6038132,24.0397968,27.86
</coordinates>
</Point>
</Placemark>
<Placemark>
<name>
Thu Sep 23 11:08:51 2010
</name>
<styleUrl>
#styleMap_TLP_Normal
</styleUrl>
<Point>
<coordinates>
121.6037292,24.0400467,27.18
</coordinates>
</Point>
</Placemark>
<Placemark>
<name>
Thu Sep 23 11:08:56 2010
</name>
<styleUrl>
#styleMap_TLP_Normal
</styleUrl>
<Point>
<coordinates>
121.6036301,24.0403004,28.54
</coordinates>
</Point>
</Placemark>
<Placemark>
<name>
Thu Sep 23 11:09:01 2010
</name>
<styleUrl>
#styleMap_TLP_Normal
</styleUrl>
<Point>
<coordinates>
121.6035690,24.0405579,29.50
</coordinates>
</Point>
</Placemark>
<Placemark>
<name>
Thu Sep 23 11:09:06 2010
</name>
<styleUrl>
#styleMap_TLP_Normal
</styleUrl>
<Point>
<coordinates>
121.6035385,24.0408230,30.27
</coordinates>
</Point>
</Placemark>
<Placemark>
<name>
Thu Sep 23 11:09:11 2010
</name>
<styleUrl>
#styleMap_TLP_Normal
</styleUrl>
<Point>
<coordinates>
121.6035385,24.0410919,31.04
</coordinates>
</Point>
</Placemark>
<Placemark>
<name>
Thu Sep 23 11:09:16 2010
</name>
<styleUrl>
#styleMap_TLP_Normal
</styleUrl>
<Point>
<coordinates>
121.6035614,24.0413532,31.23
</coordinates>
</Point>
</Placemark>
<Placemark>
<name>
Thu Sep 23 11:09:21 2010
</name>
<styleUrl>
#styleMap_TLP_Normal
</styleUrl>
<Point>
<coordinates>
121.6035995,24.0416126,30.49
</coordinates>
</Point>
</Placemark>
<Placemark>
<name>
Thu Sep 23 11:09:26 2010
</name>
<styleUrl>
#styleMap_TLP_Normal
</styleUrl>
<Point>
<coordinates>
121.6036453,24.0418758,31.17
</coordinates>
</Point>
</Placemark>
<Placemark>
<name>
Thu Sep 23 11:09:31 2010
</name>
<styleUrl>
#styleMap_TLP_Normal
</styleUrl>
<Point>
<coordinates>
121.6036835,24.0421467,31.07
</coordinates>
</Point>
</Placemark>
<Placemark>
<name>
Thu Sep 23 11:09:36 2010
</name>
<styleUrl>
#styleMap_TLP_Normal
</styleUrl>
<Point>
<coordinates>
121.6037292,24.0424347,30.25
</coordinates>
</Point>
</Placemark>
<Placemark>
<name>
Thu Sep 23 11:09:41 2010
</name>
<styleUrl>
#styleMap_TLP_Normal
</styleUrl>
<Point>
<coordinates>
121.6037674,24.0427170,29.87
</coordinates>
</Point>
</Placemark>
<Placemark>
<name>
Thu Sep 23 11:09:46 2010
</name>
<styleUrl>
#styleMap_TLP_Normal
</styleUrl>
<Point>
<coordinates>
121.6038208,24.0430126,28.17
</coordinates>
</Point>
</Placemark>
<Placemark>
<name>
Thu Sep 23 11:09:51 2010
</name>
<styleUrl>
#styleMap_TLP_Normal
</styleUrl>
<Point>
<coordinates>
121.6038818,24.0433102,28.13
</coordinates>
</Point>
</Placemark>
<Placemark>
<name>
Thu Sep 23 11:09:56 2010
</name>
<styleUrl>
#styleMap_TLP_Normal
</styleUrl>
<Point>
<coordinates>
121.6039124,24.0435925,27.58
</coordinates>
</Point>
</Placemark>
<Placemark>
<name>
Thu Sep 23 11:10:01 2010
</name>
<styleUrl>
#styleMap_TLP_Normal
</styleUrl>
<Point>
<coordinates>
121.6039581,24.0438614,26.72
</coordinates>
</Point>
</Placemark>
<Placemark>
<name>
Thu Sep 23 11:10:06 2010
</name>
<styleUrl>
#styleMap_TLP_Normal
</styleUrl>
<Point>
<coordinates>
121.6039963,24.0441360,27.12
</coordinates>
</Point>
</Placemark>
<Placemark>
<name>
Thu Sep 23 11:10:11 2010
</name>
<styleUrl>
#styleMap_TLP_Normal
</styleUrl>
<Point>
<coordinates>
121.6040497,24.0443916,27.56
</coordinates>
</Point>
</Placemark>
<Placemark>
<name>
Thu Sep 23 11:10:16 2010
</name>
<styleUrl>
#styleMap_TLP_Normal
</styleUrl>
<Point>
<coordinates>
121.6040878,24.0446434,27.77
</coordinates>
</Point>
</Placemark>
<Placemark>
<name>
Thu Sep 23 11:10:21 2010
</name>
<styleUrl>
#styleMap_TLP_Normal
</styleUrl>
<Point>
<coordinates>
121.6041260,24.0448990,27.17
</coordinates>
</Point>
</Placemark>
<Placemark>
<name>
Thu Sep 23 11:10:26 2010
</name>
<styleUrl>
#styleMap_TLP_Normal
</styleUrl>
<Point>
<coordinates>
121.6041565,24.0451221,28.40
</coordinates>
</Point>
</Placemark>
<Placemark>
<name>
Thu Sep 23 11:10:31 2010
</name>
<styleUrl>
#styleMap_TLP_Normal
</styleUrl>
<Point>
<coordinates>
121.6041718,24.0452404,27.67
</coordinates>
</Point>
</Placemark>
<Placemark>
<name>
Thu Sep 23 11:10:36 2010
</name>
<styleUrl>
#styleMap_TLP_Normal
</styleUrl>
<Point>
<coordinates>
121.6042099,24.0452976,28.48
</coordinates>
</Point>
</Placemark>
<Placemark>
<name>
Thu Sep 23 11:10:41 2010
</name>
<styleUrl>
#styleMap_TLP_Normal
</styleUrl>
<Point>
<coordinates>
121.6042252,24.0453930,29.78
</coordinates>
</Point>
</Placemark>
<Placemark>
<name>
Thu Sep 23 11:10:46 2010
</name>
<styleUrl>
#styleMap_TLP_Normal
</styleUrl>
<Point>
<coordinates>
121.6042480,24.0454960,30.06
</coordinates>
</Point>
</Placemark>
<Placemark>
<name>
Thu Sep 23 11:10:51 2010
</name>
<styleUrl>
#styleMap_TLP_Normal
</styleUrl>
<Point>
<coordinates>
121.6042709,24.0456181,29.96
</coordinates>
</Point>
</Placemark>
<Placemark>
<name>
Thu Sep 23 11:10:56 2010
</name>
<styleUrl>
#styleMap_TLP_Normal
</styleUrl>
<Point>
<coordinates>
121.6042862,24.0457554,30.16
</coordinates>
</Point>
</Placemark>
<Placemark>
<name>
Thu Sep 23 11:11:01 2010
</name>
<styleUrl>
#styleMap_TLP_Normal
</styleUrl>
<Point>
<coordinates>
121.6043015,24.0458889,30.01
</coordinates>
</Point>
</Placemark>
<Placemark>
<name>
Thu Sep 23 11:11:06 2010
</name>
<styleUrl>
#styleMap_TLP_Normal
</styleUrl>
<Point>
<coordinates>
121.6043243,24.0460434,30.62
</coordinates>
</Point>
</Placemark>
<Placemark>
<name>
Thu Sep 23 11:11:11 2010
</name>
<styleUrl>
#styleMap_TLP_Normal
</styleUrl>
<Point>
<coordinates>
121.6043549,24.0461998,30.76
</coordinates>
</Point>
</Placemark>
<Placemark>
<name>
Thu Sep 23 11:11:16 2010
</name>
<styleUrl>
#styleMap_TLP_Normal
</styleUrl>
<Point>
<coordinates>
121.6043777,24.0463734,31.24
</coordinates>
</Point>
</Placemark>
<Placemark>
<name>
Thu Sep 23 11:11:21 2010
</name>
<styleUrl>
#styleMap_TLP_Normal
</styleUrl>
<Point>
<coordinates>
121.6044006,24.0465832,29.62
</coordinates>
</Point>
</Placemark>
<Placemark>
<name>
Thu Sep 23 11:11:26 2010
</name>
<styleUrl>
#styleMap_TLP_Normal
</styleUrl>
<Point>
<coordinates>
121.6044312,24.0468121,28.63
</coordinates>
</Point>
</Placemark>
<Placemark>
<name>
Thu Sep 23 11:11:31 2010
</name>
<styleUrl>
#styleMap_TLP_Normal
</styleUrl>
<Point>
<coordinates>
121.6044846,24.0470600,28.09
</coordinates>
</Point>
</Placemark>
<Placemark>
<name>
Thu Sep 23 11:11:36 2010
</name>
<styleUrl>
#styleMap_TLP_Normal
</styleUrl>
<Point>
<coordinates>
121.6045303,24.0473251,26.99
</coordinates>
</Point>
</Placemark>
<Placemark>
<name>
Thu Sep 23 11:11:41 2010
</name>
<styleUrl>
#styleMap_TLP_Normal
</styleUrl>
<Point>
<coordinates>
121.6045609,24.0475960,28.09
</coordinates>
</Point>
</Placemark>
<Placemark>
<name>
Thu Sep 23 11:11:46 2010
</name>
<styleUrl>
#styleMap_TLP_Normal
</styleUrl>
<Point>
<coordinates>
121.6045990,24.0478611,28.81
</coordinates>
</Point>
</Placemark>
<Placemark>
<name>
Thu Sep 23 11:11:51 2010
</name>
<styleUrl>
#styleMap_TLP_Normal
</styleUrl>
<Point>
<coordinates>
121.6046371,24.0481186,28.42
</coordinates>
</Point>
</Placemark>
<Placemark>
<name>
Thu Sep 23 11:11:56 2010
</name>
<styleUrl>
#styleMap_TLP_Normal
</styleUrl>
<Point>
<coordinates>
121.6046753,24.0483818,28.77
</coordinates>
</Point>
</Placemark>
<Placemark>
<name>
Thu Sep 23 11:12:01 2010
</name>
<styleUrl>
#styleMap_TLP_Normal
</styleUrl>
<Point>
<coordinates>
121.6047134,24.0486317,27.12
</coordinates>
</Point>
</Placemark>
<Placemark>
<name>
Thu Sep 23 11:12:06 2010
</name>
<styleUrl>
#styleMap_TLP_Normal
</styleUrl>
<Point>
<coordinates>
121.6047668,24.0488777,27.77
</coordinates>
</Point>
</Placemark>
<Placemark>
<name>
Thu Sep 23 11:12:11 2010
</name>
<styleUrl>
#styleMap_TLP_Normal
</styleUrl>
<Point>
<coordinates>
121.6047821,24.0491238,28.39
</coordinates>
</Point>
</Placemark>
<Placemark>
<name>
Thu Sep 23 11:12:16 2010
</name>
<styleUrl>
#styleMap_TLP_Normal
</styleUrl>
<Point>
<coordinates>
121.6048203,24.0493832,28.04
</coordinates>
</Point>
</Placemark>
<Placemark>
<name>
Thu Sep 23 11:12:21 2010
</name>
<styleUrl>
#styleMap_TLP_Normal
</styleUrl>
<Point>
<coordinates>
121.6048584,24.0496426,27.74
</coordinates>
</Point>
</Placemark>
<Placemark>
<name>
Thu Sep 23 11:12:26 2010
</name>
<styleUrl>
#styleMap_TLP_Normal
</styleUrl>
<Point>
<coordinates>
121.6049042,24.0499344,27.75
</coordinates>
</Point>
</Placemark>
<Placemark>
<name>
Thu Sep 23 11:12:31 2010
</name>
<styleUrl>
#styleMap_TLP_Normal
</styleUrl>
<Point>
<coordinates>
121.6049652,24.0502224,26.50
</coordinates>
</Point>
</Placemark>
<Placemark>
<name>
Thu Sep 23 11:12:36 2010
</name>
<styleUrl>
#styleMap_TLP_Normal
</styleUrl>
<Point>
<coordinates>
121.6049957,24.0504951,26.23
</coordinates>
</Point>
</Placemark>
<Placemark>
<name>
Thu Sep 23 11:12:41 2010
</name>
<styleUrl>
#styleMap_TLP_Normal
</styleUrl>
<Point>
<coordinates>
121.6050491,24.0507698,26.76
</coordinates>
</Point>
</Placemark>
<Placemark>
<name>
Thu Sep 23 11:12:46 2010
</name>
<styleUrl>
#styleMap_TLP_Normal
</styleUrl>
<Point>
<coordinates>
121.6051178,24.0510273,26.39
</coordinates>
</Point>
</Placemark>
<Placemark>
<name>
Thu Sep 23 11:12:51 2010
</name>
<styleUrl>
#styleMap_TLP_Normal
</styleUrl>
<Point>
<coordinates>
121.6051559,24.0512886,24.22
</coordinates>
</Point>
</Placemark>
<Placemark>
<name>
Thu Sep 23 11:12:56 2010
</name>
<styleUrl>
#styleMap_TLP_Normal
</styleUrl>
<Point>
<coordinates>
121.6052017,24.0515289,23.98
</coordinates>
</Point>
</Placemark>
<Placemark>
<name>
Thu Sep 23 11:13:01 2010
</name>
<styleUrl>
#styleMap_TLP_Normal
</styleUrl>
<Point>
<coordinates>
121.6052628,24.0517654,21.41
</coordinates>
</Point>
</Placemark>
<Placemark>
<name>
Thu Sep 23 11:13:06 2010
</name>
<styleUrl>
#styleMap_TLP_Normal
</styleUrl>
<Point>
<coordinates>
121.6052704,24.0520382,24.06
</coordinates>
</Point>
</Placemark>
<Placemark>
<name>
Thu Sep 23 11:13:11 2010
</name>
<styleUrl>
#styleMap_TLP_Normal
</styleUrl>
<Point>
<coordinates>
121.6052856,24.0523167,26.31
</coordinates>
</Point>
</Placemark>
<Placemark>
<name>
Thu Sep 23 11:13:16 2010
</name>
<styleUrl>
#styleMap_TLP_Normal
</styleUrl>
<Point>
<coordinates>
121.6053314,24.0526142,26.02
</coordinates>
</Point>
</Placemark>
<Placemark>
<name>
Thu Sep 23 11:13:21 2010
</name>
<styleUrl>
#styleMap_TLP_Normal
</styleUrl>
<Point>
<coordinates>
121.6053772,24.0529156,26.78
</coordinates>
</Point>
</Placemark>
<Placemark>
<name>
Thu Sep 23 11:13:26 2010
</name>
<styleUrl>
#styleMap_TLP_Normal
</styleUrl>
<Point>
<coordinates>
121.6054306,24.0532227,25.74
</coordinates>
</Point>
</Placemark>
<Placemark>
<name>
Thu Sep 23 11:13:31 2010
</name>
<styleUrl>
#styleMap_TLP_Normal
</styleUrl>
<Point>
<coordinates>
121.6054688,24.0535240,25.89
</coordinates>
</Point>
</Placemark>
<Placemark>
<name>
Thu Sep 23 11:13:36 2010
</name>
<styleUrl>
#styleMap_TLP_Normal
</styleUrl>
<Point>
<coordinates>
121.6055222,24.0538406,26.41
</coordinates>
</Point>
</Placemark>
<Placemark>
<name>
Thu Sep 23 11:13:41 2010
</name>
<styleUrl>
#styleMap_TLP_Normal
</styleUrl>
<Point>
<coordinates>
121.6055756,24.0541630,25.29
</coordinates>
</Point>
</Placemark>
<Placemark>
<name>
Thu Sep 23 11:13:46 2010
</name>
<styleUrl>
#styleMap_TLP_Normal
</styleUrl>
<Point>
<coordinates>
121.6056442,24.0544777,24.08
</coordinates>
</Point>
</Placemark>
<Placemark>
<name>
Thu Sep 23 11:13:51 2010
</name>
<styleUrl>
#styleMap_TLP_Normal
</styleUrl>
<Point>
<coordinates>
121.6056976,24.0547752,24.58
</coordinates>
</Point>
</Placemark>
<Placemark>
<name>
Thu Sep 23 11:13:56 2010
</name>
<styleUrl>
#styleMap_TLP_Normal
</styleUrl>
<Point>
<coordinates>
121.6057281,24.0550652,23.89
</coordinates>
</Point>
</Placemark>
<Placemark>
<name>
Thu Sep 23 11:14:01 2010
</name>
<styleUrl>
#styleMap_TLP_Normal
</styleUrl>
<Point>
<coordinates>
121.6057892,24.0553570,23.58
</coordinates>
</Point>
</Placemark>
<Placemark>
<name>
Thu Sep 23 11:14:06 2010
</name>
<styleUrl>
#styleMap_TLP_Normal
</styleUrl>
<Point>
<coordinates>
121.6058273,24.0556412,23.93
</coordinates>
</Point>
</Placemark>
<Placemark>
<name>
Thu Sep 23 11:14:11 2010
</name>
<styleUrl>
#styleMap_TLP_Normal
</styleUrl>
<Point>
<coordinates>
121.6058655,24.0559082,24.35
</coordinates>
</Point>
</Placemark>
<Placemark>
<name>
Thu Sep 23 11:14:16 2010
</name>
<styleUrl>
#styleMap_TLP_Normal
</styleUrl>
<Point>
<coordinates>
121.6059189,24.0561810,24.53
</coordinates>
</Point>
</Placemark>
<Placemark>
<name>
Thu Sep 23 11:14:21 2010
</name>
<styleUrl>
#styleMap_TLP_Normal
</styleUrl>
<Point>
<coordinates>
121.6059494,24.0564537,25.58
</coordinates>
</Point>
</Placemark>
<Placemark>
<name>
Thu Sep 23 11:14:26 2010
</name>
<styleUrl>
#styleMap_TLP_Normal
</styleUrl>
<Point>
<coordinates>
121.6059875,24.0567150,26.02
</coordinates>
</Point>
</Placemark>
<Placemark>
<name>
Thu Sep 23 11:14:31 2010
</name>
<styleUrl>
#styleMap_TLP_Normal
</styleUrl>
<Point>
<coordinates>
121.6060333,24.0569897,26.25
</coordinates>
</Point>
</Placemark>
<Placemark>
<name>
Thu Sep 23 11:14:36 2010
</name>
<styleUrl>
#styleMap_TLP_Normal
</styleUrl>
<Point>
<coordinates>
121.6060791,24.0572586,25.37
</coordinates>
</Point>
</Placemark>
<Placemark>
<name>
Thu Sep 23 11:14:41 2010
</name>
<styleUrl>
#styleMap_TLP_Normal
</styleUrl>
<Point>
<coordinates>
121.6061172,24.0575314,25.59
</coordinates>
</Point>
</Placemark>
<Placemark>
<name>
Thu Sep 23 11:14:46 2010
</name>
<styleUrl>
#styleMap_TLP_Normal
</styleUrl>
<Point>
<coordinates>
121.6061783,24.0578041,25.19
</coordinates>
</Point>
</Placemark>
<Placemark>
<name>
Thu Sep 23 11:14:51 2010
</name>
<styleUrl>
#styleMap_TLP_Normal
</styleUrl>
<Point>
<coordinates>
121.6062317,24.0580730,24.43
</coordinates>
</Point>
</Placemark>
<Placemark>
<name>
Thu Sep 23 11:14:56 2010
</name>
<styleUrl>
#styleMap_TLP_Normal
</styleUrl>
<Point>
<coordinates>
121.6062851,24.0583477,25.09
</coordinates>
</Point>
</Placemark>
<Placemark>
<name>
Thu Sep 23 11:15:01 2010
</name>
<styleUrl>
#styleMap_TLP_Normal
</styleUrl>
<Point>
<coordinates>
121.6063461,24.0586166,24.26
</coordinates>
</Point>
</Placemark>
<Placemark>
<name>
Thu Sep 23 11:15:06 2010
</name>
<styleUrl>
#styleMap_TLP_Normal
</styleUrl>
<Point>
<coordinates>
121.6063766,24.0588932,24.84
</coordinates>
</Point>
</Placemark>
<Placemark>
<name>
Thu Sep 23 11:15:11 2010
</name>
<styleUrl>
#styleMap_TLP_Normal
</styleUrl>
<Point>
<coordinates>
121.6063995,24.0591755,25.56
</coordinates>
</Point>
</Placemark>
<Placemark>
<name>
Thu Sep 23 11:15:16 2010
</name>
<styleUrl>
#styleMap_TLP_Normal
</styleUrl>
<Point>
<coordinates>
121.6064377,24.0594635,26.26
</coordinates>
</Point>
</Placemark>
<Placemark>
<name>
Thu Sep 23 11:15:21 2010
</name>
<styleUrl>
#styleMap_TLP_Normal
</styleUrl>
<Point>
<coordinates>
121.6064835,24.0597591,26.10
</coordinates>
</Point>
</Placemark>
<Placemark>
<name>
Thu Sep 23 11:15:31 2010
</name>
<styleUrl>
#styleMap_TLP_Normal
</styleUrl>
<Point>
<coordinates>
121.6065826,24.0603542,26.21
</coordinates>
</Point>
</Placemark>
<Placemark>
<name>
Thu Sep 23 11:15:36 2010
</name>
<styleUrl>
#styleMap_TLP_Normal
</styleUrl>
<Point>
<coordinates>
121.6066284,24.0606632,26.97
</coordinates>
</Point>
</Placemark>
<Placemark>
<name>
Thu Sep 23 11:15:41 2010
</name>
<styleUrl>
#styleMap_TLP_Normal
</styleUrl>
<Point>
<coordinates>
121.6066895,24.0609837,27.08
</coordinates>
</Point>
</Placemark>
<Placemark>
<name>
Thu Sep 23 11:15:46 2010
</name>
<styleUrl>
#styleMap_TLP_Normal
</styleUrl>
<Point>
<coordinates>
121.6067429,24.0612965,27.85
</coordinates>
</Point>
</Placemark>
<Placemark>
<name>
Thu Sep 23 11:15:51 2010
</name>
<styleUrl>
#styleMap_TLP_Normal
</styleUrl>
<Point>
<coordinates>
121.6067963,24.0615959,26.22
</coordinates>
</Point>
</Placemark>
<Placemark>
<name>
Thu Sep 23 11:15:56 2010
</name>
<styleUrl>
#styleMap_TLP_Normal
</styleUrl>
<Point>
<coordinates>
121.6068420,24.0618763,26.65
</coordinates>
</Point>
</Placemark>
<Placemark>
<name>
Thu Sep 23 11:16:01 2010
</name>
<styleUrl>
#styleMap_TLP_Normal
</styleUrl>
<Point>
<coordinates>
121.6068573,24.0621510,26.86
</coordinates>
</Point>
</Placemark>
<Placemark>
<name>
Thu Sep 23 11:16:06 2010
</name>
<styleUrl>
#styleMap_TLP_Normal
</styleUrl>
<Point>
<coordinates>
121.6068878,24.0624104,26.21
</coordinates>
</Point>
</Placemark>
<Placemark>
<name>
Thu Sep 23 11:16:11 2010
</name>
<styleUrl>
#styleMap_TLP_Normal
</styleUrl>
<Point>
<coordinates>
121.6069183,24.0626698,26.17
</coordinates>
</Point>
</Placemark>
<Placemark>
<name>
Thu Sep 23 11:16:16 2010
</name>
<styleUrl>
#styleMap_TLP_Normal
</styleUrl>
<Point>
<coordinates>
121.6069946,24.0629120,24.90
</coordinates>
</Point>
</Placemark>
<Placemark>
<name>
Thu Sep 23 11:16:21 2010
</name>
<styleUrl>
#styleMap_TLP_Normal
</styleUrl>
<Point>
<coordinates>
121.6070480,24.0631752,24.32
</coordinates>
</Point>
</Placemark>
<Placemark>
<name>
Thu Sep 23 11:16:26 2010
</name>
<styleUrl>
#styleMap_TLP_Normal
</styleUrl>
<Point>
<coordinates>
121.6070862,24.0634403,25.38
</coordinates>
</Point>
</Placemark>
<Placemark>
<name>
Thu Sep 23 11:16:31 2010
</name>
<styleUrl>
#styleMap_TLP_Normal
</styleUrl>
<Point>
<coordinates>
121.6071167,24.0636940,27.17
</coordinates>
</Point>
</Placemark>
<Placemark>
<name>
Thu Sep 23 11:16:36 2010
</name>
<styleUrl>
#styleMap_TLP_Normal
</styleUrl>
<Point>
<coordinates>
121.6071548,24.0639343,27.54
</coordinates>
</Point>
</Placemark>
<Placemark>
<name>
Thu Sep 23 11:16:41 2010
</name>
<styleUrl>
#styleMap_TLP_Normal
</styleUrl>
<Point>
<coordinates>
121.6071777,24.0641766,27.71
</coordinates>
</Point>
</Placemark>
<Placemark>
<name>
Thu Sep 23 11:16:46 2010
</name>
<styleUrl>
#styleMap_TLP_Normal
</styleUrl>
<Point>
<coordinates>
121.6072159,24.0644245,27.99
</coordinates>
</Point>
</Placemark>
<Placemark>
<name>
Thu Sep 23 11:16:51 2010
</name>
<styleUrl>
#styleMap_TLP_Normal
</styleUrl>
<Point>
<coordinates>
121.6072617,24.0646687,27.72
</coordinates>
</Point>
</Placemark>
<Placemark>
<name>
Thu Sep 23 11:16:56 2010
</name>
<styleUrl>
#styleMap_TLP_Normal
</styleUrl>
<Point>
<coordinates>
121.6072998,24.0649014,27.20
</coordinates>
</Point>
</Placemark>
<Placemark>
<name>
Thu Sep 23 11:17:01 2010
</name>
<styleUrl>
#styleMap_TLP_Normal
</styleUrl>
<Point>
<coordinates>
121.6073380,24.0651360,26.93
</coordinates>
</Point>
</Placemark>
<Placemark>
<name>
Thu Sep 23 11:17:06 2010
</name>
<styleUrl>
#styleMap_TLP_Normal
</styleUrl>
<Point>
<coordinates>
121.6073914,24.0653954,25.84
</coordinates>
</Point>
</Placemark>
<Placemark>
<name>
Thu Sep 23 11:17:11 2010
</name>
<styleUrl>
#styleMap_TLP_Normal
</styleUrl>
<Point>
<coordinates>
121.6074219,24.0656738,26.52
</coordinates>
</Point>
</Placemark>
<Placemark>
<name>
Thu Sep 23 11:17:16 2010
</name>
<styleUrl>
#styleMap_TLP_Normal
</styleUrl>
<Point>
<coordinates>
121.6074524,24.0659504,27.53
</coordinates>
</Point>
</Placemark>
<Placemark>
<name>
Thu Sep 23 11:17:21 2010
</name>
<styleUrl>
#styleMap_TLP_Normal
</styleUrl>
<Point>
<coordinates>
121.6075058,24.0662231,28.95
</coordinates>
</Point>
</Placemark>
<Placemark>
<name>
Thu Sep 23 11:17:26 2010
</name>
<styleUrl>
#styleMap_TLP_Normal
</styleUrl>
<Point>
<coordinates>
121.6075439,24.0664997,28.71
</coordinates>
</Point>
</Placemark>
<Placemark>
<name>
Thu Sep 23 11:17:31 2010
</name>
<styleUrl>
#styleMap_TLP_Normal
</styleUrl>
<Point>
<coordinates>
121.6075974,24.0667915,28.65
</coordinates>
</Point>
</Placemark>
<Placemark>
<name>
Thu Sep 23 11:17:36 2010
</name>
<styleUrl>
#styleMap_TLP_Normal
</styleUrl>
<Point>
<coordinates>
121.6076355,24.0670929,28.94
</coordinates>
</Point>
</Placemark>
<Placemark>
<name>
Thu Sep 23 11:17:41 2010
</name>
<styleUrl>
#styleMap_TLP_Normal
</styleUrl>
<Point>
<coordinates>
121.6076889,24.0673904,28.54
</coordinates>
</Point>
</Placemark>
<Placemark>
<name>
Thu Sep 23 11:17:46 2010
</name>
<styleUrl>
#styleMap_TLP_Normal
</styleUrl>
<Point>
<coordinates>
121.6077347,24.0676823,27.45
</coordinates>
</Point>
</Placemark>
<Placemark>
<name>
Thu Sep 23 11:17:51 2010
</name>
<styleUrl>
#styleMap_TLP_Normal
</styleUrl>
<Point>
<coordinates>
121.6077728,24.0679798,26.67
</coordinates>
</Point>
</Placemark>
<Placemark>
<name>
Thu Sep 23 11:17:56 2010
</name>
<styleUrl>
#styleMap_TLP_Normal
</styleUrl>
<Point>
<coordinates>
121.6078262,24.0682926,26.72
</coordinates>
</Point>
</Placemark>
<Placemark>
<name>
Thu Sep 23 11:18:01 2010
</name>
<styleUrl>
#styleMap_TLP_Normal
</styleUrl>
<Point>
<coordinates>
121.6078873,24.0685883,26.85
</coordinates>
</Point>
</Placemark>
<Placemark>
<name>
Thu Sep 23 11:18:06 2010
</name>
<styleUrl>
#styleMap_TLP_Normal
</styleUrl>
<Point>
<coordinates>
121.6079254,24.0688992,26.87
</coordinates>
</Point>
</Placemark>
<Placemark>
<name>
Thu Sep 23 11:18:11 2010
</name>
<styleUrl>
#styleMap_TLP_Normal
</styleUrl>
<Point>
<coordinates>
121.6079636,24.0691776,26.60
</coordinates>
</Point>
</Placemark>
<Placemark>
<name>
Thu Sep 23 11:18:16 2010
</name>
<styleUrl>
#styleMap_TLP_Normal
</styleUrl>
<Point>
<coordinates>
121.6080170,24.0694466,25.55
</coordinates>
</Point>
</Placemark>
<Placemark>
<name>
Thu Sep 23 11:18:21 2010
</name>
<styleUrl>
#styleMap_TLP_Normal
</styleUrl>
<Point>
<coordinates>
121.6080780,24.0697231,25.59
</coordinates>
</Point>
</Placemark>
<Placemark>
<name>
Thu Sep 23 11:18:26 2010
</name>
<styleUrl>
#styleMap_TLP_Normal
</styleUrl>
<Point>
<coordinates>
121.6081314,24.0700016,24.89
</coordinates>
</Point>
</Placemark>
<Placemark>
<name>
Thu Sep 23 11:18:31 2010
</name>
<styleUrl>
#styleMap_TLP_Normal
</styleUrl>
<Point>
<coordinates>
121.6081619,24.0702477,25.09
</coordinates>
</Point>
</Placemark>
<Placemark>
<name>
Thu Sep 23 11:18:36 2010
</name>
<styleUrl>
#styleMap_TLP_Normal
</styleUrl>
<Point>
<coordinates>
121.6081848,24.0704899,25.49
</coordinates>
</Point>
</Placemark>
<Placemark>
<name>
Thu Sep 23 11:18:41 2010
</name>
<styleUrl>
#styleMap_TLP_Normal
</styleUrl>
<Point>
<coordinates>
121.6082153,24.0707684,25.93
</coordinates>
</Point>
</Placemark>
<Placemark>
<name>
Thu Sep 23 11:18:46 2010
</name>
<styleUrl>
#styleMap_TLP_Normal
</styleUrl>
<Point>
<coordinates>
121.6082687,24.0710354,24.76
</coordinates>
</Point>
</Placemark>
<Placemark>
<name>
Thu Sep 23 11:18:51 2010
</name>
<styleUrl>
#styleMap_TLP_Normal
</styleUrl>
<Point>
<coordinates>
121.6083145,24.0713196,25.29
</coordinates>
</Point>
</Placemark>
<Placemark>
<name>
Thu Sep 23 11:18:56 2010
</name>
<styleUrl>
#styleMap_TLP_Normal
</styleUrl>
<Point>
<coordinates>
121.6083832,24.0716000,24.69
</coordinates>
</Point>
</Placemark>
<Placemark>
<name>
Thu Sep 23 11:19:01 2010
</name>
<styleUrl>
#styleMap_TLP_Normal
</styleUrl>
<Point>
<coordinates>
121.6084671,24.0718689,22.67
</coordinates>
</Point>
</Placemark>
<Placemark>
<name>
Thu Sep 23 11:19:06 2010
</name>
<styleUrl>
#styleMap_TLP_Normal
</styleUrl>
<Point>
<coordinates>
121.6085129,24.0721397,22.63
</coordinates>
</Point>
</Placemark>
<Placemark>
<name>
Thu Sep 23 11:19:11 2010
</name>
<styleUrl>
#styleMap_TLP_Normal
</styleUrl>
<Point>
<coordinates>
121.6085052,24.0724220,26.31
</coordinates>
</Point>
</Placemark>
<Placemark>
<name>
Thu Sep 23 11:19:16 2010
</name>
<styleUrl>
#styleMap_TLP_Normal
</styleUrl>
<Point>
<coordinates>
121.6085358,24.0727158,27.99
</coordinates>
</Point>
</Placemark>
<Placemark>
<name>
Thu Sep 23 11:19:21 2010
</name>
<styleUrl>
#styleMap_TLP_Normal
</styleUrl>
<Point>
<coordinates>
121.6085663,24.0730114,27.76
</coordinates>
</Point>
</Placemark>
<Placemark>
<name>
Thu Sep 23 11:19:26 2010
</name>
<styleUrl>
#styleMap_TLP_Normal
</styleUrl>
<Point>
<coordinates>
121.6086121,24.0733109,26.91
</coordinates>
</Point>
</Placemark>
<Placemark>
<name>
Thu Sep 23 11:19:31 2010
</name>
<styleUrl>
#styleMap_TLP_Normal
</styleUrl>
<Point>
<coordinates>
121.6086578,24.0736237,27.23
</coordinates>
</Point>
</Placemark>
<Placemark>
<name>
Thu Sep 23 11:19:36 2010
</name>
<styleUrl>
#styleMap_TLP_Normal
</styleUrl>
<Point>
<coordinates>
121.6087112,24.0739250,27.03
</coordinates>
</Point>
</Placemark>
<Placemark>
<name>
Thu Sep 23 11:19:41 2010
</name>
<styleUrl>
#styleMap_TLP_Normal
</styleUrl>
<Point>
<coordinates>
121.6087494,24.0742264,27.60
</coordinates>
</Point>
</Placemark>
<Placemark>
<name>
Thu Sep 23 11:19:46 2010
</name>
<styleUrl>
#styleMap_TLP_Normal
</styleUrl>
<Point>
<coordinates>
121.6087952,24.0745354,27.59
</coordinates>
</Point>
</Placemark>
<Placemark>
<name>
Thu Sep 23 11:19:51 2010
</name>
<styleUrl>
#styleMap_TLP_Normal
</styleUrl>
<Point>
<coordinates>
121.6088409,24.0748425,26.89
</coordinates>
</Point>
</Placemark>
<Placemark>
<name>
Thu Sep 23 11:19:56 2010
</name>
<styleUrl>
#styleMap_TLP_Normal
</styleUrl>
<Point>
<coordinates>
121.6089020,24.0751419,26.45
</coordinates>
</Point>
</Placemark>
<Placemark>
<name>
Thu Sep 23 11:20:01 2010
</name>
<styleUrl>
#styleMap_TLP_Normal
</styleUrl>
<Point>
<coordinates>
121.6089478,24.0754261,26.42
</coordinates>
</Point>
</Placemark>
<Placemark>
<name>
Thu Sep 23 11:20:06 2010
</name>
<styleUrl>
#styleMap_TLP_Normal
</styleUrl>
<Point>
<coordinates>
121.6090012,24.0757141,24.84
</coordinates>
</Point>
</Placemark>
<Placemark>
<name>
Thu Sep 23 11:20:11 2010
</name>
<styleUrl>
#styleMap_TLP_Normal
</styleUrl>
<Point>
<coordinates>
121.6090393,24.0760117,24.33
</coordinates>
</Point>
</Placemark>
<Placemark>
<name>
Thu Sep 23 11:20:16 2010
</name>
<styleUrl>
#styleMap_TLP_Normal
</styleUrl>
<Point>
<coordinates>
121.6090851,24.0763092,26.52
</coordinates>
</Point>
</Placemark>
<Placemark>
<name>
Thu Sep 23 11:20:21 2010
</name>
<styleUrl>
#styleMap_TLP_Normal
</styleUrl>
<Point>
<coordinates>
121.6091309,24.0766010,25.80
</coordinates>
</Point>
</Placemark>
<Placemark>
<name>
Thu Sep 23 11:20:26 2010
</name>
<styleUrl>
#styleMap_TLP_Normal
</styleUrl>
<Point>
<coordinates>
121.6091766,24.0768661,24.38
</coordinates>
</Point>
</Placemark>
<Placemark>
<name>
Thu Sep 23 11:20:31 2010
</name>
<styleUrl>
#styleMap_TLP_Normal
</styleUrl>
<Point>
<coordinates>
121.6092072,24.0771370,23.65
</coordinates>
</Point>
</Placemark>
<Placemark>
<name>
Thu Sep 23 11:20:36 2010
</name>
<styleUrl>
#styleMap_TLP_Normal
</styleUrl>
<Point>
<coordinates>
121.6092224,24.0774040,22.59
</coordinates>
</Point>
</Placemark>
<Placemark>
<name>
Thu Sep 23 11:20:41 2010
</name>
<styleUrl>
#styleMap_TLP_Normal
</styleUrl>
<Point>
<coordinates>
121.6092911,24.0776939,21.99
</coordinates>
</Point>
</Placemark>
<Placemark>
<name>
Thu Sep 23 11:20:46 2010
</name>
<styleUrl>
#styleMap_TLP_Normal
</styleUrl>
<Point>
<coordinates>
121.6093292,24.0779934,21.96
</coordinates>
</Point>
</Placemark>
<Placemark>
<name>
Thu Sep 23 11:20:51 2010
</name>
<styleUrl>
#styleMap_TLP_Normal
</styleUrl>
<Point>
<coordinates>
121.6093750,24.0782585,22.34
</coordinates>
</Point>
</Placemark>
<Placemark>
<name>
Thu Sep 23 11:20:56 2010
</name>
<styleUrl>
#styleMap_TLP_Normal
</styleUrl>
<Point>
<coordinates>
121.6094131,24.0785446,22.23
</coordinates>
</Point>
</Placemark>
<Placemark>
<name>
Thu Sep 23 11:21:01 2010
</name>
<styleUrl>
#styleMap_TLP_Normal
</styleUrl>
<Point>
<coordinates>
121.6094437,24.0788193,22.08
</coordinates>
</Point>
</Placemark>
<Placemark>
<name>
Thu Sep 23 11:21:06 2010
</name>
<styleUrl>
#styleMap_TLP_Normal
</styleUrl>
<Point>
<coordinates>
121.6094742,24.0790787,22.38
</coordinates>
</Point>
</Placemark>
<Placemark>
<name>
Thu Sep 23 11:21:11 2010
</name>
<styleUrl>
#styleMap_TLP_Normal
</styleUrl>
<Point>
<coordinates>
121.6095581,24.0793514,23.03
</coordinates>
</Point>
</Placemark>
<Placemark>
<name>
Thu Sep 23 11:21:16 2010
</name>
<styleUrl>
#styleMap_TLP_Normal
</styleUrl>
<Point>
<coordinates>
121.6095886,24.0796413,21.24
</coordinates>
</Point>
</Placemark>
<Placemark>
<name>
Thu Sep 23 11:21:21 2010
</name>
<styleUrl>
#styleMap_TLP_Normal
</styleUrl>
<Point>
<coordinates>
121.6096497,24.0799274,19.58
</coordinates>
</Point>
</Placemark>
<Placemark>
<name>
Thu Sep 23 11:21:26 2010
</name>
<styleUrl>
#styleMap_TLP_Normal
</styleUrl>
<Point>
<coordinates>
121.6096954,24.0802250,20.92
</coordinates>
</Point>
</Placemark>
<Placemark>
<name>
Thu Sep 23 11:21:31 2010
</name>
<styleUrl>
#styleMap_TLP_Normal
</styleUrl>
<Point>
<coordinates>
121.6097412,24.0805397,21.30
</coordinates>
</Point>
</Placemark>
<Placemark>
<name>
Thu Sep 23 11:21:36 2010
</name>
<styleUrl>
#styleMap_TLP_Normal
</styleUrl>
<Point>
<coordinates>
121.6097946,24.0808334,22.26
</coordinates>
</Point>
</Placemark>
<Placemark>
<name>
Thu Sep 23 11:21:41 2010
</name>
<styleUrl>
#styleMap_TLP_Normal
</styleUrl>
<Point>
<coordinates>
121.6098633,24.0811176,23.32
</coordinates>
</Point>
</Placemark>
<Placemark>
<name>
Thu Sep 23 11:21:46 2010
</name>
<styleUrl>
#styleMap_TLP_Normal
</styleUrl>
<Point>
<coordinates>
121.6099243,24.0814133,23.54
</coordinates>
</Point>
</Placemark>
<Placemark>
<name>
Thu Sep 23 11:21:51 2010
</name>
<styleUrl>
#styleMap_TLP_Normal
</styleUrl>
<Point>
<coordinates>
121.6099701,24.0816994,27.64
</coordinates>
</Point>
</Placemark>
<Placemark>
<name>
Thu Sep 23 11:21:56 2010
</name>
<styleUrl>
#styleMap_TLP_Normal
</styleUrl>
<Point>
<coordinates>
121.6100464,24.0819874,27.92
</coordinates>
</Point>
</Placemark>
<Placemark>
<name>
Thu Sep 23 11:22:01 2010
</name>
<styleUrl>
#styleMap_TLP_Normal
</styleUrl>
<Point>
<coordinates>
121.6101379,24.0822697,28.74
</coordinates>
</Point>
</Placemark>
<Placemark>
<name>
Thu Sep 23 11:22:06 2010
</name>
<styleUrl>
#styleMap_TLP_Normal
</styleUrl>
<Point>
<coordinates>
121.6102524,24.0825462,28.93
</coordinates>
</Point>
</Placemark>
<Placemark>
<name>
Thu Sep 23 11:22:11 2010
</name>
<styleUrl>
#styleMap_TLP_Normal
</styleUrl>
<Point>
<coordinates>
121.6103668,24.0828037,30.43
</coordinates>
</Point>
</Placemark>
<Placemark>
<name>
Thu Sep 23 11:22:16 2010
</name>
<styleUrl>
#styleMap_TLP_Normal
</styleUrl>
<Point>
<coordinates>
121.6104736,24.0830669,32.51
</coordinates>
</Point>
</Placemark>
<Placemark>
<name>
Thu Sep 23 11:22:21 2010
</name>
<styleUrl>
#styleMap_TLP_Normal
</styleUrl>
<Point>
<coordinates>
121.6105423,24.0833378,33.48
</coordinates>
</Point>
</Placemark>
<Placemark>
<name>
Thu Sep 23 11:22:26 2010
</name>
<styleUrl>
#styleMap_TLP_Normal
</styleUrl>
<Point>
<coordinates>
121.6106186,24.0836048,32.10
</coordinates>
</Point>
</Placemark>
<Placemark>
<name>
Thu Sep 23 11:22:31 2010
</name>
<styleUrl>
#styleMap_TLP_Normal
</styleUrl>
<Point>
<coordinates>
121.6106873,24.0838928,28.06
</coordinates>
</Point>
</Placemark>
<Placemark>
<name>
Thu Sep 23 11:22:36 2010
</name>
<styleUrl>
#styleMap_TLP_Normal
</styleUrl>
<Point>
<coordinates>
121.6107712,24.0841599,25.95
</coordinates>
</Point>
</Placemark>
<Placemark>
<name>
Thu Sep 23 11:22:41 2010
</name>
<styleUrl>
#styleMap_TLP_Normal
</styleUrl>
<Point>
<coordinates>
121.6108627,24.0844307,22.83
</coordinates>
</Point>
</Placemark>
<Placemark>
<name>
Thu Sep 23 11:22:46 2010
</name>
<styleUrl>
#styleMap_TLP_Normal
</styleUrl>
<Point>
<coordinates>
121.6109543,24.0847034,23.04
</coordinates>
</Point>
</Placemark>
<Placemark>
<name>
Thu Sep 23 11:22:51 2010
</name>
<styleUrl>
#styleMap_TLP_Normal
</styleUrl>
<Point>
<coordinates>
121.6110382,24.0849819,21.16
</coordinates>
</Point>
</Placemark>
<Placemark>
<name>
Thu Sep 23 11:22:56 2010
</name>
<styleUrl>
#styleMap_TLP_Normal
</styleUrl>
<Point>
<coordinates>
121.6111298,24.0852451,21.74
</coordinates>
</Point>
</Placemark>
<Placemark>
<name>
Thu Sep 23 11:23:01 2010
</name>
<styleUrl>
#styleMap_TLP_Normal
</styleUrl>
<Point>
<coordinates>
121.6112289,24.0855026,22.69
</coordinates>
</Point>
</Placemark>
<Placemark>
<name>
Thu Sep 23 11:23:06 2010
</name>
<styleUrl>
#styleMap_TLP_Normal
</styleUrl>
<Point>
<coordinates>
121.6113205,24.0857620,22.67
</coordinates>
</Point>
</Placemark>
<Placemark>
<name>
Thu Sep 23 11:23:11 2010
</name>
<styleUrl>
#styleMap_TLP_Normal
</styleUrl>
<Point>
<coordinates>
121.6114120,24.0860157,23.15
</coordinates>
</Point>
</Placemark>
<Placemark>
<name>
Thu Sep 23 11:23:16 2010
</name>
<styleUrl>
#styleMap_TLP_Normal
</styleUrl>
<Point>
<coordinates>
121.6115036,24.0862865,22.10
</coordinates>
</Point>
</Placemark>
<Placemark>
<name>
Thu Sep 23 11:23:21 2010
</name>
<styleUrl>
#styleMap_TLP_Normal
</styleUrl>
<Point>
<coordinates>
121.6115952,24.0865536,24.20
</coordinates>
</Point>
</Placemark>
<Placemark>
<name>
Thu Sep 23 11:23:31 2010
</name>
<styleUrl>
#styleMap_TLP_Normal
</styleUrl>
<Point>
<coordinates>
121.6117706,24.0871143,23.70
</coordinates>
</Point>
</Placemark>
<Placemark>
<name>
Thu Sep 23 11:23:36 2010
</name>
<styleUrl>
#styleMap_TLP_Normal
</styleUrl>
<Point>
<coordinates>
121.6118622,24.0873909,23.42
</coordinates>
</Point>
</Placemark>
<Placemark>
<name>
Thu Sep 23 11:23:41 2010
</name>
<styleUrl>
#styleMap_TLP_Normal
</styleUrl>
<Point>
<coordinates>
121.6119690,24.0876675,22.42
</coordinates>
</Point>
</Placemark>
<Placemark>
<name>
Thu Sep 23 11:23:46 2010
</name>
<styleUrl>
#styleMap_TLP_Normal
</styleUrl>
<Point>
<coordinates>
121.6120453,24.0879097,22.33
</coordinates>
</Point>
</Placemark>
<Placemark>
<name>
Thu Sep 23 11:23:51 2010
</name>
<styleUrl>
#styleMap_TLP_Normal
</styleUrl>
<Point>
<coordinates>
121.6121292,24.0881367,22.06
</coordinates>
</Point>
</Placemark>
<Placemark>
<name>
Thu Sep 23 11:23:56 2010
</name>
<styleUrl>
#styleMap_TLP_Normal
</styleUrl>
<Point>
<coordinates>
121.6122131,24.0883923,21.78
</coordinates>
</Point>
</Placemark>
<Placemark>
<name>
Thu Sep 23 11:24:01 2010
</name>
<styleUrl>
#styleMap_TLP_Normal
</styleUrl>
<Point>
<coordinates>
121.6122894,24.0886574,21.25
</coordinates>
</Point>
</Placemark>
<Placemark>
<name>
Thu Sep 23 11:24:06 2010
</name>
<styleUrl>
#styleMap_TLP_Normal
</styleUrl>
<Point>
<coordinates>
121.6123657,24.0888920,20.85
</coordinates>
</Point>
</Placemark>
<Placemark>
<name>
Thu Sep 23 11:24:11 2010
</name>
<styleUrl>
#styleMap_TLP_Normal
</styleUrl>
<Point>
<coordinates>
121.6124496,24.0891132,20.98
</coordinates>
</Point>
</Placemark>
<Placemark>
<name>
Thu Sep 23 11:24:16 2010
</name>
<styleUrl>
#styleMap_TLP_Normal
</styleUrl>
<Point>
<coordinates>
121.6125336,24.0893421,22.98
</coordinates>
</Point>
</Placemark>
<Placemark>
<name>
Thu Sep 23 11:24:21 2010
</name>
<styleUrl>
#styleMap_TLP_Normal
</styleUrl>
<Point>
<coordinates>
121.6126175,24.0895920,24.06
</coordinates>
</Point>
</Placemark>
<Placemark>
<name>
Thu Sep 23 11:24:26 2010
</name>
<styleUrl>
#styleMap_TLP_Normal
</styleUrl>
<Point>
<coordinates>
121.6127090,24.0898399,25.28
</coordinates>
</Point>
</Placemark>
<Placemark>
<name>
Thu Sep 23 11:24:31 2010
</name>
<styleUrl>
#styleMap_TLP_Normal
</styleUrl>
<Point>
<coordinates>
121.6127930,24.0900936,25.73
</coordinates>
</Point>
</Placemark>
<Placemark>
<name>
Thu Sep 23 11:24:36 2010
</name>
<styleUrl>
#styleMap_TLP_Normal
</styleUrl>
<Point>
<coordinates>
121.6128922,24.0903511,26.66
</coordinates>
</Point>
</Placemark>
<Placemark>
<name>
Thu Sep 23 11:24:41 2010
</name>
<styleUrl>
#styleMap_TLP_Normal
</styleUrl>
<Point>
<coordinates>
121.6129761,24.0906200,26.79
</coordinates>
</Point>
</Placemark>
<Placemark>
<name>
Thu Sep 23 11:24:46 2010
</name>
<styleUrl>
#styleMap_TLP_Normal
</styleUrl>
<Point>
<coordinates>
121.6130676,24.0908833,26.98
</coordinates>
</Point>
</Placemark>
<Placemark>
<name>
Thu Sep 23 11:24:51 2010
</name>
<styleUrl>
#styleMap_TLP_Normal
</styleUrl>
<Point>
<coordinates>
121.6131439,24.0911465,25.96
</coordinates>
</Point>
</Placemark>
<Placemark>
<name>
Thu Sep 23 11:24:56 2010
</name>
<styleUrl>
#styleMap_TLP_Normal
</styleUrl>
<Point>
<coordinates>
121.6132355,24.0914230,25.88
</coordinates>
</Point>
</Placemark>
<Placemark>
<name>
Thu Sep 23 11:25:01 2010
</name>
<styleUrl>
#styleMap_TLP_Normal
</styleUrl>
<Point>
<coordinates>
121.6133194,24.0916729,25.93
</coordinates>
</Point>
</Placemark>
<Placemark>
<name>
Thu Sep 23 11:25:06 2010
</name>
<styleUrl>
#styleMap_TLP_Normal
</styleUrl>
<Point>
<coordinates>
121.6134033,24.0919361,25.27
</coordinates>
</Point>
</Placemark>
<Placemark>
<name>
Thu Sep 23 11:25:11 2010
</name>
<styleUrl>
#styleMap_TLP_Normal
</styleUrl>
<Point>
<coordinates>
121.6135101,24.0922222,25.07
</coordinates>
</Point>
</Placemark>
<Placemark>
<name>
Thu Sep 23 11:25:16 2010
</name>
<styleUrl>
#styleMap_TLP_Normal
</styleUrl>
<Point>
<coordinates>
121.6136093,24.0924606,24.03
</coordinates>
</Point>
</Placemark>
<Placemark>
<name>
Thu Sep 23 11:25:21 2010
</name>
<styleUrl>
#styleMap_TLP_Normal
</styleUrl>
<Point>
<coordinates>
121.6137009,24.0927181,24.99
</coordinates>
</Point>
</Placemark>
<Placemark>
<name>
Thu Sep 23 11:25:26 2010
</name>
<styleUrl>
#styleMap_TLP_Normal
</styleUrl>
<Point>
<coordinates>
121.6137924,24.0930042,24.92
</coordinates>
</Point>
</Placemark>
<Placemark>
<name>
Thu Sep 23 11:25:31 2010
</name>
<styleUrl>
#styleMap_TLP_Normal
</styleUrl>
<Point>
<coordinates>
121.6138916,24.0932674,25.15
</coordinates>
</Point>
</Placemark>
<Placemark>
<name>
Thu Sep 23 11:25:36 2010
</name>
<styleUrl>
#styleMap_TLP_Normal
</styleUrl>
<Point>
<coordinates>
121.6139526,24.0935116,24.57
</coordinates>
</Point>
</Placemark>
<Placemark>
<name>
Thu Sep 23 11:25:41 2010
</name>
<styleUrl>
#styleMap_TLP_Normal
</styleUrl>
<Point>
<coordinates>
121.6140366,24.0937691,23.62
</coordinates>
</Point>
</Placemark>
<Placemark>
<name>
Thu Sep 23 11:25:46 2010
</name>
<styleUrl>
#styleMap_TLP_Normal
</styleUrl>
<Point>
<coordinates>
121.6141052,24.0940094,22.26
</coordinates>
</Point>
</Placemark>
<Placemark>
<name>
Thu Sep 23 11:25:51 2010
</name>
<styleUrl>
#styleMap_TLP_Normal
</styleUrl>
<Point>
<coordinates>
121.6141739,24.0942554,22.31
</coordinates>
</Point>
</Placemark>
<Placemark>
<name>
Thu Sep 23 11:25:56 2010
</name>
<styleUrl>
#styleMap_TLP_Normal
</styleUrl>
<Point>
<coordinates>
121.6142044,24.0944805,21.62
</coordinates>
</Point>
</Placemark>
<Placemark>
<name>
Thu Sep 23 11:26:01 2010
</name>
<styleUrl>
#styleMap_TLP_Normal
</styleUrl>
<Point>
<coordinates>
121.6142426,24.0947056,21.96
</coordinates>
</Point>
</Placemark>
<Placemark>
<name>
Thu Sep 23 11:26:06 2010
</name>
<styleUrl>
#styleMap_TLP_Normal
</styleUrl>
<Point>
<coordinates>
121.6143036,24.0949478,21.73
</coordinates>
</Point>
</Placemark>
<Placemark>
<name>
Thu Sep 23 11:26:11 2010
</name>
<styleUrl>
#styleMap_TLP_Normal
</styleUrl>
<Point>
<coordinates>
121.6143494,24.0951996,21.43
</coordinates>
</Point>
</Placemark>
<Placemark>
<name>
Thu Sep 23 11:26:16 2010
</name>
<styleUrl>
#styleMap_TLP_Normal
</styleUrl>
<Point>
<coordinates>
121.6144180,24.0954666,21.77
</coordinates>
</Point>
</Placemark>
<Placemark>
<name>
Thu Sep 23 11:26:21 2010
</name>
<styleUrl>
#styleMap_TLP_Normal
</styleUrl>
<Point>
<coordinates>
121.6144943,24.0957298,21.51
</coordinates>
</Point>
</Placemark>
<Placemark>
<name>
Thu Sep 23 11:26:26 2010
</name>
<styleUrl>
#styleMap_TLP_Normal
</styleUrl>
<Point>
<coordinates>
121.6145630,24.0959854,21.68
</coordinates>
</Point>
</Placemark>
<Placemark>
<name>
Thu Sep 23 11:26:31 2010
</name>
<styleUrl>
#styleMap_TLP_Normal
</styleUrl>
<Point>
<coordinates>
121.6146240,24.0962677,20.83
</coordinates>
</Point>
</Placemark>
<Placemark>
<name>
Thu Sep 23 11:26:36 2010
</name>
<styleUrl>
#styleMap_TLP_Normal
</styleUrl>
<Point>
<coordinates>
121.6147232,24.0965481,21.33
</coordinates>
</Point>
</Placemark>
<Placemark>
<name>
Thu Sep 23 11:26:41 2010
</name>
<styleUrl>
#styleMap_TLP_Normal
</styleUrl>
<Point>
<coordinates>
121.6147995,24.0968380,22.75
</coordinates>
</Point>
</Placemark>
<Placemark>
<name>
Thu Sep 23 11:26:46 2010
</name>
<styleUrl>
#styleMap_TLP_Normal
</styleUrl>
<Point>
<coordinates>
121.6148529,24.0971012,23.06
</coordinates>
</Point>
</Placemark>
<Placemark>
<name>
Thu Sep 23 11:26:51 2010
</name>
<styleUrl>
#styleMap_TLP_Normal
</styleUrl>
<Point>
<coordinates>
121.6149063,24.0973301,22.81
</coordinates>
</Point>
</Placemark>
<Placemark>
<name>
Thu Sep 23 11:26:56 2010
</name>
<styleUrl>
#styleMap_TLP_Normal
</styleUrl>
<Point>
<coordinates>
121.6149445,24.0975780,22.69
</coordinates>
</Point>
</Placemark>
<Placemark>
<name>
Thu Sep 23 11:27:01 2010
</name>
<styleUrl>
#styleMap_TLP_Normal
</styleUrl>
<Point>
<coordinates>
121.6150055,24.0978317,23.29
</coordinates>
</Point>
</Placemark>
<Placemark>
<name>
Thu Sep 23 11:27:06 2010
</name>
<styleUrl>
#styleMap_TLP_Normal
</styleUrl>
<Point>
<coordinates>
121.6150665,24.0980663,24.73
</coordinates>
</Point>
</Placemark>
<Placemark>
<name>
Thu Sep 23 11:27:11 2010
</name>
<styleUrl>
#styleMap_TLP_Normal
</styleUrl>
<Point>
<coordinates>
121.6151276,24.0982838,25.35
</coordinates>
</Point>
</Placemark>
<Placemark>
<name>
Thu Sep 23 11:27:16 2010
</name>
<styleUrl>
#styleMap_TLP_Normal
</styleUrl>
<Point>
<coordinates>
121.6151962,24.0985279,25.80
</coordinates>
</Point>
</Placemark>
<Placemark>
<name>
Thu Sep 23 11:27:21 2010
</name>
<styleUrl>
#styleMap_TLP_Normal
</styleUrl>
<Point>
<coordinates>
121.6152649,24.0987720,26.07
</coordinates>
</Point>
</Placemark>
<Placemark>
<name>
Thu Sep 23 11:27:26 2010
</name>
<styleUrl>
#styleMap_TLP_Normal
</styleUrl>
<Point>
<coordinates>
121.6153412,24.0990391,25.63
</coordinates>
</Point>
</Placemark>
<Placemark>
<name>
Thu Sep 23 11:27:31 2010
</name>
<styleUrl>
#styleMap_TLP_Normal
</styleUrl>
<Point>
<coordinates>
121.6154251,24.0993061,24.53
</coordinates>
</Point>
</Placemark>
<Placemark>
<name>
Thu Sep 23 11:27:36 2010
</name>
<styleUrl>
#styleMap_TLP_Normal
</styleUrl>
<Point>
<coordinates>
121.6154938,24.0995731,24.26
</coordinates>
</Point>
</Placemark>
<Placemark>
<name>
Thu Sep 23 11:27:41 2010
</name>
<styleUrl>
#styleMap_TLP_Normal
</styleUrl>
<Point>
<coordinates>
121.6155548,24.0998363,24.44
</coordinates>
</Point>
</Placemark>
<Placemark>
<name>
Thu Sep 23 11:27:46 2010
</name>
<styleUrl>
#styleMap_TLP_Normal
</styleUrl>
<Point>
<coordinates>
121.6156158,24.1001091,24.71
</coordinates>
</Point>
</Placemark>
<Placemark>
<name>
Thu Sep 23 11:27:51 2010
</name>
<styleUrl>
#styleMap_TLP_Normal
</styleUrl>
<Point>
<coordinates>
121.6156921,24.1003819,24.45
</coordinates>
</Point>
</Placemark>
<Placemark>
<name>
Thu Sep 23 11:27:56 2010
</name>
<styleUrl>
#styleMap_TLP_Normal
</styleUrl>
<Point>
<coordinates>
121.6157684,24.1006641,24.52
</coordinates>
</Point>
</Placemark>
<Placemark>
<name>
Thu Sep 23 11:28:01 2010
</name>
<styleUrl>
#styleMap_TLP_Normal
</styleUrl>
<Point>
<coordinates>
121.6158218,24.1009445,26.05
</coordinates>
</Point>
</Placemark>
<Placemark>
<name>
Thu Sep 23 11:28:06 2010
</name>
<styleUrl>
#styleMap_TLP_Normal
</styleUrl>
<Point>
<coordinates>
121.6158981,24.1012230,24.92
</coordinates>
</Point>
</Placemark>
<Placemark>
<name>
Thu Sep 23 11:28:11 2010
</name>
<styleUrl>
#styleMap_TLP_Normal
</styleUrl>
<Point>
<coordinates>
121.6159668,24.1014938,24.39
</coordinates>
</Point>
</Placemark>
<Placemark>
<name>
Thu Sep 23 11:28:16 2010
</name>
<styleUrl>
#styleMap_TLP_Normal
</styleUrl>
<Point>
<coordinates>
121.6160278,24.1017685,25.18
</coordinates>
</Point>
</Placemark>
<Placemark>
<name>
Thu Sep 23 11:28:21 2010
</name>
<styleUrl>
#styleMap_TLP_Normal
</styleUrl>
<Point>
<coordinates>
121.6161041,24.1020489,25.04
</coordinates>
</Point>
</Placemark>
<Placemark>
<name>
Thu Sep 23 11:28:26 2010
</name>
<styleUrl>
#styleMap_TLP_Normal
</styleUrl>
<Point>
<coordinates>
121.6161652,24.1023235,24.42
</coordinates>
</Point>
</Placemark>
<Placemark>
<name>
Thu Sep 23 11:28:31 2010
</name>
<styleUrl>
#styleMap_TLP_Normal
</styleUrl>
<Point>
<coordinates>
121.6162338,24.1026173,23.86
</coordinates>
</Point>
</Placemark>
<Placemark>
<name>
Thu Sep 23 11:28:36 2010
</name>
<styleUrl>
#styleMap_TLP_Normal
</styleUrl>
<Point>
<coordinates>
121.6163330,24.1028957,23.77
</coordinates>
</Point>
</Placemark>
<Placemark>
<name>
Thu Sep 23 11:28:41 2010
</name>
<styleUrl>
#styleMap_TLP_Normal
</styleUrl>
<Point>
<coordinates>
121.6164322,24.1031494,23.16
</coordinates>
</Point>
</Placemark>
<Placemark>
<name>
Thu Sep 23 11:28:46 2010
</name>
<styleUrl>
#styleMap_TLP_Normal
</styleUrl>
<Point>
<coordinates>
121.6165390,24.1034012,22.48
</coordinates>
</Point>
</Placemark>
<Placemark>
<name>
Thu Sep 23 11:28:51 2010
</name>
<styleUrl>
#styleMap_TLP_Normal
</styleUrl>
<Point>
<coordinates>
121.6166687,24.1036606,22.88
</coordinates>
</Point>
</Placemark>
<Placemark>
<name>
Thu Sep 23 11:28:56 2010
</name>
<styleUrl>
#styleMap_TLP_Normal
</styleUrl>
<Point>
<coordinates>
121.6168213,24.1039066,24.09
</coordinates>
</Point>
</Placemark>
<Placemark>
<name>
Thu Sep 23 11:29:01 2010
</name>
<styleUrl>
#styleMap_TLP_Normal
</styleUrl>
<Point>
<coordinates>
121.6169968,24.1041470,24.09
</coordinates>
</Point>
</Placemark>
<Placemark>
<name>
Thu Sep 23 11:29:06 2010
</name>
<styleUrl>
#styleMap_TLP_Normal
</styleUrl>
<Point>
<coordinates>
121.6171722,24.1043777,22.78
</coordinates>
</Point>
</Placemark>
<Placemark>
<name>
Thu Sep 23 11:29:11 2010
</name>
<styleUrl>
#styleMap_TLP_Normal
</styleUrl>
<Point>
<coordinates>
121.6173325,24.1045856,20.86
</coordinates>
</Point>
</Placemark>
<Placemark>
<name>
Thu Sep 23 11:29:16 2010
</name>
<styleUrl>
#styleMap_TLP_Normal
</styleUrl>
<Point>
<coordinates>
121.6175232,24.1047993,20.96
</coordinates>
</Point>
</Placemark>
<Placemark>
<name>
Thu Sep 23 11:29:21 2010
</name>
<styleUrl>
#styleMap_TLP_Normal
</styleUrl>
<Point>
<coordinates>
121.6177216,24.1050053,20.68
</coordinates>
</Point>
</Placemark>
<Placemark>
<name>
Thu Sep 23 11:29:26 2010
</name>
<styleUrl>
#styleMap_TLP_Normal
</styleUrl>
<Point>
<coordinates>
121.6179428,24.1051998,20.80
</coordinates>
</Point>
</Placemark>
<Placemark>
<name>
Thu Sep 23 11:29:31 2010
</name>
<styleUrl>
#styleMap_TLP_Normal
</styleUrl>
<Point>
<coordinates>
121.6181793,24.1054115,19.11
</coordinates>
</Point>
</Placemark>
<Placemark>
<name>
Thu Sep 23 11:29:36 2010
</name>
<styleUrl>
#styleMap_TLP_Normal
</styleUrl>
<Point>
<coordinates>
121.6184311,24.1056271,18.71
</coordinates>
</Point>
</Placemark>
<Placemark>
<name>
Thu Sep 23 11:29:41 2010
</name>
<styleUrl>
#styleMap_TLP_Normal
</styleUrl>
<Point>
<coordinates>
121.6186829,24.1057930,17.58
</coordinates>
</Point>
</Placemark>
<Placemark>
<name>
Thu Sep 23 11:29:46 2010
</name>
<styleUrl>
#styleMap_TLP_Normal
</styleUrl>
<Point>
<coordinates>
121.6189270,24.1059570,17.55
</coordinates>
</Point>
</Placemark>
<Placemark>
<name>
Thu Sep 23 11:29:51 2010
</name>
<styleUrl>
#styleMap_TLP_Normal
</styleUrl>
<Point>
<coordinates>
121.6191940,24.1060982,16.44
</coordinates>
</Point>
</Placemark>
<Placemark>
<name>
Thu Sep 23 11:29:56 2010
</name>
<styleUrl>
#styleMap_TLP_Normal
</styleUrl>
<Point>
<coordinates>
121.6194687,24.1062450,14.27
</coordinates>
</Point>
</Placemark>
<Placemark>
<name>
Thu Sep 23 11:30:01 2010
</name>
<styleUrl>
#styleMap_TLP_Normal
</styleUrl>
<Point>
<coordinates>
121.6197357,24.1063824,13.40
</coordinates>
</Point>
</Placemark>
<Placemark>
<name>
Thu Sep 23 11:30:06 2010
</name>
<styleUrl>
#styleMap_TLP_Normal
</styleUrl>
<Point>
<coordinates>
121.6199646,24.1065006,14.15
</coordinates>
</Point>
</Placemark>
<Placemark>
<name>
Thu Sep 23 11:30:11 2010
</name>
<styleUrl>
#styleMap_TLP_Normal
</styleUrl>
<Point>
<coordinates>
121.6202087,24.1065826,13.81
</coordinates>
</Point>
</Placemark>
<Placemark>
<name>
Thu Sep 23 11:30:16 2010
</name>
<styleUrl>
#styleMap_TLP_Normal
</styleUrl>
<Point>
<coordinates>
121.6204681,24.1067047,12.55
</coordinates>
</Point>
</Placemark>
<Placemark>
<name>
Thu Sep 23 11:30:21 2010
</name>
<styleUrl>
#styleMap_TLP_Normal
</styleUrl>
<Point>
<coordinates>
121.6207275,24.1068172,13.14
</coordinates>
</Point>
</Placemark>
<Placemark>
<name>
Thu Sep 23 11:30:26 2010
</name>
<styleUrl>
#styleMap_TLP_Normal
</styleUrl>
<Point>
<coordinates>
121.6209717,24.1069469,17.64
</coordinates>
</Point>
</Placemark>
<Placemark>
<name>
Thu Sep 23 11:30:31 2010
</name>
<styleUrl>
#styleMap_TLP_Normal
</styleUrl>
<Point>
<coordinates>
121.6212234,24.1070652,17.26
</coordinates>
</Point>
</Placemark>
<Placemark>
<name>
Thu Sep 23 11:30:41 2010
</name>
<styleUrl>
#styleMap_TLP_Normal
</styleUrl>
<Point>
<coordinates>
121.6217194,24.1072865,17.27
</coordinates>
</Point>
</Placemark>
<Placemark>
<name>
Thu Sep 23 11:30:46 2010
</name>
<styleUrl>
#styleMap_TLP_Normal
</styleUrl>
<Point>
<coordinates>
121.6219635,24.1074104,14.48
</coordinates>
</Point>
</Placemark>
<Placemark>
<name>
Thu Sep 23 11:30:51 2010
</name>
<styleUrl>
#styleMap_TLP_Normal
</styleUrl>
<Point>
<coordinates>
121.6222153,24.1075363,13.36
</coordinates>
</Point>
</Placemark>
<Placemark>
<name>
Thu Sep 23 11:30:56 2010
</name>
<styleUrl>
#styleMap_TLP_Normal
</styleUrl>
<Point>
<coordinates>
121.6224594,24.1076565,16.09
</coordinates>
</Point>
</Placemark>
<Placemark>
<name>
Thu Sep 23 11:31:01 2010
</name>
<styleUrl>
#styleMap_TLP_Normal
</styleUrl>
<Point>
<coordinates>
121.6227036,24.1077785,16.18
</coordinates>
</Point>
</Placemark>
<Placemark>
<name>
Thu Sep 23 11:31:06 2010
</name>
<styleUrl>
#styleMap_TLP_Normal
</styleUrl>
<Point>
<coordinates>
121.6229324,24.1079178,16.62
</coordinates>
</Point>
</Placemark>
<Placemark>
<name>
Thu Sep 23 11:31:11 2010
</name>
<styleUrl>
#styleMap_TLP_Normal
</styleUrl>
<Point>
<coordinates>
121.6231842,24.1080494,16.33
</coordinates>
</Point>
</Placemark>
<Placemark>
<name>
Thu Sep 23 11:31:16 2010
</name>
<styleUrl>
#styleMap_TLP_Normal
</styleUrl>
<Point>
<coordinates>
121.6234207,24.1081791,20.21
</coordinates>
</Point>
</Placemark>
<Placemark>
<name>
Thu Sep 23 11:31:21 2010
</name>
<styleUrl>
#styleMap_TLP_Normal
</styleUrl>
<Point>
<coordinates>
121.6236649,24.1082916,20.35
</coordinates>
</Point>
</Placemark>
<Placemark>
<name>
Thu Sep 23 11:31:31 2010
</name>
<styleUrl>
#styleMap_TLP_Normal
</styleUrl>
<Point>
<coordinates>
121.6241150,24.1085358,19.55
</coordinates>
</Point>
</Placemark>
<Placemark>
<name>
Thu Sep 23 11:31:36 2010
</name>
<styleUrl>
#styleMap_TLP_Normal
</styleUrl>
<Point>
<coordinates>
121.6243362,24.1086502,20.32
</coordinates>
</Point>
</Placemark>
<Placemark>
<name>
Thu Sep 23 11:31:41 2010
</name>
<styleUrl>
#styleMap_TLP_Normal
</styleUrl>
<Point>
<coordinates>
121.6245193,24.1087456,19.86
</coordinates>
</Point>
</Placemark>
<Placemark>
<name>
Thu Sep 23 11:31:46 2010
</name>
<styleUrl>
#styleMap_TLP_Normal
</styleUrl>
<Point>
<coordinates>
121.6247177,24.1088524,16.54
</coordinates>
</Point>
</Placemark>
<Placemark>
<name>
Thu Sep 23 11:31:51 2010
</name>
<styleUrl>
#styleMap_TLP_Normal
</styleUrl>
<Point>
<coordinates>
121.6249008,24.1089516,16.54
</coordinates>
</Point>
</Placemark>
<Placemark>
<name>
Thu Sep 23 11:31:56 2010
</name>
<styleUrl>
#styleMap_TLP_Normal
</styleUrl>
<Point>
<coordinates>
121.6250763,24.1090450,20.21
</coordinates>
</Point>
</Placemark>
<Placemark>
<name>
Thu Sep 23 11:32:01 2010
</name>
<styleUrl>
#styleMap_TLP_Normal
</styleUrl>
<Point>
<coordinates>
121.6252670,24.1091366,17.89
</coordinates>
</Point>
</Placemark>
<Placemark>
<name>
Thu Sep 23 11:32:06 2010
</name>
<styleUrl>
#styleMap_TLP_Normal
</styleUrl>
<Point>
<coordinates>
121.6254501,24.1092510,18.08
</coordinates>
</Point>
</Placemark>
<Placemark>
<name>
Thu Sep 23 11:32:11 2010
</name>
<styleUrl>
#styleMap_TLP_Normal
</styleUrl>
<Point>
<coordinates>
121.6256409,24.1093597,17.75
</coordinates>
</Point>
</Placemark>
<Placemark>
<name>
Thu Sep 23 11:32:21 2010
</name>
<styleUrl>
#styleMap_TLP_Normal
</styleUrl>
<Point>
<coordinates>
121.6260452,24.1095505,18.25
</coordinates>
</Point>
</Placemark>
<Placemark>
<name>
Thu Sep 23 11:32:26 2010
</name>
<styleUrl>
#styleMap_TLP_Normal
</styleUrl>
<Point>
<coordinates>
121.6262512,24.1096573,19.10
</coordinates>
</Point>
</Placemark>
<Placemark>
<name>
Thu Sep 23 11:32:31 2010
</name>
<styleUrl>
#styleMap_TLP_Normal
</styleUrl>
<Point>
<coordinates>
121.6264420,24.1097546,18.26
</coordinates>
</Point>
</Placemark>
<Placemark>
<name>
Thu Sep 23 11:32:36 2010
</name>
<styleUrl>
#styleMap_TLP_Normal
</styleUrl>
<Point>
<coordinates>
121.6266098,24.1098499,20.31
</coordinates>
</Point>
</Placemark>
<Placemark>
<name>
Thu Sep 23 11:32:41 2010
</name>
<styleUrl>
#styleMap_TLP_Normal
</styleUrl>
<Point>
<coordinates>
121.6268005,24.1099510,20.20
</coordinates>
</Point>
</Placemark>
<Placemark>
<name>
Thu Sep 23 11:32:46 2010
</name>
<styleUrl>
#styleMap_TLP_Normal
</styleUrl>
<Point>
<coordinates>
121.6269989,24.1100578,20.41
</coordinates>
</Point>
</Placemark>
<Placemark>
<name>
Thu Sep 23 11:32:51 2010
</name>
<styleUrl>
#styleMap_TLP_Normal
</styleUrl>
<Point>
<coordinates>
121.6271896,24.1101341,22.98
</coordinates>
</Point>
</Placemark>
<Placemark>
<name>
Thu Sep 23 11:32:56 2010
</name>
<styleUrl>
#styleMap_TLP_Normal
</styleUrl>
<Point>
<coordinates>
121.6273651,24.1102180,20.31
</coordinates>
</Point>
</Placemark>
<Placemark>
<name>
Thu Sep 23 11:33:01 2010
</name>
<styleUrl>
#styleMap_TLP_Normal
</styleUrl>
<Point>
<coordinates>
121.6275558,24.1103249,21.59
</coordinates>
</Point>
</Placemark>
<Placemark>
<name>
Thu Sep 23 11:33:06 2010
</name>
<styleUrl>
#styleMap_TLP_Normal
</styleUrl>
<Point>
<coordinates>
121.6277695,24.1104660,22.03
</coordinates>
</Point>
</Placemark>
<Placemark>
<name>
Thu Sep 23 11:33:11 2010
</name>
<styleUrl>
#styleMap_TLP_Normal
</styleUrl>
<Point>
<coordinates>
121.6279984,24.1105862,19.43
</coordinates>
</Point>
</Placemark>
<Placemark>
<name>
Thu Sep 23 11:33:16 2010
</name>
<styleUrl>
#styleMap_TLP_Normal
</styleUrl>
<Point>
<coordinates>
121.6281967,24.1106873,18.35
</coordinates>
</Point>
</Placemark>
<Placemark>
<name>
Thu Sep 23 11:33:21 2010
</name>
<styleUrl>
#styleMap_TLP_Normal
</styleUrl>
<Point>
<coordinates>
121.6284256,24.1108150,17.45
</coordinates>
</Point>
</Placemark>
<Placemark>
<name>
Thu Sep 23 11:33:26 2010
</name>
<styleUrl>
#styleMap_TLP_Normal
</styleUrl>
<Point>
<coordinates>
121.6286697,24.1109352,18.41
</coordinates>
</Point>
</Placemark>
<Placemark>
<name>
Thu Sep 23 11:33:31 2010
</name>
<styleUrl>
#styleMap_TLP_Normal
</styleUrl>
<Point>
<coordinates>
121.6288986,24.1110573,17.47
</coordinates>
</Point>
</Placemark>
<Placemark>
<name>
Thu Sep 23 11:33:36 2010
</name>
<styleUrl>
#styleMap_TLP_Normal
</styleUrl>
<Point>
<coordinates>
121.6291046,24.1111641,18.33
</coordinates>
</Point>
</Placemark>
<Placemark>
<name>
Thu Sep 23 11:33:41 2010
</name>
<styleUrl>
#styleMap_TLP_Normal
</styleUrl>
<Point>
<coordinates>
121.6293335,24.1112919,18.17
</coordinates>
</Point>
</Placemark>
<Placemark>
<name>
Thu Sep 23 11:33:46 2010
</name>
<styleUrl>
#styleMap_TLP_Normal
</styleUrl>
<Point>
<coordinates>
121.6295929,24.1114216,16.69
</coordinates>
</Point>
</Placemark>
<Placemark>
<name>
Thu Sep 23 11:33:51 2010
</name>
<styleUrl>
#styleMap_TLP_Normal
</styleUrl>
<Point>
<coordinates>
121.6298599,24.1115589,15.92
</coordinates>
</Point>
</Placemark>
<Placemark>
<name>
Thu Sep 23 11:34:01 2010
</name>
<styleUrl>
#styleMap_TLP_Normal
</styleUrl>
<Point>
<coordinates>
121.6302795,24.1117840,15.41
</coordinates>
</Point>
</Placemark>
<Placemark>
<name>
Thu Sep 23 11:34:06 2010
</name>
<styleUrl>
#styleMap_TLP_Normal
</styleUrl>
<Point>
<coordinates>
121.6304855,24.1118984,15.79
</coordinates>
</Point>
</Placemark>
<Placemark>
<name>
Thu Sep 23 11:34:11 2010
</name>
<styleUrl>
#styleMap_TLP_Normal
</styleUrl>
<Point>
<coordinates>
121.6307068,24.1119957,18.39
</coordinates>
</Point>
</Placemark>
<Placemark>
<name>
Thu Sep 23 11:34:16 2010
</name>
<styleUrl>
#styleMap_TLP_Normal
</styleUrl>
<Point>
<coordinates>
121.6308899,24.1121025,20.79
</coordinates>
</Point>
</Placemark>
<Placemark>
<name>
Thu Sep 23 11:34:21 2010
</name>
<styleUrl>
#styleMap_TLP_Normal
</styleUrl>
<Point>
<coordinates>
121.6310806,24.1122246,23.00
</coordinates>
</Point>
</Placemark>
<Placemark>
<name>
Thu Sep 23 11:34:26 2010
</name>
<styleUrl>
#styleMap_TLP_Normal
</styleUrl>
<Point>
<coordinates>
121.6312943,24.1123257,22.17
</coordinates>
</Point>
</Placemark>
<Placemark>
<name>
Thu Sep 23 11:34:31 2010
</name>
<styleUrl>
#styleMap_TLP_Normal
</styleUrl>
<Point>
<coordinates>
121.6314926,24.1124420,18.67
</coordinates>
</Point>
</Placemark>
<Placemark>
<name>
Thu Sep 23 11:34:36 2010
</name>
<styleUrl>
#styleMap_TLP_Normal
</styleUrl>
<Point>
<coordinates>
121.6317062,24.1125507,16.35
</coordinates>
</Point>
</Placemark>
<Placemark>
<name>
Thu Sep 23 11:34:41 2010
</name>
<styleUrl>
#styleMap_TLP_Normal
</styleUrl>
<Point>
<coordinates>
121.6319199,24.1126862,15.74
</coordinates>
</Point>
</Placemark>
<Placemark>
<name>
Thu Sep 23 11:34:46 2010
</name>
<styleUrl>
#styleMap_TLP_Normal
</styleUrl>
<Point>
<coordinates>
121.6321411,24.1128120,13.66
</coordinates>
</Point>
</Placemark>
<Placemark>
<name>
Thu Sep 23 11:34:51 2010
</name>
<styleUrl>
#styleMap_TLP_Normal
</styleUrl>
<Point>
<coordinates>
121.6323547,24.1129303,14.78
</coordinates>
</Point>
</Placemark>
<Placemark>
<name>
Thu Sep 23 11:34:56 2010
</name>
<styleUrl>
#styleMap_TLP_Normal
</styleUrl>
<Point>
<coordinates>
121.6325607,24.1130676,15.26
</coordinates>
</Point>
</Placemark>
<Placemark>
<name>
Thu Sep 23 11:35:01 2010
</name>
<styleUrl>
#styleMap_TLP_Normal
</styleUrl>
<Point>
<coordinates>
121.6327820,24.1132088,14.32
</coordinates>
</Point>
</Placemark>
<Placemark>
<name>
Thu Sep 23 11:35:06 2010
</name>
<styleUrl>
#styleMap_TLP_Normal
</styleUrl>
<Point>
<coordinates>
121.6329803,24.1133270,13.07
</coordinates>
</Point>
</Placemark>
<Placemark>
<name>
Thu Sep 23 11:35:11 2010
</name>
<styleUrl>
#styleMap_TLP_Normal
</styleUrl>
<Point>
<coordinates>
121.6331406,24.1134090,12.74
</coordinates>
</Point>
</Placemark>
<Placemark>
<name>
Thu Sep 23 11:35:16 2010
</name>
<styleUrl>
#styleMap_TLP_Normal
</styleUrl>
<Point>
<coordinates>
121.6332779,24.1134052,14.57
</coordinates>
</Point>
</Placemark>
<Placemark>
<name>
Thu Sep 23 11:35:21 2010
</name>
<styleUrl>
#styleMap_TLP_Normal
</styleUrl>
<Point>
<coordinates>
121.6333694,24.1133690,12.28
</coordinates>
</Point>
</Placemark>
<Placemark>
<name>
Thu Sep 23 11:35:26 2010
</name>
<styleUrl>
#styleMap_TLP_Normal
</styleUrl>
<Point>
<coordinates>
121.6333694,24.1133671,13.28
</coordinates>
</Point>
</Placemark>
<Placemark>
<name>
Thu Sep 23 11:35:31 2010
</name>
<styleUrl>
#styleMap_TLP_Normal
</styleUrl>
<Point>
<coordinates>
121.6333694,24.1133690,13.37
</coordinates>
</Point>
</Placemark>
<Placemark>
<name>
Thu Sep 23 11:35:36 2010
</name>
<styleUrl>
#styleMap_TLP_Normal
</styleUrl>
<Point>
<coordinates>
121.6333694,24.1133690,13.49
</coordinates>
</Point>
</Placemark>
<Placemark>
<name>
Thu Sep 23 11:35:41 2010
</name>
<styleUrl>
#styleMap_TLP_Normal
</styleUrl>
<Point>
<coordinates>
121.6333694,24.1133690,13.61
</coordinates>
</Point>
</Placemark>
<Placemark>
<name>
Thu Sep 23 11:35:46 2010
</name>
<styleUrl>
#styleMap_TLP_Normal
</styleUrl>
<Point>
<coordinates>
121.6333694,24.1133690,13.72
</coordinates>
</Point>
</Placemark>
<Placemark>
<name>
Thu Sep 23 11:35:51 2010
</name>
<styleUrl>
#styleMap_TLP_Normal
</styleUrl>
<Point>
<coordinates>
121.6333694,24.1133690,13.81
</coordinates>
</Point>
</Placemark>
<Placemark>
<name>
Thu Sep 23 11:35:56 2010
</name>
<styleUrl>
#styleMap_TLP_Normal
</styleUrl>
<Point>
<coordinates>
121.6333694,24.1133690,13.93
</coordinates>
</Point>
</Placemark>
<Placemark>
<name>
Thu Sep 23 11:36:01 2010
</name>
<styleUrl>
#styleMap_TLP_Normal
</styleUrl>
<Point>
<coordinates>
121.6333694,24.1133709,13.97
</coordinates>
</Point>
</Placemark>
<Placemark>
<name>
Thu Sep 23 11:36:06 2010
</name>
<styleUrl>
#styleMap_TLP_Normal
</styleUrl>
<Point>
<coordinates>
121.6333694,24.1133709,14.03
</coordinates>
</Point>
</Placemark>
<Placemark>
<name>
Thu Sep 23 11:36:11 2010
</name>
<styleUrl>
#styleMap_TLP_Normal
</styleUrl>
<Point>
<coordinates>
121.6333694,24.1133709,14.07
</coordinates>
</Point>
</Placemark>
<Placemark>
<name>
Thu Sep 23 11:36:16 2010
</name>
<styleUrl>
#styleMap_TLP_Normal
</styleUrl>
<Point>
<coordinates>
121.6333694,24.1133709,14.09
</coordinates>
</Point>
</Placemark>
<Placemark>
<name>
Thu Sep 23 11:36:21 2010
</name>
<styleUrl>
#styleMap_TLP_Normal
</styleUrl>
<Point>
<coordinates>
121.6333694,24.1133709,14.14
</coordinates>
</Point>
</Placemark>
<Placemark>
<name>
Thu Sep 23 11:36:26 2010
</name>
<styleUrl>
#styleMap_TLP_Normal
</styleUrl>
<Point>
<coordinates>
121.6333694,24.1133709,14.16
</coordinates>
</Point>
</Placemark>
<Placemark>
<name>
Thu Sep 23 11:36:31 2010
</name>
<styleUrl>
#styleMap_TLP_Normal
</styleUrl>
<Point>
<coordinates>
121.6333694,24.1133709,14.19
</coordinates>
</Point>
</Placemark>
<Placemark>
<name>
Thu Sep 23 11:36:36 2010
</name>
<styleUrl>
#styleMap_TLP_Normal
</styleUrl>
<Point>
<coordinates>
121.6333694,24.1133709,14.21
</coordinates>
</Point>
</Placemark>
<Placemark>
<name>
Thu Sep 23 11:36:41 2010
</name>
<styleUrl>
#styleMap_TLP_Normal
</styleUrl>
<Point>
<coordinates>
121.6333694,24.1133709,14.24
</coordinates>
</Point>
</Placemark>
<Placemark>
<name>
Thu Sep 23 11:36:46 2010
</name>
<styleUrl>
#styleMap_TLP_Normal
</styleUrl>
<Point>
<coordinates>
121.6333694,24.1133728,14.28
</coordinates>
</Point>
</Placemark>
<Placemark>
<name>
Thu Sep 23 11:36:51 2010
</name>
<styleUrl>
#styleMap_TLP_Normal
</styleUrl>
<Point>
<coordinates>
121.6333694,24.1133728,14.35
</coordinates>
</Point>
</Placemark>
<Placemark>
<name>
Thu Sep 23 11:36:56 2010
</name>
<styleUrl>
#styleMap_TLP_Normal
</styleUrl>
<Point>
<coordinates>
121.6333694,24.1133728,14.40
</coordinates>
</Point>
</Placemark>
<Placemark>
<name>
Thu Sep 23 11:37:01 2010
</name>
<styleUrl>
#styleMap_TLP_Normal
</styleUrl>
<Point>
<coordinates>
121.6333694,24.1133728,14.46
</coordinates>
</Point>
</Placemark>
<Placemark>
<name>
Thu Sep 23 11:37:06 2010
</name>
<styleUrl>
#styleMap_TLP_Normal
</styleUrl>
<Point>
<coordinates>
121.6333618,24.1133728,14.50
</coordinates>
</Point>
</Placemark>
<Placemark>
<name>
Thu Sep 23 11:37:11 2010
</name>
<styleUrl>
#styleMap_TLP_Normal
</styleUrl>
<Point>
<coordinates>
121.6333618,24.1133728,14.57
</coordinates>
</Point>
</Placemark>
<Placemark>
<name>
Thu Sep 23 11:37:16 2010
</name>
<styleUrl>
#styleMap_TLP_Normal
</styleUrl>
<Point>
<coordinates>
121.6333618,24.1133728,14.59
</coordinates>
</Point>
</Placemark>
<Placemark>
<name>
Thu Sep 23 11:37:21 2010
</name>
<styleUrl>
#styleMap_TLP_Normal
</styleUrl>
<Point>
<coordinates>
121.6333618,24.1133728,14.64
</coordinates>
</Point>
</Placemark>
<Placemark>
<name>
Thu Sep 23 11:37:26 2010
</name>
<styleUrl>
#styleMap_TLP_Normal
</styleUrl>
<Point>
<coordinates>
121.6333618,24.1133728,14.69
</coordinates>
</Point>
</Placemark>
<Placemark>
<name>
Thu Sep 23 11:37:31 2010
</name>
<styleUrl>
#styleMap_TLP_Normal
</styleUrl>
<Point>
<coordinates>
121.6333618,24.1133728,14.76
</coordinates>
</Point>
</Placemark>
<Placemark>
<name>
Thu Sep 23 11:37:36 2010
</name>
<styleUrl>
#styleMap_TLP_Normal
</styleUrl>
<Point>
<coordinates>
121.6333618,24.1133728,14.82
</coordinates>
</Point>
</Placemark>
<Placemark>
<name>
Thu Sep 23 11:37:41 2010
</name>
<styleUrl>
#styleMap_TLP_Normal
</styleUrl>
<Point>
<coordinates>
121.6333618,24.1133728,14.87
</coordinates>
</Point>
</Placemark>
<Placemark>
<name>
Thu Sep 23 11:37:46 2010
</name>
<styleUrl>
#styleMap_TLP_Normal
</styleUrl>
<Point>
<coordinates>
121.6333618,24.1133728,14.90
</coordinates>
</Point>
</Placemark>
<Placemark>
<name>
Thu Sep 23 11:37:51 2010
</name>
<styleUrl>
#styleMap_TLP_Normal
</styleUrl>
<Point>
<coordinates>
121.6333618,24.1133728,14.93
</coordinates>
</Point>
</Placemark>
<Placemark>
<name>
Thu Sep 23 11:37:56 2010
</name>
<styleUrl>
#styleMap_TLP_Normal
</styleUrl>
<Point>
<coordinates>
121.6333618,24.1133728,14.97
</coordinates>
</Point>
</Placemark>
<Placemark>
<name>
Thu Sep 23 11:38:01 2010
</name>
<styleUrl>
#styleMap_TLP_Normal
</styleUrl>
<Point>
<coordinates>
121.6333618,24.1133709,14.99
</coordinates>
</Point>
</Placemark>
<Placemark>
<name>
Thu Sep 23 11:38:06 2010
</name>
<styleUrl>
#styleMap_TLP_Normal
</styleUrl>
<Point>
<coordinates>
121.6333618,24.1133709,15.01
</coordinates>
</Point>
</Placemark>
<Placemark>
<name>
Thu Sep 23 11:38:11 2010
</name>
<styleUrl>
#styleMap_TLP_Normal
</styleUrl>
<Point>
<coordinates>
121.6333618,24.1133709,15.07
</coordinates>
</Point>
</Placemark>
<Placemark>
<name>
Thu Sep 23 11:38:16 2010
</name>
<styleUrl>
#styleMap_TLP_Normal
</styleUrl>
<Point>
<coordinates>
121.6333618,24.1133709,15.11
</coordinates>
</Point>
</Placemark>
<Placemark>
<name>
Thu Sep 23 11:38:21 2010
</name>
<styleUrl>
#styleMap_TLP_Normal
</styleUrl>
<Point>
<coordinates>
121.6333618,24.1133709,15.13
</coordinates>
</Point>
</Placemark>
<Placemark>
<name>
Thu Sep 23 11:38:26 2010
</name>
<styleUrl>
#styleMap_TLP_Normal
</styleUrl>
<Point>
<coordinates>
121.6333618,24.1133709,15.16
</coordinates>
</Point>
</Placemark>
<Placemark>
<name>
Thu Sep 23 11:38:31 2010
</name>
<styleUrl>
#styleMap_TLP_Normal
</styleUrl>
<Point>
<coordinates>
121.6333618,24.1133709,15.21
</coordinates>
</Point>
</Placemark>
<Placemark>
<name>
Thu Sep 23 11:38:36 2010
</name>
<styleUrl>
#styleMap_TLP_Normal
</styleUrl>
<Point>
<coordinates>
121.6333618,24.1133709,15.26
</coordinates>
</Point>
</Placemark>
<Placemark>
<name>
Thu Sep 23 11:38:41 2010
</name>
<styleUrl>
#styleMap_TLP_Normal
</styleUrl>
<Point>
<coordinates>
121.6333618,24.1133709,15.32
</coordinates>
</Point>
</Placemark>
<Placemark>
<name>
Thu Sep 23 11:38:47 2010
</name>
<styleUrl>
#styleMap_TLP_Normal
</styleUrl>
<Point>
<coordinates>
121.6333618,24.1133709,15.36
</coordinates>
</Point>
</Placemark>
<Placemark>
<name>
Thu Sep 23 11:38:52 2010
</name>
<styleUrl>
#styleMap_TLP_Normal
</styleUrl>
<Point>
<coordinates>
121.6333542,24.1133709,15.37
</coordinates>
</Point>
</Placemark>
<Placemark>
<name>
Thu Sep 23 11:38:57 2010
</name>
<styleUrl>
#styleMap_TLP_Normal
</styleUrl>
<Point>
<coordinates>
121.6333542,24.1133709,15.38
</coordinates>
</Point>
</Placemark>
<Placemark>
<name>
Thu Sep 23 11:39:02 2010
</name>
<styleUrl>
#styleMap_TLP_Normal
</styleUrl>
<Point>
<coordinates>
121.6333542,24.1133709,15.40
</coordinates>
</Point>
</Placemark>
<Placemark>
<name>
Thu Sep 23 11:39:07 2010
</name>
<styleUrl>
#styleMap_TLP_Normal
</styleUrl>
<Point>
<coordinates>
121.6333542,24.1133709,15.42
</coordinates>
</Point>
</Placemark>
<Placemark>
<name>
Thu Sep 23 11:39:12 2010
</name>
<styleUrl>
#styleMap_TLP_Normal
</styleUrl>
<Point>
<coordinates>
121.6333542,24.1133709,15.45
</coordinates>
</Point>
</Placemark>
<Placemark>
<name>
Thu Sep 23 11:39:17 2010
</name>
<styleUrl>
#styleMap_TLP_Normal
</styleUrl>
<Point>
<coordinates>
121.6333542,24.1133709,15.47
</coordinates>
</Point>
</Placemark>
<Placemark>
<name>
Thu Sep 23 11:39:22 2010
</name>
<styleUrl>
#styleMap_TLP_Normal
</styleUrl>
<Point>
<coordinates>
121.6333542,24.1133709,15.49
</coordinates>
</Point>
</Placemark>
<Placemark>
<name>
Thu Sep 23 11:39:27 2010
</name>
<styleUrl>
#styleMap_TLP_Normal
</styleUrl>
<Point>
<coordinates>
121.6333542,24.1133709,15.51
</coordinates>
</Point>
</Placemark>
<Placemark>
<name>
Thu Sep 23 11:39:32 2010
</name>
<styleUrl>
#styleMap_TLP_Normal
</styleUrl>
<Point>
<coordinates>
121.6333542,24.1133709,15.53
</coordinates>
</Point>
</Placemark>
<Placemark>
<name>
Thu Sep 23 11:39:38 2010
</name>
<styleUrl>
#styleMap_TLP_Normal
</styleUrl>
<Point>
<coordinates>
121.6333542,24.1133709,15.55
</coordinates>
</Point>
</Placemark>
<Placemark>
<name>
Thu Sep 23 11:39:43 2010
</name>
<styleUrl>
#styleMap_TLP_Normal
</styleUrl>
<Point>
<coordinates>
121.6333542,24.1133709,15.56
</coordinates>
</Point>
</Placemark>
<Placemark>
<name>
Thu Sep 23 11:39:48 2010
</name>
<styleUrl>
#styleMap_TLP_Normal
</styleUrl>
<Point>
<coordinates>
121.6333542,24.1133709,15.57
</coordinates>
</Point>
</Placemark>
<Placemark>
<name>
Thu Sep 23 11:39:53 2010
</name>
<styleUrl>
#styleMap_TLP_Normal
</styleUrl>
<Point>
<coordinates>
121.6333542,24.1133709,15.59
</coordinates>
</Point>
</Placemark>
<Placemark>
<name>
Thu Sep 23 11:39:58 2010
</name>
<styleUrl>
#styleMap_TLP_Normal
</styleUrl>
<Point>
<coordinates>
121.6333542,24.1133709,15.61
</coordinates>
</Point>
</Placemark>
<Placemark>
<name>
Thu Sep 23 11:40:03 2010
</name>
<styleUrl>
#styleMap_TLP_Normal
</styleUrl>
<Point>
<coordinates>
121.6333542,24.1133709,15.64
</coordinates>
</Point>
</Placemark>
<Placemark>
<name>
Thu Sep 23 11:40:08 2010
</name>
<styleUrl>
#styleMap_TLP_Normal
</styleUrl>
<Point>
<coordinates>
121.6333542,24.1133709,15.66
</coordinates>
</Point>
</Placemark>
<Placemark>
<name>
Thu Sep 23 11:40:13 2010
</name>
<styleUrl>
#styleMap_TLP_Normal
</styleUrl>
<Point>
<coordinates>
121.6333542,24.1133728,15.69
</coordinates>
</Point>
</Placemark>
<Placemark>
<name>
Thu Sep 23 11:40:23 2010
</name>
<styleUrl>
#styleMap_TLP_Normal
</styleUrl>
<Point>
<coordinates>
121.6333542,24.1133728,15.69
</coordinates>
</Point>
</Placemark>
<Placemark>
<name>
Thu Sep 23 11:40:28 2010
</name>
<styleUrl>
#styleMap_TLP_Normal
</styleUrl>
<Point>
<coordinates>
121.6333542,24.1133728,15.69
</coordinates>
</Point>
</Placemark>
<Placemark>
<name>
Thu Sep 23 11:40:33 2010
</name>
<styleUrl>
#styleMap_TLP_Normal
</styleUrl>
<Point>
<coordinates>
121.6333542,24.1133728,15.71
</coordinates>
</Point>
</Placemark>
<Placemark>
<name>
Thu Sep 23 11:40:38 2010
</name>
<styleUrl>
#styleMap_TLP_Normal
</styleUrl>
<Point>
<coordinates>
121.6333542,24.1133728,15.72
</coordinates>
</Point>
</Placemark>
<Placemark>
<name>
Thu Sep 23 11:40:43 2010
</name>
<styleUrl>
#styleMap_TLP_Finish
</styleUrl>
<Point>
<coordinates>
121.6333542,24.1133728,15.73
</coordinates>
</Point>
</Placemark>
</Folder>
</Document>
</kml>
