<?xml version="1.0" encoding="UTF-8"?>
<kml xmlns="http://earth.google.com/kml/2.1">
<Document>
<Style id="normalState_TLP_Start">
<IconStyle>
<scale>1.0</scale>
<Icon>
<href>http://maps.google.com/mapfiles/kml/pal4/icon15.png</href>
</Icon>
</IconStyle>
<LabelStyle>
<scale>1.0</scale>
</LabelStyle>
</Style>
<Style id="highlightState_TLP_Start">
<IconStyle>
<scale>1.1</scale>
<Icon>
<href>http://maps.google.com/mapfiles/kml/pal4/icon7.png</href>
</Icon>
</IconStyle>
<LabelStyle>
<scale>1.1</scale>
<color>ff0000ff</color>
</LabelStyle>
</Style>
<StyleMap id="styleMap_TLP_Start">
<Pair>
<key>normal</key>
<styleUrl>#normalState_TLP_Start</styleUrl>
</Pair>
<Pair>
<key>highlight</key>
<styleUrl>#highlightState_TLP_Start</styleUrl>
</Pair>
</StyleMap>
<Style id="normalState_TLP_Finish">
<IconStyle>
<scale>1.0</scale>
<Icon>
<href>http://maps.google.com/mapfiles/kml/pal4/icon15.png</href>
</Icon>
</IconStyle>
<LabelStyle>
<scale>1.0</scale>
</LabelStyle>
</Style>
<Style id="highlightState_TLP_Finish">
<IconStyle>
<scale>1.1</scale>
<Icon>
<href>http://maps.google.com/mapfiles/kml/pal4/icon7.png</href>
</Icon>
</IconStyle>
<LabelStyle>
<scale>1.1</scale>
<color>ff0000ff</color>
</LabelStyle>
</Style>
<StyleMap id="styleMap_TLP_Finish">
<Pair>
<key>normal</key>
<styleUrl>#normalState_TLP_Finish</styleUrl>
</Pair>
<Pair>
<key>highlight</key>
<styleUrl>#highlightState_TLP_Finish</styleUrl>
</Pair>
</StyleMap>
<Style id="normalState_TLP_Normal">
<IconStyle>
<scale>1.0</scale>
<Icon>
<href>http://maps.google.com/mapfiles/kml/pal4/icon31.png</href>
</Icon>
</IconStyle>
<LabelStyle>
<scale>1.0</scale>
</LabelStyle>
</Style>
<Style id="highlightState_TLP_Normal">
<IconStyle>
<scale>1.1</scale>
<Icon>
<href>http://maps.google.com/mapfiles/kml/pal4/icon23.png</href>
</Icon>
</IconStyle>
<LabelStyle>
<scale>1.1</scale>
<color>ff0000ff</color>
</LabelStyle>
</Style>
<StyleMap id="styleMap_TLP_Normal">
<Pair>
<key>normal</key>
<styleUrl>#normalState_TLP_Normal</styleUrl>
</Pair>
<Pair>
<key>highlight</key>
<styleUrl>#highlightState_TLP_Normal</styleUrl>
</Pair>
</StyleMap>
<Style id="normalState_TLP_Photo">
<IconStyle>
<scale>1.0</scale>
<Icon>
<href>http://maps.google.com/mapfiles/kml/pal4/icon46.png</href>
</Icon>
</IconStyle>
<LabelStyle>
<scale>1.0</scale>
</LabelStyle>
</Style>
<Style id="highlightState_TLP_Photo">
<IconStyle>
<scale>1.1</scale>
<Icon>
<href>http://maps.google.com/mapfiles/kml/pal4/icon38.png</href>
</Icon>
</IconStyle>
<LabelStyle>
<scale>1.1</scale>
<color>ff0000ff</color>
</LabelStyle>
</Style>
<StyleMap id="styleMap_TLP_Photo">
<Pair>
<key>normal</key>
<styleUrl>#normalState_TLP_Photo</styleUrl>
</Pair>
<Pair>
<key>highlight</key>
<styleUrl>#highlightState_TLP_Photo</styleUrl>
</Pair>
</StyleMap>
<Style id="roadStyle">
<LineStyle>
<color>ffffff00</color>
<width>6</width>
</LineStyle>
</Style>
<Open>1</Open>
<description>Route</description>
<name>Track Log</name>
<Placemark>
<name>Route</name>
<styleUrl>#roadStyle</styleUrl>
<MultiGeometry>
<LineString>
<coordinates>
121.3044510,24.9867573,201.37 121.3053284,24.9869919,183.84 121.3061371,24.9871521,175.46 121.3069077,24.9872608,173.15 121.3077469,24.9874535,165.23 121.3085480,24.9875927,160.75 121.3093414,24.9876938,156.77 121.3100967,24.9878674,155.37 121.3108444,24.9880524,153.85 121.3115387,24.9883175,149.13 121.3121719,24.9885063,146.87 121.3126373,24.9885979,147.15 121.3130264,24.9887314,147.48 121.3133469,24.9888268,147.57 121.3135452,24.9888859,148.11 121.3137436,24.9889431,149.54 121.3138504,24.9889870,150.82 121.3139191,24.9889908,151.71 121.3139267,24.9889908,152.01 121.3139267,24.9889984,152.16 121.3139267,24.9890041,152.17 121.3139343,24.9890118,152.13 121.3139420,24.9890156,152.11 121.3139420,24.9890194,152.12 121.3139496,24.9890270,152.16 121.3139648,24.9890347,152.19 121.3139572,24.9890270,152.30 121.3139572,24.9890308,152.28 121.3139572,24.9890327,152.23 121.3139648,24.9890347,152.15 121.3139648,24.9890366,152.09 121.3140106,24.9890499,152.33 121.3141937,24.9891319,151.60 121.3144989,24.9892159,149.61 121.3148956,24.9893227,148.71 121.3153687,24.9894257,146.95 121.3159714,24.9895954,146.07 121.3166428,24.9898033,144.78 121.3174057,24.9900074,143.88 121.3181915,24.9902096,143.93 121.3190079,24.9902992,141.23 121.3199081,24.9902821,143.77 121.3207169,24.9900360,143.09 121.3215103,24.9896202,145.03 121.3221741,24.9890385,145.29 121.3227463,24.9883022,144.88 121.3232956,24.9875526,146.88 121.3238754,24.9867954,148.76 121.3245010,24.9859848,148.28 121.3251495,24.9851131,148.83 121.3258209,24.9842072,148.85 121.3265152,24.9832935,149.17 121.3272171,24.9824200,149.17 121.3278809,24.9815578,150.35 121.3285522,24.9806938,151.75 121.3292465,24.9799137,143.48 121.3299026,24.9791069,137.95 121.3305283,24.9783077,134.57 121.3312912,24.9775734,129.87 121.3320618,24.9769115,127.79 121.3328400,24.9762650,125.01 121.3335953,24.9755974,121.50 121.3343201,24.9749336,118.09 121.3350449,24.9742794,116.63 121.3357620,24.9736233,113.97 121.3366699,24.9728565,111.28 121.3373566,24.9722004,108.30 121.3380356,24.9715710,104.90 121.3386612,24.9708958,102.63 121.3391418,24.9700909,101.66 121.3393631,24.9691772,100.46 121.3393631,24.9682159,102.83 121.3390732,24.9673214,105.97 121.3386078,24.9664936,108.40 121.3380966,24.9656811,109.30 121.3377762,24.9647942,108.91 121.3377380,24.9638424,109.35 121.3379822,24.9629021,110.02 121.3386536,24.9611320,105.90 121.3388977,24.9601955,105.51 121.3388977,24.9592304,106.40 121.3385162,24.9581680,109.23 121.3379822,24.9573765,109.23 121.3373947,24.9565582,108.68 121.3368454,24.9557228,108.08 121.3362045,24.9546986,105.81 121.3358459,24.9537754,102.49 121.3356857,24.9527912,99.55 121.3358231,24.9517784,94.42 121.3361893,24.9508286,91.44 121.3367157,24.9500141,86.62 121.3374023,24.9493237,83.59 121.3382111,24.9487343,80.41 121.3390884,24.9483013,79.41 121.3400421,24.9480667,78.90 121.3409576,24.9479790,89.88 121.3419189,24.9482498,91.79 121.3427963,24.9486694,96.77 121.3436661,24.9491119,99.41 121.3444824,24.9495201,99.58 121.3453217,24.9498806,99.97 121.3461609,24.9501324,98.84 121.3470459,24.9502392,95.02 121.3478699,24.9503498,90.45 121.3487320,24.9504738,88.63 121.3495865,24.9507332,87.61 121.3503036,24.9511318,86.36 121.3510056,24.9515896,86.36 121.3516998,24.9520531,84.60 121.3523712,24.9525299,83.57 121.3530426,24.9529877,81.38 121.3537445,24.9534740,81.10 121.3544922,24.9539070,81.32 121.3551941,24.9543991,78.65 121.3559189,24.9548702,78.03 121.3565903,24.9553223,78.18 121.3572769,24.9558010,76.59 121.3580093,24.9562740,76.30 121.3588104,24.9566193,76.92 121.3596725,24.9567871,73.44 121.3605804,24.9567490,74.58 121.3614807,24.9565697,76.92 121.3623886,24.9563560,78.88 121.3633194,24.9561958,79.02 121.3642807,24.9561615,80.61 121.3652649,24.9562454,81.13 121.3663406,24.9564819,81.04 121.3674316,24.9568634,82.03 121.3685684,24.9573421,83.26 121.3697815,24.9578362,85.47 121.3709946,24.9583263,84.19 121.3721924,24.9588547,83.15 121.3733444,24.9594898,83.05 121.3744812,24.9602356,80.56 121.3756104,24.9609814,79.48 121.3767548,24.9617004,79.46 121.3778839,24.9624596,80.20 121.3789825,24.9632320,80.19 121.3800659,24.9640121,79.48 121.3811493,24.9648151,76.77 121.3822174,24.9656181,74.51 121.3832245,24.9662647,74.40 121.3840866,24.9668102,74.46 121.3848572,24.9672890,74.98 121.3855591,24.9677467,73.72 121.3862000,24.9681721,71.81 121.3868866,24.9685707,70.21 121.3875580,24.9689579,68.14 121.3882141,24.9693069,66.05 121.3888702,24.9697323,62.50 121.3895035,24.9702396,62.68 121.3900986,24.9707890,61.65 121.3906479,24.9713497,57.93 121.3912506,24.9718971,54.58 121.3919449,24.9723587,51.45 121.3927078,24.9726944,51.29 121.3934937,24.9729176,48.87 121.3943100,24.9730549,43.59 121.3951111,24.9731712,39.95 121.3968201,24.9734840,48.52 121.3976288,24.9738178,50.54 121.3983688,24.9741192,48.78 121.3991623,24.9745274,36.99 121.3999481,24.9748993,41.83 121.4008713,24.9753571,37.89 121.4018555,24.9758854,36.46 121.4028320,24.9765568,33.48 121.4038162,24.9772854,36.79 121.4048386,24.9780407,38.22 121.4058685,24.9787922,37.91 121.4069138,24.9795036,37.27 121.4080505,24.9800949,39.10 121.4091644,24.9806519,40.29 121.4103241,24.9812298,42.86 121.4114685,24.9817963,45.45 121.4125977,24.9823627,44.67 121.4137344,24.9829197,42.99 121.4148560,24.9835091,42.82 121.4159164,24.9840221,43.27 121.4168472,24.9844704,44.87 121.4177094,24.9849396,40.21 121.4185410,24.9853420,40.75 121.4193649,24.9857407,41.64 121.4201889,24.9861145,44.41 121.4210205,24.9865208,45.57 121.4217987,24.9869766,46.00 121.4224701,24.9875984,45.73 121.4230118,24.9883575,46.45 121.4234924,24.9891663,47.07 121.4239120,24.9899807,46.12 121.4242783,24.9907894,42.02 121.4247437,24.9915638,39.82 121.4251480,24.9923763,35.94 121.4255524,24.9932041,31.76 121.4259720,24.9940701,29.72 121.4263916,24.9949799,29.66 121.4269028,24.9959106,28.71 121.4274063,24.9968929,25.29 121.4279404,24.9979420,23.29 121.4284821,24.9989758,21.12 121.4290314,24.9999943,18.97 121.4296875,25.0009327,17.72 121.4304733,25.0018063,15.71 121.4312363,25.0026817,17.41 121.4320526,25.0035210,17.55 121.4329605,25.0042324,17.48 121.4339523,25.0047131,17.62 121.4350357,25.0049458,16.41 121.4361649,25.0049839,17.34 121.4372635,25.0049171,20.51 121.4383392,25.0048580,21.10 121.4394150,25.0047932,23.53 121.4403534,25.0046864,26.77 121.4411011,25.0045834,25.66 121.4417953,25.0044937,25.10 121.4424362,25.0043716,25.15 121.4430847,25.0042953,26.19 121.4437637,25.0042305,26.12 121.4444275,25.0042133,27.88 121.4451294,25.0041943,26.37 121.4458160,25.0041714,24.46 121.4465179,25.0041313,22.12 121.4472427,25.0040779,19.81 121.4479752,25.0039883,22.61 121.4487152,25.0039387,24.94 121.4494705,25.0038795,26.11 121.4502792,25.0038624,26.52 121.4511032,25.0038376,26.90 121.4519348,25.0037937,28.18 121.4527817,25.0037746,28.75 121.4535446,25.0035725,29.52 </coordinates>
</LineString>
</MultiGeometry>
</Placemark>
<Folder>
<name>waypoints</name>
<Placemark>
<name>
Wed Sep 22 07:53:59 2010
</name>
<styleUrl>
#styleMap_TLP_Start
</styleUrl>
<Point>
<coordinates>
121.3044510,24.9867573,201.37
</coordinates>
</Point>
</Placemark>
<Placemark>
<name>
Wed Sep 22 07:54:05 2010
</name>
<styleUrl>
#styleMap_TLP_Normal
</styleUrl>
<Point>
<coordinates>
121.3053284,24.9869919,183.84
</coordinates>
</Point>
</Placemark>
<Placemark>
<name>
Wed Sep 22 07:54:10 2010
</name>
<styleUrl>
#styleMap_TLP_Normal
</styleUrl>
<Point>
<coordinates>
121.3061371,24.9871521,175.46
</coordinates>
</Point>
</Placemark>
<Placemark>
<name>
Wed Sep 22 07:54:15 2010
</name>
<styleUrl>
#styleMap_TLP_Normal
</styleUrl>
<Point>
<coordinates>
121.3069077,24.9872608,173.15
</coordinates>
</Point>
</Placemark>
<Placemark>
<name>
Wed Sep 22 07:54:20 2010
</name>
<styleUrl>
#styleMap_TLP_Normal
</styleUrl>
<Point>
<coordinates>
121.3077469,24.9874535,165.23
</coordinates>
</Point>
</Placemark>
<Placemark>
<name>
Wed Sep 22 07:54:25 2010
</name>
<styleUrl>
#styleMap_TLP_Normal
</styleUrl>
<Point>
<coordinates>
121.3085480,24.9875927,160.75
</coordinates>
</Point>
</Placemark>
<Placemark>
<name>
Wed Sep 22 07:54:30 2010
</name>
<styleUrl>
#styleMap_TLP_Normal
</styleUrl>
<Point>
<coordinates>
121.3093414,24.9876938,156.77
</coordinates>
</Point>
</Placemark>
<Placemark>
<name>
Wed Sep 22 07:54:35 2010
</name>
<styleUrl>
#styleMap_TLP_Normal
</styleUrl>
<Point>
<coordinates>
121.3100967,24.9878674,155.37
</coordinates>
</Point>
</Placemark>
<Placemark>
<name>
Wed Sep 22 07:54:40 2010
</name>
<styleUrl>
#styleMap_TLP_Normal
</styleUrl>
<Point>
<coordinates>
121.3108444,24.9880524,153.85
</coordinates>
</Point>
</Placemark>
<Placemark>
<name>
Wed Sep 22 07:54:45 2010
</name>
<styleUrl>
#styleMap_TLP_Normal
</styleUrl>
<Point>
<coordinates>
121.3115387,24.9883175,149.13
</coordinates>
</Point>
</Placemark>
<Placemark>
<name>
Wed Sep 22 07:54:50 2010
</name>
<styleUrl>
#styleMap_TLP_Normal
</styleUrl>
<Point>
<coordinates>
121.3121719,24.9885063,146.87
</coordinates>
</Point>
</Placemark>
<Placemark>
<name>
Wed Sep 22 07:54:55 2010
</name>
<styleUrl>
#styleMap_TLP_Normal
</styleUrl>
<Point>
<coordinates>
121.3126373,24.9885979,147.15
</coordinates>
</Point>
</Placemark>
<Placemark>
<name>
Wed Sep 22 07:55:00 2010
</name>
<styleUrl>
#styleMap_TLP_Normal
</styleUrl>
<Point>
<coordinates>
121.3130264,24.9887314,147.48
</coordinates>
</Point>
</Placemark>
<Placemark>
<name>
Wed Sep 22 07:55:05 2010
</name>
<styleUrl>
#styleMap_TLP_Normal
</styleUrl>
<Point>
<coordinates>
121.3133469,24.9888268,147.57
</coordinates>
</Point>
</Placemark>
<Placemark>
<name>
Wed Sep 22 07:55:10 2010
</name>
<styleUrl>
#styleMap_TLP_Normal
</styleUrl>
<Point>
<coordinates>
121.3135452,24.9888859,148.11
</coordinates>
</Point>
</Placemark>
<Placemark>
<name>
Wed Sep 22 07:55:15 2010
</name>
<styleUrl>
#styleMap_TLP_Normal
</styleUrl>
<Point>
<coordinates>
121.3137436,24.9889431,149.54
</coordinates>
</Point>
</Placemark>
<Placemark>
<name>
Wed Sep 22 07:55:20 2010
</name>
<styleUrl>
#styleMap_TLP_Normal
</styleUrl>
<Point>
<coordinates>
121.3138504,24.9889870,150.82
</coordinates>
</Point>
</Placemark>
<Placemark>
<name>
Wed Sep 22 07:55:25 2010
</name>
<styleUrl>
#styleMap_TLP_Normal
</styleUrl>
<Point>
<coordinates>
121.3139191,24.9889908,151.71
</coordinates>
</Point>
</Placemark>
<Placemark>
<name>
Wed Sep 22 07:55:30 2010
</name>
<styleUrl>
#styleMap_TLP_Normal
</styleUrl>
<Point>
<coordinates>
121.3139267,24.9889908,152.01
</coordinates>
</Point>
</Placemark>
<Placemark>
<name>
Wed Sep 22 07:55:35 2010
</name>
<styleUrl>
#styleMap_TLP_Normal
</styleUrl>
<Point>
<coordinates>
121.3139267,24.9889984,152.16
</coordinates>
</Point>
</Placemark>
<Placemark>
<name>
Wed Sep 22 07:55:40 2010
</name>
<styleUrl>
#styleMap_TLP_Normal
</styleUrl>
<Point>
<coordinates>
121.3139267,24.9890041,152.17
</coordinates>
</Point>
</Placemark>
<Placemark>
<name>
Wed Sep 22 07:55:45 2010
</name>
<styleUrl>
#styleMap_TLP_Normal
</styleUrl>
<Point>
<coordinates>
121.3139343,24.9890118,152.13
</coordinates>
</Point>
</Placemark>
<Placemark>
<name>
Wed Sep 22 07:55:50 2010
</name>
<styleUrl>
#styleMap_TLP_Normal
</styleUrl>
<Point>
<coordinates>
121.3139420,24.9890156,152.11
</coordinates>
</Point>
</Placemark>
<Placemark>
<name>
Wed Sep 22 07:55:55 2010
</name>
<styleUrl>
#styleMap_TLP_Normal
</styleUrl>
<Point>
<coordinates>
121.3139420,24.9890194,152.12
</coordinates>
</Point>
</Placemark>
<Placemark>
<name>
Wed Sep 22 07:56:00 2010
</name>
<styleUrl>
#styleMap_TLP_Normal
</styleUrl>
<Point>
<coordinates>
121.3139496,24.9890270,152.16
</coordinates>
</Point>
</Placemark>
<Placemark>
<name>
Wed Sep 22 07:56:05 2010
</name>
<styleUrl>
#styleMap_TLP_Normal
</styleUrl>
<Point>
<coordinates>
121.3139648,24.9890347,152.19
</coordinates>
</Point>
</Placemark>
<Placemark>
<name>
Wed Sep 22 07:56:10 2010
</name>
<styleUrl>
#styleMap_TLP_Normal
</styleUrl>
<Point>
<coordinates>
121.3139572,24.9890270,152.30
</coordinates>
</Point>
</Placemark>
<Placemark>
<name>
Wed Sep 22 07:56:15 2010
</name>
<styleUrl>
#styleMap_TLP_Normal
</styleUrl>
<Point>
<coordinates>
121.3139572,24.9890308,152.28
</coordinates>
</Point>
</Placemark>
<Placemark>
<name>
Wed Sep 22 07:56:20 2010
</name>
<styleUrl>
#styleMap_TLP_Normal
</styleUrl>
<Point>
<coordinates>
121.3139572,24.9890327,152.23
</coordinates>
</Point>
</Placemark>
<Placemark>
<name>
Wed Sep 22 07:56:25 2010
</name>
<styleUrl>
#styleMap_TLP_Normal
</styleUrl>
<Point>
<coordinates>
121.3139648,24.9890347,152.15
</coordinates>
</Point>
</Placemark>
<Placemark>
<name>
Wed Sep 22 07:56:30 2010
</name>
<styleUrl>
#styleMap_TLP_Normal
</styleUrl>
<Point>
<coordinates>
121.3139648,24.9890366,152.09
</coordinates>
</Point>
</Placemark>
<Placemark>
<name>
Wed Sep 22 07:56:35 2010
</name>
<styleUrl>
#styleMap_TLP_Normal
</styleUrl>
<Point>
<coordinates>
121.3140106,24.9890499,152.33
</coordinates>
</Point>
</Placemark>
<Placemark>
<name>
Wed Sep 22 07:56:40 2010
</name>
<styleUrl>
#styleMap_TLP_Normal
</styleUrl>
<Point>
<coordinates>
121.3141937,24.9891319,151.60
</coordinates>
</Point>
</Placemark>
<Placemark>
<name>
Wed Sep 22 07:56:45 2010
</name>
<styleUrl>
#styleMap_TLP_Normal
</styleUrl>
<Point>
<coordinates>
121.3144989,24.9892159,149.61
</coordinates>
</Point>
</Placemark>
<Placemark>
<name>
Wed Sep 22 07:56:50 2010
</name>
<styleUrl>
#styleMap_TLP_Normal
</styleUrl>
<Point>
<coordinates>
121.3148956,24.9893227,148.71
</coordinates>
</Point>
</Placemark>
<Placemark>
<name>
Wed Sep 22 07:56:55 2010
</name>
<styleUrl>
#styleMap_TLP_Normal
</styleUrl>
<Point>
<coordinates>
121.3153687,24.9894257,146.95
</coordinates>
</Point>
</Placemark>
<Placemark>
<name>
Wed Sep 22 07:57:00 2010
</name>
<styleUrl>
#styleMap_TLP_Normal
</styleUrl>
<Point>
<coordinates>
121.3159714,24.9895954,146.07
</coordinates>
</Point>
</Placemark>
<Placemark>
<name>
Wed Sep 22 07:57:05 2010
</name>
<styleUrl>
#styleMap_TLP_Normal
</styleUrl>
<Point>
<coordinates>
121.3166428,24.9898033,144.78
</coordinates>
</Point>
</Placemark>
<Placemark>
<name>
Wed Sep 22 07:57:10 2010
</name>
<styleUrl>
#styleMap_TLP_Normal
</styleUrl>
<Point>
<coordinates>
121.3174057,24.9900074,143.88
</coordinates>
</Point>
</Placemark>
<Placemark>
<name>
Wed Sep 22 07:57:15 2010
</name>
<styleUrl>
#styleMap_TLP_Normal
</styleUrl>
<Point>
<coordinates>
121.3181915,24.9902096,143.93
</coordinates>
</Point>
</Placemark>
<Placemark>
<name>
Wed Sep 22 07:57:20 2010
</name>
<styleUrl>
#styleMap_TLP_Normal
</styleUrl>
<Point>
<coordinates>
121.3190079,24.9902992,141.23
</coordinates>
</Point>
</Placemark>
<Placemark>
<name>
Wed Sep 22 07:57:25 2010
</name>
<styleUrl>
#styleMap_TLP_Normal
</styleUrl>
<Point>
<coordinates>
121.3199081,24.9902821,143.77
</coordinates>
</Point>
</Placemark>
<Placemark>
<name>
Wed Sep 22 07:57:30 2010
</name>
<styleUrl>
#styleMap_TLP_Normal
</styleUrl>
<Point>
<coordinates>
121.3207169,24.9900360,143.09
</coordinates>
</Point>
</Placemark>
<Placemark>
<name>
Wed Sep 22 07:57:35 2010
</name>
<styleUrl>
#styleMap_TLP_Normal
</styleUrl>
<Point>
<coordinates>
121.3215103,24.9896202,145.03
</coordinates>
</Point>
</Placemark>
<Placemark>
<name>
Wed Sep 22 07:57:40 2010
</name>
<styleUrl>
#styleMap_TLP_Normal
</styleUrl>
<Point>
<coordinates>
121.3221741,24.9890385,145.29
</coordinates>
</Point>
</Placemark>
<Placemark>
<name>
Wed Sep 22 07:57:45 2010
</name>
<styleUrl>
#styleMap_TLP_Normal
</styleUrl>
<Point>
<coordinates>
121.3227463,24.9883022,144.88
</coordinates>
</Point>
</Placemark>
<Placemark>
<name>
Wed Sep 22 07:57:50 2010
</name>
<styleUrl>
#styleMap_TLP_Normal
</styleUrl>
<Point>
<coordinates>
121.3232956,24.9875526,146.88
</coordinates>
</Point>
</Placemark>
<Placemark>
<name>
Wed Sep 22 07:57:55 2010
</name>
<styleUrl>
#styleMap_TLP_Normal
</styleUrl>
<Point>
<coordinates>
121.3238754,24.9867954,148.76
</coordinates>
</Point>
</Placemark>
<Placemark>
<name>
Wed Sep 22 07:58:00 2010
</name>
<styleUrl>
#styleMap_TLP_Normal
</styleUrl>
<Point>
<coordinates>
121.3245010,24.9859848,148.28
</coordinates>
</Point>
</Placemark>
<Placemark>
<name>
Wed Sep 22 07:58:05 2010
</name>
<styleUrl>
#styleMap_TLP_Normal
</styleUrl>
<Point>
<coordinates>
121.3251495,24.9851131,148.83
</coordinates>
</Point>
</Placemark>
<Placemark>
<name>
Wed Sep 22 07:58:10 2010
</name>
<styleUrl>
#styleMap_TLP_Normal
</styleUrl>
<Point>
<coordinates>
121.3258209,24.9842072,148.85
</coordinates>
</Point>
</Placemark>
<Placemark>
<name>
Wed Sep 22 07:58:15 2010
</name>
<styleUrl>
#styleMap_TLP_Normal
</styleUrl>
<Point>
<coordinates>
121.3265152,24.9832935,149.17
</coordinates>
</Point>
</Placemark>
<Placemark>
<name>
Wed Sep 22 07:58:20 2010
</name>
<styleUrl>
#styleMap_TLP_Normal
</styleUrl>
<Point>
<coordinates>
121.3272171,24.9824200,149.17
</coordinates>
</Point>
</Placemark>
<Placemark>
<name>
Wed Sep 22 07:58:25 2010
</name>
<styleUrl>
#styleMap_TLP_Normal
</styleUrl>
<Point>
<coordinates>
121.3278809,24.9815578,150.35
</coordinates>
</Point>
</Placemark>
<Placemark>
<name>
Wed Sep 22 07:58:30 2010
</name>
<styleUrl>
#styleMap_TLP_Normal
</styleUrl>
<Point>
<coordinates>
121.3285522,24.9806938,151.75
</coordinates>
</Point>
</Placemark>
<Placemark>
<name>
Wed Sep 22 07:58:35 2010
</name>
<styleUrl>
#styleMap_TLP_Normal
</styleUrl>
<Point>
<coordinates>
121.3292465,24.9799137,143.48
</coordinates>
</Point>
</Placemark>
<Placemark>
<name>
Wed Sep 22 07:58:40 2010
</name>
<styleUrl>
#styleMap_TLP_Normal
</styleUrl>
<Point>
<coordinates>
121.3299026,24.9791069,137.95
</coordinates>
</Point>
</Placemark>
<Placemark>
<name>
Wed Sep 22 07:58:45 2010
</name>
<styleUrl>
#styleMap_TLP_Normal
</styleUrl>
<Point>
<coordinates>
121.3305283,24.9783077,134.57
</coordinates>
</Point>
</Placemark>
<Placemark>
<name>
Wed Sep 22 07:58:50 2010
</name>
<styleUrl>
#styleMap_TLP_Normal
</styleUrl>
<Point>
<coordinates>
121.3312912,24.9775734,129.87
</coordinates>
</Point>
</Placemark>
<Placemark>
<name>
Wed Sep 22 07:58:55 2010
</name>
<styleUrl>
#styleMap_TLP_Normal
</styleUrl>
<Point>
<coordinates>
121.3320618,24.9769115,127.79
</coordinates>
</Point>
</Placemark>
<Placemark>
<name>
Wed Sep 22 07:59:00 2010
</name>
<styleUrl>
#styleMap_TLP_Normal
</styleUrl>
<Point>
<coordinates>
121.3328400,24.9762650,125.01
</coordinates>
</Point>
</Placemark>
<Placemark>
<name>
Wed Sep 22 07:59:05 2010
</name>
<styleUrl>
#styleMap_TLP_Normal
</styleUrl>
<Point>
<coordinates>
121.3335953,24.9755974,121.50
</coordinates>
</Point>
</Placemark>
<Placemark>
<name>
Wed Sep 22 07:59:10 2010
</name>
<styleUrl>
#styleMap_TLP_Normal
</styleUrl>
<Point>
<coordinates>
121.3343201,24.9749336,118.09
</coordinates>
</Point>
</Placemark>
<Placemark>
<name>
Wed Sep 22 07:59:15 2010
</name>
<styleUrl>
#styleMap_TLP_Normal
</styleUrl>
<Point>
<coordinates>
121.3350449,24.9742794,116.63
</coordinates>
</Point>
</Placemark>
<Placemark>
<name>
Wed Sep 22 07:59:20 2010
</name>
<styleUrl>
#styleMap_TLP_Normal
</styleUrl>
<Point>
<coordinates>
121.3357620,24.9736233,113.97
</coordinates>
</Point>
</Placemark>
<Placemark>
<name>
Wed Sep 22 07:59:26 2010
</name>
<styleUrl>
#styleMap_TLP_Normal
</styleUrl>
<Point>
<coordinates>
121.3366699,24.9728565,111.28
</coordinates>
</Point>
</Placemark>
<Placemark>
<name>
Wed Sep 22 07:59:31 2010
</name>
<styleUrl>
#styleMap_TLP_Normal
</styleUrl>
<Point>
<coordinates>
121.3373566,24.9722004,108.30
</coordinates>
</Point>
</Placemark>
<Placemark>
<name>
Wed Sep 22 07:59:36 2010
</name>
<styleUrl>
#styleMap_TLP_Normal
</styleUrl>
<Point>
<coordinates>
121.3380356,24.9715710,104.90
</coordinates>
</Point>
</Placemark>
<Placemark>
<name>
Wed Sep 22 07:59:41 2010
</name>
<styleUrl>
#styleMap_TLP_Normal
</styleUrl>
<Point>
<coordinates>
121.3386612,24.9708958,102.63
</coordinates>
</Point>
</Placemark>
<Placemark>
<name>
Wed Sep 22 07:59:46 2010
</name>
<styleUrl>
#styleMap_TLP_Normal
</styleUrl>
<Point>
<coordinates>
121.3391418,24.9700909,101.66
</coordinates>
</Point>
</Placemark>
<Placemark>
<name>
Wed Sep 22 07:59:51 2010
</name>
<styleUrl>
#styleMap_TLP_Normal
</styleUrl>
<Point>
<coordinates>
121.3393631,24.9691772,100.46
</coordinates>
</Point>
</Placemark>
<Placemark>
<name>
Wed Sep 22 07:59:56 2010
</name>
<styleUrl>
#styleMap_TLP_Normal
</styleUrl>
<Point>
<coordinates>
121.3393631,24.9682159,102.83
</coordinates>
</Point>
</Placemark>
<Placemark>
<name>
Wed Sep 22 08:00:01 2010
</name>
<styleUrl>
#styleMap_TLP_Normal
</styleUrl>
<Point>
<coordinates>
121.3390732,24.9673214,105.97
</coordinates>
</Point>
</Placemark>
<Placemark>
<name>
Wed Sep 22 08:00:06 2010
</name>
<styleUrl>
#styleMap_TLP_Normal
</styleUrl>
<Point>
<coordinates>
121.3386078,24.9664936,108.40
</coordinates>
</Point>
</Placemark>
<Placemark>
<name>
Wed Sep 22 08:00:11 2010
</name>
<styleUrl>
#styleMap_TLP_Normal
</styleUrl>
<Point>
<coordinates>
121.3380966,24.9656811,109.30
</coordinates>
</Point>
</Placemark>
<Placemark>
<name>
Wed Sep 22 08:00:16 2010
</name>
<styleUrl>
#styleMap_TLP_Normal
</styleUrl>
<Point>
<coordinates>
121.3377762,24.9647942,108.91
</coordinates>
</Point>
</Placemark>
<Placemark>
<name>
Wed Sep 22 08:00:21 2010
</name>
<styleUrl>
#styleMap_TLP_Normal
</styleUrl>
<Point>
<coordinates>
121.3377380,24.9638424,109.35
</coordinates>
</Point>
</Placemark>
<Placemark>
<name>
Wed Sep 22 08:00:26 2010
</name>
<styleUrl>
#styleMap_TLP_Normal
</styleUrl>
<Point>
<coordinates>
121.3379822,24.9629021,110.02
</coordinates>
</Point>
</Placemark>
<Placemark>
<name>
Wed Sep 22 08:00:36 2010
</name>
<styleUrl>
#styleMap_TLP_Normal
</styleUrl>
<Point>
<coordinates>
121.3386536,24.9611320,105.90
</coordinates>
</Point>
</Placemark>
<Placemark>
<name>
Wed Sep 22 08:00:41 2010
</name>
<styleUrl>
#styleMap_TLP_Normal
</styleUrl>
<Point>
<coordinates>
121.3388977,24.9601955,105.51
</coordinates>
</Point>
</Placemark>
<Placemark>
<name>
Wed Sep 22 08:00:46 2010
</name>
<styleUrl>
#styleMap_TLP_Normal
</styleUrl>
<Point>
<coordinates>
121.3388977,24.9592304,106.40
</coordinates>
</Point>
</Placemark>
<Placemark>
<name>
Wed Sep 22 08:00:52 2010
</name>
<styleUrl>
#styleMap_TLP_Normal
</styleUrl>
<Point>
<coordinates>
121.3385162,24.9581680,109.23
</coordinates>
</Point>
</Placemark>
<Placemark>
<name>
Wed Sep 22 08:00:57 2010
</name>
<styleUrl>
#styleMap_TLP_Normal
</styleUrl>
<Point>
<coordinates>
121.3379822,24.9573765,109.23
</coordinates>
</Point>
</Placemark>
<Placemark>
<name>
Wed Sep 22 08:01:02 2010
</name>
<styleUrl>
#styleMap_TLP_Normal
</styleUrl>
<Point>
<coordinates>
121.3373947,24.9565582,108.68
</coordinates>
</Point>
</Placemark>
<Placemark>
<name>
Wed Sep 22 08:01:07 2010
</name>
<styleUrl>
#styleMap_TLP_Normal
</styleUrl>
<Point>
<coordinates>
121.3368454,24.9557228,108.08
</coordinates>
</Point>
</Placemark>
<Placemark>
<name>
Wed Sep 22 08:01:12 2010
</name>
<styleUrl>
#styleMap_TLP_Normal
</styleUrl>
<Point>
<coordinates>
121.3362045,24.9546986,105.81
</coordinates>
</Point>
</Placemark>
<Placemark>
<name>
Wed Sep 22 08:01:17 2010
</name>
<styleUrl>
#styleMap_TLP_Normal
</styleUrl>
<Point>
<coordinates>
121.3358459,24.9537754,102.49
</coordinates>
</Point>
</Placemark>
<Placemark>
<name>
Wed Sep 22 08:01:22 2010
</name>
<styleUrl>
#styleMap_TLP_Normal
</styleUrl>
<Point>
<coordinates>
121.3356857,24.9527912,99.55
</coordinates>
</Point>
</Placemark>
<Placemark>
<name>
Wed Sep 22 08:01:27 2010
</name>
<styleUrl>
#styleMap_TLP_Normal
</styleUrl>
<Point>
<coordinates>
121.3358231,24.9517784,94.42
</coordinates>
</Point>
</Placemark>
<Placemark>
<name>
Wed Sep 22 08:01:32 2010
</name>
<styleUrl>
#styleMap_TLP_Normal
</styleUrl>
<Point>
<coordinates>
121.3361893,24.9508286,91.44
</coordinates>
</Point>
</Placemark>
<Placemark>
<name>
Wed Sep 22 08:01:37 2010
</name>
<styleUrl>
#styleMap_TLP_Normal
</styleUrl>
<Point>
<coordinates>
121.3367157,24.9500141,86.62
</coordinates>
</Point>
</Placemark>
<Placemark>
<name>
Wed Sep 22 08:01:42 2010
</name>
<styleUrl>
#styleMap_TLP_Normal
</styleUrl>
<Point>
<coordinates>
121.3374023,24.9493237,83.59
</coordinates>
</Point>
</Placemark>
<Placemark>
<name>
Wed Sep 22 08:01:47 2010
</name>
<styleUrl>
#styleMap_TLP_Normal
</styleUrl>
<Point>
<coordinates>
121.3382111,24.9487343,80.41
</coordinates>
</Point>
</Placemark>
<Placemark>
<name>
Wed Sep 22 08:01:52 2010
</name>
<styleUrl>
#styleMap_TLP_Normal
</styleUrl>
<Point>
<coordinates>
121.3390884,24.9483013,79.41
</coordinates>
</Point>
</Placemark>
<Placemark>
<name>
Wed Sep 22 08:01:57 2010
</name>
<styleUrl>
#styleMap_TLP_Normal
</styleUrl>
<Point>
<coordinates>
121.3400421,24.9480667,78.90
</coordinates>
</Point>
</Placemark>
<Placemark>
<name>
Wed Sep 22 08:02:02 2010
</name>
<styleUrl>
#styleMap_TLP_Normal
</styleUrl>
<Point>
<coordinates>
121.3409576,24.9479790,89.88
</coordinates>
</Point>
</Placemark>
<Placemark>
<name>
Wed Sep 22 08:02:07 2010
</name>
<styleUrl>
#styleMap_TLP_Normal
</styleUrl>
<Point>
<coordinates>
121.3419189,24.9482498,91.79
</coordinates>
</Point>
</Placemark>
<Placemark>
<name>
Wed Sep 22 08:02:12 2010
</name>
<styleUrl>
#styleMap_TLP_Normal
</styleUrl>
<Point>
<coordinates>
121.3427963,24.9486694,96.77
</coordinates>
</Point>
</Placemark>
<Placemark>
<name>
Wed Sep 22 08:02:17 2010
</name>
<styleUrl>
#styleMap_TLP_Normal
</styleUrl>
<Point>
<coordinates>
121.3436661,24.9491119,99.41
</coordinates>
</Point>
</Placemark>
<Placemark>
<name>
Wed Sep 22 08:02:22 2010
</name>
<styleUrl>
#styleMap_TLP_Normal
</styleUrl>
<Point>
<coordinates>
121.3444824,24.9495201,99.58
</coordinates>
</Point>
</Placemark>
<Placemark>
<name>
Wed Sep 22 08:02:27 2010
</name>
<styleUrl>
#styleMap_TLP_Normal
</styleUrl>
<Point>
<coordinates>
121.3453217,24.9498806,99.97
</coordinates>
</Point>
</Placemark>
<Placemark>
<name>
Wed Sep 22 08:02:32 2010
</name>
<styleUrl>
#styleMap_TLP_Normal
</styleUrl>
<Point>
<coordinates>
121.3461609,24.9501324,98.84
</coordinates>
</Point>
</Placemark>
<Placemark>
<name>
Wed Sep 22 08:02:37 2010
</name>
<styleUrl>
#styleMap_TLP_Normal
</styleUrl>
<Point>
<coordinates>
121.3470459,24.9502392,95.02
</coordinates>
</Point>
</Placemark>
<Placemark>
<name>
Wed Sep 22 08:02:42 2010
</name>
<styleUrl>
#styleMap_TLP_Normal
</styleUrl>
<Point>
<coordinates>
121.3478699,24.9503498,90.45
</coordinates>
</Point>
</Placemark>
<Placemark>
<name>
Wed Sep 22 08:02:47 2010
</name>
<styleUrl>
#styleMap_TLP_Normal
</styleUrl>
<Point>
<coordinates>
121.3487320,24.9504738,88.63
</coordinates>
</Point>
</Placemark>
<Placemark>
<name>
Wed Sep 22 08:02:52 2010
</name>
<styleUrl>
#styleMap_TLP_Normal
</styleUrl>
<Point>
<coordinates>
121.3495865,24.9507332,87.61
</coordinates>
</Point>
</Placemark>
<Placemark>
<name>
Wed Sep 22 08:02:57 2010
</name>
<styleUrl>
#styleMap_TLP_Normal
</styleUrl>
<Point>
<coordinates>
121.3503036,24.9511318,86.36
</coordinates>
</Point>
</Placemark>
<Placemark>
<name>
Wed Sep 22 08:03:02 2010
</name>
<styleUrl>
#styleMap_TLP_Normal
</styleUrl>
<Point>
<coordinates>
121.3510056,24.9515896,86.36
</coordinates>
</Point>
</Placemark>
<Placemark>
<name>
Wed Sep 22 08:03:07 2010
</name>
<styleUrl>
#styleMap_TLP_Normal
</styleUrl>
<Point>
<coordinates>
121.3516998,24.9520531,84.60
</coordinates>
</Point>
</Placemark>
<Placemark>
<name>
Wed Sep 22 08:03:12 2010
</name>
<styleUrl>
#styleMap_TLP_Normal
</styleUrl>
<Point>
<coordinates>
121.3523712,24.9525299,83.57
</coordinates>
</Point>
</Placemark>
<Placemark>
<name>
Wed Sep 22 08:03:17 2010
</name>
<styleUrl>
#styleMap_TLP_Normal
</styleUrl>
<Point>
<coordinates>
121.3530426,24.9529877,81.38
</coordinates>
</Point>
</Placemark>
<Placemark>
<name>
Wed Sep 22 08:03:22 2010
</name>
<styleUrl>
#styleMap_TLP_Normal
</styleUrl>
<Point>
<coordinates>
121.3537445,24.9534740,81.10
</coordinates>
</Point>
</Placemark>
<Placemark>
<name>
Wed Sep 22 08:03:27 2010
</name>
<styleUrl>
#styleMap_TLP_Normal
</styleUrl>
<Point>
<coordinates>
121.3544922,24.9539070,81.32
</coordinates>
</Point>
</Placemark>
<Placemark>
<name>
Wed Sep 22 08:03:32 2010
</name>
<styleUrl>
#styleMap_TLP_Normal
</styleUrl>
<Point>
<coordinates>
121.3551941,24.9543991,78.65
</coordinates>
</Point>
</Placemark>
<Placemark>
<name>
Wed Sep 22 08:03:37 2010
</name>
<styleUrl>
#styleMap_TLP_Normal
</styleUrl>
<Point>
<coordinates>
121.3559189,24.9548702,78.03
</coordinates>
</Point>
</Placemark>
<Placemark>
<name>
Wed Sep 22 08:03:42 2010
</name>
<styleUrl>
#styleMap_TLP_Normal
</styleUrl>
<Point>
<coordinates>
121.3565903,24.9553223,78.18
</coordinates>
</Point>
</Placemark>
<Placemark>
<name>
Wed Sep 22 08:03:47 2010
</name>
<styleUrl>
#styleMap_TLP_Normal
</styleUrl>
<Point>
<coordinates>
121.3572769,24.9558010,76.59
</coordinates>
</Point>
</Placemark>
<Placemark>
<name>
Wed Sep 22 08:03:52 2010
</name>
<styleUrl>
#styleMap_TLP_Normal
</styleUrl>
<Point>
<coordinates>
121.3580093,24.9562740,76.30
</coordinates>
</Point>
</Placemark>
<Placemark>
<name>
Wed Sep 22 08:03:57 2010
</name>
<styleUrl>
#styleMap_TLP_Normal
</styleUrl>
<Point>
<coordinates>
121.3588104,24.9566193,76.92
</coordinates>
</Point>
</Placemark>
<Placemark>
<name>
Wed Sep 22 08:04:02 2010
</name>
<styleUrl>
#styleMap_TLP_Normal
</styleUrl>
<Point>
<coordinates>
121.3596725,24.9567871,73.44
</coordinates>
</Point>
</Placemark>
<Placemark>
<name>
Wed Sep 22 08:04:07 2010
</name>
<styleUrl>
#styleMap_TLP_Normal
</styleUrl>
<Point>
<coordinates>
121.3605804,24.9567490,74.58
</coordinates>
</Point>
</Placemark>
<Placemark>
<name>
Wed Sep 22 08:04:12 2010
</name>
<styleUrl>
#styleMap_TLP_Normal
</styleUrl>
<Point>
<coordinates>
121.3614807,24.9565697,76.92
</coordinates>
</Point>
</Placemark>
<Placemark>
<name>
Wed Sep 22 08:04:17 2010
</name>
<styleUrl>
#styleMap_TLP_Normal
</styleUrl>
<Point>
<coordinates>
121.3623886,24.9563560,78.88
</coordinates>
</Point>
</Placemark>
<Placemark>
<name>
Wed Sep 22 08:04:22 2010
</name>
<styleUrl>
#styleMap_TLP_Normal
</styleUrl>
<Point>
<coordinates>
121.3633194,24.9561958,79.02
</coordinates>
</Point>
</Placemark>
<Placemark>
<name>
Wed Sep 22 08:04:27 2010
</name>
<styleUrl>
#styleMap_TLP_Normal
</styleUrl>
<Point>
<coordinates>
121.3642807,24.9561615,80.61
</coordinates>
</Point>
</Placemark>
<Placemark>
<name>
Wed Sep 22 08:04:32 2010
</name>
<styleUrl>
#styleMap_TLP_Normal
</styleUrl>
<Point>
<coordinates>
121.3652649,24.9562454,81.13
</coordinates>
</Point>
</Placemark>
<Placemark>
<name>
Wed Sep 22 08:04:37 2010
</name>
<styleUrl>
#styleMap_TLP_Normal
</styleUrl>
<Point>
<coordinates>
121.3663406,24.9564819,81.04
</coordinates>
</Point>
</Placemark>
<Placemark>
<name>
Wed Sep 22 08:04:42 2010
</name>
<styleUrl>
#styleMap_TLP_Normal
</styleUrl>
<Point>
<coordinates>
121.3674316,24.9568634,82.03
</coordinates>
</Point>
</Placemark>
<Placemark>
<name>
Wed Sep 22 08:04:47 2010
</name>
<styleUrl>
#styleMap_TLP_Normal
</styleUrl>
<Point>
<coordinates>
121.3685684,24.9573421,83.26
</coordinates>
</Point>
</Placemark>
<Placemark>
<name>
Wed Sep 22 08:04:52 2010
</name>
<styleUrl>
#styleMap_TLP_Normal
</styleUrl>
<Point>
<coordinates>
121.3697815,24.9578362,85.47
</coordinates>
</Point>
</Placemark>
<Placemark>
<name>
Wed Sep 22 08:04:57 2010
</name>
<styleUrl>
#styleMap_TLP_Normal
</styleUrl>
<Point>
<coordinates>
121.3709946,24.9583263,84.19
</coordinates>
</Point>
</Placemark>
<Placemark>
<name>
Wed Sep 22 08:05:02 2010
</name>
<styleUrl>
#styleMap_TLP_Normal
</styleUrl>
<Point>
<coordinates>
121.3721924,24.9588547,83.15
</coordinates>
</Point>
</Placemark>
<Placemark>
<name>
Wed Sep 22 08:05:07 2010
</name>
<styleUrl>
#styleMap_TLP_Normal
</styleUrl>
<Point>
<coordinates>
121.3733444,24.9594898,83.05
</coordinates>
</Point>
</Placemark>
<Placemark>
<name>
Wed Sep 22 08:05:12 2010
</name>
<styleUrl>
#styleMap_TLP_Normal
</styleUrl>
<Point>
<coordinates>
121.3744812,24.9602356,80.56
</coordinates>
</Point>
</Placemark>
<Placemark>
<name>
Wed Sep 22 08:05:17 2010
</name>
<styleUrl>
#styleMap_TLP_Normal
</styleUrl>
<Point>
<coordinates>
121.3756104,24.9609814,79.48
</coordinates>
</Point>
</Placemark>
<Placemark>
<name>
Wed Sep 22 08:05:22 2010
</name>
<styleUrl>
#styleMap_TLP_Normal
</styleUrl>
<Point>
<coordinates>
121.3767548,24.9617004,79.46
</coordinates>
</Point>
</Placemark>
<Placemark>
<name>
Wed Sep 22 08:05:27 2010
</name>
<styleUrl>
#styleMap_TLP_Normal
</styleUrl>
<Point>
<coordinates>
121.3778839,24.9624596,80.20
</coordinates>
</Point>
</Placemark>
<Placemark>
<name>
Wed Sep 22 08:05:32 2010
</name>
<styleUrl>
#styleMap_TLP_Normal
</styleUrl>
<Point>
<coordinates>
121.3789825,24.9632320,80.19
</coordinates>
</Point>
</Placemark>
<Placemark>
<name>
Wed Sep 22 08:05:37 2010
</name>
<styleUrl>
#styleMap_TLP_Normal
</styleUrl>
<Point>
<coordinates>
121.3800659,24.9640121,79.48
</coordinates>
</Point>
</Placemark>
<Placemark>
<name>
Wed Sep 22 08:05:42 2010
</name>
<styleUrl>
#styleMap_TLP_Normal
</styleUrl>
<Point>
<coordinates>
121.3811493,24.9648151,76.77
</coordinates>
</Point>
</Placemark>
<Placemark>
<name>
Wed Sep 22 08:05:47 2010
</name>
<styleUrl>
#styleMap_TLP_Normal
</styleUrl>
<Point>
<coordinates>
121.3822174,24.9656181,74.51
</coordinates>
</Point>
</Placemark>
<Placemark>
<name>
Wed Sep 22 08:05:52 2010
</name>
<styleUrl>
#styleMap_TLP_Normal
</styleUrl>
<Point>
<coordinates>
121.3832245,24.9662647,74.40
</coordinates>
</Point>
</Placemark>
<Placemark>
<name>
Wed Sep 22 08:05:57 2010
</name>
<styleUrl>
#styleMap_TLP_Normal
</styleUrl>
<Point>
<coordinates>
121.3840866,24.9668102,74.46
</coordinates>
</Point>
</Placemark>
<Placemark>
<name>
Wed Sep 22 08:06:02 2010
</name>
<styleUrl>
#styleMap_TLP_Normal
</styleUrl>
<Point>
<coordinates>
121.3848572,24.9672890,74.98
</coordinates>
</Point>
</Placemark>
<Placemark>
<name>
Wed Sep 22 08:06:07 2010
</name>
<styleUrl>
#styleMap_TLP_Normal
</styleUrl>
<Point>
<coordinates>
121.3855591,24.9677467,73.72
</coordinates>
</Point>
</Placemark>
<Placemark>
<name>
Wed Sep 22 08:06:12 2010
</name>
<styleUrl>
#styleMap_TLP_Normal
</styleUrl>
<Point>
<coordinates>
121.3862000,24.9681721,71.81
</coordinates>
</Point>
</Placemark>
<Placemark>
<name>
Wed Sep 22 08:06:17 2010
</name>
<styleUrl>
#styleMap_TLP_Normal
</styleUrl>
<Point>
<coordinates>
121.3868866,24.9685707,70.21
</coordinates>
</Point>
</Placemark>
<Placemark>
<name>
Wed Sep 22 08:06:22 2010
</name>
<styleUrl>
#styleMap_TLP_Normal
</styleUrl>
<Point>
<coordinates>
121.3875580,24.9689579,68.14
</coordinates>
</Point>
</Placemark>
<Placemark>
<name>
Wed Sep 22 08:06:27 2010
</name>
<styleUrl>
#styleMap_TLP_Normal
</styleUrl>
<Point>
<coordinates>
121.3882141,24.9693069,66.05
</coordinates>
</Point>
</Placemark>
<Placemark>
<name>
Wed Sep 22 08:06:32 2010
</name>
<styleUrl>
#styleMap_TLP_Normal
</styleUrl>
<Point>
<coordinates>
121.3888702,24.9697323,62.50
</coordinates>
</Point>
</Placemark>
<Placemark>
<name>
Wed Sep 22 08:06:37 2010
</name>
<styleUrl>
#styleMap_TLP_Normal
</styleUrl>
<Point>
<coordinates>
121.3895035,24.9702396,62.68
</coordinates>
</Point>
</Placemark>
<Placemark>
<name>
Wed Sep 22 08:06:42 2010
</name>
<styleUrl>
#styleMap_TLP_Normal
</styleUrl>
<Point>
<coordinates>
121.3900986,24.9707890,61.65
</coordinates>
</Point>
</Placemark>
<Placemark>
<name>
Wed Sep 22 08:06:47 2010
</name>
<styleUrl>
#styleMap_TLP_Normal
</styleUrl>
<Point>
<coordinates>
121.3906479,24.9713497,57.93
</coordinates>
</Point>
</Placemark>
<Placemark>
<name>
Wed Sep 22 08:06:52 2010
</name>
<styleUrl>
#styleMap_TLP_Normal
</styleUrl>
<Point>
<coordinates>
121.3912506,24.9718971,54.58
</coordinates>
</Point>
</Placemark>
<Placemark>
<name>
Wed Sep 22 08:06:57 2010
</name>
<styleUrl>
#styleMap_TLP_Normal
</styleUrl>
<Point>
<coordinates>
121.3919449,24.9723587,51.45
</coordinates>
</Point>
</Placemark>
<Placemark>
<name>
Wed Sep 22 08:07:02 2010
</name>
<styleUrl>
#styleMap_TLP_Normal
</styleUrl>
<Point>
<coordinates>
121.3927078,24.9726944,51.29
</coordinates>
</Point>
</Placemark>
<Placemark>
<name>
Wed Sep 22 08:07:07 2010
</name>
<styleUrl>
#styleMap_TLP_Normal
</styleUrl>
<Point>
<coordinates>
121.3934937,24.9729176,48.87
</coordinates>
</Point>
</Placemark>
<Placemark>
<name>
Wed Sep 22 08:07:12 2010
</name>
<styleUrl>
#styleMap_TLP_Normal
</styleUrl>
<Point>
<coordinates>
121.3943100,24.9730549,43.59
</coordinates>
</Point>
</Placemark>
<Placemark>
<name>
Wed Sep 22 08:07:17 2010
</name>
<styleUrl>
#styleMap_TLP_Normal
</styleUrl>
<Point>
<coordinates>
121.3951111,24.9731712,39.95
</coordinates>
</Point>
</Placemark>
<Placemark>
<name>
Wed Sep 22 08:07:27 2010
</name>
<styleUrl>
#styleMap_TLP_Normal
</styleUrl>
<Point>
<coordinates>
121.3968201,24.9734840,48.52
</coordinates>
</Point>
</Placemark>
<Placemark>
<name>
Wed Sep 22 08:07:32 2010
</name>
<styleUrl>
#styleMap_TLP_Normal
</styleUrl>
<Point>
<coordinates>
121.3976288,24.9738178,50.54
</coordinates>
</Point>
</Placemark>
<Placemark>
<name>
Wed Sep 22 08:07:37 2010
</name>
<styleUrl>
#styleMap_TLP_Normal
</styleUrl>
<Point>
<coordinates>
121.3983688,24.9741192,48.78
</coordinates>
</Point>
</Placemark>
<Placemark>
<name>
Wed Sep 22 08:07:42 2010
</name>
<styleUrl>
#styleMap_TLP_Normal
</styleUrl>
<Point>
<coordinates>
121.3991623,24.9745274,36.99
</coordinates>
</Point>
</Placemark>
<Placemark>
<name>
Wed Sep 22 08:07:47 2010
</name>
<styleUrl>
#styleMap_TLP_Normal
</styleUrl>
<Point>
<coordinates>
121.3999481,24.9748993,41.83
</coordinates>
</Point>
</Placemark>
<Placemark>
<name>
Wed Sep 22 08:07:52 2010
</name>
<styleUrl>
#styleMap_TLP_Normal
</styleUrl>
<Point>
<coordinates>
121.4008713,24.9753571,37.89
</coordinates>
</Point>
</Placemark>
<Placemark>
<name>
Wed Sep 22 08:07:57 2010
</name>
<styleUrl>
#styleMap_TLP_Normal
</styleUrl>
<Point>
<coordinates>
121.4018555,24.9758854,36.46
</coordinates>
</Point>
</Placemark>
<Placemark>
<name>
Wed Sep 22 08:08:02 2010
</name>
<styleUrl>
#styleMap_TLP_Normal
</styleUrl>
<Point>
<coordinates>
121.4028320,24.9765568,33.48
</coordinates>
</Point>
</Placemark>
<Placemark>
<name>
Wed Sep 22 08:08:07 2010
</name>
<styleUrl>
#styleMap_TLP_Normal
</styleUrl>
<Point>
<coordinates>
121.4038162,24.9772854,36.79
</coordinates>
</Point>
</Placemark>
<Placemark>
<name>
Wed Sep 22 08:08:12 2010
</name>
<styleUrl>
#styleMap_TLP_Normal
</styleUrl>
<Point>
<coordinates>
121.4048386,24.9780407,38.22
</coordinates>
</Point>
</Placemark>
<Placemark>
<name>
Wed Sep 22 08:08:17 2010
</name>
<styleUrl>
#styleMap_TLP_Normal
</styleUrl>
<Point>
<coordinates>
121.4058685,24.9787922,37.91
</coordinates>
</Point>
</Placemark>
<Placemark>
<name>
Wed Sep 22 08:08:22 2010
</name>
<styleUrl>
#styleMap_TLP_Normal
</styleUrl>
<Point>
<coordinates>
121.4069138,24.9795036,37.27
</coordinates>
</Point>
</Placemark>
<Placemark>
<name>
Wed Sep 22 08:08:27 2010
</name>
<styleUrl>
#styleMap_TLP_Normal
</styleUrl>
<Point>
<coordinates>
121.4080505,24.9800949,39.10
</coordinates>
</Point>
</Placemark>
<Placemark>
<name>
Wed Sep 22 08:08:32 2010
</name>
<styleUrl>
#styleMap_TLP_Normal
</styleUrl>
<Point>
<coordinates>
121.4091644,24.9806519,40.29
</coordinates>
</Point>
</Placemark>
<Placemark>
<name>
Wed Sep 22 08:08:37 2010
</name>
<styleUrl>
#styleMap_TLP_Normal
</styleUrl>
<Point>
<coordinates>
121.4103241,24.9812298,42.86
</coordinates>
</Point>
</Placemark>
<Placemark>
<name>
Wed Sep 22 08:08:42 2010
</name>
<styleUrl>
#styleMap_TLP_Normal
</styleUrl>
<Point>
<coordinates>
121.4114685,24.9817963,45.45
</coordinates>
</Point>
</Placemark>
<Placemark>
<name>
Wed Sep 22 08:08:47 2010
</name>
<styleUrl>
#styleMap_TLP_Normal
</styleUrl>
<Point>
<coordinates>
121.4125977,24.9823627,44.67
</coordinates>
</Point>
</Placemark>
<Placemark>
<name>
Wed Sep 22 08:08:52 2010
</name>
<styleUrl>
#styleMap_TLP_Normal
</styleUrl>
<Point>
<coordinates>
121.4137344,24.9829197,42.99
</coordinates>
</Point>
</Placemark>
<Placemark>
<name>
Wed Sep 22 08:08:57 2010
</name>
<styleUrl>
#styleMap_TLP_Normal
</styleUrl>
<Point>
<coordinates>
121.4148560,24.9835091,42.82
</coordinates>
</Point>
</Placemark>
<Placemark>
<name>
Wed Sep 22 08:09:02 2010
</name>
<styleUrl>
#styleMap_TLP_Normal
</styleUrl>
<Point>
<coordinates>
121.4159164,24.9840221,43.27
</coordinates>
</Point>
</Placemark>
<Placemark>
<name>
Wed Sep 22 08:09:07 2010
</name>
<styleUrl>
#styleMap_TLP_Normal
</styleUrl>
<Point>
<coordinates>
121.4168472,24.9844704,44.87
</coordinates>
</Point>
</Placemark>
<Placemark>
<name>
Wed Sep 22 08:09:12 2010
</name>
<styleUrl>
#styleMap_TLP_Normal
</styleUrl>
<Point>
<coordinates>
121.4177094,24.9849396,40.21
</coordinates>
</Point>
</Placemark>
<Placemark>
<name>
Wed Sep 22 08:09:17 2010
</name>
<styleUrl>
#styleMap_TLP_Normal
</styleUrl>
<Point>
<coordinates>
121.4185410,24.9853420,40.75
</coordinates>
</Point>
</Placemark>
<Placemark>
<name>
Wed Sep 22 08:09:22 2010
</name>
<styleUrl>
#styleMap_TLP_Normal
</styleUrl>
<Point>
<coordinates>
121.4193649,24.9857407,41.64
</coordinates>
</Point>
</Placemark>
<Placemark>
<name>
Wed Sep 22 08:09:27 2010
</name>
<styleUrl>
#styleMap_TLP_Normal
</styleUrl>
<Point>
<coordinates>
121.4201889,24.9861145,44.41
</coordinates>
</Point>
</Placemark>
<Placemark>
<name>
Wed Sep 22 08:09:32 2010
</name>
<styleUrl>
#styleMap_TLP_Normal
</styleUrl>
<Point>
<coordinates>
121.4210205,24.9865208,45.57
</coordinates>
</Point>
</Placemark>
<Placemark>
<name>
Wed Sep 22 08:09:37 2010
</name>
<styleUrl>
#styleMap_TLP_Normal
</styleUrl>
<Point>
<coordinates>
121.4217987,24.9869766,46.00
</coordinates>
</Point>
</Placemark>
<Placemark>
<name>
Wed Sep 22 08:09:42 2010
</name>
<styleUrl>
#styleMap_TLP_Normal
</styleUrl>
<Point>
<coordinates>
121.4224701,24.9875984,45.73
</coordinates>
</Point>
</Placemark>
<Placemark>
<name>
Wed Sep 22 08:09:47 2010
</name>
<styleUrl>
#styleMap_TLP_Normal
</styleUrl>
<Point>
<coordinates>
121.4230118,24.9883575,46.45
</coordinates>
</Point>
</Placemark>
<Placemark>
<name>
Wed Sep 22 08:09:52 2010
</name>
<styleUrl>
#styleMap_TLP_Normal
</styleUrl>
<Point>
<coordinates>
121.4234924,24.9891663,47.07
</coordinates>
</Point>
</Placemark>
<Placemark>
<name>
Wed Sep 22 08:09:57 2010
</name>
<styleUrl>
#styleMap_TLP_Normal
</styleUrl>
<Point>
<coordinates>
121.4239120,24.9899807,46.12
</coordinates>
</Point>
</Placemark>
<Placemark>
<name>
Wed Sep 22 08:10:02 2010
</name>
<styleUrl>
#styleMap_TLP_Normal
</styleUrl>
<Point>
<coordinates>
121.4242783,24.9907894,42.02
</coordinates>
</Point>
</Placemark>
<Placemark>
<name>
Wed Sep 22 08:10:07 2010
</name>
<styleUrl>
#styleMap_TLP_Normal
</styleUrl>
<Point>
<coordinates>
121.4247437,24.9915638,39.82
</coordinates>
</Point>
</Placemark>
<Placemark>
<name>
Wed Sep 22 08:10:12 2010
</name>
<styleUrl>
#styleMap_TLP_Normal
</styleUrl>
<Point>
<coordinates>
121.4251480,24.9923763,35.94
</coordinates>
</Point>
</Placemark>
<Placemark>
<name>
Wed Sep 22 08:10:17 2010
</name>
<styleUrl>
#styleMap_TLP_Normal
</styleUrl>
<Point>
<coordinates>
121.4255524,24.9932041,31.76
</coordinates>
</Point>
</Placemark>
<Placemark>
<name>
Wed Sep 22 08:10:22 2010
</name>
<styleUrl>
#styleMap_TLP_Normal
</styleUrl>
<Point>
<coordinates>
121.4259720,24.9940701,29.72
</coordinates>
</Point>
</Placemark>
<Placemark>
<name>
Wed Sep 22 08:10:27 2010
</name>
<styleUrl>
#styleMap_TLP_Normal
</styleUrl>
<Point>
<coordinates>
121.4263916,24.9949799,29.66
</coordinates>
</Point>
</Placemark>
<Placemark>
<name>
Wed Sep 22 08:10:32 2010
</name>
<styleUrl>
#styleMap_TLP_Normal
</styleUrl>
<Point>
<coordinates>
121.4269028,24.9959106,28.71
</coordinates>
</Point>
</Placemark>
<Placemark>
<name>
Wed Sep 22 08:10:37 2010
</name>
<styleUrl>
#styleMap_TLP_Normal
</styleUrl>
<Point>
<coordinates>
121.4274063,24.9968929,25.29
</coordinates>
</Point>
</Placemark>
<Placemark>
<name>
Wed Sep 22 08:10:42 2010
</name>
<styleUrl>
#styleMap_TLP_Normal
</styleUrl>
<Point>
<coordinates>
121.4279404,24.9979420,23.29
</coordinates>
</Point>
</Placemark>
<Placemark>
<name>
Wed Sep 22 08:10:47 2010
</name>
<styleUrl>
#styleMap_TLP_Normal
</styleUrl>
<Point>
<coordinates>
121.4284821,24.9989758,21.12
</coordinates>
</Point>
</Placemark>
<Placemark>
<name>
Wed Sep 22 08:10:52 2010
</name>
<styleUrl>
#styleMap_TLP_Normal
</styleUrl>
<Point>
<coordinates>
121.4290314,24.9999943,18.97
</coordinates>
</Point>
</Placemark>
<Placemark>
<name>
Wed Sep 22 08:10:57 2010
</name>
<styleUrl>
#styleMap_TLP_Normal
</styleUrl>
<Point>
<coordinates>
121.4296875,25.0009327,17.72
</coordinates>
</Point>
</Placemark>
<Placemark>
<name>
Wed Sep 22 08:11:02 2010
</name>
<styleUrl>
#styleMap_TLP_Normal
</styleUrl>
<Point>
<coordinates>
121.4304733,25.0018063,15.71
</coordinates>
</Point>
</Placemark>
<Placemark>
<name>
Wed Sep 22 08:11:07 2010
</name>
<styleUrl>
#styleMap_TLP_Normal
</styleUrl>
<Point>
<coordinates>
121.4312363,25.0026817,17.41
</coordinates>
</Point>
</Placemark>
<Placemark>
<name>
Wed Sep 22 08:11:12 2010
</name>
<styleUrl>
#styleMap_TLP_Normal
</styleUrl>
<Point>
<coordinates>
121.4320526,25.0035210,17.55
</coordinates>
</Point>
</Placemark>
<Placemark>
<name>
Wed Sep 22 08:11:17 2010
</name>
<styleUrl>
#styleMap_TLP_Normal
</styleUrl>
<Point>
<coordinates>
121.4329605,25.0042324,17.48
</coordinates>
</Point>
</Placemark>
<Placemark>
<name>
Wed Sep 22 08:11:22 2010
</name>
<styleUrl>
#styleMap_TLP_Normal
</styleUrl>
<Point>
<coordinates>
121.4339523,25.0047131,17.62
</coordinates>
</Point>
</Placemark>
<Placemark>
<name>
Wed Sep 22 08:11:27 2010
</name>
<styleUrl>
#styleMap_TLP_Normal
</styleUrl>
<Point>
<coordinates>
121.4350357,25.0049458,16.41
</coordinates>
</Point>
</Placemark>
<Placemark>
<name>
Wed Sep 22 08:11:32 2010
</name>
<styleUrl>
#styleMap_TLP_Normal
</styleUrl>
<Point>
<coordinates>
121.4361649,25.0049839,17.34
</coordinates>
</Point>
</Placemark>
<Placemark>
<name>
Wed Sep 22 08:11:37 2010
</name>
<styleUrl>
#styleMap_TLP_Normal
</styleUrl>
<Point>
<coordinates>
121.4372635,25.0049171,20.51
</coordinates>
</Point>
</Placemark>
<Placemark>
<name>
Wed Sep 22 08:11:42 2010
</name>
<styleUrl>
#styleMap_TLP_Normal
</styleUrl>
<Point>
<coordinates>
121.4383392,25.0048580,21.10
</coordinates>
</Point>
</Placemark>
<Placemark>
<name>
Wed Sep 22 08:11:47 2010
</name>
<styleUrl>
#styleMap_TLP_Normal
</styleUrl>
<Point>
<coordinates>
121.4394150,25.0047932,23.53
</coordinates>
</Point>
</Placemark>
<Placemark>
<name>
Wed Sep 22 08:11:52 2010
</name>
<styleUrl>
#styleMap_TLP_Normal
</styleUrl>
<Point>
<coordinates>
121.4403534,25.0046864,26.77
</coordinates>
</Point>
</Placemark>
<Placemark>
<name>
Wed Sep 22 08:11:57 2010
</name>
<styleUrl>
#styleMap_TLP_Normal
</styleUrl>
<Point>
<coordinates>
121.4411011,25.0045834,25.66
</coordinates>
</Point>
</Placemark>
<Placemark>
<name>
Wed Sep 22 08:12:02 2010
</name>
<styleUrl>
#styleMap_TLP_Normal
</styleUrl>
<Point>
<coordinates>
121.4417953,25.0044937,25.10
</coordinates>
</Point>
</Placemark>
<Placemark>
<name>
Wed Sep 22 08:12:07 2010
</name>
<styleUrl>
#styleMap_TLP_Normal
</styleUrl>
<Point>
<coordinates>
121.4424362,25.0043716,25.15
</coordinates>
</Point>
</Placemark>
<Placemark>
<name>
Wed Sep 22 08:12:12 2010
</name>
<styleUrl>
#styleMap_TLP_Normal
</styleUrl>
<Point>
<coordinates>
121.4430847,25.0042953,26.19
</coordinates>
</Point>
</Placemark>
<Placemark>
<name>
Wed Sep 22 08:12:17 2010
</name>
<styleUrl>
#styleMap_TLP_Normal
</styleUrl>
<Point>
<coordinates>
121.4437637,25.0042305,26.12
</coordinates>
</Point>
</Placemark>
<Placemark>
<name>
Wed Sep 22 08:12:22 2010
</name>
<styleUrl>
#styleMap_TLP_Normal
</styleUrl>
<Point>
<coordinates>
121.4444275,25.0042133,27.88
</coordinates>
</Point>
</Placemark>
<Placemark>
<name>
Wed Sep 22 08:12:27 2010
</name>
<styleUrl>
#styleMap_TLP_Normal
</styleUrl>
<Point>
<coordinates>
121.4451294,25.0041943,26.37
</coordinates>
</Point>
</Placemark>
<Placemark>
<name>
Wed Sep 22 08:12:32 2010
</name>
<styleUrl>
#styleMap_TLP_Normal
</styleUrl>
<Point>
<coordinates>
121.4458160,25.0041714,24.46
</coordinates>
</Point>
</Placemark>
<Placemark>
<name>
Wed Sep 22 08:12:37 2010
</name>
<styleUrl>
#styleMap_TLP_Normal
</styleUrl>
<Point>
<coordinates>
121.4465179,25.0041313,22.12
</coordinates>
</Point>
</Placemark>
<Placemark>
<name>
Wed Sep 22 08:12:42 2010
</name>
<styleUrl>
#styleMap_TLP_Normal
</styleUrl>
<Point>
<coordinates>
121.4472427,25.0040779,19.81
</coordinates>
</Point>
</Placemark>
<Placemark>
<name>
Wed Sep 22 08:12:47 2010
</name>
<styleUrl>
#styleMap_TLP_Normal
</styleUrl>
<Point>
<coordinates>
121.4479752,25.0039883,22.61
</coordinates>
</Point>
</Placemark>
<Placemark>
<name>
Wed Sep 22 08:12:52 2010
</name>
<styleUrl>
#styleMap_TLP_Normal
</styleUrl>
<Point>
<coordinates>
121.4487152,25.0039387,24.94
</coordinates>
</Point>
</Placemark>
<Placemark>
<name>
Wed Sep 22 08:12:57 2010
</name>
<styleUrl>
#styleMap_TLP_Normal
</styleUrl>
<Point>
<coordinates>
121.4494705,25.0038795,26.11
</coordinates>
</Point>
</Placemark>
<Placemark>
<name>
Wed Sep 22 08:13:02 2010
</name>
<styleUrl>
#styleMap_TLP_Normal
</styleUrl>
<Point>
<coordinates>
121.4502792,25.0038624,26.52
</coordinates>
</Point>
</Placemark>
<Placemark>
<name>
Wed Sep 22 08:13:07 2010
</name>
<styleUrl>
#styleMap_TLP_Normal
</styleUrl>
<Point>
<coordinates>
121.4511032,25.0038376,26.90
</coordinates>
</Point>
</Placemark>
<Placemark>
<name>
Wed Sep 22 08:13:12 2010
</name>
<styleUrl>
#styleMap_TLP_Normal
</styleUrl>
<Point>
<coordinates>
121.4519348,25.0037937,28.18
</coordinates>
</Point>
</Placemark>
<Placemark>
<name>
Wed Sep 22 08:13:17 2010
</name>
<styleUrl>
#styleMap_TLP_Normal
</styleUrl>
<Point>
<coordinates>
121.4527817,25.0037746,28.75
</coordinates>
</Point>
</Placemark>
<Placemark>
<name>
Wed Sep 22 08:13:22 2010
</name>
<styleUrl>
#styleMap_TLP_Finish
</styleUrl>
<Point>
<coordinates>
121.4535446,25.0035725,29.52
</coordinates>
</Point>
</Placemark>
</Folder>
</Document>
</kml>
