<?xml version="1.0"?>
<gpx
version="1.0"
creator="Holux Utility"
xmlns:xsi="http://www.w3.org/2001/XMLSchema-instance"
xmlns="http://www.topografix.com/GPX/1/0"
xsi:schemaLocation="http://www.topografix.com/GPX/1/0 http://www.topografix.com/GPX/1/0/gpx.xsd">
<wpt lat="46.606529" lon="7.919131">
<time>2011-10-21T14:02:49Z</time>
<ele>1283.31</ele>
<speed>17.41</speed>
<name><![CDATA[Point 0]]></name>
</wpt>
<wpt lat="46.606655" lon="7.918837">
<time>2011-10-21T14:02:55Z</time>
<ele>1282.28</ele>
<speed>16.21</speed>
<name><![CDATA[Point 1]]></name>
</wpt>
<wpt lat="46.606777" lon="7.918615">
<time>2011-10-21T14:03:00Z</time>
<ele>1281.56</ele>
<speed>15.31</speed>
<name><![CDATA[Point 2]]></name>
</wpt>
<wpt lat="46.606873" lon="7.918358">
<time>2011-10-21T14:03:05Z</time>
<ele>1280.72</ele>
<speed>16.55</speed>
<name><![CDATA[Point 3]]></name>
</wpt>
<wpt lat="46.607002" lon="7.918130">
<time>2011-10-21T14:03:10Z</time>
<ele>1279.03</ele>
<speed>18.00</speed>
<name><![CDATA[Point 4]]></name>
</wpt>
<wpt lat="46.607124" lon="7.917965">
<time>2011-10-21T14:03:15Z</time>
<ele>1277.69</ele>
<speed>16.74</speed>
<name><![CDATA[Point 5]]></name>
</wpt>
<wpt lat="46.607258" lon="7.917804">
<time>2011-10-21T14:03:20Z</time>
<ele>1276.50</ele>
<speed>13.83</speed>
<name><![CDATA[Point 6]]></name>
</wpt>
<wpt lat="46.607334" lon="7.917619">
<time>2011-10-21T14:03:25Z</time>
<ele>1275.56</ele>
<speed>13.84</speed>
<name><![CDATA[Point 7]]></name>
</wpt>
<wpt lat="46.607376" lon="7.917387">
<time>2011-10-21T14:03:30Z</time>
<ele>1274.56</ele>
<speed>14.48</speed>
<name><![CDATA[Point 8]]></name>
</wpt>
<wpt lat="46.607422" lon="7.917146">
<time>2011-10-21T14:03:35Z</time>
<ele>1273.00</ele>
<speed>14.73</speed>
<name><![CDATA[Point 9]]></name>
</wpt>
<wpt lat="46.607418" lon="7.916829">
<time>2011-10-21T14:03:40Z</time>
<ele>1271.19</ele>
<speed>15.06</speed>
<name><![CDATA[Point 10]]></name>
</wpt>
<wpt lat="46.607395" lon="7.916543">
<time>2011-10-21T14:03:45Z</time>
<ele>1269.50</ele>
<speed>14.63</speed>
<name><![CDATA[Point 11]]></name>
</wpt>
<wpt lat="46.607376" lon="7.916257">
<time>2011-10-21T14:03:50Z</time>
<ele>1267.13</ele>
<speed>14.72</speed>
<name><![CDATA[Point 12]]></name>
</wpt>
<wpt lat="46.607307" lon="7.915929">
<time>2011-10-21T14:03:55Z</time>
<ele>1264.72</ele>
<speed>14.39</speed>
<name><![CDATA[Point 13]]></name>
</wpt>
<wpt lat="46.607380" lon="7.915692">
<time>2011-10-21T14:04:00Z</time>
<ele>1260.66</ele>
<speed>15.05</speed>
<name><![CDATA[Point 14]]></name>
</wpt>
<wpt lat="46.607437" lon="7.915502">
<time>2011-10-21T14:04:05Z</time>
<ele>1258.09</ele>
<speed>12.89</speed>
<name><![CDATA[Point 15]]></name>
</wpt>
<wpt lat="46.607590" lon="7.915366">
<time>2011-10-21T14:04:10Z</time>
<ele>1253.31</ele>
<speed>14.12</speed>
<name><![CDATA[Point 16]]></name>
</wpt>
<wpt lat="46.607689" lon="7.915185">
<time>2011-10-21T14:04:15Z</time>
<ele>1250.28</ele>
<speed>13.84</speed>
<name><![CDATA[Point 17]]></name>
</wpt>
<wpt lat="46.607834" lon="7.914947">
<time>2011-10-21T14:04:20Z</time>
<ele>1248.44</ele>
<speed>15.81</speed>
<name><![CDATA[Point 18]]></name>
</wpt>
<wpt lat="46.607956" lon="7.914814">
<time>2011-10-21T14:04:25Z</time>
<ele>1247.63</ele>
<speed>11.03</speed>
<name><![CDATA[Point 19]]></name>
</wpt>
<wpt lat="46.608009" lon="7.914619">
<time>2011-10-21T14:04:30Z</time>
<ele>1245.47</ele>
<speed>11.83</speed>
<name><![CDATA[Point 20]]></name>
</wpt>
<wpt lat="46.608147" lon="7.914452">
<time>2011-10-21T14:04:35Z</time>
<ele>1243.91</ele>
<speed>12.23</speed>
<name><![CDATA[Point 21]]></name>
</wpt>
<wpt lat="46.608299" lon="7.914266">
<time>2011-10-21T14:04:40Z</time>
<ele>1242.41</ele>
<speed>13.49</speed>
<name><![CDATA[Point 22]]></name>
</wpt>
<wpt lat="46.608440" lon="7.914058">
<time>2011-10-21T14:04:45Z</time>
<ele>1240.94</ele>
<speed>14.50</speed>
<name><![CDATA[Point 23]]></name>
</wpt>
<wpt lat="46.608608" lon="7.913944">
<time>2011-10-21T14:04:50Z</time>
<ele>1239.47</ele>
<speed>12.10</speed>
<name><![CDATA[Point 24]]></name>
</wpt>
<wpt lat="46.608719" lon="7.913836">
<time>2011-10-21T14:04:55Z</time>
<ele>1235.13</ele>
<speed>11.95</speed>
<name><![CDATA[Point 25]]></name>
</wpt>
<wpt lat="46.608856" lon="7.913811">
<time>2011-10-21T14:05:00Z</time>
<ele>1230.94</ele>
<speed>10.01</speed>
<name><![CDATA[Point 26]]></name>
</wpt>
<wpt lat="46.608986" lon="7.913682">
<time>2011-10-21T14:05:05Z</time>
<ele>1228.06</ele>
<speed>12.01</speed>
<name><![CDATA[Point 27]]></name>
</wpt>
<wpt lat="46.609158" lon="7.913530">
<time>2011-10-21T14:05:10Z</time>
<ele>1226.03</ele>
<speed>13.62</speed>
<name><![CDATA[Point 28]]></name>
</wpt>
<wpt lat="46.609314" lon="7.913398">
<time>2011-10-21T14:05:15Z</time>
<ele>1225.47</ele>
<speed>12.82</speed>
<name><![CDATA[Point 29]]></name>
</wpt>
<wpt lat="46.609493" lon="7.913342">
<time>2011-10-21T14:05:20Z</time>
<ele>1222.72</ele>
<speed>13.99</speed>
<name><![CDATA[Point 30]]></name>
</wpt>
<wpt lat="46.609730" lon="7.913283">
<time>2011-10-21T14:05:25Z</time>
<ele>1221.38</ele>
<speed>14.67</speed>
<name><![CDATA[Point 31]]></name>
</wpt>
<wpt lat="46.609875" lon="7.913279">
<time>2011-10-21T14:05:30Z</time>
<ele>1222.75</ele>
<speed>9.62</speed>
<name><![CDATA[Point 32]]></name>
</wpt>
<wpt lat="46.610394" lon="7.911509">
<time>2011-10-21T14:06:31Z</time>
<ele>1196.81</ele>
<speed>12.61</speed>
<name><![CDATA[Point 33]]></name>
</wpt>
<wpt lat="46.610283" lon="7.911603">
<time>2011-10-21T14:06:36Z</time>
<ele>1183.03</ele>
<speed>12.42</speed>
<name><![CDATA[Point 34]]></name>
</wpt>
<wpt lat="46.609921" lon="7.911469">
<time>2011-10-21T14:06:41Z</time>
<ele>1122.19</ele>
<speed>14.32</speed>
<name><![CDATA[Point 35]]></name>
</wpt>
<wpt lat="46.609734" lon="7.911580">
<time>2011-10-21T14:06:46Z</time>
<ele>1118.44</ele>
<speed>13.89</speed>
<name><![CDATA[Point 36]]></name>
</wpt>
<wpt lat="46.609562" lon="7.911644">
<time>2011-10-21T14:06:51Z</time>
<ele>1117.84</ele>
<speed>13.17</speed>
<name><![CDATA[Point 37]]></name>
</wpt>
<wpt lat="46.609352" lon="7.911816">
<time>2011-10-21T14:06:56Z</time>
<ele>1113.22</ele>
<speed>14.61</speed>
<name><![CDATA[Point 38]]></name>
</wpt>
<wpt lat="46.609207" lon="7.911854">
<time>2011-10-21T14:07:01Z</time>
<ele>1113.03</ele>
<speed>13.63</speed>
<name><![CDATA[Point 39]]></name>
</wpt>
<wpt lat="46.609024" lon="7.911870">
<time>2011-10-21T14:07:06Z</time>
<ele>1112.69</ele>
<speed>13.55</speed>
<name><![CDATA[Point 40]]></name>
</wpt>
<wpt lat="46.608868" lon="7.911907">
<time>2011-10-21T14:07:11Z</time>
<ele>1114.34</ele>
<speed>14.41</speed>
<name><![CDATA[Point 41]]></name>
</wpt>
<wpt lat="46.608673" lon="7.911927">
<time>2011-10-21T14:07:16Z</time>
<ele>1116.09</ele>
<speed>14.40</speed>
<name><![CDATA[Point 42]]></name>
</wpt>
<wpt lat="46.608513" lon="7.911990">
<time>2011-10-21T14:07:21Z</time>
<ele>1114.38</ele>
<speed>14.51</speed>
<name><![CDATA[Point 43]]></name>
</wpt>
<wpt lat="46.608353" lon="7.912092">
<time>2011-10-21T14:07:26Z</time>
<ele>1113.53</ele>
<speed>14.03</speed>
<name><![CDATA[Point 44]]></name>
</wpt>
<wpt lat="46.608185" lon="7.912188">
<time>2011-10-21T14:07:31Z</time>
<ele>1111.59</ele>
<speed>12.67</speed>
<name><![CDATA[Point 45]]></name>
</wpt>
<wpt lat="46.608025" lon="7.912423">
<time>2011-10-21T14:07:36Z</time>
<ele>1108.53</ele>
<speed>11.01</speed>
<name><![CDATA[Point 46]]></name>
</wpt>
<wpt lat="46.607861" lon="7.912522">
<time>2011-10-21T14:07:41Z</time>
<ele>1107.88</ele>
<speed>13.75</speed>
<name><![CDATA[Point 47]]></name>
</wpt>
<wpt lat="46.607670" lon="7.912624">
<time>2011-10-21T14:07:46Z</time>
<ele>1106.91</ele>
<speed>14.48</speed>
<name><![CDATA[Point 48]]></name>
</wpt>
<wpt lat="46.607544" lon="7.912714">
<time>2011-10-21T14:07:51Z</time>
<ele>1105.00</ele>
<speed>12.24</speed>
<name><![CDATA[Point 49]]></name>
</wpt>
<wpt lat="46.607368" lon="7.912807">
<time>2011-10-21T14:07:56Z</time>
<ele>1102.56</ele>
<speed>13.32</speed>
<name><![CDATA[Point 50]]></name>
</wpt>
<wpt lat="46.607174" lon="7.912839">
<time>2011-10-21T14:08:01Z</time>
<ele>1101.00</ele>
<speed>13.34</speed>
<name><![CDATA[Point 51]]></name>
</wpt>
<wpt lat="46.607040" lon="7.912910">
<time>2011-10-21T14:08:06Z</time>
<ele>1099.75</ele>
<speed>7.55</speed>
<name><![CDATA[Point 52]]></name>
</wpt>
<wpt lat="46.606869" lon="7.913012">
<time>2011-10-21T14:08:11Z</time>
<ele>1098.34</ele>
<speed>12.50</speed>
<name><![CDATA[Point 53]]></name>
</wpt>
<wpt lat="46.606689" lon="7.913077">
<time>2011-10-21T14:08:16Z</time>
<ele>1096.84</ele>
<speed>13.65</speed>
<name><![CDATA[Point 54]]></name>
</wpt>
<wpt lat="46.606392" lon="7.913024">
<time>2011-10-21T14:08:21Z</time>
<ele>1095.41</ele>
<speed>14.08</speed>
<name><![CDATA[Point 55]]></name>
</wpt>
<wpt lat="46.606201" lon="7.913067">
<time>2011-10-21T14:08:26Z</time>
<ele>1096.34</ele>
<speed>13.26</speed>
<name><![CDATA[Point 56]]></name>
</wpt>
<wpt lat="46.606052" lon="7.913070">
<time>2011-10-21T14:08:31Z</time>
<ele>1097.16</ele>
<speed>11.88</speed>
<name><![CDATA[Point 57]]></name>
</wpt>
<wpt lat="46.605694" lon="7.914041">
<time>2011-10-21T14:08:49Z</time>
<ele>1049.09</ele>
<speed>11.64</speed>
<name><![CDATA[Point 58]]></name>
</wpt>
<wpt lat="46.605476" lon="7.914024">
<time>2011-10-21T14:08:54Z</time>
<ele>1092.56</ele>
<speed>11.03</speed>
<name><![CDATA[Point 59]]></name>
</wpt>
<wpt lat="46.605373" lon="7.914137">
<time>2011-10-21T14:08:59Z</time>
<ele>1091.34</ele>
<speed>9.61</speed>
<name><![CDATA[Point 60]]></name>
</wpt>
<wpt lat="46.605320" lon="7.914037">
<time>2011-10-21T14:09:04Z</time>
<ele>1099.66</ele>
<speed>6.07</speed>
<name><![CDATA[Point 61]]></name>
</wpt>
<wpt lat="46.605061" lon="7.914962">
<time>2011-10-21T14:09:15Z</time>
<ele>978.97</ele>
<speed>13.34</speed>
<name><![CDATA[Point 62]]></name>
</wpt>
<wpt lat="46.604771" lon="7.914801">
<time>2011-10-21T14:09:20Z</time>
<ele>995.02</ele>
<speed>7.88</speed>
<name><![CDATA[Point 63]]></name>
</wpt>
<wpt lat="46.604649" lon="7.914789">
<time>2011-10-21T14:09:25Z</time>
<ele>1003.83</ele>
<speed>2.63</speed>
<name><![CDATA[Point 64]]></name>
</wpt>
<wpt lat="46.604675" lon="7.914957">
<time>2011-10-21T14:09:30Z</time>
<ele>1006.23</ele>
<speed>8.48</speed>
<name><![CDATA[Point 65]]></name>
</wpt>
<wpt lat="46.603645" lon="7.914672">
<time>2011-10-21T14:09:50Z</time>
<ele>999.83</ele>
<speed>4.31</speed>
<name><![CDATA[Point 66]]></name>
</wpt>
<wpt lat="46.603542" lon="7.914781">
<time>2011-10-21T14:09:55Z</time>
<ele>962.75</ele>
<speed>2.66</speed>
<name><![CDATA[Point 67]]></name>
</wpt>
<wpt lat="46.603294" lon="7.914708">
<time>2011-10-21T14:10:00Z</time>
<ele>974.59</ele>
<speed>7.91</speed>
<name><![CDATA[Point 68]]></name>
</wpt>
<wpt lat="46.603119" lon="7.914649">
<time>2011-10-21T14:10:05Z</time>
<ele>981.31</ele>
<speed>3.77</speed>
<name><![CDATA[Point 69]]></name>
</wpt>
<wpt lat="46.603065" lon="7.914686">
<time>2011-10-21T14:10:10Z</time>
<ele>970.28</ele>
<speed>5.19</speed>
<name><![CDATA[Point 70]]></name>
</wpt>
<wpt lat="46.603001" lon="7.914617">
<time>2011-10-21T14:10:15Z</time>
<ele>972.34</ele>
<speed>1.24</speed>
<name><![CDATA[Point 71]]></name>
</wpt>
<wpt lat="46.602989" lon="7.914599">
<time>2011-10-21T14:10:20Z</time>
<ele>972.36</ele>
<speed>2.79</speed>
<name><![CDATA[Point 72]]></name>
</wpt>
<wpt lat="46.602997" lon="7.914597">
<time>2011-10-21T14:10:25Z</time>
<ele>972.39</ele>
<speed>1.28</speed>
<name><![CDATA[Point 73]]></name>
</wpt>
<wpt lat="46.602989" lon="7.914556">
<time>2011-10-21T14:10:30Z</time>
<ele>976.28</ele>
<speed>0.98</speed>
<name><![CDATA[Point 74]]></name>
</wpt>
<wpt lat="46.602943" lon="7.914577">
<time>2011-10-21T14:10:35Z</time>
<ele>981.42</ele>
<speed>5.07</speed>
<name><![CDATA[Point 75]]></name>
</wpt>
<wpt lat="46.602940" lon="7.914587">
<time>2011-10-21T14:10:40Z</time>
<ele>983.44</ele>
<speed>0.75</speed>
<name><![CDATA[Point 76]]></name>
</wpt>
<wpt lat="46.602905" lon="7.914619">
<time>2011-10-21T14:10:45Z</time>
<ele>984.22</ele>
<speed>5.99</speed>
<name><![CDATA[Point 77]]></name>
</wpt>
<wpt lat="46.602856" lon="7.914619">
<time>2011-10-21T14:10:50Z</time>
<ele>989.33</ele>
<speed>2.09</speed>
<name><![CDATA[Point 78]]></name>
</wpt>
<wpt lat="46.602871" lon="7.914616">
<time>2011-10-21T14:10:55Z</time>
<ele>988.92</ele>
<speed>4.43</speed>
<name><![CDATA[Point 79]]></name>
</wpt>
<wpt lat="46.602943" lon="7.914658">
<time>2011-10-21T14:11:00Z</time>
<ele>990.97</ele>
<speed>4.18</speed>
<name><![CDATA[Point 80]]></name>
</wpt>
<wpt lat="46.602936" lon="7.914591">
<time>2011-10-21T14:11:05Z</time>
<ele>1003.98</ele>
<speed>3.25</speed>
<name><![CDATA[Point 81]]></name>
</wpt>
<wpt lat="46.602936" lon="7.914517">
<time>2011-10-21T14:11:10Z</time>
<ele>1010.17</ele>
<speed>0.88</speed>
<name><![CDATA[Point 82]]></name>
</wpt>
<wpt lat="46.602921" lon="7.914531">
<time>2011-10-21T14:11:15Z</time>
<ele>1013.95</ele>
<speed>1.65</speed>
<name><![CDATA[Point 83]]></name>
</wpt>
<wpt lat="46.602879" lon="7.914562">
<time>2011-10-21T14:11:20Z</time>
<ele>1019.03</ele>
<speed>1.16</speed>
<name><![CDATA[Point 84]]></name>
</wpt>
<wpt lat="46.602802" lon="7.914444">
<time>2011-10-21T14:11:25Z</time>
<ele>1023.70</ele>
<speed>5.55</speed>
<name><![CDATA[Point 85]]></name>
</wpt>
<wpt lat="46.602768" lon="7.914427">
<time>2011-10-21T14:11:30Z</time>
<ele>1025.44</ele>
<speed>6.07</speed>
<name><![CDATA[Point 86]]></name>
</wpt>
<wpt lat="46.602737" lon="7.914427">
<time>2011-10-21T14:11:35Z</time>
<ele>1023.86</ele>
<speed>1.37</speed>
<name><![CDATA[Point 87]]></name>
</wpt>
<wpt lat="46.602737" lon="7.914495">
<time>2011-10-21T14:11:40Z</time>
<ele>1026.16</ele>
<speed>3.29</speed>
<name><![CDATA[Point 88]]></name>
</wpt>
<wpt lat="46.602718" lon="7.914511">
<time>2011-10-21T14:11:45Z</time>
<ele>1029.41</ele>
<speed>0.56</speed>
<name><![CDATA[Point 89]]></name>
</wpt>
<wpt lat="46.602711" lon="7.914375">
<time>2011-10-21T14:11:50Z</time>
<ele>1028.66</ele>
<speed>2.17</speed>
<name><![CDATA[Point 90]]></name>
</wpt>
<wpt lat="46.602703" lon="7.914341">
<time>2011-10-21T14:11:55Z</time>
<ele>1026.94</ele>
<speed>1.79</speed>
<name><![CDATA[Point 91]]></name>
</wpt>
<wpt lat="46.602684" lon="7.914337">
<time>2011-10-21T14:12:00Z</time>
<ele>1027.53</ele>
<speed>2.07</speed>
<name><![CDATA[Point 92]]></name>
</wpt>
<wpt lat="46.602665" lon="7.914389">
<time>2011-10-21T14:12:05Z</time>
<ele>1031.75</ele>
<speed>2.10</speed>
<name><![CDATA[Point 93]]></name>
</wpt>
<wpt lat="46.602676" lon="7.914395">
<time>2011-10-21T14:12:10Z</time>
<ele>1035.03</ele>
<speed>0.85</speed>
<name><![CDATA[Point 94]]></name>
</wpt>
<wpt lat="46.602703" lon="7.914351">
<time>2011-10-21T14:12:15Z</time>
<ele>1036.53</ele>
<speed>1.58</speed>
<name><![CDATA[Point 95]]></name>
</wpt>
<wpt lat="46.602695" lon="7.914355">
<time>2011-10-21T14:12:20Z</time>
<ele>1037.34</ele>
<speed>2.05</speed>
<name><![CDATA[Point 96]]></name>
</wpt>
<wpt lat="46.602734" lon="7.914386">
<time>2011-10-21T14:12:25Z</time>
<ele>1037.50</ele>
<speed>0.57</speed>
<name><![CDATA[Point 97]]></name>
</wpt>
<wpt lat="46.602791" lon="7.914335">
<time>2011-10-21T14:12:30Z</time>
<ele>1044.38</ele>
<speed>4.35</speed>
<name><![CDATA[Point 98]]></name>
</wpt>
<wpt lat="46.602749" lon="7.914218">
<time>2011-10-21T14:12:35Z</time>
<ele>1057.56</ele>
<speed>3.41</speed>
<name><![CDATA[Point 99]]></name>
</wpt>
<wpt lat="46.602692" lon="7.914106">
<time>2011-10-21T14:12:40Z</time>
<ele>1066.69</ele>
<speed>3.52</speed>
<name><![CDATA[Point 100]]></name>
</wpt>
<wpt lat="46.602692" lon="7.914012">
<time>2011-10-21T14:12:45Z</time>
<ele>1070.78</ele>
<speed>1.47</speed>
<name><![CDATA[Point 101]]></name>
</wpt>
<wpt lat="46.602695" lon="7.913986">
<time>2011-10-21T14:12:50Z</time>
<ele>1071.41</ele>
<speed>2.76</speed>
<name><![CDATA[Point 102]]></name>
</wpt>
<wpt lat="46.602776" lon="7.914088">
<time>2011-10-21T14:12:55Z</time>
<ele>1072.31</ele>
<speed>8.80</speed>
<name><![CDATA[Point 103]]></name>
</wpt>
<wpt lat="46.602825" lon="7.914149">
<time>2011-10-21T14:13:00Z</time>
<ele>1073.50</ele>
<speed>4.24</speed>
<name><![CDATA[Point 104]]></name>
</wpt>
<wpt lat="46.602840" lon="7.914191">
<time>2011-10-21T14:13:05Z</time>
<ele>1073.38</ele>
<speed>0.99</speed>
<name><![CDATA[Point 105]]></name>
</wpt>
<wpt lat="46.602776" lon="7.914111">
<time>2011-10-21T14:13:10Z</time>
<ele>1072.09</ele>
<speed>5.93</speed>
<name><![CDATA[Point 106]]></name>
</wpt>
<wpt lat="46.602612" lon="7.914118">
<time>2011-10-21T14:13:15Z</time>
<ele>1069.53</ele>
<speed>9.16</speed>
<name><![CDATA[Point 107]]></name>
</wpt>
<wpt lat="46.602543" lon="7.914204">
<time>2011-10-21T14:13:20Z</time>
<ele>1068.09</ele>
<speed>7.01</speed>
<name><![CDATA[Point 108]]></name>
</wpt>
<wpt lat="46.602402" lon="7.914413">
<time>2011-10-21T14:13:25Z</time>
<ele>1066.47</ele>
<speed>14.65</speed>
<name><![CDATA[Point 109]]></name>
</wpt>
<wpt lat="46.602207" lon="7.914615">
<time>2011-10-21T14:13:30Z</time>
<ele>1064.16</ele>
<speed>15.12</speed>
<name><![CDATA[Point 110]]></name>
</wpt>
<wpt lat="46.602070" lon="7.914854">
<time>2011-10-21T14:13:35Z</time>
<ele>1060.81</ele>
<speed>16.27</speed>
<name><![CDATA[Point 111]]></name>
</wpt>
<wpt lat="46.601921" lon="7.914950">
<time>2011-10-21T14:13:40Z</time>
<ele>1055.28</ele>
<speed>11.36</speed>
<name><![CDATA[Point 112]]></name>
</wpt>
<wpt lat="46.601845" lon="7.915028">
<time>2011-10-21T14:13:45Z</time>
<ele>1051.53</ele>
<speed>8.09</speed>
<name><![CDATA[Point 113]]></name>
</wpt>
<wpt lat="46.601818" lon="7.915030">
<time>2011-10-21T14:13:50Z</time>
<ele>1048.22</ele>
<speed>4.85</speed>
<name><![CDATA[Point 114]]></name>
</wpt>
<wpt lat="46.601620" lon="7.914858">
<time>2011-10-21T14:13:55Z</time>
<ele>1046.22</ele>
<speed>16.06</speed>
<name><![CDATA[Point 115]]></name>
</wpt>
<wpt lat="46.601471" lon="7.914664">
<time>2011-10-21T14:14:00Z</time>
<ele>1043.41</ele>
<speed>7.38</speed>
<name><![CDATA[Point 116]]></name>
</wpt>
<wpt lat="46.601242" lon="7.914508">
<time>2011-10-21T14:14:05Z</time>
<ele>1041.72</ele>
<speed>13.49</speed>
<name><![CDATA[Point 117]]></name>
</wpt>
<wpt lat="46.601055" lon="7.914499">
<time>2011-10-21T14:14:10Z</time>
<ele>1042.63</ele>
<speed>13.39</speed>
<name><![CDATA[Point 118]]></name>
</wpt>
<wpt lat="46.600925" lon="7.914328">
<time>2011-10-21T14:14:15Z</time>
<ele>1050.19</ele>
<speed>13.18</speed>
<name><![CDATA[Point 119]]></name>
</wpt>
<wpt lat="46.598164" lon="7.915077">
<time>2011-10-21T14:15:20Z</time>
<ele>950.16</ele>
<speed>11.56</speed>
<name><![CDATA[Point 120]]></name>
</wpt>
<wpt lat="46.598259" lon="7.915083">
<time>2011-10-21T14:15:25Z</time>
<ele>902.63</ele>
<speed>9.08</speed>
<name><![CDATA[Point 121]]></name>
</wpt>
<wpt lat="46.598061" lon="7.915003">
<time>2011-10-21T14:15:30Z</time>
<ele>913.11</ele>
<speed>13.02</speed>
<name><![CDATA[Point 122]]></name>
</wpt>
<wpt lat="46.597809" lon="7.915049">
<time>2011-10-21T14:15:35Z</time>
<ele>933.00</ele>
<speed>10.50</speed>
<name><![CDATA[Point 123]]></name>
</wpt>
<wpt lat="46.597595" lon="7.915123">
<time>2011-10-21T14:15:40Z</time>
<ele>946.41</ele>
<speed>9.66</speed>
<name><![CDATA[Point 124]]></name>
</wpt>
<wpt lat="46.597507" lon="7.915238">
<time>2011-10-21T14:15:45Z</time>
<ele>943.91</ele>
<speed>7.24</speed>
<name><![CDATA[Point 125]]></name>
</wpt>
<wpt lat="46.597462" lon="7.915258">
<time>2011-10-21T14:15:50Z</time>
<ele>942.02</ele>
<speed>7.64</speed>
<name><![CDATA[Point 126]]></name>
</wpt>
<wpt lat="46.597248" lon="7.915144">
<time>2011-10-21T14:15:55Z</time>
<ele>944.16</ele>
<speed>13.74</speed>
<name><![CDATA[Point 127]]></name>
</wpt>
<wpt lat="46.596832" lon="7.914850">
<time>2011-10-21T14:16:00Z</time>
<ele>933.09</ele>
<speed>12.95</speed>
<name><![CDATA[Point 128]]></name>
</wpt>
<wpt lat="46.596657" lon="7.914762">
<time>2011-10-21T14:16:05Z</time>
<ele>926.00</ele>
<speed>13.91</speed>
<name><![CDATA[Point 129]]></name>
</wpt>
<wpt lat="46.596523" lon="7.914686">
<time>2011-10-21T14:16:10Z</time>
<ele>910.55</ele>
<speed>14.36</speed>
<name><![CDATA[Point 130]]></name>
</wpt>
<wpt lat="46.596378" lon="7.914582">
<time>2011-10-21T14:16:15Z</time>
<ele>897.84</ele>
<speed>14.39</speed>
<name><![CDATA[Point 131]]></name>
</wpt>
<wpt lat="46.596195" lon="7.914483">
<time>2011-10-21T14:16:20Z</time>
<ele>888.48</ele>
<speed>14.13</speed>
<name><![CDATA[Point 132]]></name>
</wpt>
<wpt lat="46.596050" lon="7.914426">
<time>2011-10-21T14:16:25Z</time>
<ele>878.94</ele>
<speed>13.20</speed>
<name><![CDATA[Point 133]]></name>
</wpt>
<wpt lat="46.595940" lon="7.914380">
<time>2011-10-21T14:16:30Z</time>
<ele>868.38</ele>
<speed>11.16</speed>
<name><![CDATA[Point 134]]></name>
</wpt>
<wpt lat="46.595837" lon="7.914349">
<time>2011-10-21T14:16:35Z</time>
<ele>863.59</ele>
<speed>9.55</speed>
<name><![CDATA[Point 135]]></name>
</wpt>
<wpt lat="46.595703" lon="7.914361">
<time>2011-10-21T14:16:40Z</time>
<ele>861.88</ele>
<speed>11.75</speed>
<name><![CDATA[Point 136]]></name>
</wpt>
<wpt lat="46.595554" lon="7.914331">
<time>2011-10-21T14:16:45Z</time>
<ele>861.50</ele>
<speed>11.39</speed>
<name><![CDATA[Point 137]]></name>
</wpt>
<wpt lat="46.595371" lon="7.914249">
<time>2011-10-21T14:16:50Z</time>
<ele>859.34</ele>
<speed>10.46</speed>
<name><![CDATA[Point 138]]></name>
</wpt>
<wpt lat="46.595207" lon="7.914104">
<time>2011-10-21T14:16:55Z</time>
<ele>858.17</ele>
<speed>14.18</speed>
<name><![CDATA[Point 139]]></name>
</wpt>
<wpt lat="46.594967" lon="7.913990">
<time>2011-10-21T14:17:00Z</time>
<ele>855.69</ele>
<speed>15.77</speed>
<name><![CDATA[Point 140]]></name>
</wpt>
<wpt lat="46.594753" lon="7.913909">
<time>2011-10-21T14:17:05Z</time>
<ele>860.06</ele>
<speed>13.74</speed>
<name><![CDATA[Point 141]]></name>
</wpt>
<wpt lat="46.594559" lon="7.913814">
<time>2011-10-21T14:17:10Z</time>
<ele>861.44</ele>
<speed>14.23</speed>
<name><![CDATA[Point 142]]></name>
</wpt>
<wpt lat="46.594418" lon="7.913548">
<time>2011-10-21T14:17:15Z</time>
<ele>848.80</ele>
<speed>15.30</speed>
<name><![CDATA[Point 143]]></name>
</wpt>
<wpt lat="46.594269" lon="7.913294">
<time>2011-10-21T14:17:20Z</time>
<ele>838.36</ele>
<speed>14.50</speed>
<name><![CDATA[Point 144]]></name>
</wpt>
<wpt lat="46.594204" lon="7.912971">
<time>2011-10-21T14:17:25Z</time>
<ele>836.14</ele>
<speed>15.47</speed>
<name><![CDATA[Point 145]]></name>
</wpt>
<wpt lat="46.594131" lon="7.912712">
<time>2011-10-21T14:17:30Z</time>
<ele>833.84</ele>
<speed>13.95</speed>
<name><![CDATA[Point 146]]></name>
</wpt>
<wpt lat="46.594074" lon="7.912431">
<time>2011-10-21T14:17:35Z</time>
<ele>830.94</ele>
<speed>13.70</speed>
<name><![CDATA[Point 147]]></name>
</wpt>
<wpt lat="46.594067" lon="7.912159">
<time>2011-10-21T14:17:40Z</time>
<ele>827.19</ele>
<speed>12.55</speed>
<name><![CDATA[Point 148]]></name>
</wpt>
<wpt lat="46.593990" lon="7.911896">
<time>2011-10-21T14:17:45Z</time>
<ele>823.98</ele>
<speed>13.88</speed>
<name><![CDATA[Point 149]]></name>
</wpt>
<wpt lat="46.593964" lon="7.911593">
<time>2011-10-21T14:17:50Z</time>
<ele>821.45</ele>
<speed>12.40</speed>
<name><![CDATA[Point 150]]></name>
</wpt>
<wpt lat="46.593956" lon="7.911332">
<time>2011-10-21T14:17:55Z</time>
<ele>819.30</ele>
<speed>13.96</speed>
<name><![CDATA[Point 151]]></name>
</wpt>
<wpt lat="46.593906" lon="7.911072">
<time>2011-10-21T14:18:00Z</time>
<ele>817.94</ele>
<speed>14.06</speed>
<name><![CDATA[Point 152]]></name>
</wpt>
<wpt lat="46.593880" lon="7.910869">
<time>2011-10-21T14:18:05Z</time>
<ele>816.36</ele>
<speed>11.39</speed>
<name><![CDATA[Point 153]]></name>
</wpt>
<wpt lat="46.593910" lon="7.910586">
<time>2011-10-21T14:18:10Z</time>
<ele>813.97</ele>
<speed>12.66</speed>
<name><![CDATA[Point 154]]></name>
</wpt>
<wpt lat="46.594021" lon="7.910364">
<time>2011-10-21T14:18:15Z</time>
<ele>812.27</ele>
<speed>10.95</speed>
<name><![CDATA[Point 155]]></name>
</wpt>
<wpt lat="46.594135" lon="7.910213">
<time>2011-10-21T14:18:20Z</time>
<ele>808.34</ele>
<speed>9.82</speed>
<name><![CDATA[Point 156]]></name>
</wpt>
<wpt lat="46.594200" lon="7.910102">
<time>2011-10-21T14:18:25Z</time>
<ele>806.55</ele>
<speed>6.87</speed>
<name><![CDATA[Point 157]]></name>
</wpt>
<wpt lat="46.594208" lon="7.910082">
<time>2011-10-21T14:18:30Z</time>
<ele>804.02</ele>
<speed>0.98</speed>
<name><![CDATA[Point 158]]></name>
</wpt>
<wpt lat="46.594212" lon="7.910066">
<time>2011-10-21T14:18:35Z</time>
<ele>803.22</ele>
<speed>6.33</speed>
<name><![CDATA[Point 159]]></name>
</wpt>
<wpt lat="46.594315" lon="7.909867">
<time>2011-10-21T14:18:40Z</time>
<ele>802.30</ele>
<speed>8.94</speed>
<name><![CDATA[Point 160]]></name>
</wpt>
<wpt lat="46.594463" lon="7.909695">
<time>2011-10-21T14:18:45Z</time>
<ele>801.11</ele>
<speed>9.02</speed>
<name><![CDATA[Point 161]]></name>
</wpt>
<wpt lat="46.594612" lon="7.909532">
<time>2011-10-21T14:18:50Z</time>
<ele>800.08</ele>
<speed>10.10</speed>
<name><![CDATA[Point 162]]></name>
</wpt>
<wpt lat="46.594791" lon="7.909357">
<time>2011-10-21T14:18:55Z</time>
<ele>799.25</ele>
<speed>9.37</speed>
<name><![CDATA[Point 163]]></name>
</wpt>
<wpt lat="46.595020" lon="7.909180">
<time>2011-10-21T14:19:00Z</time>
<ele>798.78</ele>
<speed>15.22</speed>
<name><![CDATA[Point 164]]></name>
</wpt>
<wpt lat="46.595226" lon="7.908992">
<time>2011-10-21T14:19:05Z</time>
<ele>800.06</ele>
<speed>13.98</speed>
<name><![CDATA[Point 165]]></name>
</wpt>
<wpt lat="46.595398" lon="7.908770">
<time>2011-10-21T14:19:10Z</time>
<ele>801.11</ele>
<speed>11.05</speed>
<name><![CDATA[Point 166]]></name>
</wpt>
<wpt lat="46.595631" lon="7.908544">
<time>2011-10-21T14:19:15Z</time>
<ele>798.09</ele>
<speed>14.76</speed>
<name><![CDATA[Point 167]]></name>
</wpt>
<wpt lat="46.595913" lon="7.908293">
<time>2011-10-21T14:19:20Z</time>
<ele>797.00</ele>
<speed>11.06</speed>
<name><![CDATA[Point 168]]></name>
</wpt>
<wpt lat="46.596085" lon="7.908346">
<time>2011-10-21T14:19:25Z</time>
<ele>796.09</ele>
<speed>11.45</speed>
<name><![CDATA[Point 169]]></name>
</wpt>
<wpt lat="46.596249" lon="7.908410">
<time>2011-10-21T14:19:30Z</time>
<ele>795.19</ele>
<speed>12.67</speed>
<name><![CDATA[Point 170]]></name>
</wpt>
<wpt lat="46.596458" lon="7.908404">
<time>2011-10-21T14:19:35Z</time>
<ele>790.83</ele>
<speed>11.72</speed>
<name><![CDATA[Point 171]]></name>
</wpt>
<wpt lat="46.596661" lon="7.908418">
<time>2011-10-21T14:19:40Z</time>
<ele>790.25</ele>
<speed>11.84</speed>
<name><![CDATA[Point 172]]></name>
</wpt>
<wpt lat="46.596905" lon="7.908371">
<time>2011-10-21T14:19:45Z</time>
<ele>786.34</ele>
<speed>14.93</speed>
<name><![CDATA[Point 173]]></name>
</wpt>
<wpt lat="46.597187" lon="7.908210">
<time>2011-10-21T14:19:50Z</time>
<ele>788.22</ele>
<speed>14.98</speed>
<name><![CDATA[Point 174]]></name>
</wpt>
<wpt lat="46.597351" lon="7.908163">
<time>2011-10-21T14:19:55Z</time>
<ele>788.39</ele>
<speed>12.73</speed>
<name><![CDATA[Point 175]]></name>
</wpt>
<wpt lat="46.597481" lon="7.908197">
<time>2011-10-21T14:20:00Z</time>
<ele>787.08</ele>
<speed>8.47</speed>
<name><![CDATA[Point 176]]></name>
</wpt>
<wpt lat="46.597626" lon="7.908130">
<time>2011-10-21T14:20:05Z</time>
<ele>787.56</ele>
<speed>14.51</speed>
<name><![CDATA[Point 177]]></name>
</wpt>
<wpt lat="46.597790" lon="7.908120">
<time>2011-10-21T14:20:10Z</time>
<ele>786.00</ele>
<speed>11.76</speed>
<name><![CDATA[Point 178]]></name>
</wpt>
<wpt lat="46.597919" lon="7.908127">
<time>2011-10-21T14:20:15Z</time>
<ele>784.31</ele>
<speed>10.67</speed>
<name><![CDATA[Point 179]]></name>
</wpt>
<wpt lat="46.598064" lon="7.908165">
<time>2011-10-21T14:20:20Z</time>
<ele>782.84</ele>
<speed>9.33</speed>
<name><![CDATA[Point 180]]></name>
</wpt>
<wpt lat="46.598148" lon="7.908244">
<time>2011-10-21T14:20:25Z</time>
<ele>780.75</ele>
<speed>3.81</speed>
<name><![CDATA[Point 181]]></name>
</wpt>
<wpt lat="46.598232" lon="7.908262">
<time>2011-10-21T14:20:30Z</time>
<ele>780.19</ele>
<speed>2.71</speed>
<name><![CDATA[Point 182]]></name>
</wpt>
<wpt lat="46.598286" lon="7.908240">
<time>2011-10-21T14:20:35Z</time>
<ele>779.20</ele>
<speed>1.80</speed>
<name><![CDATA[Point 183]]></name>
</wpt>
<wpt lat="46.598293" lon="7.908217">
<time>2011-10-21T14:20:40Z</time>
<ele>778.48</ele>
<speed>0.34</speed>
<name><![CDATA[Point 184]]></name>
</wpt>
<wpt lat="46.598301" lon="7.908230">
<time>2011-10-21T14:20:45Z</time>
<ele>778.25</ele>
<speed>0.85</speed>
<name><![CDATA[Point 185]]></name>
</wpt>
<wpt lat="46.598297" lon="7.908228">
<time>2011-10-21T14:20:50Z</time>
<ele>778.19</ele>
<speed>1.08</speed>
<name><![CDATA[Point 186]]></name>
</wpt>
<rte>
<name>Route</name>
<rtept lat="46.606529" lon="7.919131">
<time>2011-10-21T14:02:49Z</time>
<ele>1283.31</ele>
<speed>17.41</speed>
<name><![CDATA[Point 0]]></name>
</rtept>
<rtept lat="46.606655" lon="7.918837">
<time>2011-10-21T14:02:55Z</time>
<ele>1282.28</ele>
<speed>16.21</speed>
<name><![CDATA[Point 1]]></name>
</rtept>
<rtept lat="46.606777" lon="7.918615">
<time>2011-10-21T14:03:00Z</time>
<ele>1281.56</ele>
<speed>15.31</speed>
<name><![CDATA[Point 2]]></name>
</rtept>
<rtept lat="46.606873" lon="7.918358">
<time>2011-10-21T14:03:05Z</time>
<ele>1280.72</ele>
<speed>16.55</speed>
<name><![CDATA[Point 3]]></name>
</rtept>
<rtept lat="46.607002" lon="7.918130">
<time>2011-10-21T14:03:10Z</time>
<ele>1279.03</ele>
<speed>18.00</speed>
<name><![CDATA[Point 4]]></name>
</rtept>
<rtept lat="46.607124" lon="7.917965">
<time>2011-10-21T14:03:15Z</time>
<ele>1277.69</ele>
<speed>16.74</speed>
<name><![CDATA[Point 5]]></name>
</rtept>
<rtept lat="46.607258" lon="7.917804">
<time>2011-10-21T14:03:20Z</time>
<ele>1276.50</ele>
<speed>13.83</speed>
<name><![CDATA[Point 6]]></name>
</rtept>
<rtept lat="46.607334" lon="7.917619">
<time>2011-10-21T14:03:25Z</time>
<ele>1275.56</ele>
<speed>13.84</speed>
<name><![CDATA[Point 7]]></name>
</rtept>
<rtept lat="46.607376" lon="7.917387">
<time>2011-10-21T14:03:30Z</time>
<ele>1274.56</ele>
<speed>14.48</speed>
<name><![CDATA[Point 8]]></name>
</rtept>
<rtept lat="46.607422" lon="7.917146">
<time>2011-10-21T14:03:35Z</time>
<ele>1273.00</ele>
<speed>14.73</speed>
<name><![CDATA[Point 9]]></name>
</rtept>
<rtept lat="46.607418" lon="7.916829">
<time>2011-10-21T14:03:40Z</time>
<ele>1271.19</ele>
<speed>15.06</speed>
<name><![CDATA[Point 10]]></name>
</rtept>
<rtept lat="46.607395" lon="7.916543">
<time>2011-10-21T14:03:45Z</time>
<ele>1269.50</ele>
<speed>14.63</speed>
<name><![CDATA[Point 11]]></name>
</rtept>
<rtept lat="46.607376" lon="7.916257">
<time>2011-10-21T14:03:50Z</time>
<ele>1267.13</ele>
<speed>14.72</speed>
<name><![CDATA[Point 12]]></name>
</rtept>
<rtept lat="46.607307" lon="7.915929">
<time>2011-10-21T14:03:55Z</time>
<ele>1264.72</ele>
<speed>14.39</speed>
<name><![CDATA[Point 13]]></name>
</rtept>
<rtept lat="46.607380" lon="7.915692">
<time>2011-10-21T14:04:00Z</time>
<ele>1260.66</ele>
<speed>15.05</speed>
<name><![CDATA[Point 14]]></name>
</rtept>
<rtept lat="46.607437" lon="7.915502">
<time>2011-10-21T14:04:05Z</time>
<ele>1258.09</ele>
<speed>12.89</speed>
<name><![CDATA[Point 15]]></name>
</rtept>
<rtept lat="46.607590" lon="7.915366">
<time>2011-10-21T14:04:10Z</time>
<ele>1253.31</ele>
<speed>14.12</speed>
<name><![CDATA[Point 16]]></name>
</rtept>
<rtept lat="46.607689" lon="7.915185">
<time>2011-10-21T14:04:15Z</time>
<ele>1250.28</ele>
<speed>13.84</speed>
<name><![CDATA[Point 17]]></name>
</rtept>
<rtept lat="46.607834" lon="7.914947">
<time>2011-10-21T14:04:20Z</time>
<ele>1248.44</ele>
<speed>15.81</speed>
<name><![CDATA[Point 18]]></name>
</rtept>
<rtept lat="46.607956" lon="7.914814">
<time>2011-10-21T14:04:25Z</time>
<ele>1247.63</ele>
<speed>11.03</speed>
<name><![CDATA[Point 19]]></name>
</rtept>
<rtept lat="46.608009" lon="7.914619">
<time>2011-10-21T14:04:30Z</time>
<ele>1245.47</ele>
<speed>11.83</speed>
<name><![CDATA[Point 20]]></name>
</rtept>
<rtept lat="46.608147" lon="7.914452">
<time>2011-10-21T14:04:35Z</time>
<ele>1243.91</ele>
<speed>12.23</speed>
<name><![CDATA[Point 21]]></name>
</rtept>
<rtept lat="46.608299" lon="7.914266">
<time>2011-10-21T14:04:40Z</time>
<ele>1242.41</ele>
<speed>13.49</speed>
<name><![CDATA[Point 22]]></name>
</rtept>
<rtept lat="46.608440" lon="7.914058">
<time>2011-10-21T14:04:45Z</time>
<ele>1240.94</ele>
<speed>14.50</speed>
<name><![CDATA[Point 23]]></name>
</rtept>
<rtept lat="46.608608" lon="7.913944">
<time>2011-10-21T14:04:50Z</time>
<ele>1239.47</ele>
<speed>12.10</speed>
<name><![CDATA[Point 24]]></name>
</rtept>
<rtept lat="46.608719" lon="7.913836">
<time>2011-10-21T14:04:55Z</time>
<ele>1235.13</ele>
<speed>11.95</speed>
<name><![CDATA[Point 25]]></name>
</rtept>
<rtept lat="46.608856" lon="7.913811">
<time>2011-10-21T14:05:00Z</time>
<ele>1230.94</ele>
<speed>10.01</speed>
<name><![CDATA[Point 26]]></name>
</rtept>
<rtept lat="46.608986" lon="7.913682">
<time>2011-10-21T14:05:05Z</time>
<ele>1228.06</ele>
<speed>12.01</speed>
<name><![CDATA[Point 27]]></name>
</rtept>
<rtept lat="46.609158" lon="7.913530">
<time>2011-10-21T14:05:10Z</time>
<ele>1226.03</ele>
<speed>13.62</speed>
<name><![CDATA[Point 28]]></name>
</rtept>
<rtept lat="46.609314" lon="7.913398">
<time>2011-10-21T14:05:15Z</time>
<ele>1225.47</ele>
<speed>12.82</speed>
<name><![CDATA[Point 29]]></name>
</rtept>
<rtept lat="46.609493" lon="7.913342">
<time>2011-10-21T14:05:20Z</time>
<ele>1222.72</ele>
<speed>13.99</speed>
<name><![CDATA[Point 30]]></name>
</rtept>
<rtept lat="46.609730" lon="7.913283">
<time>2011-10-21T14:05:25Z</time>
<ele>1221.38</ele>
<speed>14.67</speed>
<name><![CDATA[Point 31]]></name>
</rtept>
<rtept lat="46.609875" lon="7.913279">
<time>2011-10-21T14:05:30Z</time>
<ele>1222.75</ele>
<speed>9.62</speed>
<name><![CDATA[Point 32]]></name>
</rtept>
<rtept lat="46.610394" lon="7.911509">
<time>2011-10-21T14:06:31Z</time>
<ele>1196.81</ele>
<speed>12.61</speed>
<name><![CDATA[Point 33]]></name>
</rtept>
<rtept lat="46.610283" lon="7.911603">
<time>2011-10-21T14:06:36Z</time>
<ele>1183.03</ele>
<speed>12.42</speed>
<name><![CDATA[Point 34]]></name>
</rtept>
<rtept lat="46.609921" lon="7.911469">
<time>2011-10-21T14:06:41Z</time>
<ele>1122.19</ele>
<speed>14.32</speed>
<name><![CDATA[Point 35]]></name>
</rtept>
<rtept lat="46.609734" lon="7.911580">
<time>2011-10-21T14:06:46Z</time>
<ele>1118.44</ele>
<speed>13.89</speed>
<name><![CDATA[Point 36]]></name>
</rtept>
<rtept lat="46.609562" lon="7.911644">
<time>2011-10-21T14:06:51Z</time>
<ele>1117.84</ele>
<speed>13.17</speed>
<name><![CDATA[Point 37]]></name>
</rtept>
<rtept lat="46.609352" lon="7.911816">
<time>2011-10-21T14:06:56Z</time>
<ele>1113.22</ele>
<speed>14.61</speed>
<name><![CDATA[Point 38]]></name>
</rtept>
<rtept lat="46.609207" lon="7.911854">
<time>2011-10-21T14:07:01Z</time>
<ele>1113.03</ele>
<speed>13.63</speed>
<name><![CDATA[Point 39]]></name>
</rtept>
<rtept lat="46.609024" lon="7.911870">
<time>2011-10-21T14:07:06Z</time>
<ele>1112.69</ele>
<speed>13.55</speed>
<name><![CDATA[Point 40]]></name>
</rtept>
<rtept lat="46.608868" lon="7.911907">
<time>2011-10-21T14:07:11Z</time>
<ele>1114.34</ele>
<speed>14.41</speed>
<name><![CDATA[Point 41]]></name>
</rtept>
<rtept lat="46.608673" lon="7.911927">
<time>2011-10-21T14:07:16Z</time>
<ele>1116.09</ele>
<speed>14.40</speed>
<name><![CDATA[Point 42]]></name>
</rtept>
<rtept lat="46.608513" lon="7.911990">
<time>2011-10-21T14:07:21Z</time>
<ele>1114.38</ele>
<speed>14.51</speed>
<name><![CDATA[Point 43]]></name>
</rtept>
<rtept lat="46.608353" lon="7.912092">
<time>2011-10-21T14:07:26Z</time>
<ele>1113.53</ele>
<speed>14.03</speed>
<name><![CDATA[Point 44]]></name>
</rtept>
<rtept lat="46.608185" lon="7.912188">
<time>2011-10-21T14:07:31Z</time>
<ele>1111.59</ele>
<speed>12.67</speed>
<name><![CDATA[Point 45]]></name>
</rtept>
<rtept lat="46.608025" lon="7.912423">
<time>2011-10-21T14:07:36Z</time>
<ele>1108.53</ele>
<speed>11.01</speed>
<name><![CDATA[Point 46]]></name>
</rtept>
<rtept lat="46.607861" lon="7.912522">
<time>2011-10-21T14:07:41Z</time>
<ele>1107.88</ele>
<speed>13.75</speed>
<name><![CDATA[Point 47]]></name>
</rtept>
<rtept lat="46.607670" lon="7.912624">
<time>2011-10-21T14:07:46Z</time>
<ele>1106.91</ele>
<speed>14.48</speed>
<name><![CDATA[Point 48]]></name>
</rtept>
<rtept lat="46.607544" lon="7.912714">
<time>2011-10-21T14:07:51Z</time>
<ele>1105.00</ele>
<speed>12.24</speed>
<name><![CDATA[Point 49]]></name>
</rtept>
<rtept lat="46.607368" lon="7.912807">
<time>2011-10-21T14:07:56Z</time>
<ele>1102.56</ele>
<speed>13.32</speed>
<name><![CDATA[Point 50]]></name>
</rtept>
<rtept lat="46.607174" lon="7.912839">
<time>2011-10-21T14:08:01Z</time>
<ele>1101.00</ele>
<speed>13.34</speed>
<name><![CDATA[Point 51]]></name>
</rtept>
<rtept lat="46.607040" lon="7.912910">
<time>2011-10-21T14:08:06Z</time>
<ele>1099.75</ele>
<speed>7.55</speed>
<name><![CDATA[Point 52]]></name>
</rtept>
<rtept lat="46.606869" lon="7.913012">
<time>2011-10-21T14:08:11Z</time>
<ele>1098.34</ele>
<speed>12.50</speed>
<name><![CDATA[Point 53]]></name>
</rtept>
<rtept lat="46.606689" lon="7.913077">
<time>2011-10-21T14:08:16Z</time>
<ele>1096.84</ele>
<speed>13.65</speed>
<name><![CDATA[Point 54]]></name>
</rtept>
<rtept lat="46.606392" lon="7.913024">
<time>2011-10-21T14:08:21Z</time>
<ele>1095.41</ele>
<speed>14.08</speed>
<name><![CDATA[Point 55]]></name>
</rtept>
<rtept lat="46.606201" lon="7.913067">
<time>2011-10-21T14:08:26Z</time>
<ele>1096.34</ele>
<speed>13.26</speed>
<name><![CDATA[Point 56]]></name>
</rtept>
<rtept lat="46.606052" lon="7.913070">
<time>2011-10-21T14:08:31Z</time>
<ele>1097.16</ele>
<speed>11.88</speed>
<name><![CDATA[Point 57]]></name>
</rtept>
<rtept lat="46.605694" lon="7.914041">
<time>2011-10-21T14:08:49Z</time>
<ele>1049.09</ele>
<speed>11.64</speed>
<name><![CDATA[Point 58]]></name>
</rtept>
<rtept lat="46.605476" lon="7.914024">
<time>2011-10-21T14:08:54Z</time>
<ele>1092.56</ele>
<speed>11.03</speed>
<name><![CDATA[Point 59]]></name>
</rtept>
<rtept lat="46.605373" lon="7.914137">
<time>2011-10-21T14:08:59Z</time>
<ele>1091.34</ele>
<speed>9.61</speed>
<name><![CDATA[Point 60]]></name>
</rtept>
<rtept lat="46.605320" lon="7.914037">
<time>2011-10-21T14:09:04Z</time>
<ele>1099.66</ele>
<speed>6.07</speed>
<name><![CDATA[Point 61]]></name>
</rtept>
<rtept lat="46.605061" lon="7.914962">
<time>2011-10-21T14:09:15Z</time>
<ele>978.97</ele>
<speed>13.34</speed>
<name><![CDATA[Point 62]]></name>
</rtept>
<rtept lat="46.604771" lon="7.914801">
<time>2011-10-21T14:09:20Z</time>
<ele>995.02</ele>
<speed>7.88</speed>
<name><![CDATA[Point 63]]></name>
</rtept>
<rtept lat="46.604649" lon="7.914789">
<time>2011-10-21T14:09:25Z</time>
<ele>1003.83</ele>
<speed>2.63</speed>
<name><![CDATA[Point 64]]></name>
</rtept>
<rtept lat="46.604675" lon="7.914957">
<time>2011-10-21T14:09:30Z</time>
<ele>1006.23</ele>
<speed>8.48</speed>
<name><![CDATA[Point 65]]></name>
</rtept>
<rtept lat="46.603645" lon="7.914672">
<time>2011-10-21T14:09:50Z</time>
<ele>999.83</ele>
<speed>4.31</speed>
<name><![CDATA[Point 66]]></name>
</rtept>
<rtept lat="46.603542" lon="7.914781">
<time>2011-10-21T14:09:55Z</time>
<ele>962.75</ele>
<speed>2.66</speed>
<name><![CDATA[Point 67]]></name>
</rtept>
<rtept lat="46.603294" lon="7.914708">
<time>2011-10-21T14:10:00Z</time>
<ele>974.59</ele>
<speed>7.91</speed>
<name><![CDATA[Point 68]]></name>
</rtept>
<rtept lat="46.603119" lon="7.914649">
<time>2011-10-21T14:10:05Z</time>
<ele>981.31</ele>
<speed>3.77</speed>
<name><![CDATA[Point 69]]></name>
</rtept>
<rtept lat="46.603065" lon="7.914686">
<time>2011-10-21T14:10:10Z</time>
<ele>970.28</ele>
<speed>5.19</speed>
<name><![CDATA[Point 70]]></name>
</rtept>
<rtept lat="46.603001" lon="7.914617">
<time>2011-10-21T14:10:15Z</time>
<ele>972.34</ele>
<speed>1.24</speed>
<name><![CDATA[Point 71]]></name>
</rtept>
<rtept lat="46.602989" lon="7.914599">
<time>2011-10-21T14:10:20Z</time>
<ele>972.36</ele>
<speed>2.79</speed>
<name><![CDATA[Point 72]]></name>
</rtept>
<rtept lat="46.602997" lon="7.914597">
<time>2011-10-21T14:10:25Z</time>
<ele>972.39</ele>
<speed>1.28</speed>
<name><![CDATA[Point 73]]></name>
</rtept>
<rtept lat="46.602989" lon="7.914556">
<time>2011-10-21T14:10:30Z</time>
<ele>976.28</ele>
<speed>0.98</speed>
<name><![CDATA[Point 74]]></name>
</rtept>
<rtept lat="46.602943" lon="7.914577">
<time>2011-10-21T14:10:35Z</time>
<ele>981.42</ele>
<speed>5.07</speed>
<name><![CDATA[Point 75]]></name>
</rtept>
<rtept lat="46.602940" lon="7.914587">
<time>2011-10-21T14:10:40Z</time>
<ele>983.44</ele>
<speed>0.75</speed>
<name><![CDATA[Point 76]]></name>
</rtept>
<rtept lat="46.602905" lon="7.914619">
<time>2011-10-21T14:10:45Z</time>
<ele>984.22</ele>
<speed>5.99</speed>
<name><![CDATA[Point 77]]></name>
</rtept>
<rtept lat="46.602856" lon="7.914619">
<time>2011-10-21T14:10:50Z</time>
<ele>989.33</ele>
<speed>2.09</speed>
<name><![CDATA[Point 78]]></name>
</rtept>
<rtept lat="46.602871" lon="7.914616">
<time>2011-10-21T14:10:55Z</time>
<ele>988.92</ele>
<speed>4.43</speed>
<name><![CDATA[Point 79]]></name>
</rtept>
<rtept lat="46.602943" lon="7.914658">
<time>2011-10-21T14:11:00Z</time>
<ele>990.97</ele>
<speed>4.18</speed>
<name><![CDATA[Point 80]]></name>
</rtept>
<rtept lat="46.602936" lon="7.914591">
<time>2011-10-21T14:11:05Z</time>
<ele>1003.98</ele>
<speed>3.25</speed>
<name><![CDATA[Point 81]]></name>
</rtept>
<rtept lat="46.602936" lon="7.914517">
<time>2011-10-21T14:11:10Z</time>
<ele>1010.17</ele>
<speed>0.88</speed>
<name><![CDATA[Point 82]]></name>
</rtept>
<rtept lat="46.602921" lon="7.914531">
<time>2011-10-21T14:11:15Z</time>
<ele>1013.95</ele>
<speed>1.65</speed>
<name><![CDATA[Point 83]]></name>
</rtept>
<rtept lat="46.602879" lon="7.914562">
<time>2011-10-21T14:11:20Z</time>
<ele>1019.03</ele>
<speed>1.16</speed>
<name><![CDATA[Point 84]]></name>
</rtept>
<rtept lat="46.602802" lon="7.914444">
<time>2011-10-21T14:11:25Z</time>
<ele>1023.70</ele>
<speed>5.55</speed>
<name><![CDATA[Point 85]]></name>
</rtept>
<rtept lat="46.602768" lon="7.914427">
<time>2011-10-21T14:11:30Z</time>
<ele>1025.44</ele>
<speed>6.07</speed>
<name><![CDATA[Point 86]]></name>
</rtept>
<rtept lat="46.602737" lon="7.914427">
<time>2011-10-21T14:11:35Z</time>
<ele>1023.86</ele>
<speed>1.37</speed>
<name><![CDATA[Point 87]]></name>
</rtept>
<rtept lat="46.602737" lon="7.914495">
<time>2011-10-21T14:11:40Z</time>
<ele>1026.16</ele>
<speed>3.29</speed>
<name><![CDATA[Point 88]]></name>
</rtept>
<rtept lat="46.602718" lon="7.914511">
<time>2011-10-21T14:11:45Z</time>
<ele>1029.41</ele>
<speed>0.56</speed>
<name><![CDATA[Point 89]]></name>
</rtept>
<rtept lat="46.602711" lon="7.914375">
<time>2011-10-21T14:11:50Z</time>
<ele>1028.66</ele>
<speed>2.17</speed>
<name><![CDATA[Point 90]]></name>
</rtept>
<rtept lat="46.602703" lon="7.914341">
<time>2011-10-21T14:11:55Z</time>
<ele>1026.94</ele>
<speed>1.79</speed>
<name><![CDATA[Point 91]]></name>
</rtept>
<rtept lat="46.602684" lon="7.914337">
<time>2011-10-21T14:12:00Z</time>
<ele>1027.53</ele>
<speed>2.07</speed>
<name><![CDATA[Point 92]]></name>
</rtept>
<rtept lat="46.602665" lon="7.914389">
<time>2011-10-21T14:12:05Z</time>
<ele>1031.75</ele>
<speed>2.10</speed>
<name><![CDATA[Point 93]]></name>
</rtept>
<rtept lat="46.602676" lon="7.914395">
<time>2011-10-21T14:12:10Z</time>
<ele>1035.03</ele>
<speed>0.85</speed>
<name><![CDATA[Point 94]]></name>
</rtept>
<rtept lat="46.602703" lon="7.914351">
<time>2011-10-21T14:12:15Z</time>
<ele>1036.53</ele>
<speed>1.58</speed>
<name><![CDATA[Point 95]]></name>
</rtept>
<rtept lat="46.602695" lon="7.914355">
<time>2011-10-21T14:12:20Z</time>
<ele>1037.34</ele>
<speed>2.05</speed>
<name><![CDATA[Point 96]]></name>
</rtept>
<rtept lat="46.602734" lon="7.914386">
<time>2011-10-21T14:12:25Z</time>
<ele>1037.50</ele>
<speed>0.57</speed>
<name><![CDATA[Point 97]]></name>
</rtept>
<rtept lat="46.602791" lon="7.914335">
<time>2011-10-21T14:12:30Z</time>
<ele>1044.38</ele>
<speed>4.35</speed>
<name><![CDATA[Point 98]]></name>
</rtept>
<rtept lat="46.602749" lon="7.914218">
<time>2011-10-21T14:12:35Z</time>
<ele>1057.56</ele>
<speed>3.41</speed>
<name><![CDATA[Point 99]]></name>
</rtept>
<rtept lat="46.602692" lon="7.914106">
<time>2011-10-21T14:12:40Z</time>
<ele>1066.69</ele>
<speed>3.52</speed>
<name><![CDATA[Point 100]]></name>
</rtept>
<rtept lat="46.602692" lon="7.914012">
<time>2011-10-21T14:12:45Z</time>
<ele>1070.78</ele>
<speed>1.47</speed>
<name><![CDATA[Point 101]]></name>
</rtept>
<rtept lat="46.602695" lon="7.913986">
<time>2011-10-21T14:12:50Z</time>
<ele>1071.41</ele>
<speed>2.76</speed>
<name><![CDATA[Point 102]]></name>
</rtept>
<rtept lat="46.602776" lon="7.914088">
<time>2011-10-21T14:12:55Z</time>
<ele>1072.31</ele>
<speed>8.80</speed>
<name><![CDATA[Point 103]]></name>
</rtept>
<rtept lat="46.602825" lon="7.914149">
<time>2011-10-21T14:13:00Z</time>
<ele>1073.50</ele>
<speed>4.24</speed>
<name><![CDATA[Point 104]]></name>
</rtept>
<rtept lat="46.602840" lon="7.914191">
<time>2011-10-21T14:13:05Z</time>
<ele>1073.38</ele>
<speed>0.99</speed>
<name><![CDATA[Point 105]]></name>
</rtept>
<rtept lat="46.602776" lon="7.914111">
<time>2011-10-21T14:13:10Z</time>
<ele>1072.09</ele>
<speed>5.93</speed>
<name><![CDATA[Point 106]]></name>
</rtept>
<rtept lat="46.602612" lon="7.914118">
<time>2011-10-21T14:13:15Z</time>
<ele>1069.53</ele>
<speed>9.16</speed>
<name><![CDATA[Point 107]]></name>
</rtept>
<rtept lat="46.602543" lon="7.914204">
<time>2011-10-21T14:13:20Z</time>
<ele>1068.09</ele>
<speed>7.01</speed>
<name><![CDATA[Point 108]]></name>
</rtept>
<rtept lat="46.602402" lon="7.914413">
<time>2011-10-21T14:13:25Z</time>
<ele>1066.47</ele>
<speed>14.65</speed>
<name><![CDATA[Point 109]]></name>
</rtept>
<rtept lat="46.602207" lon="7.914615">
<time>2011-10-21T14:13:30Z</time>
<ele>1064.16</ele>
<speed>15.12</speed>
<name><![CDATA[Point 110]]></name>
</rtept>
<rtept lat="46.602070" lon="7.914854">
<time>2011-10-21T14:13:35Z</time>
<ele>1060.81</ele>
<speed>16.27</speed>
<name><![CDATA[Point 111]]></name>
</rtept>
<rtept lat="46.601921" lon="7.914950">
<time>2011-10-21T14:13:40Z</time>
<ele>1055.28</ele>
<speed>11.36</speed>
<name><![CDATA[Point 112]]></name>
</rtept>
<rtept lat="46.601845" lon="7.915028">
<time>2011-10-21T14:13:45Z</time>
<ele>1051.53</ele>
<speed>8.09</speed>
<name><![CDATA[Point 113]]></name>
</rtept>
<rtept lat="46.601818" lon="7.915030">
<time>2011-10-21T14:13:50Z</time>
<ele>1048.22</ele>
<speed>4.85</speed>
<name><![CDATA[Point 114]]></name>
</rtept>
<rtept lat="46.601620" lon="7.914858">
<time>2011-10-21T14:13:55Z</time>
<ele>1046.22</ele>
<speed>16.06</speed>
<name><![CDATA[Point 115]]></name>
</rtept>
<rtept lat="46.601471" lon="7.914664">
<time>2011-10-21T14:14:00Z</time>
<ele>1043.41</ele>
<speed>7.38</speed>
<name><![CDATA[Point 116]]></name>
</rtept>
<rtept lat="46.601242" lon="7.914508">
<time>2011-10-21T14:14:05Z</time>
<ele>1041.72</ele>
<speed>13.49</speed>
<name><![CDATA[Point 117]]></name>
</rtept>
<rtept lat="46.601055" lon="7.914499">
<time>2011-10-21T14:14:10Z</time>
<ele>1042.63</ele>
<speed>13.39</speed>
<name><![CDATA[Point 118]]></name>
</rtept>
<rtept lat="46.600925" lon="7.914328">
<time>2011-10-21T14:14:15Z</time>
<ele>1050.19</ele>
<speed>13.18</speed>
<name><![CDATA[Point 119]]></name>
</rtept>
<rtept lat="46.598164" lon="7.915077">
<time>2011-10-21T14:15:20Z</time>
<ele>950.16</ele>
<speed>11.56</speed>
<name><![CDATA[Point 120]]></name>
</rtept>
<rtept lat="46.598259" lon="7.915083">
<time>2011-10-21T14:15:25Z</time>
<ele>902.63</ele>
<speed>9.08</speed>
<name><![CDATA[Point 121]]></name>
</rtept>
<rtept lat="46.598061" lon="7.915003">
<time>2011-10-21T14:15:30Z</time>
<ele>913.11</ele>
<speed>13.02</speed>
<name><![CDATA[Point 122]]></name>
</rtept>
<rtept lat="46.597809" lon="7.915049">
<time>2011-10-21T14:15:35Z</time>
<ele>933.00</ele>
<speed>10.50</speed>
<name><![CDATA[Point 123]]></name>
</rtept>
<rtept lat="46.597595" lon="7.915123">
<time>2011-10-21T14:15:40Z</time>
<ele>946.41</ele>
<speed>9.66</speed>
<name><![CDATA[Point 124]]></name>
</rtept>
<rtept lat="46.597507" lon="7.915238">
<time>2011-10-21T14:15:45Z</time>
<ele>943.91</ele>
<speed>7.24</speed>
<name><![CDATA[Point 125]]></name>
</rtept>
<rtept lat="46.597462" lon="7.915258">
<time>2011-10-21T14:15:50Z</time>
<ele>942.02</ele>
<speed>7.64</speed>
<name><![CDATA[Point 126]]></name>
</rtept>
<rtept lat="46.597248" lon="7.915144">
<time>2011-10-21T14:15:55Z</time>
<ele>944.16</ele>
<speed>13.74</speed>
<name><![CDATA[Point 127]]></name>
</rtept>
<rtept lat="46.596832" lon="7.914850">
<time>2011-10-21T14:16:00Z</time>
<ele>933.09</ele>
<speed>12.95</speed>
<name><![CDATA[Point 128]]></name>
</rtept>
<rtept lat="46.596657" lon="7.914762">
<time>2011-10-21T14:16:05Z</time>
<ele>926.00</ele>
<speed>13.91</speed>
<name><![CDATA[Point 129]]></name>
</rtept>
<rtept lat="46.596523" lon="7.914686">
<time>2011-10-21T14:16:10Z</time>
<ele>910.55</ele>
<speed>14.36</speed>
<name><![CDATA[Point 130]]></name>
</rtept>
<rtept lat="46.596378" lon="7.914582">
<time>2011-10-21T14:16:15Z</time>
<ele>897.84</ele>
<speed>14.39</speed>
<name><![CDATA[Point 131]]></name>
</rtept>
<rtept lat="46.596195" lon="7.914483">
<time>2011-10-21T14:16:20Z</time>
<ele>888.48</ele>
<speed>14.13</speed>
<name><![CDATA[Point 132]]></name>
</rtept>
<rtept lat="46.596050" lon="7.914426">
<time>2011-10-21T14:16:25Z</time>
<ele>878.94</ele>
<speed>13.20</speed>
<name><![CDATA[Point 133]]></name>
</rtept>
<rtept lat="46.595940" lon="7.914380">
<time>2011-10-21T14:16:30Z</time>
<ele>868.38</ele>
<speed>11.16</speed>
<name><![CDATA[Point 134]]></name>
</rtept>
<rtept lat="46.595837" lon="7.914349">
<time>2011-10-21T14:16:35Z</time>
<ele>863.59</ele>
<speed>9.55</speed>
<name><![CDATA[Point 135]]></name>
</rtept>
<rtept lat="46.595703" lon="7.914361">
<time>2011-10-21T14:16:40Z</time>
<ele>861.88</ele>
<speed>11.75</speed>
<name><![CDATA[Point 136]]></name>
</rtept>
<rtept lat="46.595554" lon="7.914331">
<time>2011-10-21T14:16:45Z</time>
<ele>861.50</ele>
<speed>11.39</speed>
<name><![CDATA[Point 137]]></name>
</rtept>
<rtept lat="46.595371" lon="7.914249">
<time>2011-10-21T14:16:50Z</time>
<ele>859.34</ele>
<speed>10.46</speed>
<name><![CDATA[Point 138]]></name>
</rtept>
<rtept lat="46.595207" lon="7.914104">
<time>2011-10-21T14:16:55Z</time>
<ele>858.17</ele>
<speed>14.18</speed>
<name><![CDATA[Point 139]]></name>
</rtept>
<rtept lat="46.594967" lon="7.913990">
<time>2011-10-21T14:17:00Z</time>
<ele>855.69</ele>
<speed>15.77</speed>
<name><![CDATA[Point 140]]></name>
</rtept>
<rtept lat="46.594753" lon="7.913909">
<time>2011-10-21T14:17:05Z</time>
<ele>860.06</ele>
<speed>13.74</speed>
<name><![CDATA[Point 141]]></name>
</rtept>
<rtept lat="46.594559" lon="7.913814">
<time>2011-10-21T14:17:10Z</time>
<ele>861.44</ele>
<speed>14.23</speed>
<name><![CDATA[Point 142]]></name>
</rtept>
<rtept lat="46.594418" lon="7.913548">
<time>2011-10-21T14:17:15Z</time>
<ele>848.80</ele>
<speed>15.30</speed>
<name><![CDATA[Point 143]]></name>
</rtept>
<rtept lat="46.594269" lon="7.913294">
<time>2011-10-21T14:17:20Z</time>
<ele>838.36</ele>
<speed>14.50</speed>
<name><![CDATA[Point 144]]></name>
</rtept>
<rtept lat="46.594204" lon="7.912971">
<time>2011-10-21T14:17:25Z</time>
<ele>836.14</ele>
<speed>15.47</speed>
<name><![CDATA[Point 145]]></name>
</rtept>
<rtept lat="46.594131" lon="7.912712">
<time>2011-10-21T14:17:30Z</time>
<ele>833.84</ele>
<speed>13.95</speed>
<name><![CDATA[Point 146]]></name>
</rtept>
<rtept lat="46.594074" lon="7.912431">
<time>2011-10-21T14:17:35Z</time>
<ele>830.94</ele>
<speed>13.70</speed>
<name><![CDATA[Point 147]]></name>
</rtept>
<rtept lat="46.594067" lon="7.912159">
<time>2011-10-21T14:17:40Z</time>
<ele>827.19</ele>
<speed>12.55</speed>
<name><![CDATA[Point 148]]></name>
</rtept>
<rtept lat="46.593990" lon="7.911896">
<time>2011-10-21T14:17:45Z</time>
<ele>823.98</ele>
<speed>13.88</speed>
<name><![CDATA[Point 149]]></name>
</rtept>
<rtept lat="46.593964" lon="7.911593">
<time>2011-10-21T14:17:50Z</time>
<ele>821.45</ele>
<speed>12.40</speed>
<name><![CDATA[Point 150]]></name>
</rtept>
<rtept lat="46.593956" lon="7.911332">
<time>2011-10-21T14:17:55Z</time>
<ele>819.30</ele>
<speed>13.96</speed>
<name><![CDATA[Point 151]]></name>
</rtept>
<rtept lat="46.593906" lon="7.911072">
<time>2011-10-21T14:18:00Z</time>
<ele>817.94</ele>
<speed>14.06</speed>
<name><![CDATA[Point 152]]></name>
</rtept>
<rtept lat="46.593880" lon="7.910869">
<time>2011-10-21T14:18:05Z</time>
<ele>816.36</ele>
<speed>11.39</speed>
<name><![CDATA[Point 153]]></name>
</rtept>
<rtept lat="46.593910" lon="7.910586">
<time>2011-10-21T14:18:10Z</time>
<ele>813.97</ele>
<speed>12.66</speed>
<name><![CDATA[Point 154]]></name>
</rtept>
<rtept lat="46.594021" lon="7.910364">
<time>2011-10-21T14:18:15Z</time>
<ele>812.27</ele>
<speed>10.95</speed>
<name><![CDATA[Point 155]]></name>
</rtept>
<rtept lat="46.594135" lon="7.910213">
<time>2011-10-21T14:18:20Z</time>
<ele>808.34</ele>
<speed>9.82</speed>
<name><![CDATA[Point 156]]></name>
</rtept>
<rtept lat="46.594200" lon="7.910102">
<time>2011-10-21T14:18:25Z</time>
<ele>806.55</ele>
<speed>6.87</speed>
<name><![CDATA[Point 157]]></name>
</rtept>
<rtept lat="46.594208" lon="7.910082">
<time>2011-10-21T14:18:30Z</time>
<ele>804.02</ele>
<speed>0.98</speed>
<name><![CDATA[Point 158]]></name>
</rtept>
<rtept lat="46.594212" lon="7.910066">
<time>2011-10-21T14:18:35Z</time>
<ele>803.22</ele>
<speed>6.33</speed>
<name><![CDATA[Point 159]]></name>
</rtept>
<rtept lat="46.594315" lon="7.909867">
<time>2011-10-21T14:18:40Z</time>
<ele>802.30</ele>
<speed>8.94</speed>
<name><![CDATA[Point 160]]></name>
</rtept>
<rtept lat="46.594463" lon="7.909695">
<time>2011-10-21T14:18:45Z</time>
<ele>801.11</ele>
<speed>9.02</speed>
<name><![CDATA[Point 161]]></name>
</rtept>
<rtept lat="46.594612" lon="7.909532">
<time>2011-10-21T14:18:50Z</time>
<ele>800.08</ele>
<speed>10.10</speed>
<name><![CDATA[Point 162]]></name>
</rtept>
<rtept lat="46.594791" lon="7.909357">
<time>2011-10-21T14:18:55Z</time>
<ele>799.25</ele>
<speed>9.37</speed>
<name><![CDATA[Point 163]]></name>
</rtept>
<rtept lat="46.595020" lon="7.909180">
<time>2011-10-21T14:19:00Z</time>
<ele>798.78</ele>
<speed>15.22</speed>
<name><![CDATA[Point 164]]></name>
</rtept>
<rtept lat="46.595226" lon="7.908992">
<time>2011-10-21T14:19:05Z</time>
<ele>800.06</ele>
<speed>13.98</speed>
<name><![CDATA[Point 165]]></name>
</rtept>
<rtept lat="46.595398" lon="7.908770">
<time>2011-10-21T14:19:10Z</time>
<ele>801.11</ele>
<speed>11.05</speed>
<name><![CDATA[Point 166]]></name>
</rtept>
<rtept lat="46.595631" lon="7.908544">
<time>2011-10-21T14:19:15Z</time>
<ele>798.09</ele>
<speed>14.76</speed>
<name><![CDATA[Point 167]]></name>
</rtept>
<rtept lat="46.595913" lon="7.908293">
<time>2011-10-21T14:19:20Z</time>
<ele>797.00</ele>
<speed>11.06</speed>
<name><![CDATA[Point 168]]></name>
</rtept>
<rtept lat="46.596085" lon="7.908346">
<time>2011-10-21T14:19:25Z</time>
<ele>796.09</ele>
<speed>11.45</speed>
<name><![CDATA[Point 169]]></name>
</rtept>
<rtept lat="46.596249" lon="7.908410">
<time>2011-10-21T14:19:30Z</time>
<ele>795.19</ele>
<speed>12.67</speed>
<name><![CDATA[Point 170]]></name>
</rtept>
<rtept lat="46.596458" lon="7.908404">
<time>2011-10-21T14:19:35Z</time>
<ele>790.83</ele>
<speed>11.72</speed>
<name><![CDATA[Point 171]]></name>
</rtept>
<rtept lat="46.596661" lon="7.908418">
<time>2011-10-21T14:19:40Z</time>
<ele>790.25</ele>
<speed>11.84</speed>
<name><![CDATA[Point 172]]></name>
</rtept>
<rtept lat="46.596905" lon="7.908371">
<time>2011-10-21T14:19:45Z</time>
<ele>786.34</ele>
<speed>14.93</speed>
<name><![CDATA[Point 173]]></name>
</rtept>
<rtept lat="46.597187" lon="7.908210">
<time>2011-10-21T14:19:50Z</time>
<ele>788.22</ele>
<speed>14.98</speed>
<name><![CDATA[Point 174]]></name>
</rtept>
<rtept lat="46.597351" lon="7.908163">
<time>2011-10-21T14:19:55Z</time>
<ele>788.39</ele>
<speed>12.73</speed>
<name><![CDATA[Point 175]]></name>
</rtept>
<rtept lat="46.597481" lon="7.908197">
<time>2011-10-21T14:20:00Z</time>
<ele>787.08</ele>
<speed>8.47</speed>
<name><![CDATA[Point 176]]></name>
</rtept>
<rtept lat="46.597626" lon="7.908130">
<time>2011-10-21T14:20:05Z</time>
<ele>787.56</ele>
<speed>14.51</speed>
<name><![CDATA[Point 177]]></name>
</rtept>
<rtept lat="46.597790" lon="7.908120">
<time>2011-10-21T14:20:10Z</time>
<ele>786.00</ele>
<speed>11.76</speed>
<name><![CDATA[Point 178]]></name>
</rtept>
<rtept lat="46.597919" lon="7.908127">
<time>2011-10-21T14:20:15Z</time>
<ele>784.31</ele>
<speed>10.67</speed>
<name><![CDATA[Point 179]]></name>
</rtept>
<rtept lat="46.598064" lon="7.908165">
<time>2011-10-21T14:20:20Z</time>
<ele>782.84</ele>
<speed>9.33</speed>
<name><![CDATA[Point 180]]></name>
</rtept>
<rtept lat="46.598148" lon="7.908244">
<time>2011-10-21T14:20:25Z</time>
<ele>780.75</ele>
<speed>3.81</speed>
<name><![CDATA[Point 181]]></name>
</rtept>
<rtept lat="46.598232" lon="7.908262">
<time>2011-10-21T14:20:30Z</time>
<ele>780.19</ele>
<speed>2.71</speed>
<name><![CDATA[Point 182]]></name>
</rtept>
<rtept lat="46.598286" lon="7.908240">
<time>2011-10-21T14:20:35Z</time>
<ele>779.20</ele>
<speed>1.80</speed>
<name><![CDATA[Point 183]]></name>
</rtept>
<rtept lat="46.598293" lon="7.908217">
<time>2011-10-21T14:20:40Z</time>
<ele>778.48</ele>
<speed>0.34</speed>
<name><![CDATA[Point 184]]></name>
</rtept>
<rtept lat="46.598301" lon="7.908230">
<time>2011-10-21T14:20:45Z</time>
<ele>778.25</ele>
<speed>0.85</speed>
<name><![CDATA[Point 185]]></name>
</rtept>
<rtept lat="46.598297" lon="7.908228">
<time>2011-10-21T14:20:50Z</time>
<ele>778.19</ele>
<speed>1.08</speed>
<name><![CDATA[Point 186]]></name>
</rtept>
</rte>
</gpx>
