<?xml version="1.0"?>
<gpx
version="1.0"
creator="Holux Utility"
xmlns:xsi="http://www.w3.org/2001/XMLSchema-instance"
xmlns="http://www.topografix.com/GPX/1/0"
xsi:schemaLocation="http://www.topografix.com/GPX/1/0 http://www.topografix.com/GPX/1/0/gpx.xsd">
<wpt lat="24.721630" lon="120.892334">
<time>2009-07-05T04:26:44Z</time>
<ele>90.01</ele>
<name><![CDATA[Point 0]]></name>
</wpt>
<wpt lat="24.721672" lon="120.891983">
<time>2009-07-05T04:26:50Z</time>
<ele>81.99</ele>
<name><![CDATA[Point 1]]></name>
</wpt>
<wpt lat="24.721697" lon="120.892044">
<time>2009-07-05T04:26:56Z</time>
<ele>93.62</ele>
<name><![CDATA[Point 2]]></name>
</wpt>
<wpt lat="24.721699" lon="120.892052">
<time>2009-07-05T04:27:01Z</time>
<ele>104.05</ele>
<name><![CDATA[Point 3]]></name>
</wpt>
<wpt lat="24.721706" lon="120.892044">
<time>2009-07-05T04:27:06Z</time>
<ele>97.64</ele>
<name><![CDATA[Point 4]]></name>
</wpt>
<wpt lat="24.721714" lon="120.892006">
<time>2009-07-05T04:27:11Z</time>
<ele>89.68</ele>
<name><![CDATA[Point 5]]></name>
</wpt>
<wpt lat="24.721701" lon="120.892014">
<time>2009-07-05T04:27:16Z</time>
<ele>87.95</ele>
<name><![CDATA[Point 6]]></name>
</wpt>
<wpt lat="24.721687" lon="120.892006">
<time>2009-07-05T04:27:21Z</time>
<ele>88.19</ele>
<name><![CDATA[Point 7]]></name>
</wpt>
<wpt lat="24.721685" lon="120.892006">
<time>2009-07-05T04:27:26Z</time>
<ele>88.19</ele>
<name><![CDATA[Point 8]]></name>
</wpt>
<wpt lat="24.721684" lon="120.891998">
<time>2009-07-05T04:27:31Z</time>
<ele>88.14</ele>
<name><![CDATA[Point 9]]></name>
</wpt>
<wpt lat="24.721680" lon="120.891998">
<time>2009-07-05T04:27:36Z</time>
<ele>88.13</ele>
<name><![CDATA[Point 10]]></name>
</wpt>
<wpt lat="24.721678" lon="120.891991">
<time>2009-07-05T04:27:41Z</time>
<ele>88.15</ele>
<name><![CDATA[Point 11]]></name>
</wpt>
<wpt lat="24.721678" lon="120.891991">
<time>2009-07-05T04:27:46Z</time>
<ele>88.24</ele>
<name><![CDATA[Point 12]]></name>
</wpt>
<wpt lat="24.721674" lon="120.891983">
<time>2009-07-05T04:27:51Z</time>
<ele>88.33</ele>
<name><![CDATA[Point 13]]></name>
</wpt>
<wpt lat="24.721676" lon="120.891983">
<time>2009-07-05T04:27:56Z</time>
<ele>88.36</ele>
<name><![CDATA[Point 14]]></name>
</wpt>
<wpt lat="24.721668" lon="120.891960">
<time>2009-07-05T04:28:01Z</time>
<ele>88.84</ele>
<name><![CDATA[Point 15]]></name>
</wpt>
<wpt lat="24.721687" lon="120.891876">
<time>2009-07-05T04:28:06Z</time>
<ele>89.42</ele>
<name><![CDATA[Point 16]]></name>
</wpt>
<wpt lat="24.721703" lon="120.891823">
<time>2009-07-05T04:28:11Z</time>
<ele>90.97</ele>
<name><![CDATA[Point 17]]></name>
</wpt>
<wpt lat="24.721754" lon="120.891830">
<time>2009-07-05T04:28:16Z</time>
<ele>91.92</ele>
<name><![CDATA[Point 18]]></name>
</wpt>
<wpt lat="24.721884" lon="120.891876">
<time>2009-07-05T04:28:21Z</time>
<ele>94.08</ele>
<name><![CDATA[Point 19]]></name>
</wpt>
<wpt lat="24.722075" lon="120.891983">
<time>2009-07-05T04:28:26Z</time>
<ele>96.91</ele>
<name><![CDATA[Point 20]]></name>
</wpt>
<wpt lat="24.722284" lon="120.892097">
<time>2009-07-05T04:28:31Z</time>
<ele>100.06</ele>
<name><![CDATA[Point 21]]></name>
</wpt>
<wpt lat="24.722506" lon="120.892197">
<time>2009-07-05T04:28:36Z</time>
<ele>104.67</ele>
<name><![CDATA[Point 22]]></name>
</wpt>
<wpt lat="24.722708" lon="120.892349">
<time>2009-07-05T04:28:41Z</time>
<ele>106.33</ele>
<name><![CDATA[Point 23]]></name>
</wpt>
<wpt lat="24.722902" lon="120.892677">
<time>2009-07-05T04:28:46Z</time>
<ele>100.97</ele>
<name><![CDATA[Point 24]]></name>
</wpt>
<wpt lat="24.723076" lon="120.892860">
<time>2009-07-05T04:28:51Z</time>
<ele>96.90</ele>
<name><![CDATA[Point 25]]></name>
</wpt>
<wpt lat="24.723080" lon="120.893051">
<time>2009-07-05T04:28:56Z</time>
<ele>93.59</ele>
<name><![CDATA[Point 26]]></name>
</wpt>
<wpt lat="24.723030" lon="120.893166">
<time>2009-07-05T04:29:01Z</time>
<ele>92.76</ele>
<name><![CDATA[Point 27]]></name>
</wpt>
<wpt lat="24.722948" lon="120.893341">
<time>2009-07-05T04:29:06Z</time>
<ele>91.17</ele>
<name><![CDATA[Point 28]]></name>
</wpt>
<wpt lat="24.722858" lon="120.893570">
<time>2009-07-05T04:29:11Z</time>
<ele>93.24</ele>
<name><![CDATA[Point 29]]></name>
</wpt>
<wpt lat="24.722761" lon="120.893806">
<time>2009-07-05T04:29:16Z</time>
<ele>96.17</ele>
<name><![CDATA[Point 30]]></name>
</wpt>
<wpt lat="24.722607" lon="120.894043">
<time>2009-07-05T04:29:21Z</time>
<ele>97.00</ele>
<name><![CDATA[Point 31]]></name>
</wpt>
<wpt lat="24.722492" lon="120.894272">
<time>2009-07-05T04:29:26Z</time>
<ele>98.23</ele>
<name><![CDATA[Point 32]]></name>
</wpt>
<wpt lat="24.722385" lon="120.894432">
<time>2009-07-05T04:29:31Z</time>
<ele>100.43</ele>
<name><![CDATA[Point 33]]></name>
</wpt>
<wpt lat="24.722187" lon="120.894386">
<time>2009-07-05T04:29:36Z</time>
<ele>99.14</ele>
<name><![CDATA[Point 34]]></name>
</wpt>
<wpt lat="24.721907" lon="120.894356">
<time>2009-07-05T04:29:41Z</time>
<ele>96.72</ele>
<name><![CDATA[Point 35]]></name>
</wpt>
<wpt lat="24.721649" lon="120.894295">
<time>2009-07-05T04:29:46Z</time>
<ele>95.71</ele>
<name><![CDATA[Point 36]]></name>
</wpt>
<wpt lat="24.721394" lon="120.894066">
<time>2009-07-05T04:29:51Z</time>
<ele>94.45</ele>
<name><![CDATA[Point 37]]></name>
</wpt>
<wpt lat="24.721041" lon="120.893997">
<time>2009-07-05T04:29:56Z</time>
<ele>91.48</ele>
<name><![CDATA[Point 38]]></name>
</wpt>
<wpt lat="24.720638" lon="120.893936">
<time>2009-07-05T04:30:01Z</time>
<ele>87.51</ele>
<name><![CDATA[Point 39]]></name>
</wpt>
<wpt lat="24.720325" lon="120.893875">
<time>2009-07-05T04:30:06Z</time>
<ele>82.47</ele>
<name><![CDATA[Point 40]]></name>
</wpt>
<wpt lat="24.720055" lon="120.893799">
<time>2009-07-05T04:30:11Z</time>
<ele>78.85</ele>
<name><![CDATA[Point 41]]></name>
</wpt>
<wpt lat="24.719709" lon="120.893669">
<time>2009-07-05T04:30:16Z</time>
<ele>75.21</ele>
<name><![CDATA[Point 42]]></name>
</wpt>
<wpt lat="24.719299" lon="120.893478">
<time>2009-07-05T04:30:21Z</time>
<ele>69.87</ele>
<name><![CDATA[Point 43]]></name>
</wpt>
<wpt lat="24.718891" lon="120.893356">
<time>2009-07-05T04:30:26Z</time>
<ele>66.53</ele>
<name><![CDATA[Point 44]]></name>
</wpt>
<wpt lat="24.718512" lon="120.893181">
<time>2009-07-05T04:30:31Z</time>
<ele>61.56</ele>
<name><![CDATA[Point 45]]></name>
</wpt>
<wpt lat="24.718170" lon="120.892982">
<time>2009-07-05T04:30:36Z</time>
<ele>52.94</ele>
<name><![CDATA[Point 46]]></name>
</wpt>
<wpt lat="24.717838" lon="120.892746">
<time>2009-07-05T04:30:41Z</time>
<ele>46.97</ele>
<name><![CDATA[Point 47]]></name>
</wpt>
<wpt lat="24.717512" lon="120.892487">
<time>2009-07-05T04:30:46Z</time>
<ele>44.17</ele>
<name><![CDATA[Point 48]]></name>
</wpt>
<wpt lat="24.717182" lon="120.892265">
<time>2009-07-05T04:30:51Z</time>
<ele>39.76</ele>
<name><![CDATA[Point 49]]></name>
</wpt>
<wpt lat="24.716848" lon="120.892105">
<time>2009-07-05T04:30:56Z</time>
<ele>36.62</ele>
<name><![CDATA[Point 50]]></name>
</wpt>
<wpt lat="24.716480" lon="120.891953">
<time>2009-07-05T04:31:01Z</time>
<ele>32.64</ele>
<name><![CDATA[Point 51]]></name>
</wpt>
<wpt lat="24.716145" lon="120.891731">
<time>2009-07-05T04:31:06Z</time>
<ele>30.02</ele>
<name><![CDATA[Point 52]]></name>
</wpt>
<wpt lat="24.715790" lon="120.891548">
<time>2009-07-05T04:31:11Z</time>
<ele>30.05</ele>
<name><![CDATA[Point 53]]></name>
</wpt>
<wpt lat="24.715473" lon="120.891350">
<time>2009-07-05T04:31:16Z</time>
<ele>27.27</ele>
<name><![CDATA[Point 54]]></name>
</wpt>
<wpt lat="24.715132" lon="120.891159">
<time>2009-07-05T04:31:21Z</time>
<ele>27.36</ele>
<name><![CDATA[Point 55]]></name>
</wpt>
<wpt lat="24.714790" lon="120.890984">
<time>2009-07-05T04:31:26Z</time>
<ele>25.85</ele>
<name><![CDATA[Point 56]]></name>
</wpt>
<wpt lat="24.714449" lon="120.890785">
<time>2009-07-05T04:31:31Z</time>
<ele>22.93</ele>
<name><![CDATA[Point 57]]></name>
</wpt>
<wpt lat="24.714104" lon="120.890617">
<time>2009-07-05T04:31:36Z</time>
<ele>25.98</ele>
<name><![CDATA[Point 58]]></name>
</wpt>
<wpt lat="24.713776" lon="120.890427">
<time>2009-07-05T04:31:41Z</time>
<ele>29.48</ele>
<name><![CDATA[Point 59]]></name>
</wpt>
<wpt lat="24.713470" lon="120.890213">
<time>2009-07-05T04:31:46Z</time>
<ele>27.77</ele>
<name><![CDATA[Point 60]]></name>
</wpt>
<wpt lat="24.713196" lon="120.889999">
<time>2009-07-05T04:31:51Z</time>
<ele>27.95</ele>
<name><![CDATA[Point 61]]></name>
</wpt>
<wpt lat="24.712944" lon="120.889778">
<time>2009-07-05T04:31:56Z</time>
<ele>27.86</ele>
<name><![CDATA[Point 62]]></name>
</wpt>
<wpt lat="24.712671" lon="120.889565">
<time>2009-07-05T04:32:01Z</time>
<ele>29.35</ele>
<name><![CDATA[Point 63]]></name>
</wpt>
<wpt lat="24.712387" lon="120.889320">
<time>2009-07-05T04:32:06Z</time>
<ele>27.29</ele>
<name><![CDATA[Point 64]]></name>
</wpt>
<wpt lat="24.712103" lon="120.889076">
<time>2009-07-05T04:32:11Z</time>
<ele>24.24</ele>
<name><![CDATA[Point 65]]></name>
</wpt>
<wpt lat="24.711828" lon="120.888817">
<time>2009-07-05T04:32:16Z</time>
<ele>22.65</ele>
<name><![CDATA[Point 66]]></name>
</wpt>
<wpt lat="24.711538" lon="120.888573">
<time>2009-07-05T04:32:21Z</time>
<ele>20.28</ele>
<name><![CDATA[Point 67]]></name>
</wpt>
<wpt lat="24.711248" lon="120.888313">
<time>2009-07-05T04:32:26Z</time>
<ele>19.80</ele>
<name><![CDATA[Point 68]]></name>
</wpt>
<wpt lat="24.710972" lon="120.888077">
<time>2009-07-05T04:32:31Z</time>
<ele>18.48</ele>
<name><![CDATA[Point 69]]></name>
</wpt>
<wpt lat="24.710707" lon="120.887848">
<time>2009-07-05T04:32:36Z</time>
<ele>20.98</ele>
<name><![CDATA[Point 70]]></name>
</wpt>
<wpt lat="24.710421" lon="120.887627">
<time>2009-07-05T04:32:41Z</time>
<ele>22.00</ele>
<name><![CDATA[Point 71]]></name>
</wpt>
<wpt lat="24.710123" lon="120.887428">
<time>2009-07-05T04:32:46Z</time>
<ele>20.12</ele>
<name><![CDATA[Point 72]]></name>
</wpt>
<wpt lat="24.709831" lon="120.887184">
<time>2009-07-05T04:32:51Z</time>
<ele>19.22</ele>
<name><![CDATA[Point 73]]></name>
</wpt>
<wpt lat="24.709566" lon="120.886986">
<time>2009-07-05T04:32:56Z</time>
<ele>15.32</ele>
<name><![CDATA[Point 74]]></name>
</wpt>
<wpt lat="24.709352" lon="120.886749">
<time>2009-07-05T04:33:01Z</time>
<ele>12.95</ele>
<name><![CDATA[Point 75]]></name>
</wpt>
<wpt lat="24.709192" lon="120.886543">
<time>2009-07-05T04:33:06Z</time>
<ele>13.24</ele>
<name><![CDATA[Point 76]]></name>
</wpt>
<wpt lat="24.709126" lon="120.886444">
<time>2009-07-05T04:33:11Z</time>
<ele>18.57</ele>
<name><![CDATA[Point 77]]></name>
</wpt>
<wpt lat="24.709059" lon="120.886322">
<time>2009-07-05T04:33:16Z</time>
<ele>21.71</ele>
<name><![CDATA[Point 78]]></name>
</wpt>
<wpt lat="24.709003" lon="120.886276">
<time>2009-07-05T04:33:21Z</time>
<ele>28.37</ele>
<name><![CDATA[Point 79]]></name>
</wpt>
<wpt lat="24.709002" lon="120.886276">
<time>2009-07-05T04:33:26Z</time>
<ele>29.62</ele>
<name><![CDATA[Point 80]]></name>
</wpt>
<wpt lat="24.709000" lon="120.886276">
<time>2009-07-05T04:33:31Z</time>
<ele>30.13</ele>
<name><![CDATA[Point 81]]></name>
</wpt>
<wpt lat="24.709000" lon="120.886269">
<time>2009-07-05T04:33:36Z</time>
<ele>30.42</ele>
<name><![CDATA[Point 82]]></name>
</wpt>
<wpt lat="24.709028" lon="120.886215">
<time>2009-07-05T04:33:41Z</time>
<ele>30.49</ele>
<name><![CDATA[Point 83]]></name>
</wpt>
<wpt lat="24.708952" lon="120.886116">
<time>2009-07-05T04:33:46Z</time>
<ele>32.28</ele>
<name><![CDATA[Point 84]]></name>
</wpt>
<wpt lat="24.709005" lon="120.886032">
<time>2009-07-05T04:33:51Z</time>
<ele>33.59</ele>
<name><![CDATA[Point 85]]></name>
</wpt>
<wpt lat="24.709152" lon="120.885864">
<time>2009-07-05T04:33:56Z</time>
<ele>32.60</ele>
<name><![CDATA[Point 86]]></name>
</wpt>
<wpt lat="24.709372" lon="120.885651">
<time>2009-07-05T04:34:01Z</time>
<ele>31.90</ele>
<name><![CDATA[Point 87]]></name>
</wpt>
<wpt lat="24.709593" lon="120.885422">
<time>2009-07-05T04:34:06Z</time>
<ele>31.64</ele>
<name><![CDATA[Point 88]]></name>
</wpt>
<wpt lat="24.709837" lon="120.885178">
<time>2009-07-05T04:34:11Z</time>
<ele>30.37</ele>
<name><![CDATA[Point 89]]></name>
</wpt>
<wpt lat="24.710091" lon="120.884895">
<time>2009-07-05T04:34:16Z</time>
<ele>28.00</ele>
<name><![CDATA[Point 90]]></name>
</wpt>
<wpt lat="24.710327" lon="120.884598">
<time>2009-07-05T04:34:21Z</time>
<ele>32.06</ele>
<name><![CDATA[Point 91]]></name>
</wpt>
<wpt lat="24.710602" lon="120.884300">
<time>2009-07-05T04:34:26Z</time>
<ele>29.89</ele>
<name><![CDATA[Point 92]]></name>
</wpt>
<wpt lat="24.710880" lon="120.884033">
<time>2009-07-05T04:34:31Z</time>
<ele>25.92</ele>
<name><![CDATA[Point 93]]></name>
</wpt>
<wpt lat="24.711132" lon="120.883781">
<time>2009-07-05T04:34:36Z</time>
<ele>25.21</ele>
<name><![CDATA[Point 94]]></name>
</wpt>
<wpt lat="24.711367" lon="120.883537">
<time>2009-07-05T04:34:41Z</time>
<ele>25.38</ele>
<name><![CDATA[Point 95]]></name>
</wpt>
<wpt lat="24.711567" lon="120.883316">
<time>2009-07-05T04:34:46Z</time>
<ele>26.24</ele>
<name><![CDATA[Point 96]]></name>
</wpt>
<wpt lat="24.711733" lon="120.883072">
<time>2009-07-05T04:34:51Z</time>
<ele>28.00</ele>
<name><![CDATA[Point 97]]></name>
</wpt>
<wpt lat="24.711870" lon="120.882805">
<time>2009-07-05T04:34:56Z</time>
<ele>34.37</ele>
<name><![CDATA[Point 98]]></name>
</wpt>
<wpt lat="24.711971" lon="120.882561">
<time>2009-07-05T04:35:01Z</time>
<ele>37.20</ele>
<name><![CDATA[Point 99]]></name>
</wpt>
<wpt lat="24.712051" lon="120.882332">
<time>2009-07-05T04:35:06Z</time>
<ele>38.11</ele>
<name><![CDATA[Point 100]]></name>
</wpt>
<wpt lat="24.712124" lon="120.882088">
<time>2009-07-05T04:35:11Z</time>
<ele>39.92</ele>
<name><![CDATA[Point 101]]></name>
</wpt>
<wpt lat="24.712242" lon="120.881836">
<time>2009-07-05T04:35:16Z</time>
<ele>38.22</ele>
<name><![CDATA[Point 102]]></name>
</wpt>
<wpt lat="24.712341" lon="120.881577">
<time>2009-07-05T04:35:21Z</time>
<ele>36.03</ele>
<name><![CDATA[Point 103]]></name>
</wpt>
<wpt lat="24.712448" lon="120.881302">
<time>2009-07-05T04:35:26Z</time>
<ele>36.96</ele>
<name><![CDATA[Point 104]]></name>
</wpt>
<wpt lat="24.712622" lon="120.881004">
<time>2009-07-05T04:35:31Z</time>
<ele>35.89</ele>
<name><![CDATA[Point 105]]></name>
</wpt>
<wpt lat="24.712814" lon="120.880722">
<time>2009-07-05T04:35:36Z</time>
<ele>37.52</ele>
<name><![CDATA[Point 106]]></name>
</wpt>
<wpt lat="24.713028" lon="120.880440">
<time>2009-07-05T04:35:41Z</time>
<ele>40.94</ele>
<name><![CDATA[Point 107]]></name>
</wpt>
<wpt lat="24.713217" lon="120.880142">
<time>2009-07-05T04:35:46Z</time>
<ele>36.39</ele>
<name><![CDATA[Point 108]]></name>
</wpt>
<wpt lat="24.713409" lon="120.879845">
<time>2009-07-05T04:35:51Z</time>
<ele>33.62</ele>
<name><![CDATA[Point 109]]></name>
</wpt>
<wpt lat="24.713602" lon="120.879585">
<time>2009-07-05T04:35:56Z</time>
<ele>31.97</ele>
<name><![CDATA[Point 110]]></name>
</wpt>
<wpt lat="24.713800" lon="120.879303">
<time>2009-07-05T04:36:01Z</time>
<ele>31.85</ele>
<name><![CDATA[Point 111]]></name>
</wpt>
<wpt lat="24.713972" lon="120.879044">
<time>2009-07-05T04:36:06Z</time>
<ele>34.59</ele>
<name><![CDATA[Point 112]]></name>
</wpt>
<wpt lat="24.714127" lon="120.878799">
<time>2009-07-05T04:36:11Z</time>
<ele>36.17</ele>
<name><![CDATA[Point 113]]></name>
</wpt>
<wpt lat="24.714298" lon="120.878563">
<time>2009-07-05T04:36:16Z</time>
<ele>36.83</ele>
<name><![CDATA[Point 114]]></name>
</wpt>
<wpt lat="24.714447" lon="120.878319">
<time>2009-07-05T04:36:21Z</time>
<ele>37.48</ele>
<name><![CDATA[Point 115]]></name>
</wpt>
<wpt lat="24.714609" lon="120.878075">
<time>2009-07-05T04:36:26Z</time>
<ele>37.51</ele>
<name><![CDATA[Point 116]]></name>
</wpt>
<wpt lat="24.714767" lon="120.877853">
<time>2009-07-05T04:36:31Z</time>
<ele>40.08</ele>
<name><![CDATA[Point 117]]></name>
</wpt>
<wpt lat="24.714882" lon="120.877670">
<time>2009-07-05T04:36:36Z</time>
<ele>40.93</ele>
<name><![CDATA[Point 118]]></name>
</wpt>
<wpt lat="24.714947" lon="120.877502">
<time>2009-07-05T04:36:41Z</time>
<ele>43.71</ele>
<name><![CDATA[Point 119]]></name>
</wpt>
<wpt lat="24.714855" lon="120.877304">
<time>2009-07-05T04:36:46Z</time>
<ele>42.64</ele>
<name><![CDATA[Point 120]]></name>
</wpt>
<wpt lat="24.714607" lon="120.877113">
<time>2009-07-05T04:36:51Z</time>
<ele>42.52</ele>
<name><![CDATA[Point 121]]></name>
</wpt>
<wpt lat="24.714319" lon="120.876869">
<time>2009-07-05T04:36:56Z</time>
<ele>40.11</ele>
<name><![CDATA[Point 122]]></name>
</wpt>
<wpt lat="24.714062" lon="120.876617">
<time>2009-07-05T04:37:01Z</time>
<ele>36.19</ele>
<name><![CDATA[Point 123]]></name>
</wpt>
<wpt lat="24.713770" lon="120.876366">
<time>2009-07-05T04:37:06Z</time>
<ele>34.99</ele>
<name><![CDATA[Point 124]]></name>
</wpt>
<wpt lat="24.713484" lon="120.876099">
<time>2009-07-05T04:37:11Z</time>
<ele>31.80</ele>
<name><![CDATA[Point 125]]></name>
</wpt>
<wpt lat="24.713249" lon="120.875893">
<time>2009-07-05T04:37:16Z</time>
<ele>36.44</ele>
<name><![CDATA[Point 126]]></name>
</wpt>
<wpt lat="24.712988" lon="120.876183">
<time>2009-07-05T04:37:21Z</time>
<ele>42.97</ele>
<name><![CDATA[Point 127]]></name>
</wpt>
<wpt lat="24.712732" lon="120.876549">
<time>2009-07-05T04:37:26Z</time>
<ele>43.68</ele>
<name><![CDATA[Point 128]]></name>
</wpt>
<wpt lat="24.712482" lon="120.876892">
<time>2009-07-05T04:37:31Z</time>
<ele>43.40</ele>
<name><![CDATA[Point 129]]></name>
</wpt>
<wpt lat="24.712217" lon="120.877235">
<time>2009-07-05T04:37:36Z</time>
<ele>41.63</ele>
<name><![CDATA[Point 130]]></name>
</wpt>
<wpt lat="24.711979" lon="120.877586">
<time>2009-07-05T04:37:41Z</time>
<ele>40.13</ele>
<name><![CDATA[Point 131]]></name>
</wpt>
<wpt lat="24.711739" lon="120.877937">
<time>2009-07-05T04:37:46Z</time>
<ele>38.47</ele>
<name><![CDATA[Point 132]]></name>
</wpt>
<wpt lat="24.711502" lon="120.878250">
<time>2009-07-05T04:37:51Z</time>
<ele>39.65</ele>
<name><![CDATA[Point 133]]></name>
</wpt>
<wpt lat="24.711246" lon="120.878349">
<time>2009-07-05T04:37:56Z</time>
<ele>37.20</ele>
<name><![CDATA[Point 134]]></name>
</wpt>
<wpt lat="24.711004" lon="120.878151">
<time>2009-07-05T04:38:01Z</time>
<ele>29.72</ele>
<name><![CDATA[Point 135]]></name>
</wpt>
<wpt lat="24.711050" lon="120.877945">
<time>2009-07-05T04:38:06Z</time>
<ele>31.27</ele>
<name><![CDATA[Point 136]]></name>
</wpt>
<wpt lat="24.711185" lon="120.877724">
<time>2009-07-05T04:38:11Z</time>
<ele>32.17</ele>
<name><![CDATA[Point 137]]></name>
</wpt>
<wpt lat="24.711344" lon="120.877487">
<time>2009-07-05T04:38:16Z</time>
<ele>29.35</ele>
<name><![CDATA[Point 138]]></name>
</wpt>
<wpt lat="24.711439" lon="120.877281">
<time>2009-07-05T04:38:21Z</time>
<ele>28.24</ele>
<name><![CDATA[Point 139]]></name>
</wpt>
<wpt lat="24.711426" lon="120.877235">
<time>2009-07-05T04:38:26Z</time>
<ele>31.14</ele>
<name><![CDATA[Point 140]]></name>
</wpt>
<wpt lat="24.711294" lon="120.877151">
<time>2009-07-05T04:38:31Z</time>
<ele>30.01</ele>
<name><![CDATA[Point 141]]></name>
</wpt>
<wpt lat="24.711206" lon="120.876953">
<time>2009-07-05T04:38:36Z</time>
<ele>29.94</ele>
<name><![CDATA[Point 142]]></name>
</wpt>
<wpt lat="24.711363" lon="120.876740">
<time>2009-07-05T04:38:41Z</time>
<ele>29.38</ele>
<name><![CDATA[Point 143]]></name>
</wpt>
<wpt lat="24.711441" lon="120.876640">
<time>2009-07-05T04:38:46Z</time>
<ele>29.84</ele>
<name><![CDATA[Point 144]]></name>
</wpt>
<wpt lat="24.711473" lon="120.876610">
<time>2009-07-05T04:38:51Z</time>
<ele>29.37</ele>
<name><![CDATA[Point 145]]></name>
</wpt>
<wpt lat="24.711582" lon="120.876465">
<time>2009-07-05T04:38:56Z</time>
<ele>29.55</ele>
<name><![CDATA[Point 146]]></name>
</wpt>
<wpt lat="24.711681" lon="120.876320">
<time>2009-07-05T04:39:01Z</time>
<ele>27.27</ele>
<name><![CDATA[Point 147]]></name>
</wpt>
<wpt lat="24.711748" lon="120.876221">
<time>2009-07-05T04:39:06Z</time>
<ele>25.83</ele>
<name><![CDATA[Point 148]]></name>
</wpt>
<wpt lat="24.711773" lon="120.876183">
<time>2009-07-05T04:39:11Z</time>
<ele>26.15</ele>
<name><![CDATA[Point 149]]></name>
</wpt>
<wpt lat="24.711777" lon="120.876167">
<time>2009-07-05T04:39:16Z</time>
<ele>26.25</ele>
<name><![CDATA[Point 150]]></name>
</wpt>
<wpt lat="24.711798" lon="120.876152">
<time>2009-07-05T04:39:21Z</time>
<ele>26.24</ele>
<name><![CDATA[Point 151]]></name>
</wpt>
<wpt lat="24.711802" lon="120.876144">
<time>2009-07-05T04:39:26Z</time>
<ele>26.31</ele>
<name><![CDATA[Point 152]]></name>
</wpt>
<wpt lat="24.711802" lon="120.876144">
<time>2009-07-05T04:39:31Z</time>
<ele>26.39</ele>
<name><![CDATA[Point 153]]></name>
</wpt>
<wpt lat="24.711802" lon="120.876144">
<time>2009-07-05T04:39:36Z</time>
<ele>26.41</ele>
<name><![CDATA[Point 154]]></name>
</wpt>
<wpt lat="24.711800" lon="120.876152">
<time>2009-07-05T04:39:41Z</time>
<ele>26.45</ele>
<name><![CDATA[Point 155]]></name>
</wpt>
<wpt lat="24.711798" lon="120.876152">
<time>2009-07-05T04:39:46Z</time>
<ele>26.46</ele>
<name><![CDATA[Point 156]]></name>
</wpt>
<wpt lat="24.711798" lon="120.876152">
<time>2009-07-05T04:39:51Z</time>
<ele>26.49</ele>
<name><![CDATA[Point 157]]></name>
</wpt>
<wpt lat="24.711798" lon="120.876152">
<time>2009-07-05T04:39:56Z</time>
<ele>26.55</ele>
<name><![CDATA[Point 158]]></name>
</wpt>
<wpt lat="24.711796" lon="120.876152">
<time>2009-07-05T04:40:01Z</time>
<ele>26.58</ele>
<name><![CDATA[Point 159]]></name>
</wpt>
<wpt lat="24.711796" lon="120.876144">
<time>2009-07-05T04:40:06Z</time>
<ele>26.60</ele>
<name><![CDATA[Point 160]]></name>
</wpt>
<wpt lat="24.711796" lon="120.876144">
<time>2009-07-05T04:40:11Z</time>
<ele>26.63</ele>
<name><![CDATA[Point 161]]></name>
</wpt>
<wpt lat="24.711784" lon="120.876160">
<time>2009-07-05T04:40:16Z</time>
<ele>26.44</ele>
<name><![CDATA[Point 162]]></name>
</wpt>
<wpt lat="24.711802" lon="120.876175">
<time>2009-07-05T04:40:21Z</time>
<ele>27.15</ele>
<name><![CDATA[Point 163]]></name>
</wpt>
<wpt lat="24.711811" lon="120.876183">
<time>2009-07-05T04:40:26Z</time>
<ele>27.50</ele>
<name><![CDATA[Point 164]]></name>
</wpt>
<wpt lat="24.711807" lon="120.876190">
<time>2009-07-05T04:40:31Z</time>
<ele>27.65</ele>
<name><![CDATA[Point 165]]></name>
</wpt>
<wpt lat="24.711807" lon="120.876183">
<time>2009-07-05T04:40:36Z</time>
<ele>28.78</ele>
<name><![CDATA[Point 166]]></name>
</wpt>
<wpt lat="24.711807" lon="120.876183">
<time>2009-07-05T04:40:41Z</time>
<ele>28.82</ele>
<name><![CDATA[Point 167]]></name>
</wpt>
<wpt lat="24.711807" lon="120.876183">
<time>2009-07-05T04:40:46Z</time>
<ele>28.84</ele>
<name><![CDATA[Point 168]]></name>
</wpt>
<wpt lat="24.711805" lon="120.876190">
<time>2009-07-05T04:40:51Z</time>
<ele>28.84</ele>
<name><![CDATA[Point 169]]></name>
</wpt>
<rte>
<name>Route</name>
<rtept lat="24.721630" lon="120.892334">
<time>2009-07-05T04:26:44Z</time>
<ele>90.01</ele>
<name><![CDATA[Point 0]]></name>
</rtept>
<rtept lat="24.721672" lon="120.891983">
<time>2009-07-05T04:26:50Z</time>
<ele>81.99</ele>
<name><![CDATA[Point 1]]></name>
</rtept>
<rtept lat="24.721697" lon="120.892044">
<time>2009-07-05T04:26:56Z</time>
<ele>93.62</ele>
<name><![CDATA[Point 2]]></name>
</rtept>
<rtept lat="24.721699" lon="120.892052">
<time>2009-07-05T04:27:01Z</time>
<ele>104.05</ele>
<name><![CDATA[Point 3]]></name>
</rtept>
<rtept lat="24.721706" lon="120.892044">
<time>2009-07-05T04:27:06Z</time>
<ele>97.64</ele>
<name><![CDATA[Point 4]]></name>
</rtept>
<rtept lat="24.721714" lon="120.892006">
<time>2009-07-05T04:27:11Z</time>
<ele>89.68</ele>
<name><![CDATA[Point 5]]></name>
</rtept>
<rtept lat="24.721701" lon="120.892014">
<time>2009-07-05T04:27:16Z</time>
<ele>87.95</ele>
<name><![CDATA[Point 6]]></name>
</rtept>
<rtept lat="24.721687" lon="120.892006">
<time>2009-07-05T04:27:21Z</time>
<ele>88.19</ele>
<name><![CDATA[Point 7]]></name>
</rtept>
<rtept lat="24.721685" lon="120.892006">
<time>2009-07-05T04:27:26Z</time>
<ele>88.19</ele>
<name><![CDATA[Point 8]]></name>
</rtept>
<rtept lat="24.721684" lon="120.891998">
<time>2009-07-05T04:27:31Z</time>
<ele>88.14</ele>
<name><![CDATA[Point 9]]></name>
</rtept>
<rtept lat="24.721680" lon="120.891998">
<time>2009-07-05T04:27:36Z</time>
<ele>88.13</ele>
<name><![CDATA[Point 10]]></name>
</rtept>
<rtept lat="24.721678" lon="120.891991">
<time>2009-07-05T04:27:41Z</time>
<ele>88.15</ele>
<name><![CDATA[Point 11]]></name>
</rtept>
<rtept lat="24.721678" lon="120.891991">
<time>2009-07-05T04:27:46Z</time>
<ele>88.24</ele>
<name><![CDATA[Point 12]]></name>
</rtept>
<rtept lat="24.721674" lon="120.891983">
<time>2009-07-05T04:27:51Z</time>
<ele>88.33</ele>
<name><![CDATA[Point 13]]></name>
</rtept>
<rtept lat="24.721676" lon="120.891983">
<time>2009-07-05T04:27:56Z</time>
<ele>88.36</ele>
<name><![CDATA[Point 14]]></name>
</rtept>
<rtept lat="24.721668" lon="120.891960">
<time>2009-07-05T04:28:01Z</time>
<ele>88.84</ele>
<name><![CDATA[Point 15]]></name>
</rtept>
<rtept lat="24.721687" lon="120.891876">
<time>2009-07-05T04:28:06Z</time>
<ele>89.42</ele>
<name><![CDATA[Point 16]]></name>
</rtept>
<rtept lat="24.721703" lon="120.891823">
<time>2009-07-05T04:28:11Z</time>
<ele>90.97</ele>
<name><![CDATA[Point 17]]></name>
</rtept>
<rtept lat="24.721754" lon="120.891830">
<time>2009-07-05T04:28:16Z</time>
<ele>91.92</ele>
<name><![CDATA[Point 18]]></name>
</rtept>
<rtept lat="24.721884" lon="120.891876">
<time>2009-07-05T04:28:21Z</time>
<ele>94.08</ele>
<name><![CDATA[Point 19]]></name>
</rtept>
<rtept lat="24.722075" lon="120.891983">
<time>2009-07-05T04:28:26Z</time>
<ele>96.91</ele>
<name><![CDATA[Point 20]]></name>
</rtept>
<rtept lat="24.722284" lon="120.892097">
<time>2009-07-05T04:28:31Z</time>
<ele>100.06</ele>
<name><![CDATA[Point 21]]></name>
</rtept>
<rtept lat="24.722506" lon="120.892197">
<time>2009-07-05T04:28:36Z</time>
<ele>104.67</ele>
<name><![CDATA[Point 22]]></name>
</rtept>
<rtept lat="24.722708" lon="120.892349">
<time>2009-07-05T04:28:41Z</time>
<ele>106.33</ele>
<name><![CDATA[Point 23]]></name>
</rtept>
<rtept lat="24.722902" lon="120.892677">
<time>2009-07-05T04:28:46Z</time>
<ele>100.97</ele>
<name><![CDATA[Point 24]]></name>
</rtept>
<rtept lat="24.723076" lon="120.892860">
<time>2009-07-05T04:28:51Z</time>
<ele>96.90</ele>
<name><![CDATA[Point 25]]></name>
</rtept>
<rtept lat="24.723080" lon="120.893051">
<time>2009-07-05T04:28:56Z</time>
<ele>93.59</ele>
<name><![CDATA[Point 26]]></name>
</rtept>
<rtept lat="24.723030" lon="120.893166">
<time>2009-07-05T04:29:01Z</time>
<ele>92.76</ele>
<name><![CDATA[Point 27]]></name>
</rtept>
<rtept lat="24.722948" lon="120.893341">
<time>2009-07-05T04:29:06Z</time>
<ele>91.17</ele>
<name><![CDATA[Point 28]]></name>
</rtept>
<rtept lat="24.722858" lon="120.893570">
<time>2009-07-05T04:29:11Z</time>
<ele>93.24</ele>
<name><![CDATA[Point 29]]></name>
</rtept>
<rtept lat="24.722761" lon="120.893806">
<time>2009-07-05T04:29:16Z</time>
<ele>96.17</ele>
<name><![CDATA[Point 30]]></name>
</rtept>
<rtept lat="24.722607" lon="120.894043">
<time>2009-07-05T04:29:21Z</time>
<ele>97.00</ele>
<name><![CDATA[Point 31]]></name>
</rtept>
<rtept lat="24.722492" lon="120.894272">
<time>2009-07-05T04:29:26Z</time>
<ele>98.23</ele>
<name><![CDATA[Point 32]]></name>
</rtept>
<rtept lat="24.722385" lon="120.894432">
<time>2009-07-05T04:29:31Z</time>
<ele>100.43</ele>
<name><![CDATA[Point 33]]></name>
</rtept>
<rtept lat="24.722187" lon="120.894386">
<time>2009-07-05T04:29:36Z</time>
<ele>99.14</ele>
<name><![CDATA[Point 34]]></name>
</rtept>
<rtept lat="24.721907" lon="120.894356">
<time>2009-07-05T04:29:41Z</time>
<ele>96.72</ele>
<name><![CDATA[Point 35]]></name>
</rtept>
<rtept lat="24.721649" lon="120.894295">
<time>2009-07-05T04:29:46Z</time>
<ele>95.71</ele>
<name><![CDATA[Point 36]]></name>
</rtept>
<rtept lat="24.721394" lon="120.894066">
<time>2009-07-05T04:29:51Z</time>
<ele>94.45</ele>
<name><![CDATA[Point 37]]></name>
</rtept>
<rtept lat="24.721041" lon="120.893997">
<time>2009-07-05T04:29:56Z</time>
<ele>91.48</ele>
<name><![CDATA[Point 38]]></name>
</rtept>
<rtept lat="24.720638" lon="120.893936">
<time>2009-07-05T04:30:01Z</time>
<ele>87.51</ele>
<name><![CDATA[Point 39]]></name>
</rtept>
<rtept lat="24.720325" lon="120.893875">
<time>2009-07-05T04:30:06Z</time>
<ele>82.47</ele>
<name><![CDATA[Point 40]]></name>
</rtept>
<rtept lat="24.720055" lon="120.893799">
<time>2009-07-05T04:30:11Z</time>
<ele>78.85</ele>
<name><![CDATA[Point 41]]></name>
</rtept>
<rtept lat="24.719709" lon="120.893669">
<time>2009-07-05T04:30:16Z</time>
<ele>75.21</ele>
<name><![CDATA[Point 42]]></name>
</rtept>
<rtept lat="24.719299" lon="120.893478">
<time>2009-07-05T04:30:21Z</time>
<ele>69.87</ele>
<name><![CDATA[Point 43]]></name>
</rtept>
<rtept lat="24.718891" lon="120.893356">
<time>2009-07-05T04:30:26Z</time>
<ele>66.53</ele>
<name><![CDATA[Point 44]]></name>
</rtept>
<rtept lat="24.718512" lon="120.893181">
<time>2009-07-05T04:30:31Z</time>
<ele>61.56</ele>
<name><![CDATA[Point 45]]></name>
</rtept>
<rtept lat="24.718170" lon="120.892982">
<time>2009-07-05T04:30:36Z</time>
<ele>52.94</ele>
<name><![CDATA[Point 46]]></name>
</rtept>
<rtept lat="24.717838" lon="120.892746">
<time>2009-07-05T04:30:41Z</time>
<ele>46.97</ele>
<name><![CDATA[Point 47]]></name>
</rtept>
<rtept lat="24.717512" lon="120.892487">
<time>2009-07-05T04:30:46Z</time>
<ele>44.17</ele>
<name><![CDATA[Point 48]]></name>
</rtept>
<rtept lat="24.717182" lon="120.892265">
<time>2009-07-05T04:30:51Z</time>
<ele>39.76</ele>
<name><![CDATA[Point 49]]></name>
</rtept>
<rtept lat="24.716848" lon="120.892105">
<time>2009-07-05T04:30:56Z</time>
<ele>36.62</ele>
<name><![CDATA[Point 50]]></name>
</rtept>
<rtept lat="24.716480" lon="120.891953">
<time>2009-07-05T04:31:01Z</time>
<ele>32.64</ele>
<name><![CDATA[Point 51]]></name>
</rtept>
<rtept lat="24.716145" lon="120.891731">
<time>2009-07-05T04:31:06Z</time>
<ele>30.02</ele>
<name><![CDATA[Point 52]]></name>
</rtept>
<rtept lat="24.715790" lon="120.891548">
<time>2009-07-05T04:31:11Z</time>
<ele>30.05</ele>
<name><![CDATA[Point 53]]></name>
</rtept>
<rtept lat="24.715473" lon="120.891350">
<time>2009-07-05T04:31:16Z</time>
<ele>27.27</ele>
<name><![CDATA[Point 54]]></name>
</rtept>
<rtept lat="24.715132" lon="120.891159">
<time>2009-07-05T04:31:21Z</time>
<ele>27.36</ele>
<name><![CDATA[Point 55]]></name>
</rtept>
<rtept lat="24.714790" lon="120.890984">
<time>2009-07-05T04:31:26Z</time>
<ele>25.85</ele>
<name><![CDATA[Point 56]]></name>
</rtept>
<rtept lat="24.714449" lon="120.890785">
<time>2009-07-05T04:31:31Z</time>
<ele>22.93</ele>
<name><![CDATA[Point 57]]></name>
</rtept>
<rtept lat="24.714104" lon="120.890617">
<time>2009-07-05T04:31:36Z</time>
<ele>25.98</ele>
<name><![CDATA[Point 58]]></name>
</rtept>
<rtept lat="24.713776" lon="120.890427">
<time>2009-07-05T04:31:41Z</time>
<ele>29.48</ele>
<name><![CDATA[Point 59]]></name>
</rtept>
<rtept lat="24.713470" lon="120.890213">
<time>2009-07-05T04:31:46Z</time>
<ele>27.77</ele>
<name><![CDATA[Point 60]]></name>
</rtept>
<rtept lat="24.713196" lon="120.889999">
<time>2009-07-05T04:31:51Z</time>
<ele>27.95</ele>
<name><![CDATA[Point 61]]></name>
</rtept>
<rtept lat="24.712944" lon="120.889778">
<time>2009-07-05T04:31:56Z</time>
<ele>27.86</ele>
<name><![CDATA[Point 62]]></name>
</rtept>
<rtept lat="24.712671" lon="120.889565">
<time>2009-07-05T04:32:01Z</time>
<ele>29.35</ele>
<name><![CDATA[Point 63]]></name>
</rtept>
<rtept lat="24.712387" lon="120.889320">
<time>2009-07-05T04:32:06Z</time>
<ele>27.29</ele>
<name><![CDATA[Point 64]]></name>
</rtept>
<rtept lat="24.712103" lon="120.889076">
<time>2009-07-05T04:32:11Z</time>
<ele>24.24</ele>
<name><![CDATA[Point 65]]></name>
</rtept>
<rtept lat="24.711828" lon="120.888817">
<time>2009-07-05T04:32:16Z</time>
<ele>22.65</ele>
<name><![CDATA[Point 66]]></name>
</rtept>
<rtept lat="24.711538" lon="120.888573">
<time>2009-07-05T04:32:21Z</time>
<ele>20.28</ele>
<name><![CDATA[Point 67]]></name>
</rtept>
<rtept lat="24.711248" lon="120.888313">
<time>2009-07-05T04:32:26Z</time>
<ele>19.80</ele>
<name><![CDATA[Point 68]]></name>
</rtept>
<rtept lat="24.710972" lon="120.888077">
<time>2009-07-05T04:32:31Z</time>
<ele>18.48</ele>
<name><![CDATA[Point 69]]></name>
</rtept>
<rtept lat="24.710707" lon="120.887848">
<time>2009-07-05T04:32:36Z</time>
<ele>20.98</ele>
<name><![CDATA[Point 70]]></name>
</rtept>
<rtept lat="24.710421" lon="120.887627">
<time>2009-07-05T04:32:41Z</time>
<ele>22.00</ele>
<name><![CDATA[Point 71]]></name>
</rtept>
<rtept lat="24.710123" lon="120.887428">
<time>2009-07-05T04:32:46Z</time>
<ele>20.12</ele>
<name><![CDATA[Point 72]]></name>
</rtept>
<rtept lat="24.709831" lon="120.887184">
<time>2009-07-05T04:32:51Z</time>
<ele>19.22</ele>
<name><![CDATA[Point 73]]></name>
</rtept>
<rtept lat="24.709566" lon="120.886986">
<time>2009-07-05T04:32:56Z</time>
<ele>15.32</ele>
<name><![CDATA[Point 74]]></name>
</rtept>
<rtept lat="24.709352" lon="120.886749">
<time>2009-07-05T04:33:01Z</time>
<ele>12.95</ele>
<name><![CDATA[Point 75]]></name>
</rtept>
<rtept lat="24.709192" lon="120.886543">
<time>2009-07-05T04:33:06Z</time>
<ele>13.24</ele>
<name><![CDATA[Point 76]]></name>
</rtept>
<rtept lat="24.709126" lon="120.886444">
<time>2009-07-05T04:33:11Z</time>
<ele>18.57</ele>
<name><![CDATA[Point 77]]></name>
</rtept>
<rtept lat="24.709059" lon="120.886322">
<time>2009-07-05T04:33:16Z</time>
<ele>21.71</ele>
<name><![CDATA[Point 78]]></name>
</rtept>
<rtept lat="24.709003" lon="120.886276">
<time>2009-07-05T04:33:21Z</time>
<ele>28.37</ele>
<name><![CDATA[Point 79]]></name>
</rtept>
<rtept lat="24.709002" lon="120.886276">
<time>2009-07-05T04:33:26Z</time>
<ele>29.62</ele>
<name><![CDATA[Point 80]]></name>
</rtept>
<rtept lat="24.709000" lon="120.886276">
<time>2009-07-05T04:33:31Z</time>
<ele>30.13</ele>
<name><![CDATA[Point 81]]></name>
</rtept>
<rtept lat="24.709000" lon="120.886269">
<time>2009-07-05T04:33:36Z</time>
<ele>30.42</ele>
<name><![CDATA[Point 82]]></name>
</rtept>
<rtept lat="24.709028" lon="120.886215">
<time>2009-07-05T04:33:41Z</time>
<ele>30.49</ele>
<name><![CDATA[Point 83]]></name>
</rtept>
<rtept lat="24.708952" lon="120.886116">
<time>2009-07-05T04:33:46Z</time>
<ele>32.28</ele>
<name><![CDATA[Point 84]]></name>
</rtept>
<rtept lat="24.709005" lon="120.886032">
<time>2009-07-05T04:33:51Z</time>
<ele>33.59</ele>
<name><![CDATA[Point 85]]></name>
</rtept>
<rtept lat="24.709152" lon="120.885864">
<time>2009-07-05T04:33:56Z</time>
<ele>32.60</ele>
<name><![CDATA[Point 86]]></name>
</rtept>
<rtept lat="24.709372" lon="120.885651">
<time>2009-07-05T04:34:01Z</time>
<ele>31.90</ele>
<name><![CDATA[Point 87]]></name>
</rtept>
<rtept lat="24.709593" lon="120.885422">
<time>2009-07-05T04:34:06Z</time>
<ele>31.64</ele>
<name><![CDATA[Point 88]]></name>
</rtept>
<rtept lat="24.709837" lon="120.885178">
<time>2009-07-05T04:34:11Z</time>
<ele>30.37</ele>
<name><![CDATA[Point 89]]></name>
</rtept>
<rtept lat="24.710091" lon="120.884895">
<time>2009-07-05T04:34:16Z</time>
<ele>28.00</ele>
<name><![CDATA[Point 90]]></name>
</rtept>
<rtept lat="24.710327" lon="120.884598">
<time>2009-07-05T04:34:21Z</time>
<ele>32.06</ele>
<name><![CDATA[Point 91]]></name>
</rtept>
<rtept lat="24.710602" lon="120.884300">
<time>2009-07-05T04:34:26Z</time>
<ele>29.89</ele>
<name><![CDATA[Point 92]]></name>
</rtept>
<rtept lat="24.710880" lon="120.884033">
<time>2009-07-05T04:34:31Z</time>
<ele>25.92</ele>
<name><![CDATA[Point 93]]></name>
</rtept>
<rtept lat="24.711132" lon="120.883781">
<time>2009-07-05T04:34:36Z</time>
<ele>25.21</ele>
<name><![CDATA[Point 94]]></name>
</rtept>
<rtept lat="24.711367" lon="120.883537">
<time>2009-07-05T04:34:41Z</time>
<ele>25.38</ele>
<name><![CDATA[Point 95]]></name>
</rtept>
<rtept lat="24.711567" lon="120.883316">
<time>2009-07-05T04:34:46Z</time>
<ele>26.24</ele>
<name><![CDATA[Point 96]]></name>
</rtept>
<rtept lat="24.711733" lon="120.883072">
<time>2009-07-05T04:34:51Z</time>
<ele>28.00</ele>
<name><![CDATA[Point 97]]></name>
</rtept>
<rtept lat="24.711870" lon="120.882805">
<time>2009-07-05T04:34:56Z</time>
<ele>34.37</ele>
<name><![CDATA[Point 98]]></name>
</rtept>
<rtept lat="24.711971" lon="120.882561">
<time>2009-07-05T04:35:01Z</time>
<ele>37.20</ele>
<name><![CDATA[Point 99]]></name>
</rtept>
<rtept lat="24.712051" lon="120.882332">
<time>2009-07-05T04:35:06Z</time>
<ele>38.11</ele>
<name><![CDATA[Point 100]]></name>
</rtept>
<rtept lat="24.712124" lon="120.882088">
<time>2009-07-05T04:35:11Z</time>
<ele>39.92</ele>
<name><![CDATA[Point 101]]></name>
</rtept>
<rtept lat="24.712242" lon="120.881836">
<time>2009-07-05T04:35:16Z</time>
<ele>38.22</ele>
<name><![CDATA[Point 102]]></name>
</rtept>
<rtept lat="24.712341" lon="120.881577">
<time>2009-07-05T04:35:21Z</time>
<ele>36.03</ele>
<name><![CDATA[Point 103]]></name>
</rtept>
<rtept lat="24.712448" lon="120.881302">
<time>2009-07-05T04:35:26Z</time>
<ele>36.96</ele>
<name><![CDATA[Point 104]]></name>
</rtept>
<rtept lat="24.712622" lon="120.881004">
<time>2009-07-05T04:35:31Z</time>
<ele>35.89</ele>
<name><![CDATA[Point 105]]></name>
</rtept>
<rtept lat="24.712814" lon="120.880722">
<time>2009-07-05T04:35:36Z</time>
<ele>37.52</ele>
<name><![CDATA[Point 106]]></name>
</rtept>
<rtept lat="24.713028" lon="120.880440">
<time>2009-07-05T04:35:41Z</time>
<ele>40.94</ele>
<name><![CDATA[Point 107]]></name>
</rtept>
<rtept lat="24.713217" lon="120.880142">
<time>2009-07-05T04:35:46Z</time>
<ele>36.39</ele>
<name><![CDATA[Point 108]]></name>
</rtept>
<rtept lat="24.713409" lon="120.879845">
<time>2009-07-05T04:35:51Z</time>
<ele>33.62</ele>
<name><![CDATA[Point 109]]></name>
</rtept>
<rtept lat="24.713602" lon="120.879585">
<time>2009-07-05T04:35:56Z</time>
<ele>31.97</ele>
<name><![CDATA[Point 110]]></name>
</rtept>
<rtept lat="24.713800" lon="120.879303">
<time>2009-07-05T04:36:01Z</time>
<ele>31.85</ele>
<name><![CDATA[Point 111]]></name>
</rtept>
<rtept lat="24.713972" lon="120.879044">
<time>2009-07-05T04:36:06Z</time>
<ele>34.59</ele>
<name><![CDATA[Point 112]]></name>
</rtept>
<rtept lat="24.714127" lon="120.878799">
<time>2009-07-05T04:36:11Z</time>
<ele>36.17</ele>
<name><![CDATA[Point 113]]></name>
</rtept>
<rtept lat="24.714298" lon="120.878563">
<time>2009-07-05T04:36:16Z</time>
<ele>36.83</ele>
<name><![CDATA[Point 114]]></name>
</rtept>
<rtept lat="24.714447" lon="120.878319">
<time>2009-07-05T04:36:21Z</time>
<ele>37.48</ele>
<name><![CDATA[Point 115]]></name>
</rtept>
<rtept lat="24.714609" lon="120.878075">
<time>2009-07-05T04:36:26Z</time>
<ele>37.51</ele>
<name><![CDATA[Point 116]]></name>
</rtept>
<rtept lat="24.714767" lon="120.877853">
<time>2009-07-05T04:36:31Z</time>
<ele>40.08</ele>
<name><![CDATA[Point 117]]></name>
</rtept>
<rtept lat="24.714882" lon="120.877670">
<time>2009-07-05T04:36:36Z</time>
<ele>40.93</ele>
<name><![CDATA[Point 118]]></name>
</rtept>
<rtept lat="24.714947" lon="120.877502">
<time>2009-07-05T04:36:41Z</time>
<ele>43.71</ele>
<name><![CDATA[Point 119]]></name>
</rtept>
<rtept lat="24.714855" lon="120.877304">
<time>2009-07-05T04:36:46Z</time>
<ele>42.64</ele>
<name><![CDATA[Point 120]]></name>
</rtept>
<rtept lat="24.714607" lon="120.877113">
<time>2009-07-05T04:36:51Z</time>
<ele>42.52</ele>
<name><![CDATA[Point 121]]></name>
</rtept>
<rtept lat="24.714319" lon="120.876869">
<time>2009-07-05T04:36:56Z</time>
<ele>40.11</ele>
<name><![CDATA[Point 122]]></name>
</rtept>
<rtept lat="24.714062" lon="120.876617">
<time>2009-07-05T04:37:01Z</time>
<ele>36.19</ele>
<name><![CDATA[Point 123]]></name>
</rtept>
<rtept lat="24.713770" lon="120.876366">
<time>2009-07-05T04:37:06Z</time>
<ele>34.99</ele>
<name><![CDATA[Point 124]]></name>
</rtept>
<rtept lat="24.713484" lon="120.876099">
<time>2009-07-05T04:37:11Z</time>
<ele>31.80</ele>
<name><![CDATA[Point 125]]></name>
</rtept>
<rtept lat="24.713249" lon="120.875893">
<time>2009-07-05T04:37:16Z</time>
<ele>36.44</ele>
<name><![CDATA[Point 126]]></name>
</rtept>
<rtept lat="24.712988" lon="120.876183">
<time>2009-07-05T04:37:21Z</time>
<ele>42.97</ele>
<name><![CDATA[Point 127]]></name>
</rtept>
<rtept lat="24.712732" lon="120.876549">
<time>2009-07-05T04:37:26Z</time>
<ele>43.68</ele>
<name><![CDATA[Point 128]]></name>
</rtept>
<rtept lat="24.712482" lon="120.876892">
<time>2009-07-05T04:37:31Z</time>
<ele>43.40</ele>
<name><![CDATA[Point 129]]></name>
</rtept>
<rtept lat="24.712217" lon="120.877235">
<time>2009-07-05T04:37:36Z</time>
<ele>41.63</ele>
<name><![CDATA[Point 130]]></name>
</rtept>
<rtept lat="24.711979" lon="120.877586">
<time>2009-07-05T04:37:41Z</time>
<ele>40.13</ele>
<name><![CDATA[Point 131]]></name>
</rtept>
<rtept lat="24.711739" lon="120.877937">
<time>2009-07-05T04:37:46Z</time>
<ele>38.47</ele>
<name><![CDATA[Point 132]]></name>
</rtept>
<rtept lat="24.711502" lon="120.878250">
<time>2009-07-05T04:37:51Z</time>
<ele>39.65</ele>
<name><![CDATA[Point 133]]></name>
</rtept>
<rtept lat="24.711246" lon="120.878349">
<time>2009-07-05T04:37:56Z</time>
<ele>37.20</ele>
<name><![CDATA[Point 134]]></name>
</rtept>
<rtept lat="24.711004" lon="120.878151">
<time>2009-07-05T04:38:01Z</time>
<ele>29.72</ele>
<name><![CDATA[Point 135]]></name>
</rtept>
<rtept lat="24.711050" lon="120.877945">
<time>2009-07-05T04:38:06Z</time>
<ele>31.27</ele>
<name><![CDATA[Point 136]]></name>
</rtept>
<rtept lat="24.711185" lon="120.877724">
<time>2009-07-05T04:38:11Z</time>
<ele>32.17</ele>
<name><![CDATA[Point 137]]></name>
</rtept>
<rtept lat="24.711344" lon="120.877487">
<time>2009-07-05T04:38:16Z</time>
<ele>29.35</ele>
<name><![CDATA[Point 138]]></name>
</rtept>
<rtept lat="24.711439" lon="120.877281">
<time>2009-07-05T04:38:21Z</time>
<ele>28.24</ele>
<name><![CDATA[Point 139]]></name>
</rtept>
<rtept lat="24.711426" lon="120.877235">
<time>2009-07-05T04:38:26Z</time>
<ele>31.14</ele>
<name><![CDATA[Point 140]]></name>
</rtept>
<rtept lat="24.711294" lon="120.877151">
<time>2009-07-05T04:38:31Z</time>
<ele>30.01</ele>
<name><![CDATA[Point 141]]></name>
</rtept>
<rtept lat="24.711206" lon="120.876953">
<time>2009-07-05T04:38:36Z</time>
<ele>29.94</ele>
<name><![CDATA[Point 142]]></name>
</rtept>
<rtept lat="24.711363" lon="120.876740">
<time>2009-07-05T04:38:41Z</time>
<ele>29.38</ele>
<name><![CDATA[Point 143]]></name>
</rtept>
<rtept lat="24.711441" lon="120.876640">
<time>2009-07-05T04:38:46Z</time>
<ele>29.84</ele>
<name><![CDATA[Point 144]]></name>
</rtept>
<rtept lat="24.711473" lon="120.876610">
<time>2009-07-05T04:38:51Z</time>
<ele>29.37</ele>
<name><![CDATA[Point 145]]></name>
</rtept>
<rtept lat="24.711582" lon="120.876465">
<time>2009-07-05T04:38:56Z</time>
<ele>29.55</ele>
<name><![CDATA[Point 146]]></name>
</rtept>
<rtept lat="24.711681" lon="120.876320">
<time>2009-07-05T04:39:01Z</time>
<ele>27.27</ele>
<name><![CDATA[Point 147]]></name>
</rtept>
<rtept lat="24.711748" lon="120.876221">
<time>2009-07-05T04:39:06Z</time>
<ele>25.83</ele>
<name><![CDATA[Point 148]]></name>
</rtept>
<rtept lat="24.711773" lon="120.876183">
<time>2009-07-05T04:39:11Z</time>
<ele>26.15</ele>
<name><![CDATA[Point 149]]></name>
</rtept>
<rtept lat="24.711777" lon="120.876167">
<time>2009-07-05T04:39:16Z</time>
<ele>26.25</ele>
<name><![CDATA[Point 150]]></name>
</rtept>
<rtept lat="24.711798" lon="120.876152">
<time>2009-07-05T04:39:21Z</time>
<ele>26.24</ele>
<name><![CDATA[Point 151]]></name>
</rtept>
<rtept lat="24.711802" lon="120.876144">
<time>2009-07-05T04:39:26Z</time>
<ele>26.31</ele>
<name><![CDATA[Point 152]]></name>
</rtept>
<rtept lat="24.711802" lon="120.876144">
<time>2009-07-05T04:39:31Z</time>
<ele>26.39</ele>
<name><![CDATA[Point 153]]></name>
</rtept>
<rtept lat="24.711802" lon="120.876144">
<time>2009-07-05T04:39:36Z</time>
<ele>26.41</ele>
<name><![CDATA[Point 154]]></name>
</rtept>
<rtept lat="24.711800" lon="120.876152">
<time>2009-07-05T04:39:41Z</time>
<ele>26.45</ele>
<name><![CDATA[Point 155]]></name>
</rtept>
<rtept lat="24.711798" lon="120.876152">
<time>2009-07-05T04:39:46Z</time>
<ele>26.46</ele>
<name><![CDATA[Point 156]]></name>
</rtept>
<rtept lat="24.711798" lon="120.876152">
<time>2009-07-05T04:39:51Z</time>
<ele>26.49</ele>
<name><![CDATA[Point 157]]></name>
</rtept>
<rtept lat="24.711798" lon="120.876152">
<time>2009-07-05T04:39:56Z</time>
<ele>26.55</ele>
<name><![CDATA[Point 158]]></name>
</rtept>
<rtept lat="24.711796" lon="120.876152">
<time>2009-07-05T04:40:01Z</time>
<ele>26.58</ele>
<name><![CDATA[Point 159]]></name>
</rtept>
<rtept lat="24.711796" lon="120.876144">
<time>2009-07-05T04:40:06Z</time>
<ele>26.60</ele>
<name><![CDATA[Point 160]]></name>
</rtept>
<rtept lat="24.711796" lon="120.876144">
<time>2009-07-05T04:40:11Z</time>
<ele>26.63</ele>
<name><![CDATA[Point 161]]></name>
</rtept>
<rtept lat="24.711784" lon="120.876160">
<time>2009-07-05T04:40:16Z</time>
<ele>26.44</ele>
<name><![CDATA[Point 162]]></name>
</rtept>
<rtept lat="24.711802" lon="120.876175">
<time>2009-07-05T04:40:21Z</time>
<ele>27.15</ele>
<name><![CDATA[Point 163]]></name>
</rtept>
<rtept lat="24.711811" lon="120.876183">
<time>2009-07-05T04:40:26Z</time>
<ele>27.50</ele>
<name><![CDATA[Point 164]]></name>
</rtept>
<rtept lat="24.711807" lon="120.876190">
<time>2009-07-05T04:40:31Z</time>
<ele>27.65</ele>
<name><![CDATA[Point 165]]></name>
</rtept>
<rtept lat="24.711807" lon="120.876183">
<time>2009-07-05T04:40:36Z</time>
<ele>28.78</ele>
<name><![CDATA[Point 166]]></name>
</rtept>
<rtept lat="24.711807" lon="120.876183">
<time>2009-07-05T04:40:41Z</time>
<ele>28.82</ele>
<name><![CDATA[Point 167]]></name>
</rtept>
<rtept lat="24.711807" lon="120.876183">
<time>2009-07-05T04:40:46Z</time>
<ele>28.84</ele>
<name><![CDATA[Point 168]]></name>
</rtept>
<rtept lat="24.711805" lon="120.876190">
<time>2009-07-05T04:40:51Z</time>
<ele>28.84</ele>
<name><![CDATA[Point 169]]></name>
</rtept>
</rte>
</gpx>
