<?xml version="1.0"?>
<gpx
version="1.0"
creator="Holux Utility"
xmlns:xsi="http://www.w3.org/2001/XMLSchema-instance"
xmlns="http://www.topografix.com/GPX/1/0"
xsi:schemaLocation="http://www.topografix.com/GPX/1/0 http://www.topografix.com/GPX/1/0/gpx.xsd">
<wpt lat="23.131651" lon="120.320435">
<time>2012-03-20T07:47:00Z</time>
<ele>11.91</ele>
<speed>0.60</speed>
<name><![CDATA[Point 0]]></name>
</wpt>
<wpt lat="23.131647" lon="120.320419">
<time>2012-03-20T07:47:05Z</time>
<ele>13.67</ele>
<speed>0.30</speed>
<name><![CDATA[Point 1]]></name>
</wpt>
<wpt lat="23.131622" lon="120.320427">
<time>2012-03-20T07:47:10Z</time>
<ele>14.14</ele>
<speed>1.74</speed>
<name><![CDATA[Point 2]]></name>
</wpt>
<wpt lat="23.131538" lon="120.320427">
<time>2012-03-20T07:47:15Z</time>
<ele>15.19</ele>
<speed>9.12</speed>
<name><![CDATA[Point 3]]></name>
</wpt>
<wpt lat="23.131369" lon="120.320374">
<time>2012-03-20T07:47:20Z</time>
<ele>17.39</ele>
<speed>15.34</speed>
<name><![CDATA[Point 4]]></name>
</wpt>
<wpt lat="23.131157" lon="120.320313">
<time>2012-03-20T07:47:25Z</time>
<ele>19.84</ele>
<speed>19.41</speed>
<name><![CDATA[Point 5]]></name>
</wpt>
<wpt lat="23.130915" lon="120.320229">
<time>2012-03-20T07:47:30Z</time>
<ele>22.38</ele>
<speed>21.60</speed>
<name><![CDATA[Point 6]]></name>
</wpt>
<wpt lat="23.130642" lon="120.320122">
<time>2012-03-20T07:47:35Z</time>
<ele>23.35</ele>
<speed>22.89</speed>
<name><![CDATA[Point 7]]></name>
</wpt>
<wpt lat="23.130365" lon="120.320015">
<time>2012-03-20T07:47:40Z</time>
<ele>25.19</ele>
<speed>23.68</speed>
<name><![CDATA[Point 8]]></name>
</wpt>
<wpt lat="23.130087" lon="120.319916">
<time>2012-03-20T07:47:45Z</time>
<ele>25.87</ele>
<speed>22.49</speed>
<name><![CDATA[Point 9]]></name>
</wpt>
<wpt lat="23.129810" lon="120.319794">
<time>2012-03-20T07:47:50Z</time>
<ele>27.59</ele>
<speed>24.75</speed>
<name><![CDATA[Point 10]]></name>
</wpt>
<wpt lat="23.129515" lon="120.319687">
<time>2012-03-20T07:47:55Z</time>
<ele>26.80</ele>
<speed>25.08</speed>
<name><![CDATA[Point 11]]></name>
</wpt>
<wpt lat="23.129217" lon="120.319542">
<time>2012-03-20T07:48:00Z</time>
<ele>28.67</ele>
<speed>24.18</speed>
<name><![CDATA[Point 12]]></name>
</wpt>
<wpt lat="23.128937" lon="120.319466">
<time>2012-03-20T07:48:05Z</time>
<ele>29.57</ele>
<speed>22.06</speed>
<name><![CDATA[Point 13]]></name>
</wpt>
<wpt lat="23.128689" lon="120.319336">
<time>2012-03-20T07:48:10Z</time>
<ele>32.56</ele>
<speed>21.58</speed>
<name><![CDATA[Point 14]]></name>
</wpt>
<wpt lat="23.128445" lon="120.319214">
<time>2012-03-20T07:48:15Z</time>
<ele>35.48</ele>
<speed>22.57</speed>
<name><![CDATA[Point 15]]></name>
</wpt>
<wpt lat="23.128145" lon="120.319153">
<time>2012-03-20T07:48:20Z</time>
<ele>32.83</ele>
<speed>23.50</speed>
<name><![CDATA[Point 16]]></name>
</wpt>
<wpt lat="23.127863" lon="120.319046">
<time>2012-03-20T07:48:25Z</time>
<ele>31.02</ele>
<speed>22.06</speed>
<name><![CDATA[Point 17]]></name>
</wpt>
<wpt lat="23.127598" lon="120.318962">
<time>2012-03-20T07:48:30Z</time>
<ele>29.14</ele>
<speed>19.74</speed>
<name><![CDATA[Point 18]]></name>
</wpt>
<wpt lat="23.127359" lon="120.318863">
<time>2012-03-20T07:48:35Z</time>
<ele>28.54</ele>
<speed>20.59</speed>
<name><![CDATA[Point 19]]></name>
</wpt>
<wpt lat="23.127308" lon="120.318588">
<time>2012-03-20T07:48:40Z</time>
<ele>34.97</ele>
<speed>19.66</speed>
<name><![CDATA[Point 20]]></name>
</wpt>
<wpt lat="23.127399" lon="120.318275">
<time>2012-03-20T07:48:45Z</time>
<ele>36.00</ele>
<speed>21.10</speed>
<name><![CDATA[Point 21]]></name>
</wpt>
<wpt lat="23.127476" lon="120.317993">
<time>2012-03-20T07:48:50Z</time>
<ele>36.94</ele>
<speed>19.99</speed>
<name><![CDATA[Point 22]]></name>
</wpt>
<wpt lat="23.127525" lon="120.317688">
<time>2012-03-20T07:48:55Z</time>
<ele>38.66</ele>
<speed>21.31</speed>
<name><![CDATA[Point 23]]></name>
</wpt>
<wpt lat="23.127598" lon="120.317398">
<time>2012-03-20T07:49:00Z</time>
<ele>40.04</ele>
<speed>21.45</speed>
<name><![CDATA[Point 24]]></name>
</wpt>
<wpt lat="23.127705" lon="120.317154">
<time>2012-03-20T07:49:05Z</time>
<ele>41.48</ele>
<speed>18.98</speed>
<name><![CDATA[Point 25]]></name>
</wpt>
<wpt lat="23.127777" lon="120.316879">
<time>2012-03-20T07:49:10Z</time>
<ele>43.62</ele>
<speed>20.78</speed>
<name><![CDATA[Point 26]]></name>
</wpt>
<wpt lat="23.127823" lon="120.316612">
<time>2012-03-20T07:49:15Z</time>
<ele>45.39</ele>
<speed>20.75</speed>
<name><![CDATA[Point 27]]></name>
</wpt>
<wpt lat="23.127897" lon="120.316345">
<time>2012-03-20T07:49:20Z</time>
<ele>47.35</ele>
<speed>19.79</speed>
<name><![CDATA[Point 28]]></name>
</wpt>
<wpt lat="23.127956" lon="120.316086">
<time>2012-03-20T07:49:25Z</time>
<ele>48.77</ele>
<speed>20.69</speed>
<name><![CDATA[Point 29]]></name>
</wpt>
<wpt lat="23.128036" lon="120.315826">
<time>2012-03-20T07:49:30Z</time>
<ele>49.97</ele>
<speed>20.39</speed>
<name><![CDATA[Point 30]]></name>
</wpt>
<wpt lat="23.128113" lon="120.315567">
<time>2012-03-20T07:49:35Z</time>
<ele>49.58</ele>
<speed>19.17</speed>
<name><![CDATA[Point 31]]></name>
</wpt>
<wpt lat="23.128189" lon="120.315323">
<time>2012-03-20T07:49:40Z</time>
<ele>49.98</ele>
<speed>19.95</speed>
<name><![CDATA[Point 32]]></name>
</wpt>
<wpt lat="23.128260" lon="120.315056">
<time>2012-03-20T07:49:45Z</time>
<ele>51.00</ele>
<speed>20.15</speed>
<name><![CDATA[Point 33]]></name>
</wpt>
<wpt lat="23.128321" lon="120.314766">
<time>2012-03-20T07:49:50Z</time>
<ele>50.95</ele>
<speed>19.14</speed>
<name><![CDATA[Point 34]]></name>
</wpt>
<wpt lat="23.128429" lon="120.314484">
<time>2012-03-20T07:49:55Z</time>
<ele>52.51</ele>
<speed>20.35</speed>
<name><![CDATA[Point 35]]></name>
</wpt>
<wpt lat="23.128458" lon="120.314224">
<time>2012-03-20T07:50:00Z</time>
<ele>53.88</ele>
<speed>20.14</speed>
<name><![CDATA[Point 36]]></name>
</wpt>
<wpt lat="23.128485" lon="120.313934">
<time>2012-03-20T07:50:05Z</time>
<ele>54.70</ele>
<speed>19.39</speed>
<name><![CDATA[Point 37]]></name>
</wpt>
<wpt lat="23.128571" lon="120.313683">
<time>2012-03-20T07:50:10Z</time>
<ele>56.23</ele>
<speed>19.88</speed>
<name><![CDATA[Point 38]]></name>
</wpt>
<wpt lat="23.128649" lon="120.313377">
<time>2012-03-20T07:50:15Z</time>
<ele>56.32</ele>
<speed>21.77</speed>
<name><![CDATA[Point 39]]></name>
</wpt>
<wpt lat="23.128738" lon="120.313133">
<time>2012-03-20T07:50:20Z</time>
<ele>56.00</ele>
<speed>20.92</speed>
<name><![CDATA[Point 40]]></name>
</wpt>
<wpt lat="23.128820" lon="120.312874">
<time>2012-03-20T07:50:25Z</time>
<ele>55.23</ele>
<speed>21.33</speed>
<name><![CDATA[Point 41]]></name>
</wpt>
<wpt lat="23.128893" lon="120.312592">
<time>2012-03-20T07:50:30Z</time>
<ele>54.37</ele>
<speed>21.14</speed>
<name><![CDATA[Point 42]]></name>
</wpt>
<wpt lat="23.128975" lon="120.312340">
<time>2012-03-20T07:50:35Z</time>
<ele>53.20</ele>
<speed>20.21</speed>
<name><![CDATA[Point 43]]></name>
</wpt>
<wpt lat="23.129053" lon="120.312080">
<time>2012-03-20T07:50:40Z</time>
<ele>51.19</ele>
<speed>19.74</speed>
<name><![CDATA[Point 44]]></name>
</wpt>
<wpt lat="23.129124" lon="120.311829">
<time>2012-03-20T07:50:45Z</time>
<ele>49.83</ele>
<speed>19.00</speed>
<name><![CDATA[Point 45]]></name>
</wpt>
<wpt lat="23.129179" lon="120.311562">
<time>2012-03-20T07:50:50Z</time>
<ele>49.59</ele>
<speed>18.46</speed>
<name><![CDATA[Point 46]]></name>
</wpt>
<wpt lat="23.129223" lon="120.311310">
<time>2012-03-20T07:50:55Z</time>
<ele>49.68</ele>
<speed>17.30</speed>
<name><![CDATA[Point 47]]></name>
</wpt>
<wpt lat="23.129297" lon="120.311104">
<time>2012-03-20T07:51:00Z</time>
<ele>49.62</ele>
<speed>18.45</speed>
<name><![CDATA[Point 48]]></name>
</wpt>
<wpt lat="23.129358" lon="120.310852">
<time>2012-03-20T07:51:05Z</time>
<ele>49.45</ele>
<speed>18.92</speed>
<name><![CDATA[Point 49]]></name>
</wpt>
<wpt lat="23.129431" lon="120.310608">
<time>2012-03-20T07:51:10Z</time>
<ele>49.46</ele>
<speed>20.21</speed>
<name><![CDATA[Point 50]]></name>
</wpt>
<wpt lat="23.129503" lon="120.310349">
<time>2012-03-20T07:51:15Z</time>
<ele>49.24</ele>
<speed>20.42</speed>
<name><![CDATA[Point 51]]></name>
</wpt>
<wpt lat="23.129591" lon="120.310074">
<time>2012-03-20T07:51:20Z</time>
<ele>48.43</ele>
<speed>20.43</speed>
<name><![CDATA[Point 52]]></name>
</wpt>
<wpt lat="23.129684" lon="120.309837">
<time>2012-03-20T07:51:25Z</time>
<ele>47.62</ele>
<speed>18.38</speed>
<name><![CDATA[Point 53]]></name>
</wpt>
<wpt lat="23.129732" lon="120.309586">
<time>2012-03-20T07:51:30Z</time>
<ele>47.13</ele>
<speed>18.47</speed>
<name><![CDATA[Point 54]]></name>
</wpt>
<wpt lat="23.129841" lon="120.309334">
<time>2012-03-20T07:51:35Z</time>
<ele>39.81</ele>
<speed>18.40</speed>
<name><![CDATA[Point 55]]></name>
</wpt>
<wpt lat="23.129890" lon="120.309082">
<time>2012-03-20T07:51:40Z</time>
<ele>38.42</ele>
<speed>19.09</speed>
<name><![CDATA[Point 56]]></name>
</wpt>
<wpt lat="23.129953" lon="120.308830">
<time>2012-03-20T07:51:45Z</time>
<ele>36.17</ele>
<speed>19.22</speed>
<name><![CDATA[Point 57]]></name>
</wpt>
<wpt lat="23.130032" lon="120.308586">
<time>2012-03-20T07:51:50Z</time>
<ele>32.33</ele>
<speed>17.50</speed>
<name><![CDATA[Point 58]]></name>
</wpt>
<wpt lat="23.130100" lon="120.308357">
<time>2012-03-20T07:51:55Z</time>
<ele>28.97</ele>
<speed>16.30</speed>
<name><![CDATA[Point 59]]></name>
</wpt>
<wpt lat="23.130169" lon="120.308167">
<time>2012-03-20T07:52:00Z</time>
<ele>27.57</ele>
<speed>14.99</speed>
<name><![CDATA[Point 60]]></name>
</wpt>
<wpt lat="23.130222" lon="120.307983">
<time>2012-03-20T07:52:05Z</time>
<ele>26.44</ele>
<speed>13.14</speed>
<name><![CDATA[Point 61]]></name>
</wpt>
<wpt lat="23.130259" lon="120.307800">
<time>2012-03-20T07:52:10Z</time>
<ele>24.44</ele>
<speed>11.91</speed>
<name><![CDATA[Point 62]]></name>
</wpt>
<wpt lat="23.130304" lon="120.307655">
<time>2012-03-20T07:52:15Z</time>
<ele>22.25</ele>
<speed>10.56</speed>
<name><![CDATA[Point 63]]></name>
</wpt>
<wpt lat="23.130356" lon="120.307518">
<time>2012-03-20T07:52:20Z</time>
<ele>21.32</ele>
<speed>11.13</speed>
<name><![CDATA[Point 64]]></name>
</wpt>
<wpt lat="23.130396" lon="120.307365">
<time>2012-03-20T07:52:25Z</time>
<ele>20.88</ele>
<speed>11.74</speed>
<name><![CDATA[Point 65]]></name>
</wpt>
<wpt lat="23.130445" lon="120.307213">
<time>2012-03-20T07:52:30Z</time>
<ele>20.84</ele>
<speed>12.48</speed>
<name><![CDATA[Point 66]]></name>
</wpt>
<wpt lat="23.130497" lon="120.307053">
<time>2012-03-20T07:52:35Z</time>
<ele>20.79</ele>
<speed>12.48</speed>
<name><![CDATA[Point 67]]></name>
</wpt>
<wpt lat="23.130535" lon="120.306877">
<time>2012-03-20T07:52:40Z</time>
<ele>19.39</ele>
<speed>12.70</speed>
<name><![CDATA[Point 68]]></name>
</wpt>
<wpt lat="23.130575" lon="120.306717">
<time>2012-03-20T07:52:45Z</time>
<ele>19.98</ele>
<speed>11.79</speed>
<name><![CDATA[Point 69]]></name>
</wpt>
<wpt lat="23.130615" lon="120.306572">
<time>2012-03-20T07:52:50Z</time>
<ele>20.37</ele>
<speed>12.02</speed>
<name><![CDATA[Point 70]]></name>
</wpt>
<wpt lat="23.130661" lon="120.306419">
<time>2012-03-20T07:52:55Z</time>
<ele>21.42</ele>
<speed>11.59</speed>
<name><![CDATA[Point 71]]></name>
</wpt>
<wpt lat="23.130699" lon="120.306282">
<time>2012-03-20T07:53:00Z</time>
<ele>22.89</ele>
<speed>12.12</speed>
<name><![CDATA[Point 72]]></name>
</wpt>
<wpt lat="23.130737" lon="120.306107">
<time>2012-03-20T07:53:05Z</time>
<ele>25.89</ele>
<speed>15.91</speed>
<name><![CDATA[Point 73]]></name>
</wpt>
<wpt lat="23.130800" lon="120.305870">
<time>2012-03-20T07:53:10Z</time>
<ele>26.07</ele>
<speed>19.69</speed>
<name><![CDATA[Point 74]]></name>
</wpt>
<wpt lat="23.130844" lon="120.305573">
<time>2012-03-20T07:53:15Z</time>
<ele>25.76</ele>
<speed>21.80</speed>
<name><![CDATA[Point 75]]></name>
</wpt>
<wpt lat="23.130873" lon="120.305283">
<time>2012-03-20T07:53:20Z</time>
<ele>26.25</ele>
<speed>23.51</speed>
<name><![CDATA[Point 76]]></name>
</wpt>
<wpt lat="23.130850" lon="120.304970">
<time>2012-03-20T07:53:25Z</time>
<ele>25.16</ele>
<speed>26.48</speed>
<name><![CDATA[Point 77]]></name>
</wpt>
<wpt lat="23.130798" lon="120.304619">
<time>2012-03-20T07:53:30Z</time>
<ele>24.61</ele>
<speed>27.64</speed>
<name><![CDATA[Point 78]]></name>
</wpt>
<wpt lat="23.130743" lon="120.304237">
<time>2012-03-20T07:53:35Z</time>
<ele>25.21</ele>
<speed>29.24</speed>
<name><![CDATA[Point 79]]></name>
</wpt>
<wpt lat="23.130678" lon="120.303848">
<time>2012-03-20T07:53:40Z</time>
<ele>25.51</ele>
<speed>29.15</speed>
<name><![CDATA[Point 80]]></name>
</wpt>
<wpt lat="23.130701" lon="120.303543">
<time>2012-03-20T07:53:45Z</time>
<ele>22.66</ele>
<speed>18.44</speed>
<name><![CDATA[Point 81]]></name>
</wpt>
<wpt lat="23.130821" lon="120.303329">
<time>2012-03-20T07:53:50Z</time>
<ele>24.42</ele>
<speed>24.93</speed>
<name><![CDATA[Point 82]]></name>
</wpt>
<wpt lat="23.130985" lon="120.303246">
<time>2012-03-20T07:53:55Z</time>
<ele>23.72</ele>
<speed>11.24</speed>
<name><![CDATA[Point 83]]></name>
</wpt>
<wpt lat="23.131168" lon="120.303192">
<time>2012-03-20T07:54:00Z</time>
<ele>22.83</ele>
<speed>15.48</speed>
<name><![CDATA[Point 84]]></name>
</wpt>
<wpt lat="23.131363" lon="120.303146">
<time>2012-03-20T07:54:05Z</time>
<ele>22.65</ele>
<speed>16.16</speed>
<name><![CDATA[Point 85]]></name>
</wpt>
<wpt lat="23.131578" lon="120.303093">
<time>2012-03-20T07:54:10Z</time>
<ele>22.97</ele>
<speed>16.36</speed>
<name><![CDATA[Point 86]]></name>
</wpt>
<wpt lat="23.131779" lon="120.303070">
<time>2012-03-20T07:54:15Z</time>
<ele>23.36</ele>
<speed>12.99</speed>
<name><![CDATA[Point 87]]></name>
</wpt>
<wpt lat="23.131954" lon="120.303032">
<time>2012-03-20T07:54:20Z</time>
<ele>23.56</ele>
<speed>13.37</speed>
<name><![CDATA[Point 88]]></name>
</wpt>
<wpt lat="23.132116" lon="120.302994">
<time>2012-03-20T07:54:25Z</time>
<ele>22.82</ele>
<speed>10.53</speed>
<name><![CDATA[Point 89]]></name>
</wpt>
<wpt lat="23.132303" lon="120.302979">
<time>2012-03-20T07:54:30Z</time>
<ele>23.18</ele>
<speed>12.73</speed>
<name><![CDATA[Point 90]]></name>
</wpt>
<wpt lat="23.132502" lon="120.302979">
<time>2012-03-20T07:54:35Z</time>
<ele>22.68</ele>
<speed>15.38</speed>
<name><![CDATA[Point 91]]></name>
</wpt>
<wpt lat="23.132748" lon="120.302963">
<time>2012-03-20T07:54:40Z</time>
<ele>25.60</ele>
<speed>16.54</speed>
<name><![CDATA[Point 92]]></name>
</wpt>
<wpt lat="23.132969" lon="120.302971">
<time>2012-03-20T07:54:45Z</time>
<ele>27.74</ele>
<speed>14.55</speed>
<name><![CDATA[Point 93]]></name>
</wpt>
<wpt lat="23.133068" lon="120.303078">
<time>2012-03-20T07:54:50Z</time>
<ele>27.58</ele>
<speed>12.06</speed>
<name><![CDATA[Point 94]]></name>
</wpt>
<wpt lat="23.133205" lon="120.303345">
<time>2012-03-20T07:54:55Z</time>
<ele>24.81</ele>
<speed>15.56</speed>
<name><![CDATA[Point 95]]></name>
</wpt>
<wpt lat="23.133291" lon="120.303558">
<time>2012-03-20T07:55:00Z</time>
<ele>25.40</ele>
<speed>16.79</speed>
<name><![CDATA[Point 96]]></name>
</wpt>
<wpt lat="23.133329" lon="120.303818">
<time>2012-03-20T07:55:05Z</time>
<ele>26.05</ele>
<speed>16.47</speed>
<name><![CDATA[Point 97]]></name>
</wpt>
<wpt lat="23.133364" lon="120.304070">
<time>2012-03-20T07:55:10Z</time>
<ele>27.17</ele>
<speed>17.68</speed>
<name><![CDATA[Point 98]]></name>
</wpt>
<wpt lat="23.133398" lon="120.304337">
<time>2012-03-20T07:55:15Z</time>
<ele>26.83</ele>
<speed>16.65</speed>
<name><![CDATA[Point 99]]></name>
</wpt>
<wpt lat="23.133444" lon="120.304543">
<time>2012-03-20T07:55:20Z</time>
<ele>28.81</ele>
<speed>17.13</speed>
<name><![CDATA[Point 100]]></name>
</wpt>
<wpt lat="23.133471" lon="120.304787">
<time>2012-03-20T07:55:25Z</time>
<ele>29.58</ele>
<speed>16.45</speed>
<name><![CDATA[Point 101]]></name>
</wpt>
<wpt lat="23.133507" lon="120.305069">
<time>2012-03-20T07:55:30Z</time>
<ele>30.31</ele>
<speed>16.42</speed>
<name><![CDATA[Point 102]]></name>
</wpt>
<wpt lat="23.133530" lon="120.305328">
<time>2012-03-20T07:55:35Z</time>
<ele>30.03</ele>
<speed>14.14</speed>
<name><![CDATA[Point 103]]></name>
</wpt>
<wpt lat="23.133568" lon="120.305580">
<time>2012-03-20T07:55:40Z</time>
<ele>29.81</ele>
<speed>18.56</speed>
<name><![CDATA[Point 104]]></name>
</wpt>
<wpt lat="23.133530" lon="120.305885">
<time>2012-03-20T07:55:45Z</time>
<ele>30.91</ele>
<speed>19.08</speed>
<name><![CDATA[Point 105]]></name>
</wpt>
<wpt lat="23.133461" lon="120.306160">
<time>2012-03-20T07:55:50Z</time>
<ele>28.87</ele>
<speed>15.53</speed>
<name><![CDATA[Point 106]]></name>
</wpt>
<wpt lat="23.133484" lon="120.306343">
<time>2012-03-20T07:55:55Z</time>
<ele>27.48</ele>
<speed>12.36</speed>
<name><![CDATA[Point 107]]></name>
</wpt>
<wpt lat="23.133522" lon="120.306419">
<time>2012-03-20T07:56:00Z</time>
<ele>27.65</ele>
<speed>1.04</speed>
<name><![CDATA[Point 108]]></name>
</wpt>
<wpt lat="23.133474" lon="120.306496">
<time>2012-03-20T07:56:05Z</time>
<ele>26.70</ele>
<speed>3.28</speed>
<name><![CDATA[Point 109]]></name>
</wpt>
<wpt lat="23.133438" lon="120.306564">
<time>2012-03-20T07:56:10Z</time>
<ele>25.81</ele>
<speed>2.82</speed>
<name><![CDATA[Point 110]]></name>
</wpt>
<wpt lat="23.133404" lon="120.306633">
<time>2012-03-20T07:56:15Z</time>
<ele>24.86</ele>
<speed>2.25</speed>
<name><![CDATA[Point 111]]></name>
</wpt>
<wpt lat="23.133404" lon="120.306656">
<time>2012-03-20T07:56:20Z</time>
<ele>24.06</ele>
<speed>1.21</speed>
<name><![CDATA[Point 112]]></name>
</wpt>
<wpt lat="23.133356" lon="120.306656">
<time>2012-03-20T07:56:25Z</time>
<ele>22.64</ele>
<speed>0.13</speed>
<name><![CDATA[Point 113]]></name>
</wpt>
<wpt lat="23.133356" lon="120.306656">
<time>2012-03-20T07:56:30Z</time>
<ele>22.51</ele>
<speed>0.08</speed>
<name><![CDATA[Point 114]]></name>
</wpt>
<rte>
<name>Route</name>
<rtept lat="23.131651" lon="120.320435">
<time>2012-03-20T07:47:00Z</time>
<ele>11.91</ele>
<speed>0.60</speed>
<name><![CDATA[Point 0]]></name>
</rtept>
<rtept lat="23.131647" lon="120.320419">
<time>2012-03-20T07:47:05Z</time>
<ele>13.67</ele>
<speed>0.30</speed>
<name><![CDATA[Point 1]]></name>
</rtept>
<rtept lat="23.131622" lon="120.320427">
<time>2012-03-20T07:47:10Z</time>
<ele>14.14</ele>
<speed>1.74</speed>
<name><![CDATA[Point 2]]></name>
</rtept>
<rtept lat="23.131538" lon="120.320427">
<time>2012-03-20T07:47:15Z</time>
<ele>15.19</ele>
<speed>9.12</speed>
<name><![CDATA[Point 3]]></name>
</rtept>
<rtept lat="23.131369" lon="120.320374">
<time>2012-03-20T07:47:20Z</time>
<ele>17.39</ele>
<speed>15.34</speed>
<name><![CDATA[Point 4]]></name>
</rtept>
<rtept lat="23.131157" lon="120.320313">
<time>2012-03-20T07:47:25Z</time>
<ele>19.84</ele>
<speed>19.41</speed>
<name><![CDATA[Point 5]]></name>
</rtept>
<rtept lat="23.130915" lon="120.320229">
<time>2012-03-20T07:47:30Z</time>
<ele>22.38</ele>
<speed>21.60</speed>
<name><![CDATA[Point 6]]></name>
</rtept>
<rtept lat="23.130642" lon="120.320122">
<time>2012-03-20T07:47:35Z</time>
<ele>23.35</ele>
<speed>22.89</speed>
<name><![CDATA[Point 7]]></name>
</rtept>
<rtept lat="23.130365" lon="120.320015">
<time>2012-03-20T07:47:40Z</time>
<ele>25.19</ele>
<speed>23.68</speed>
<name><![CDATA[Point 8]]></name>
</rtept>
<rtept lat="23.130087" lon="120.319916">
<time>2012-03-20T07:47:45Z</time>
<ele>25.87</ele>
<speed>22.49</speed>
<name><![CDATA[Point 9]]></name>
</rtept>
<rtept lat="23.129810" lon="120.319794">
<time>2012-03-20T07:47:50Z</time>
<ele>27.59</ele>
<speed>24.75</speed>
<name><![CDATA[Point 10]]></name>
</rtept>
<rtept lat="23.129515" lon="120.319687">
<time>2012-03-20T07:47:55Z</time>
<ele>26.80</ele>
<speed>25.08</speed>
<name><![CDATA[Point 11]]></name>
</rtept>
<rtept lat="23.129217" lon="120.319542">
<time>2012-03-20T07:48:00Z</time>
<ele>28.67</ele>
<speed>24.18</speed>
<name><![CDATA[Point 12]]></name>
</rtept>
<rtept lat="23.128937" lon="120.319466">
<time>2012-03-20T07:48:05Z</time>
<ele>29.57</ele>
<speed>22.06</speed>
<name><![CDATA[Point 13]]></name>
</rtept>
<rtept lat="23.128689" lon="120.319336">
<time>2012-03-20T07:48:10Z</time>
<ele>32.56</ele>
<speed>21.58</speed>
<name><![CDATA[Point 14]]></name>
</rtept>
<rtept lat="23.128445" lon="120.319214">
<time>2012-03-20T07:48:15Z</time>
<ele>35.48</ele>
<speed>22.57</speed>
<name><![CDATA[Point 15]]></name>
</rtept>
<rtept lat="23.128145" lon="120.319153">
<time>2012-03-20T07:48:20Z</time>
<ele>32.83</ele>
<speed>23.50</speed>
<name><![CDATA[Point 16]]></name>
</rtept>
<rtept lat="23.127863" lon="120.319046">
<time>2012-03-20T07:48:25Z</time>
<ele>31.02</ele>
<speed>22.06</speed>
<name><![CDATA[Point 17]]></name>
</rtept>
<rtept lat="23.127598" lon="120.318962">
<time>2012-03-20T07:48:30Z</time>
<ele>29.14</ele>
<speed>19.74</speed>
<name><![CDATA[Point 18]]></name>
</rtept>
<rtept lat="23.127359" lon="120.318863">
<time>2012-03-20T07:48:35Z</time>
<ele>28.54</ele>
<speed>20.59</speed>
<name><![CDATA[Point 19]]></name>
</rtept>
<rtept lat="23.127308" lon="120.318588">
<time>2012-03-20T07:48:40Z</time>
<ele>34.97</ele>
<speed>19.66</speed>
<name><![CDATA[Point 20]]></name>
</rtept>
<rtept lat="23.127399" lon="120.318275">
<time>2012-03-20T07:48:45Z</time>
<ele>36.00</ele>
<speed>21.10</speed>
<name><![CDATA[Point 21]]></name>
</rtept>
<rtept lat="23.127476" lon="120.317993">
<time>2012-03-20T07:48:50Z</time>
<ele>36.94</ele>
<speed>19.99</speed>
<name><![CDATA[Point 22]]></name>
</rtept>
<rtept lat="23.127525" lon="120.317688">
<time>2012-03-20T07:48:55Z</time>
<ele>38.66</ele>
<speed>21.31</speed>
<name><![CDATA[Point 23]]></name>
</rtept>
<rtept lat="23.127598" lon="120.317398">
<time>2012-03-20T07:49:00Z</time>
<ele>40.04</ele>
<speed>21.45</speed>
<name><![CDATA[Point 24]]></name>
</rtept>
<rtept lat="23.127705" lon="120.317154">
<time>2012-03-20T07:49:05Z</time>
<ele>41.48</ele>
<speed>18.98</speed>
<name><![CDATA[Point 25]]></name>
</rtept>
<rtept lat="23.127777" lon="120.316879">
<time>2012-03-20T07:49:10Z</time>
<ele>43.62</ele>
<speed>20.78</speed>
<name><![CDATA[Point 26]]></name>
</rtept>
<rtept lat="23.127823" lon="120.316612">
<time>2012-03-20T07:49:15Z</time>
<ele>45.39</ele>
<speed>20.75</speed>
<name><![CDATA[Point 27]]></name>
</rtept>
<rtept lat="23.127897" lon="120.316345">
<time>2012-03-20T07:49:20Z</time>
<ele>47.35</ele>
<speed>19.79</speed>
<name><![CDATA[Point 28]]></name>
</rtept>
<rtept lat="23.127956" lon="120.316086">
<time>2012-03-20T07:49:25Z</time>
<ele>48.77</ele>
<speed>20.69</speed>
<name><![CDATA[Point 29]]></name>
</rtept>
<rtept lat="23.128036" lon="120.315826">
<time>2012-03-20T07:49:30Z</time>
<ele>49.97</ele>
<speed>20.39</speed>
<name><![CDATA[Point 30]]></name>
</rtept>
<rtept lat="23.128113" lon="120.315567">
<time>2012-03-20T07:49:35Z</time>
<ele>49.58</ele>
<speed>19.17</speed>
<name><![CDATA[Point 31]]></name>
</rtept>
<rtept lat="23.128189" lon="120.315323">
<time>2012-03-20T07:49:40Z</time>
<ele>49.98</ele>
<speed>19.95</speed>
<name><![CDATA[Point 32]]></name>
</rtept>
<rtept lat="23.128260" lon="120.315056">
<time>2012-03-20T07:49:45Z</time>
<ele>51.00</ele>
<speed>20.15</speed>
<name><![CDATA[Point 33]]></name>
</rtept>
<rtept lat="23.128321" lon="120.314766">
<time>2012-03-20T07:49:50Z</time>
<ele>50.95</ele>
<speed>19.14</speed>
<name><![CDATA[Point 34]]></name>
</rtept>
<rtept lat="23.128429" lon="120.314484">
<time>2012-03-20T07:49:55Z</time>
<ele>52.51</ele>
<speed>20.35</speed>
<name><![CDATA[Point 35]]></name>
</rtept>
<rtept lat="23.128458" lon="120.314224">
<time>2012-03-20T07:50:00Z</time>
<ele>53.88</ele>
<speed>20.14</speed>
<name><![CDATA[Point 36]]></name>
</rtept>
<rtept lat="23.128485" lon="120.313934">
<time>2012-03-20T07:50:05Z</time>
<ele>54.70</ele>
<speed>19.39</speed>
<name><![CDATA[Point 37]]></name>
</rtept>
<rtept lat="23.128571" lon="120.313683">
<time>2012-03-20T07:50:10Z</time>
<ele>56.23</ele>
<speed>19.88</speed>
<name><![CDATA[Point 38]]></name>
</rtept>
<rtept lat="23.128649" lon="120.313377">
<time>2012-03-20T07:50:15Z</time>
<ele>56.32</ele>
<speed>21.77</speed>
<name><![CDATA[Point 39]]></name>
</rtept>
<rtept lat="23.128738" lon="120.313133">
<time>2012-03-20T07:50:20Z</time>
<ele>56.00</ele>
<speed>20.92</speed>
<name><![CDATA[Point 40]]></name>
</rtept>
<rtept lat="23.128820" lon="120.312874">
<time>2012-03-20T07:50:25Z</time>
<ele>55.23</ele>
<speed>21.33</speed>
<name><![CDATA[Point 41]]></name>
</rtept>
<rtept lat="23.128893" lon="120.312592">
<time>2012-03-20T07:50:30Z</time>
<ele>54.37</ele>
<speed>21.14</speed>
<name><![CDATA[Point 42]]></name>
</rtept>
<rtept lat="23.128975" lon="120.312340">
<time>2012-03-20T07:50:35Z</time>
<ele>53.20</ele>
<speed>20.21</speed>
<name><![CDATA[Point 43]]></name>
</rtept>
<rtept lat="23.129053" lon="120.312080">
<time>2012-03-20T07:50:40Z</time>
<ele>51.19</ele>
<speed>19.74</speed>
<name><![CDATA[Point 44]]></name>
</rtept>
<rtept lat="23.129124" lon="120.311829">
<time>2012-03-20T07:50:45Z</time>
<ele>49.83</ele>
<speed>19.00</speed>
<name><![CDATA[Point 45]]></name>
</rtept>
<rtept lat="23.129179" lon="120.311562">
<time>2012-03-20T07:50:50Z</time>
<ele>49.59</ele>
<speed>18.46</speed>
<name><![CDATA[Point 46]]></name>
</rtept>
<rtept lat="23.129223" lon="120.311310">
<time>2012-03-20T07:50:55Z</time>
<ele>49.68</ele>
<speed>17.30</speed>
<name><![CDATA[Point 47]]></name>
</rtept>
<rtept lat="23.129297" lon="120.311104">
<time>2012-03-20T07:51:00Z</time>
<ele>49.62</ele>
<speed>18.45</speed>
<name><![CDATA[Point 48]]></name>
</rtept>
<rtept lat="23.129358" lon="120.310852">
<time>2012-03-20T07:51:05Z</time>
<ele>49.45</ele>
<speed>18.92</speed>
<name><![CDATA[Point 49]]></name>
</rtept>
<rtept lat="23.129431" lon="120.310608">
<time>2012-03-20T07:51:10Z</time>
<ele>49.46</ele>
<speed>20.21</speed>
<name><![CDATA[Point 50]]></name>
</rtept>
<rtept lat="23.129503" lon="120.310349">
<time>2012-03-20T07:51:15Z</time>
<ele>49.24</ele>
<speed>20.42</speed>
<name><![CDATA[Point 51]]></name>
</rtept>
<rtept lat="23.129591" lon="120.310074">
<time>2012-03-20T07:51:20Z</time>
<ele>48.43</ele>
<speed>20.43</speed>
<name><![CDATA[Point 52]]></name>
</rtept>
<rtept lat="23.129684" lon="120.309837">
<time>2012-03-20T07:51:25Z</time>
<ele>47.62</ele>
<speed>18.38</speed>
<name><![CDATA[Point 53]]></name>
</rtept>
<rtept lat="23.129732" lon="120.309586">
<time>2012-03-20T07:51:30Z</time>
<ele>47.13</ele>
<speed>18.47</speed>
<name><![CDATA[Point 54]]></name>
</rtept>
<rtept lat="23.129841" lon="120.309334">
<time>2012-03-20T07:51:35Z</time>
<ele>39.81</ele>
<speed>18.40</speed>
<name><![CDATA[Point 55]]></name>
</rtept>
<rtept lat="23.129890" lon="120.309082">
<time>2012-03-20T07:51:40Z</time>
<ele>38.42</ele>
<speed>19.09</speed>
<name><![CDATA[Point 56]]></name>
</rtept>
<rtept lat="23.129953" lon="120.308830">
<time>2012-03-20T07:51:45Z</time>
<ele>36.17</ele>
<speed>19.22</speed>
<name><![CDATA[Point 57]]></name>
</rtept>
<rtept lat="23.130032" lon="120.308586">
<time>2012-03-20T07:51:50Z</time>
<ele>32.33</ele>
<speed>17.50</speed>
<name><![CDATA[Point 58]]></name>
</rtept>
<rtept lat="23.130100" lon="120.308357">
<time>2012-03-20T07:51:55Z</time>
<ele>28.97</ele>
<speed>16.30</speed>
<name><![CDATA[Point 59]]></name>
</rtept>
<rtept lat="23.130169" lon="120.308167">
<time>2012-03-20T07:52:00Z</time>
<ele>27.57</ele>
<speed>14.99</speed>
<name><![CDATA[Point 60]]></name>
</rtept>
<rtept lat="23.130222" lon="120.307983">
<time>2012-03-20T07:52:05Z</time>
<ele>26.44</ele>
<speed>13.14</speed>
<name><![CDATA[Point 61]]></name>
</rtept>
<rtept lat="23.130259" lon="120.307800">
<time>2012-03-20T07:52:10Z</time>
<ele>24.44</ele>
<speed>11.91</speed>
<name><![CDATA[Point 62]]></name>
</rtept>
<rtept lat="23.130304" lon="120.307655">
<time>2012-03-20T07:52:15Z</time>
<ele>22.25</ele>
<speed>10.56</speed>
<name><![CDATA[Point 63]]></name>
</rtept>
<rtept lat="23.130356" lon="120.307518">
<time>2012-03-20T07:52:20Z</time>
<ele>21.32</ele>
<speed>11.13</speed>
<name><![CDATA[Point 64]]></name>
</rtept>
<rtept lat="23.130396" lon="120.307365">
<time>2012-03-20T07:52:25Z</time>
<ele>20.88</ele>
<speed>11.74</speed>
<name><![CDATA[Point 65]]></name>
</rtept>
<rtept lat="23.130445" lon="120.307213">
<time>2012-03-20T07:52:30Z</time>
<ele>20.84</ele>
<speed>12.48</speed>
<name><![CDATA[Point 66]]></name>
</rtept>
<rtept lat="23.130497" lon="120.307053">
<time>2012-03-20T07:52:35Z</time>
<ele>20.79</ele>
<speed>12.48</speed>
<name><![CDATA[Point 67]]></name>
</rtept>
<rtept lat="23.130535" lon="120.306877">
<time>2012-03-20T07:52:40Z</time>
<ele>19.39</ele>
<speed>12.70</speed>
<name><![CDATA[Point 68]]></name>
</rtept>
<rtept lat="23.130575" lon="120.306717">
<time>2012-03-20T07:52:45Z</time>
<ele>19.98</ele>
<speed>11.79</speed>
<name><![CDATA[Point 69]]></name>
</rtept>
<rtept lat="23.130615" lon="120.306572">
<time>2012-03-20T07:52:50Z</time>
<ele>20.37</ele>
<speed>12.02</speed>
<name><![CDATA[Point 70]]></name>
</rtept>
<rtept lat="23.130661" lon="120.306419">
<time>2012-03-20T07:52:55Z</time>
<ele>21.42</ele>
<speed>11.59</speed>
<name><![CDATA[Point 71]]></name>
</rtept>
<rtept lat="23.130699" lon="120.306282">
<time>2012-03-20T07:53:00Z</time>
<ele>22.89</ele>
<speed>12.12</speed>
<name><![CDATA[Point 72]]></name>
</rtept>
<rtept lat="23.130737" lon="120.306107">
<time>2012-03-20T07:53:05Z</time>
<ele>25.89</ele>
<speed>15.91</speed>
<name><![CDATA[Point 73]]></name>
</rtept>
<rtept lat="23.130800" lon="120.305870">
<time>2012-03-20T07:53:10Z</time>
<ele>26.07</ele>
<speed>19.69</speed>
<name><![CDATA[Point 74]]></name>
</rtept>
<rtept lat="23.130844" lon="120.305573">
<time>2012-03-20T07:53:15Z</time>
<ele>25.76</ele>
<speed>21.80</speed>
<name><![CDATA[Point 75]]></name>
</rtept>
<rtept lat="23.130873" lon="120.305283">
<time>2012-03-20T07:53:20Z</time>
<ele>26.25</ele>
<speed>23.51</speed>
<name><![CDATA[Point 76]]></name>
</rtept>
<rtept lat="23.130850" lon="120.304970">
<time>2012-03-20T07:53:25Z</time>
<ele>25.16</ele>
<speed>26.48</speed>
<name><![CDATA[Point 77]]></name>
</rtept>
<rtept lat="23.130798" lon="120.304619">
<time>2012-03-20T07:53:30Z</time>
<ele>24.61</ele>
<speed>27.64</speed>
<name><![CDATA[Point 78]]></name>
</rtept>
<rtept lat="23.130743" lon="120.304237">
<time>2012-03-20T07:53:35Z</time>
<ele>25.21</ele>
<speed>29.24</speed>
<name><![CDATA[Point 79]]></name>
</rtept>
<rtept lat="23.130678" lon="120.303848">
<time>2012-03-20T07:53:40Z</time>
<ele>25.51</ele>
<speed>29.15</speed>
<name><![CDATA[Point 80]]></name>
</rtept>
<rtept lat="23.130701" lon="120.303543">
<time>2012-03-20T07:53:45Z</time>
<ele>22.66</ele>
<speed>18.44</speed>
<name><![CDATA[Point 81]]></name>
</rtept>
<rtept lat="23.130821" lon="120.303329">
<time>2012-03-20T07:53:50Z</time>
<ele>24.42</ele>
<speed>24.93</speed>
<name><![CDATA[Point 82]]></name>
</rtept>
<rtept lat="23.130985" lon="120.303246">
<time>2012-03-20T07:53:55Z</time>
<ele>23.72</ele>
<speed>11.24</speed>
<name><![CDATA[Point 83]]></name>
</rtept>
<rtept lat="23.131168" lon="120.303192">
<time>2012-03-20T07:54:00Z</time>
<ele>22.83</ele>
<speed>15.48</speed>
<name><![CDATA[Point 84]]></name>
</rtept>
<rtept lat="23.131363" lon="120.303146">
<time>2012-03-20T07:54:05Z</time>
<ele>22.65</ele>
<speed>16.16</speed>
<name><![CDATA[Point 85]]></name>
</rtept>
<rtept lat="23.131578" lon="120.303093">
<time>2012-03-20T07:54:10Z</time>
<ele>22.97</ele>
<speed>16.36</speed>
<name><![CDATA[Point 86]]></name>
</rtept>
<rtept lat="23.131779" lon="120.303070">
<time>2012-03-20T07:54:15Z</time>
<ele>23.36</ele>
<speed>12.99</speed>
<name><![CDATA[Point 87]]></name>
</rtept>
<rtept lat="23.131954" lon="120.303032">
<time>2012-03-20T07:54:20Z</time>
<ele>23.56</ele>
<speed>13.37</speed>
<name><![CDATA[Point 88]]></name>
</rtept>
<rtept lat="23.132116" lon="120.302994">
<time>2012-03-20T07:54:25Z</time>
<ele>22.82</ele>
<speed>10.53</speed>
<name><![CDATA[Point 89]]></name>
</rtept>
<rtept lat="23.132303" lon="120.302979">
<time>2012-03-20T07:54:30Z</time>
<ele>23.18</ele>
<speed>12.73</speed>
<name><![CDATA[Point 90]]></name>
</rtept>
<rtept lat="23.132502" lon="120.302979">
<time>2012-03-20T07:54:35Z</time>
<ele>22.68</ele>
<speed>15.38</speed>
<name><![CDATA[Point 91]]></name>
</rtept>
<rtept lat="23.132748" lon="120.302963">
<time>2012-03-20T07:54:40Z</time>
<ele>25.60</ele>
<speed>16.54</speed>
<name><![CDATA[Point 92]]></name>
</rtept>
<rtept lat="23.132969" lon="120.302971">
<time>2012-03-20T07:54:45Z</time>
<ele>27.74</ele>
<speed>14.55</speed>
<name><![CDATA[Point 93]]></name>
</rtept>
<rtept lat="23.133068" lon="120.303078">
<time>2012-03-20T07:54:50Z</time>
<ele>27.58</ele>
<speed>12.06</speed>
<name><![CDATA[Point 94]]></name>
</rtept>
<rtept lat="23.133205" lon="120.303345">
<time>2012-03-20T07:54:55Z</time>
<ele>24.81</ele>
<speed>15.56</speed>
<name><![CDATA[Point 95]]></name>
</rtept>
<rtept lat="23.133291" lon="120.303558">
<time>2012-03-20T07:55:00Z</time>
<ele>25.40</ele>
<speed>16.79</speed>
<name><![CDATA[Point 96]]></name>
</rtept>
<rtept lat="23.133329" lon="120.303818">
<time>2012-03-20T07:55:05Z</time>
<ele>26.05</ele>
<speed>16.47</speed>
<name><![CDATA[Point 97]]></name>
</rtept>
<rtept lat="23.133364" lon="120.304070">
<time>2012-03-20T07:55:10Z</time>
<ele>27.17</ele>
<speed>17.68</speed>
<name><![CDATA[Point 98]]></name>
</rtept>
<rtept lat="23.133398" lon="120.304337">
<time>2012-03-20T07:55:15Z</time>
<ele>26.83</ele>
<speed>16.65</speed>
<name><![CDATA[Point 99]]></name>
</rtept>
<rtept lat="23.133444" lon="120.304543">
<time>2012-03-20T07:55:20Z</time>
<ele>28.81</ele>
<speed>17.13</speed>
<name><![CDATA[Point 100]]></name>
</rtept>
<rtept lat="23.133471" lon="120.304787">
<time>2012-03-20T07:55:25Z</time>
<ele>29.58</ele>
<speed>16.45</speed>
<name><![CDATA[Point 101]]></name>
</rtept>
<rtept lat="23.133507" lon="120.305069">
<time>2012-03-20T07:55:30Z</time>
<ele>30.31</ele>
<speed>16.42</speed>
<name><![CDATA[Point 102]]></name>
</rtept>
<rtept lat="23.133530" lon="120.305328">
<time>2012-03-20T07:55:35Z</time>
<ele>30.03</ele>
<speed>14.14</speed>
<name><![CDATA[Point 103]]></name>
</rtept>
<rtept lat="23.133568" lon="120.305580">
<time>2012-03-20T07:55:40Z</time>
<ele>29.81</ele>
<speed>18.56</speed>
<name><![CDATA[Point 104]]></name>
</rtept>
<rtept lat="23.133530" lon="120.305885">
<time>2012-03-20T07:55:45Z</time>
<ele>30.91</ele>
<speed>19.08</speed>
<name><![CDATA[Point 105]]></name>
</rtept>
<rtept lat="23.133461" lon="120.306160">
<time>2012-03-20T07:55:50Z</time>
<ele>28.87</ele>
<speed>15.53</speed>
<name><![CDATA[Point 106]]></name>
</rtept>
<rtept lat="23.133484" lon="120.306343">
<time>2012-03-20T07:55:55Z</time>
<ele>27.48</ele>
<speed>12.36</speed>
<name><![CDATA[Point 107]]></name>
</rtept>
<rtept lat="23.133522" lon="120.306419">
<time>2012-03-20T07:56:00Z</time>
<ele>27.65</ele>
<speed>1.04</speed>
<name><![CDATA[Point 108]]></name>
</rtept>
<rtept lat="23.133474" lon="120.306496">
<time>2012-03-20T07:56:05Z</time>
<ele>26.70</ele>
<speed>3.28</speed>
<name><![CDATA[Point 109]]></name>
</rtept>
<rtept lat="23.133438" lon="120.306564">
<time>2012-03-20T07:56:10Z</time>
<ele>25.81</ele>
<speed>2.82</speed>
<name><![CDATA[Point 110]]></name>
</rtept>
<rtept lat="23.133404" lon="120.306633">
<time>2012-03-20T07:56:15Z</time>
<ele>24.86</ele>
<speed>2.25</speed>
<name><![CDATA[Point 111]]></name>
</rtept>
<rtept lat="23.133404" lon="120.306656">
<time>2012-03-20T07:56:20Z</time>
<ele>24.06</ele>
<speed>1.21</speed>
<name><![CDATA[Point 112]]></name>
</rtept>
<rtept lat="23.133356" lon="120.306656">
<time>2012-03-20T07:56:25Z</time>
<ele>22.64</ele>
<speed>0.13</speed>
<name><![CDATA[Point 113]]></name>
</rtept>
<rtept lat="23.133356" lon="120.306656">
<time>2012-03-20T07:56:30Z</time>
<ele>22.51</ele>
<speed>0.08</speed>
<name><![CDATA[Point 114]]></name>
</rtept>
</rte>
</gpx>
